PROJECT: W75X_2014Feb16
NCH:     4096
BW:   2.50000e+07
VELOCITY:       0.00000
PV:      0.480000
FREQ:    2.2235080e+09
DATE:     2014       2      16
TIME:        9      15      32
POSITION:       309.704      42.6272
INTEGRATION TIMES:       30.0000      30.0000
MAX VALUE:       0.10090078
  1.000000
  0.954833
  0.966266
  0.938447
  0.881125
  0.862618
  0.812414
  0.798321
  0.786398
  0.734004
  0.619032
  0.616979
  0.603641
  0.584403
  0.520815
  0.522972
  0.497433
  0.496610
  0.421568
  0.435576
  0.370789
  0.354415
  0.422611
  0.336289
  0.335638
  0.315637
  0.272828
  0.247078
  0.275828
  0.258205
  0.194751
  0.243642
  0.218876
  0.200372
  0.146410
  0.229727
  0.131322
  0.147550
  0.120788
  0.061262
  0.168870
  0.141854
  0.092305
  0.113556
  0.093675
  0.071612
  0.165962
  0.083595
  0.116079
  0.053283
  0.057648
  0.059968
  0.054419
  0.069922
  0.109174
  0.086094
  0.069647
  0.059784
  0.073568
  0.031720
  0.089768
  0.072684
  0.027087
  0.048915
  0.040017
  0.008337
  0.017291
  0.006794
  0.057813
 -0.005084
  0.020471
  0.038452
  0.003664
 -0.025478
  0.024311
  0.048443
  0.024868
 -0.000915
  0.023836
  0.005798
  0.039597
  0.024059
  0.045422
 -0.026493
 -0.036859
  0.049316
  0.020373
  0.011237
 -0.003135
  0.000836
  0.006715
  0.049727
 -0.027302
  0.030216
  0.030870
 -0.006193
  0.018370
 -0.055717
  0.045522
 -0.009651
 -0.006385
 -0.004505
  0.023645
  0.031528
 -0.040178
  0.040795
  0.037371
  0.017085
 -0.031231
  0.022025
 -0.021593
  0.001753
 -0.038951
 -0.025435
  0.018803
 -0.010737
 -0.020029
  0.029263
 -0.026904
 -0.029964
 -0.007225
  0.030623
  0.049078
  0.013010
 -0.021611
 -0.054435
  0.022578
 -0.001738
  0.018506
  0.064913
 -0.004731
 -0.006984
  0.003544
  0.045115
  0.019286
  0.026804
 -0.008107
 -0.064128
  0.016689
  0.016053
  0.010271
  0.013194
  0.009783
  0.032939
  0.024585
  0.005175
 -0.055164
  0.018326
 -0.041420
  0.022531
 -0.016278
 -0.012177
 -0.002939
  0.045271
  0.019051
  0.025815
  0.006947
  0.009589
  0.026143
  0.068711
  0.004333
 -0.013703
 -0.029482
 -0.015531
  0.008601
  0.016525
 -0.009737
 -0.021552
  0.005398
  0.013110
  0.004562
  0.026734
 -0.061181
 -0.006246
  0.011395
 -0.001469
 -0.025654
 -0.033388
 -0.045497
  0.022721
  0.015512
  0.021729
  0.022649
 -0.034958
 -0.015374
  0.031994
  0.029238
 -0.001325
  0.016369
  0.030412
 -0.032602
 -0.023674
 -0.007155
 -0.010820
  0.016520
 -0.007303
  0.004296
 -0.028315
  0.023435
  0.023549
 -0.019171
  0.002050
  0.029266
 -0.018143
  0.002267
  0.012320
  0.007345
 -0.006279
  0.018410
 -0.032820
  0.030070
  0.021037
 -0.008621
 -0.033659
  0.037092
  0.003674
  0.011186
 -0.035085
  0.021042
 -0.031769
  0.001005
  0.028265
 -0.007169
  0.006985
 -0.016882
 -0.023557
  0.038659
 -0.008050
 -0.020239
 -0.047074
 -0.020480
  0.002546
 -0.012588
 -0.005564
  0.008571
 -0.050795
  0.035754
 -0.008948
 -0.021210
 -0.025124
  0.001706
  0.000105
 -0.011394
 -0.005946
  0.000047
 -0.005593
 -0.068932
  0.005732
 -0.000259
  0.034498
 -0.020299
 -0.009835
  0.011070
 -0.010952
  0.037312
  0.031611
  0.049619
 -0.028337
  0.021698
 -0.026078
 -0.009198
 -0.034086
 -0.037438
 -0.000843
 -0.028987
 -0.008492
 -0.034380
  0.031572
 -0.010015
  0.005038
  0.006059
  0.045636
  0.003757
 -0.006896
  0.016764
 -0.011081
  0.033804
  0.034940
  0.010256
  0.014917
  0.043893
 -0.012175
 -0.025303
  0.023581
  0.005786
  0.031163
  0.047777
  0.005001
 -0.017240
  0.004084
 -0.007377
  0.040569
  0.011850
  0.025598
 -0.031863
 -0.018870
 -0.001422
 -0.044968
  0.029329
 -0.094349
 -0.026751
 -0.032623
  0.005651
  0.003015
  0.015597
 -0.016880
 -0.057175
 -0.012808
 -0.037827
 -0.032122
 -0.017442
 -0.005159
 -0.003744
 -0.020284
 -0.040399
 -0.001097
 -0.019185
 -0.013446
 -0.017384
  0.015197
 -0.021837
  0.046232
 -0.021260
 -0.001719
  0.002505
  0.000579
 -0.006727
  0.025457
  0.029065
  0.022133
 -0.005317
  0.009464
  0.028037
  0.004176
 -0.015516
  0.013773
  0.007629
 -0.005385
 -0.004465
 -0.029298
 -0.037834
 -0.004382
  0.028582
 -0.038161
 -0.004689
  0.006611
 -0.007923
 -0.011843
  0.002846
 -0.022397
 -0.008752
  0.008105
  0.003539
  0.014082
 -0.004332
 -0.025730
  0.003287
  0.004080
 -0.039492
  0.046341
  0.015239
 -0.020915
 -0.056427
  0.006889
 -0.015043
 -0.018649
  0.006439
 -0.011793
 -0.055876
  0.020375
 -0.021809
 -0.016561
  0.045507
 -0.008300
 -0.020797
 -0.003943
  0.022448
  0.027975
 -0.002697
 -0.001266
  0.020344
 -0.027885
  0.003254
 -0.022216
  0.027812
 -0.046797
  0.049671
 -0.019583
 -0.045819
  0.003649
 -0.006547
 -0.003699
  0.007829
 -0.016000
  0.021434
  0.028522
  0.019475
 -0.001534
  0.031437
  0.001853
  0.043853
  0.042760
  0.025807
 -0.048600
 -0.027948
  0.008272
 -0.033255
 -0.037201
  0.049197
  0.036577
  0.013251
  0.012807
 -0.010213
 -0.054512
 -0.013887
 -0.031672
  0.011143
  0.009376
  0.024239
 -0.006921
  0.024611
 -0.012368
 -0.028216
 -0.045131
 -0.026374
 -0.021076
 -0.052673
 -0.023782
  0.001557
  0.006422
 -0.009865
  0.012957
  0.018063
  0.011766
  0.029620
  0.023619
 -0.030873
 -0.010457
 -0.015836
 -0.039290
  0.018682
  0.002755
  0.014573
 -0.004288
  0.026209
  0.016733
 -0.027518
 -0.013337
  0.005870
 -0.004885
 -0.054871
 -0.005601
  0.020419
  0.055057
 -0.046909
  0.004291
 -0.010572
 -0.035837
 -0.029354
  0.001741
 -0.035037
  0.028343
  0.004857
  0.006007
 -0.030029
  0.019200
  0.015989
  0.037457
  0.027493
  0.039755
 -0.045862
  0.017468
  0.055924
 -0.027476
 -0.028084
  0.008905
  0.036216
  0.012181
 -0.001183
  0.010239
  0.004273
  0.010271
 -0.004262
 -0.044571
 -0.038601
  0.010597
  0.008046
  0.017589
  0.026750
  0.012746
  0.020584
 -0.009768
  0.017717
 -0.032233
 -0.013394
 -0.051815
  0.035255
  0.008883
  0.005130
  0.038035
 -0.019397
 -0.026352
  0.006276
  0.045893
 -0.019419
 -0.025605
 -0.045249
  0.006515
 -0.010660
  0.016146
  0.003506
 -0.034201
  0.008155
  0.039140
 -0.008682
 -0.023426
  0.016139
 -0.042185
 -0.017579
 -0.040980
 -0.009451
 -0.024865
 -0.020844
  0.043050
  0.008988
  0.050934
 -0.038254
 -0.024883
 -0.041482
  0.014652
  0.025634
 -0.024849
 -0.026179
 -0.011026
  0.032472
 -0.010639
  0.016522
 -0.037540
  0.006487
 -0.039759
  0.003290
  0.004150
  0.011529
  0.002399
 -0.014355
 -0.015042
  0.000895
  0.020483
 -0.003245
  0.035729
  0.022051
 -0.005900
  0.021842
  0.025970
  0.013591
 -0.015864
  0.009273
 -0.014370
 -0.020238
  0.025568
 -0.008266
 -0.021316
 -0.058563
  0.037842
 -0.037305
  0.023462
 -0.022907
  0.035855
 -0.054640
 -0.019648
  0.016595
 -0.022184
  0.006771
 -0.005325
  0.012417
 -0.009801
  0.065886
  0.031431
 -0.007198
  0.049227
  0.028336
  0.015495
  0.013931
  0.014171
 -0.033855
 -0.043565
 -0.011885
  0.022090
  0.013784
 -0.022834
 -0.012112
  0.028325
 -0.021945
  0.005389
  0.038021
  0.022812
  0.048215
  0.046248
  0.038642
  0.010469
  0.002887
  0.006341
  0.023048
 -0.020232
  0.012291
 -0.015524
  0.007650
 -0.040413
 -0.009743
 -0.046365
 -0.005475
  0.013378
  0.014882
 -0.018498
  0.059440
  0.011450
 -0.001977
  0.000251
  0.043626
  0.018441
 -0.016783
 -0.005184
 -0.017776
 -0.009704
  0.045364
 -0.029942
  0.014069
 -0.011134
  0.002568
  0.030527
  0.037590
  0.007737
  0.011404
  0.003063
  0.050675
  0.015438
 -0.021002
  0.029416
  0.023733
 -0.012527
 -0.008998
  0.026325
  0.032225
  0.023143
  0.022609
 -0.008835
 -0.013163
  0.030385
  0.008442
  0.000499
  0.016441
 -0.016650
  0.004889
 -0.061932
 -0.024905
  0.010064
  0.017256
 -0.019139
  0.057694
  0.056413
  0.004536
  0.032430
 -0.016929
  0.028993
 -0.032010
  0.006567
  0.046253
 -0.042713
  0.001046
 -0.016585
 -0.015286
  0.005176
 -0.014305
  0.030652
 -0.015460
 -0.028141
  0.024316
 -0.041795
 -0.010875
  0.054928
 -0.027961
  0.019975
 -0.020147
 -0.002809
  0.002035
 -0.023114
 -0.033268
  0.008051
  0.004199
 -0.003696
  0.015333
  0.019406
  0.024312
 -0.015027
  0.036932
  0.055681
  0.008725
 -0.002945
  0.036264
  0.026316
  0.009783
 -0.003831
  0.005249
  0.032042
  0.061025
  0.008889
  0.022332
 -0.069931
 -0.032870
 -0.033680
  0.010390
 -0.027452
  0.032145
 -0.003050
 -0.002160
  0.007683
  0.014993
  0.023379
 -0.013001
 -0.005894
  0.007559
  0.025979
 -0.023490
  0.011017
 -0.003917
  0.036346
  0.016708
  0.004756
  0.030855
 -0.001091
  0.013942
  0.014123
 -0.001004
  0.024940
  0.027743
  0.028253
 -0.019682
 -0.028470
 -0.025038
 -0.009508
  0.039739
 -0.003800
 -0.021387
  0.031224
  0.076077
  0.012878
 -0.004325
  0.018044
  0.019868
 -0.045411
 -0.008054
  0.031783
  0.001715
 -0.000933
  0.006268
  0.006031
 -0.014993
  0.021399
 -0.018043
 -0.015070
  0.021483
  0.054318
 -0.017420
  0.046650
  0.027983
  0.003024
  0.012033
 -0.071300
  0.031142
 -0.028686
  0.009671
  0.011467
  0.024365
 -0.002688
 -0.024396
 -0.019769
 -0.009732
 -0.024506
  0.009158
  0.003624
 -0.024271
 -0.027240
  0.035321
 -0.017934
 -0.018940
 -0.021839
  0.059384
  0.028039
  0.031470
  0.047308
 -0.017420
 -0.004243
 -0.023240
 -0.018250
  0.027116
  0.026233
 -0.034806
 -0.028009
 -0.035750
 -0.001634
  0.027870
 -0.009055
 -0.019190
 -0.052011
 -0.033409
  0.019947
 -0.052055
 -0.025966
 -0.029224
 -0.021152
  0.001539
 -0.024167
 -0.023535
 -0.007978
 -0.023700
  0.040292
 -0.003896
  0.011086
  0.023550
 -0.018741
 -0.041289
  0.008632
  0.027251
 -0.008251
  0.009676
 -0.010263
 -0.018223
  0.034374
 -0.010477
 -0.005166
 -0.024085
  0.003239
  0.002430
 -0.037995
 -0.043140
 -0.039119
 -0.025437
 -0.019500
  0.027420
 -0.021075
  0.011825
 -0.013777
 -0.022734
  0.034828
  0.024561
  0.011485
  0.010978
  0.029202
  0.034831
 -0.008133
 -0.023795
 -0.015635
 -0.044816
  0.016748
  0.018774
 -0.015087
  0.011567
 -0.003769
  0.014444
 -0.014497
  0.027184
  0.005709
  0.003133
 -0.036325
  0.033681
 -0.009952
  0.007667
 -0.008539
  0.049525
  0.001451
  0.058538
  0.039538
 -0.001791
  0.002003
 -0.026018
  0.029538
  0.012716
  0.047566
 -0.030426
  0.002136
 -0.015723
 -0.013854
  0.010307
  0.026499
  0.023849
  0.023299
  0.045300
 -0.029405
 -0.015630
  0.018566
 -0.021576
  0.044382
  0.013851
  0.011233
 -0.003618
  0.009159
 -0.034636
  0.024787
  0.011013
  0.014587
  0.032913
 -0.020795
 -0.033946
  0.020484
  0.013755
 -0.011448
 -0.063163
 -0.004398
  0.020395
  0.005071
  0.047172
  0.025234
  0.009801
  0.005465
 -0.020129
 -0.019128
 -0.000727
 -0.014457
 -0.017771
 -0.021173
 -0.021229
 -0.026256
 -0.001670
  0.003907
 -0.050427
 -0.025784
  0.005287
 -0.013300
 -0.004399
 -0.060170
  0.006354
 -0.007303
 -0.050156
  0.033112
  0.030507
 -0.007868
 -0.036318
  0.024835
  0.005909
  0.007889
  0.007852
 -0.050193
  0.050800
 -0.003316
  0.021275
  0.020623
 -0.019296
  0.008681
  0.011674
 -0.001684
  0.006405
  0.026443
 -0.045973
 -0.015055
 -0.010924
 -0.051364
  0.009024
 -0.027001
 -0.016239
 -0.005213
 -0.008760
 -0.020462
  0.025023
 -0.002268
 -0.077219
 -0.033325
 -0.059836
 -0.033892
 -0.003752
 -0.004832
 -0.013400
 -0.006691
  0.006502
  0.049099
 -0.043520
 -0.017337
  0.031549
  0.000610
 -0.010496
  0.015701
 -0.014502
 -0.007737
 -0.050185
  0.017938
 -0.010781
  0.004610
  0.019714
  0.011310
  0.030964
 -0.012138
  0.029970
  0.029684
  0.030537
 -0.001040
  0.018436
  0.003277
 -0.006967
  0.013680
 -0.035047
  0.012436
 -0.030074
 -0.006650
 -0.032854
  0.040056
  0.007164
  0.029159
  0.024318
  0.030672
 -0.014921
  0.032628
 -0.021029
  0.002474
  0.050401
  0.016576
 -0.015835
 -0.037942
  0.046643
 -0.033620
 -0.000558
 -0.021369
  0.011546
 -0.040018
 -0.031155
 -0.035100
  0.020159
  0.000935
  0.010381
  0.017022
  0.002661
  0.028513
 -0.035137
 -0.017144
 -0.009933
 -0.024162
  0.006141
 -0.035668
  0.012194
  0.020884
  0.017004
 -0.014367
  0.007014
  0.004950
  0.035838
 -0.040323
  0.034109
  0.018905
  0.005127
 -0.003372
  0.019060
  0.006770
 -0.007426
  0.021379
 -0.024678
  0.003249
 -0.031036
  0.008300
  0.007985
  0.004791
 -0.032378
  0.041189
  0.003923
 -0.012474
  0.025252
  0.004616
 -0.032854
 -0.011188
 -0.023826
  0.033273
 -0.035299
  0.001650
 -0.014532
  0.014268
  0.022326
  0.028220
 -0.026092
 -0.009889
 -0.001763
  0.036916
  0.003675
  0.027017
 -0.055044
 -0.021854
 -0.009656
 -0.024551
 -0.035247
  0.035928
  0.019367
  0.024452
 -0.016476
 -0.028215
 -0.026743
  0.001087
 -0.027627
 -0.023913
 -0.033434
 -0.021768
 -0.059896
 -0.027298
 -0.006097
 -0.008791
  0.057301
  0.018901
 -0.019849
  0.030123
  0.017114
 -0.010217
 -0.029063
  0.012723
  0.019575
  0.018831
  0.008982
 -0.058303
 -0.057717
 -0.010348
 -0.018966
 -0.019496
 -0.037910
 -0.022541
 -0.031292
 -0.000187
 -0.006913
  0.003675
  0.004076
 -0.012338
  0.006930
  0.016753
  0.026374
  0.044693
 -0.001497
  0.012329
  0.004168
  0.008520
 -0.034334
  0.017935
 -0.011814
  0.028964
 -0.016910
  0.007029
  0.007129
 -0.025956
 -0.007038
  0.024943
  0.010736
  0.060727
  0.017229
 -0.020498
  0.001192
  0.021087
  0.017420
  0.064754
  0.011484
  0.013335
  0.002220
 -0.028000
 -0.005010
 -0.038659
 -0.032685
  0.007525
  0.032321
  0.010291
 -0.010998
 -0.004250
 -0.018235
 -0.004420
 -0.018625
  0.038935
  0.022407
  0.007218
 -0.007900
  0.024643
 -0.012390
 -0.001049
  0.045235
  0.014743
  0.048013
  0.009199
 -0.006664
 -0.016692
  0.032294
 -0.024433
  0.040227
  0.004328
  0.025031
  0.017292
  0.017606
  0.005184
  0.037254
 -0.002260
 -0.016895
  0.021350
  0.042056
  0.033336
  0.003258
 -0.023181
  0.027586
 -0.002207
  0.001680
  0.022284
  0.005184
  0.013322
  0.011284
 -0.016870
 -0.015807
 -0.024243
 -0.016321
 -0.008868
  0.009893
  0.004518
  0.032693
 -0.003035
 -0.001737
  0.005138
  0.001290
  0.000094
  0.017427
  0.012303
  0.017355
  0.014534
  0.013553
  0.021759
 -0.009123
 -0.037192
 -0.006977
 -0.003792
 -0.024866
  0.022195
  0.017289
 -0.005530
 -0.011052
 -0.006409
 -0.021629
 -0.006134
 -0.014558
 -0.020253
 -0.021808
  0.025359
 -0.038406
 -0.021672
  0.037146
 -0.007845
 -0.071544
 -0.034491
  0.000609
 -0.022574
 -0.004250
 -0.007357
 -0.027464
 -0.026705
 -0.032761
  0.027580
  0.007133
 -0.003625
 -0.021328
  0.041293
 -0.067174
 -0.037991
 -0.070091
 -0.031308
  0.021336
  0.075860
 -0.000223
 -0.033041
  0.019922
  0.033110
 -0.018366
 -0.009528
  0.026182
 -0.025880
 -0.005519
 -0.007490
  0.011790
  0.017498
  0.038735
  0.017635
  0.031292
  0.006396
 -0.030880
  0.027741
 -0.003619
 -0.012406
  0.022537
 -0.032096
  0.038950
  0.051986
 -0.018153
  0.018000
  0.038302
  0.000041
 -0.048870
 -0.031594
 -0.031664
 -0.008573
 -0.034504
 -0.026205
 -0.008459
  0.005355
 -0.047214
 -0.019356
 -0.014870
 -0.020010
 -0.016355
 -0.044913
 -0.003272
  0.017382
  0.024595
 -0.011278
 -0.040317
 -0.060719
 -0.002583
 -0.016953
  0.019645
 -0.017733
  0.039757
 -0.007599
  0.007975
 -0.006757
 -0.057439
 -0.037922
  0.014715
 -0.015526
 -0.029886
 -0.013292
  0.008101
  0.013270
  0.011992
 -0.022792
 -0.026238
  0.049109
  0.017445
  0.026568
 -0.022862
  0.004979
 -0.015612
  0.015146
  0.018659
 -0.045375
 -0.034723
  0.034067
 -0.023352
  0.046597
  0.041637
  0.017873
 -0.006162
  0.005981
 -0.062791
 -0.003642
  0.031801
  0.002592
  0.016798
 -0.010481
 -0.008194
  0.022769
 -0.031406
  0.018299
  0.008905
  0.006506
  0.002196
  0.034309
  0.032070
 -0.015319
  0.004924
  0.036802
 -0.007470
 -0.004111
  0.005552
 -0.000364
 -0.002627
 -0.029316
  0.023054
 -0.015808
 -0.023501
  0.027066
  0.009824
 -0.039991
 -0.021794
  0.010866
  0.021989
 -0.015192
  0.004622
 -0.011446
  0.025047
  0.026878
  0.012532
 -0.035705
  0.002898
  0.038531
  0.005267
 -0.004385
 -0.012649
  0.007432
  0.010578
  0.060522
  0.002546
 -0.000810
 -0.019289
 -0.019039
  0.012668
  0.015947
  0.006980
  0.056985
  0.052145
  0.050245
 -0.017824
 -0.029101
  0.019834
  0.034342
  0.012684
 -0.049352
  0.008062
  0.018223
  0.018256
  0.004743
 -0.014741
 -0.007949
  0.022821
 -0.038028
  0.000682
  0.016822
 -0.048682
  0.011002
 -0.008454
 -0.048054
 -0.019054
  0.002439
 -0.015477
 -0.003966
 -0.024781
  0.011986
 -0.002504
  0.012157
 -0.034973
  0.035497
 -0.005482
 -0.006893
 -0.020366
  0.000883
 -0.054355
  0.021757
  0.011503
 -0.003478
  0.008557
 -0.039611
 -0.013629
 -0.021995
  0.028620
  0.035350
  0.012759
 -0.027205
 -0.005067
  0.042016
  0.013350
  0.013376
  0.026261
 -0.004465
 -0.009116
 -0.006520
  0.003499
  0.032958
 -0.079499
  0.015660
 -0.002565
 -0.076249
  0.005236
 -0.018730
  0.028001
 -0.012302
  0.060488
 -0.076215
  0.001892
 -0.027767
  0.007019
  0.006852
 -0.008432
 -0.010952
 -0.026459
  0.046445
  0.007506
 -0.007886
 -0.001058
 -0.003403
  0.004890
 -0.023740
  0.037569
 -0.000879
  0.001447
  0.027779
 -0.017693
 -0.018973
  0.014982
  0.069268
 -0.043814
  0.038710
 -0.026910
  0.016704
  0.003234
 -0.021367
  0.015568
  0.005699
  0.006485
 -0.029651
  0.005129
 -0.005576
 -0.038033
  0.037882
  0.000674
 -0.000479
  0.002901
 -0.013771
 -0.014994
 -0.052974
  0.021938
  0.009754
 -0.029916
  0.000264
 -0.040151
  0.029410
 -0.006284
 -0.013648
  0.020480
  0.021699
  0.019668
 -0.014620
  0.010175
  0.012864
 -0.020162
  0.032798
  0.022043
  0.018264
 -0.002313
  0.023664
  0.059231
 -0.004469
 -0.005439
  0.002923
 -0.071987
  0.026742
 -0.034599
 -0.005592
  0.013829
  0.007501
 -0.052513
 -0.032510
 -0.026033
 -0.031306
 -0.007995
 -0.010709
  0.054068
  0.008483
  0.006729
  0.026621
  0.029776
  0.021678
 -0.015947
  0.023818
  0.010532
  0.064269
  0.003589
 -0.049316
  0.014979
  0.000747
  0.016507
 -0.017832
 -0.008757
  0.005589
  0.018824
 -0.010675
  0.023641
 -0.011955
  0.023561
 -0.033045
  0.000140
  0.028900
  0.024049
  0.041125
 -0.084936
 -0.007466
  0.007109
  0.005536
  0.022261
  0.006659
 -0.032260
  0.005811
  0.013054
 -0.037251
 -0.003649
  0.009707
  0.020618
 -0.019899
  0.023248
 -0.002558
 -0.017817
  0.024835
 -0.028530
 -0.042619
  0.010730
  0.043288
 -0.001852
 -0.006560
 -0.020659
 -0.041250
  0.015448
  0.035336
  0.019311
  0.044722
 -0.020664
 -0.042384
  0.021521
 -0.030859
  0.021145
  0.004977
 -0.032379
 -0.016653
 -0.023827
  0.024269
 -0.022471
 -0.012749
 -0.011902
 -0.012489
 -0.017694
 -0.002929
  0.015532
 -0.034184
 -0.022572
 -0.062708
 -0.056012
  0.040343
 -0.015167
  0.032800
 -0.046908
 -0.007990
  0.032138
 -0.023224
 -0.008654
  0.002519
  0.004912
 -0.000451
 -0.011091
  0.020473
 -0.005135
  0.039916
  0.023574
 -0.008752
 -0.001853
 -0.025089
  0.001618
 -0.033942
 -0.027690
  0.055126
 -0.018167
  0.007212
  0.027933
 -0.011409
 -0.004732
  0.010895
  0.040613
 -0.005165
 -0.018739
  0.000963
 -0.020063
  0.027049
 -0.038892
  0.009823
  0.040519
  0.007447
 -0.037329
  0.030521
  0.005010
  0.036372
  0.049741
  0.002623
  0.013110
 -0.056385
 -0.009680
 -0.012631
  0.002322
  0.034346
  0.044585
  0.001404
 -0.024007
 -0.020994
  0.022024
  0.032121
 -0.013425
  0.023213
 -0.035135
  0.010354
  0.033849
 -0.002437
  0.070065
 -0.033421
 -0.008632
 -0.005918
 -0.020268
  0.002761
  0.012636
 -0.042183
  0.029533
 -0.006122
 -0.016886
  0.012112
 -0.008677
  0.040953
 -0.001085
  0.017067
  0.030513
 -0.018061
  0.035069
 -0.012127
 -0.010351
  0.006786
  0.012200
  0.011132
  0.007488
 -0.005242
 -0.023597
 -0.017543
  0.021172
  0.006813
 -0.002922
 -0.011703
 -0.003314
 -0.014384
  0.011938
  0.000019
 -0.002341
 -0.039053
  0.052022
  0.050831
 -0.016269
 -0.024033
 -0.002832
  0.002844
  0.047778
 -0.007474
 -0.012809
 -0.031209
 -0.067160
 -0.072622
  0.037843
  0.005013
  0.009867
 -0.000604
  0.030133
 -0.035124
  0.007799
 -0.016517
 -0.008762
 -0.023030
  0.000998
  0.012158
 -0.036784
 -0.033561
  0.033375
 -0.018664
  0.013861
  0.007712
  0.016115
 -0.013075
 -0.025314
 -0.010039
 -0.003983
 -0.011013
 -0.022657
 -0.039352
  0.011899
  0.037461
 -0.010990
 -0.023176
  0.029409
  0.033033
  0.047081
  0.070465
  0.041992
  0.115491
  0.078629
  0.096254
  0.145384
  0.086391
  0.108476
  0.124278
  0.056296
  0.111972
  0.068028
  0.062632
  0.047995
  0.033608
  0.059648
  0.047885
  0.051078
  0.023154
  0.071909
  0.019814
  0.054942
  0.015619
  0.019065
  0.055545
  0.028011
  0.040756
  0.042419
  0.060711
  0.036024
 -0.037642
  0.070660
  0.026191
  0.011956
  0.032937
 -0.001469
  0.088306
 -0.004090
  0.001037
  0.032528
  0.038313
  0.026197
 -0.002631
  0.034152
  0.077308
  0.065509
  0.107623
  0.085019
  0.115747
  0.101581
  0.097557
  0.096749
  0.160246
  0.142613
  0.207720
  0.187296
  0.283250
  0.271075
  0.361480
  0.384150
  0.384909
  0.468162
  0.536532
  0.548681
  0.549474
  0.549022
  0.473392
  0.516198
  0.383076
  0.344930
  0.298784
  0.254473
  0.251013
  0.228133
  0.160947
  0.117611
  0.139768
  0.166130
  0.083213
  0.134527
  0.127118
  0.152876
  0.084102
  0.182428
  0.106141
  0.133771
  0.067800
  0.036047
  0.029190
  0.016961
  0.030768
 -0.018701
 -0.002959
  0.003444
  0.003135
  0.013008
  0.009591
  0.001053
  0.022466
  0.016133
 -0.001457
 -0.033118
  0.027707
 -0.004131
  0.028055
 -0.001232
  0.044082
  0.003706
 -0.018815
  0.011897
  0.008357
 -0.015696
  0.028993
  0.007654
 -0.037301
  0.011515
 -0.039160
 -0.024442
  0.053156
 -0.023197
  0.026917
  0.037639
 -0.003008
 -0.003663
 -0.004477
 -0.030322
 -0.016368
 -0.038256
  0.018932
 -0.015994
  0.013623
  0.009051
  0.066518
  0.050649
  0.048460
  0.022640
 -0.008218
 -0.006979
  0.022512
  0.043019
  0.021849
  0.007951
  0.000876
 -0.031402
 -0.020202
 -0.010969
  0.017132
  0.013282
 -0.027102
  0.020047
  0.004244
  0.028219
  0.020754
  0.062704
  0.005910
 -0.015573
 -0.051756
 -0.027542
 -0.004219
 -0.009832
 -0.018560
  0.001176
  0.068307
  0.040987
 -0.021797
 -0.023131
  0.031754
  0.007460
  0.010629
  0.010702
  0.002186
 -0.001335
  0.020435
 -0.042532
  0.016592
  0.058210
 -0.007231
  0.042367
  0.023757
  0.022489
 -0.061493
 -0.031862
  0.016027
  0.028616
  0.008976
 -0.017736
  0.001049
  0.014397
 -0.043409
 -0.039728
 -0.042138
  0.028007
 -0.033713
 -0.009751
  0.004704
  0.000848
 -0.036628
 -0.000519
  0.020638
  0.016343
  0.022377
  0.027322
 -0.035789
  0.028914
 -0.022413
 -0.008330
  0.003574
 -0.023782
  0.025978
 -0.007106
 -0.026634
  0.050341
 -0.003684
  0.009377
  0.002232
 -0.017363
  0.016315
  0.015934
  0.020190
  0.019017
  0.029538
 -0.030274
 -0.017336
 -0.011669
  0.009844
 -0.030152
  0.091197
 -0.027133
 -0.009295
  0.028320
  0.002261
  0.001564
 -0.029166
  0.028863
 -0.013180
 -0.012011
  0.001331
 -0.004781
  0.008066
 -0.014406
 -0.002797
 -0.011869
 -0.017206
 -0.001713
  0.002570
 -0.064123
  0.019514
 -0.020357
 -0.008937
  0.038931
  0.012449
 -0.030437
  0.000160
 -0.024703
  0.010811
 -0.051495
 -0.045006
 -0.011421
  0.016618
  0.001345
 -0.017234
 -0.021784
  0.037223
 -0.018494
  0.021364
  0.020242
  0.011943
  0.039889
 -0.022817
  0.014189
  0.014255
  0.007342
 -0.005889
  0.007797
  0.005761
 -0.004652
 -0.021778
  0.013175
  0.028784
 -0.010903
 -0.022797
  0.020477
 -0.034157
 -0.001288
  0.059554
  0.023156
 -0.018958
  0.020177
  0.006847
  0.017557
  0.009874
 -0.013260
  0.004276
  0.009865
  0.002655
 -0.005106
  0.009271
 -0.005501
 -0.009805
 -0.003959
 -0.025625
 -0.023469
  0.043898
 -0.021898
 -0.013532
  0.000002
 -0.020878
  0.023294
  0.038514
  0.034410
 -0.022549
 -0.030605
  0.061333
 -0.035057
 -0.028838
 -0.027586
 -0.027075
 -0.006397
  0.021394
  0.043686
  0.001281
  0.015078
  0.012405
  0.002103
  0.049274
 -0.011387
 -0.000341
  0.046672
  0.009761
  0.040308
 -0.014944
 -0.058786
 -0.027242
  0.001927
  0.027333
 -0.000433
 -0.002964
 -0.022817
  0.045035
 -0.025312
  0.023527
  0.024393
  0.019369
 -0.000735
  0.022873
 -0.029607
  0.033229
  0.008834
  0.001998
  0.013694
 -0.044986
 -0.040193
 -0.025408
 -0.029865
 -0.031884
 -0.033512
  0.011459
  0.076162
 -0.009281
 -0.012524
  0.018983
  0.026354
 -0.008654
  0.004340
 -0.023315
  0.000519
 -0.014383
  0.011724
 -0.027215
  0.010068
  0.026422
  0.007970
 -0.013347
  0.026503
  0.009364
 -0.046366
 -0.022873
  0.011264
 -0.015907
 -0.023490
  0.036181
 -0.022580
  0.061629
  0.034863
  0.008526
 -0.020081
 -0.039634
  0.007508
  0.004554
  0.015683
 -0.028010
  0.014497
 -0.003417
  0.000442
 -0.035550
 -0.010145
 -0.001212
 -0.012661
  0.000588
 -0.033728
 -0.013115
 -0.008296
  0.035921
  0.006830
  0.025718
 -0.022370
 -0.000525
 -0.040335
  0.016201
 -0.007861
 -0.033855
 -0.017553
 -0.014640
 -0.013158
  0.025698
 -0.030270
 -0.017281
 -0.020164
  0.033815
  0.012160
 -0.054487
 -0.011297
  0.017843
  0.019042
  0.015721
  0.005518
  0.002498
 -0.003365
  0.022010
 -0.022043
 -0.004240
  0.007906
 -0.018204
 -0.008209
 -0.050761
 -0.042063
 -0.006271
 -0.002876
  0.038481
  0.000919
 -0.017605
 -0.002760
  0.005025
 -0.026855
 -0.005699
 -0.027386
 -0.017922
  0.004848
 -0.027713
  0.016885
  0.016759
 -0.010352
 -0.011973
  0.025240
 -0.042966
 -0.009331
 -0.014900
 -0.002421
  0.011652
  0.001926
  0.007052
  0.011488
 -0.012758
 -0.031390
  0.046884
  0.046523
  0.033653
 -0.006961
 -0.000843
  0.005855
  0.013959
  0.029702
  0.057581
 -0.023595
  0.018545
  0.042712
  0.008857
 -0.020407
 -0.000696
 -0.014711
 -0.000640
 -0.016714
  0.031136
  0.014039
 -0.007211
  0.021300
  0.040678
 -0.018955
 -0.026254
  0.006261
 -0.045635
 -0.004575
 -0.026369
 -0.007573
  0.036021
 -0.011789
 -0.018866
  0.027070
  0.030214
 -0.018877
 -0.013390
 -0.042452
  0.021291
  0.052716
 -0.038359
 -0.032179
  0.017007
 -0.009952
 -0.005095
 -0.021337
  0.002701
 -0.007576
 -0.021779
  0.010559
  0.030928
  0.007034
  0.019290
 -0.006394
 -0.023552
  0.005440
  0.008430
 -0.023120
 -0.019751
 -0.004280
  0.011159
  0.035301
  0.044868
 -0.005338
  0.007074
  0.029651
 -0.046910
  0.011945
 -0.015078
 -0.005392
 -0.037917
  0.042345
  0.002598
 -0.029783
 -0.011895
 -0.032124
  0.040009
 -0.000085
 -0.015624
 -0.015559
  0.013169
  0.025071
  0.007225
  0.037369
 -0.019974
  0.009489
  0.034258
  0.014651
  0.000324
 -0.041872
  0.027314
  0.044566
 -0.005013
  0.016397
  0.021921
  0.006427
  0.049522
 -0.019736
 -0.033805
  0.017466
  0.020056
  0.033731
  0.043830
 -0.022595
  0.033671
  0.014054
  0.023004
  0.023597
  0.008095
  0.031893
 -0.009805
 -0.011947
  0.019046
 -0.011735
  0.021466
 -0.014318
  0.007565
 -0.019272
  0.011155
  0.017099
 -0.011756
 -0.072291
 -0.005188
 -0.004004
 -0.013286
 -0.029644
 -0.009053
  0.000262
  0.017576
 -0.005504
  0.006811
 -0.009559
 -0.005086
  0.023978
 -0.000776
  0.018070
  0.021156
  0.024597
 -0.050302
  0.022815
 -0.000924
  0.043943
 -0.009284
  0.016102
 -0.011415
 -0.045293
 -0.013237
  0.045401
  0.007364
  0.004053
 -0.032153
 -0.003612
  0.008903
 -0.059888
 -0.015558
  0.000888
  0.002866
 -0.046752
 -0.011540
 -0.030398
 -0.015122
  0.013052
  0.008969
  0.015956
  0.025676
  0.005848
  0.004631
 -0.053553
 -0.000183
  0.003148
  0.020357
 -0.026738
 -0.010459
 -0.011280
 -0.031439
 -0.021162
 -0.022967
  0.071345
 -0.038784
  0.016513
 -0.019479
  0.028734
 -0.034732
 -0.049314
 -0.032435
  0.019642
 -0.033018
  0.018903
  0.010274
 -0.004029
 -0.025798
 -0.045031
  0.028183
 -0.012097
  0.019202
 -0.032348
 -0.012224
  0.009125
 -0.019541
  0.026800
 -0.000009
 -0.014756
 -0.001653
  0.023003
  0.018647
  0.019036
 -0.015504
 -0.043956
  0.037737
 -0.019414
 -0.019025
 -0.005702
 -0.034997
  0.018498
  0.013701
  0.027155
  0.015952
  0.004649
  0.011325
 -0.014237
 -0.012171
 -0.017106
  0.014706
 -0.038861
 -0.036838
 -0.010751
 -0.014038
 -0.041096
 -0.030408
 -0.036399
  0.013889
  0.036110
  0.003880
 -0.021792
  0.022273
  0.004007
 -0.006865
  0.042400
  0.040773
 -0.015378
  0.008543
 -0.028587
 -0.003457
  0.008156
  0.012382
 -0.026892
 -0.009382
 -0.020845
 -0.001650
  0.035442
 -0.049946
  0.024930
 -0.004961
 -0.029534
 -0.028142
  0.020097
 -0.051407
  0.012065
 -0.007914
 -0.021659
  0.034039
 -0.007383
  0.002126
 -0.011260
 -0.013859
 -0.003344
 -0.004281
  0.027340
 -0.016603
  0.005929
 -0.026338
 -0.010438
 -0.006562
  0.003772
  0.000881
 -0.008820
 -0.002523
 -0.026919
 -0.013603
 -0.032197
  0.008576
  0.007058
  0.046597
 -0.037280
 -0.013646
  0.010526
 -0.014710
 -0.005369
  0.009055
 -0.004452
 -0.033386
  0.001989
  0.018053
 -0.016868
 -0.020924
  0.025539
 -0.040159
  0.013558
 -0.003998
 -0.010461
 -0.023268
  0.022060
 -0.010047
 -0.004247
 -0.025122
  0.039295
 -0.007499
 -0.031089
 -0.018488
  0.066032
 -0.084455
  0.025905
 -0.016210
 -0.022753
 -0.007073
 -0.036228
  0.000594
 -0.030692
 -0.045727
  0.020422
 -0.003941
 -0.008341
  0.009199
  0.003520
  0.032762
  0.035894
 -0.041647
  0.017959
  0.001332
 -0.010011
  0.004853
 -0.013643
 -0.018562
  0.000707
 -0.037847
 -0.002627
 -0.019913
  0.032411
 -0.017601
  0.006790
 -0.000931
 -0.016801
  0.031794
 -0.055737
 -0.023893
  0.046542
  0.038757
 -0.006654
  0.010899
  0.008399
 -0.008696
 -0.000343
 -0.067293
 -0.014895
 -0.026115
  0.001401
  0.011776
  0.042412
 -0.048657
  0.035281
 -0.004926
 -0.011369
  0.020068
  0.018979
  0.010830
  0.030945
  0.025869
  0.015766
 -0.047609
 -0.010739
 -0.020416
  0.058767
 -0.027461
 -0.008642
 -0.005266
  0.062544
 -0.023334
  0.039543
  0.010848
 -0.017650
  0.011269
  0.005909
  0.018260
  0.010788
 -0.016234
 -0.000747
  0.010794
  0.003171
 -0.000857
  0.021226
  0.012524
  0.017894
  0.024822
  0.052384
  0.014006
  0.018244
  0.005558
 -0.005784
  0.018632
  0.038578
 -0.024675
  0.020225
 -0.012313
 -0.013556
 -0.009374
  0.003986
  0.014021
 -0.096936
  0.022444
 -0.008778
  0.009920
 -0.051879
 -0.016134
  0.003631
 -0.014284
  0.003647
 -0.011823
 -0.007255
  0.049898
  0.023956
 -0.008816
  0.021704
 -0.003471
  0.028916
  0.013226
  0.021528
 -0.055365
  0.014389
 -0.031821
 -0.029567
  0.023582
 -0.036251
 -0.015387
 -0.015523
  0.031502
  0.056367
  0.009815
 -0.017445
 -0.048261
 -0.015946
  0.029066
  0.005502
 -0.005571
 -0.008770
  0.057385
  0.025596
  0.006349
 -0.035759
  0.019587
  0.062256
  0.017553
  0.022290
 -0.008781
  0.030474
  0.008870
  0.052824
  0.030761
  0.042165
  0.029611
  0.019044
 -0.065649
  0.031984
  0.061584
 -0.016123
  0.008805
 -0.006957
  0.022143
  0.020862
  0.001537
  0.025621
 -0.004764
 -0.038408
  0.039663
  0.044080
  0.037641
 -0.035816
 -0.050929
  0.033935
 -0.037158
  0.007312
 -0.031617
 -0.009335
 -0.001623
  0.046609
 -0.049302
 -0.005816
 -0.016903
 -0.020083
 -0.003485
 -0.008084
  0.024365
  0.031026
  0.004818
  0.008470
  0.003975
  0.030819
 -0.038161
 -0.028724
  0.000069
  0.002585
  0.001326
 -0.026655
 -0.022519
 -0.003164
 -0.004819
  0.040691
 -0.014230
  0.029229
 -0.005835
 -0.001656
 -0.030694
  0.012242
 -0.013919
 -0.013600
  0.041837
  0.015107
  0.000511
  0.001760
 -0.014171
  0.039489
  0.020698
  0.020940
  0.001902
  0.017586
  0.065494
 -0.012530
  0.059600
 -0.016698
  0.047236
 -0.008613
 -0.022090
 -0.020557
  0.002130
  0.003306
 -0.036774
  0.036966
 -0.019328
 -0.005575
  0.021490
 -0.035290
 -0.001746
 -0.013718
 -0.004768
 -0.000326
  0.056897
  0.029226
  0.001908
 -0.039177
 -0.050489
 -0.014972
  0.016199
 -0.032775
 -0.037367
 -0.007263
  0.029265
 -0.044015
 -0.016173
 -0.002707
 -0.035081
  0.031343
 -0.047335
 -0.047147
  0.058573
  0.036967
  0.003874
  0.024427
 -0.015475
  0.042729
  0.011445
  0.001787
 -0.040236
 -0.024350
 -0.012948
  0.021634
  0.004033
  0.002696
 -0.048005
 -0.021958
 -0.059362
 -0.006445
  0.005848
  0.014147
 -0.000436
 -0.053730
 -0.029914
  0.022412
 -0.009435
 -0.035232
  0.021869
  0.026141
  0.009907
 -0.009152
  0.012287
 -0.029330
  0.049681
  0.026793
  0.029458
  0.020192
  0.008741
  0.018001
 -0.002072
 -0.004311
  0.041800
 -0.010353
  0.018573
  0.022062
  0.021312
 -0.011508
  0.007892
 -0.016596
  0.014842
  0.013168
 -0.001146
 -0.006665
  0.025629
 -0.021031
  0.055990
  0.014443
 -0.014373
 -0.007600
  0.025224
 -0.040866
  0.023637
 -0.015271
  0.002912
  0.006045
 -0.016883
 -0.030229
 -0.006091
  0.065680
  0.002790
  0.032741
 -0.019366
 -0.038934
 -0.009790
 -0.052198
  0.013583
  0.028395
 -0.023132
 -0.000520
 -0.046161
  0.029107
  0.011242
  0.031612
  0.016947
 -0.017815
 -0.001901
  0.061357
 -0.005273
 -0.016682
  0.003386
  0.016074
 -0.016695
 -0.003872
  0.019481
  0.040843
  0.002654
  0.019833
  0.013124
 -0.000854
  0.013973
  0.025004
  0.013294
  0.016802
 -0.000549
 -0.042434
  0.027392
  0.024055
 -0.008531
  0.001920
 -0.023117
  0.009664
  0.032824
 -0.007327
  0.024431
  0.010074
  0.033332
  0.039471
 -0.026583
 -0.000759
 -0.063775
  0.016395
 -0.036458
 -0.020249
 -0.017785
  0.000808
  0.069190
 -0.004729
 -0.028043
  0.019515
  0.000571
 -0.003292
 -0.006783
 -0.017301
 -0.041784
  0.014518
 -0.036757
  0.004391
  0.012899
  0.029021
 -0.009326
 -0.010398
  0.001962
  0.055067
 -0.022154
 -0.004183
 -0.005835
 -0.056273
  0.002958
  0.037707
  0.006081
 -0.004184
  0.013559
  0.007209
  0.066859
 -0.033714
 -0.018482
 -0.035102
 -0.046943
 -0.010544
  0.036221
  0.038491
 -0.022168
 -0.003512
 -0.001728
 -0.001358
  0.026771
  0.005646
 -0.024956
  0.023713
 -0.030132
  0.002539
 -0.001052
 -0.011237
  0.046978
  0.020717
 -0.002186
  0.001752
  0.041872
 -0.048019
 -0.034968
  0.029713
  0.089270
 -0.062038
 -0.010733
  0.075275
 -0.044606
 -0.031576
  0.036689
 -0.023688
  0.026739
  0.036350
  0.043151
 -0.018286
  0.004286
  0.021206
 -0.028363
  0.008078
 -0.049047
 -0.020653
 -0.016084
 -0.022769
 -0.022414
  0.050664
  0.017252
 -0.021912
  0.003688
 -0.019255
  0.016907
 -0.007749
  0.028776
 -0.013915
  0.004056
  0.001546
  0.013907
  0.008014
 -0.040405
  0.010054
 -0.018050
  0.000257
 -0.025807
  0.003932
  0.009061
 -0.003352
  0.012804
  0.003604
 -0.009046
  0.030409
  0.047217
 -0.038944
 -0.004729
  0.023371
  0.034445
  0.022189
 -0.038923
  0.018228
  0.038891
  0.024204
  0.000577
 -0.060222
 -0.022428
  0.029490
  0.038747
  0.031046
 -0.029236
  0.002578
 -0.043708
 -0.016339
 -0.000407
 -0.015099
 -0.064696
 -0.055043
  0.017979
 -0.000064
  0.033568
  0.010742
  0.004386
 -0.062311
 -0.019940
  0.062395
  0.006513
  0.031207
 -0.019083
  0.025415
  0.000610
 -0.009706
  0.016458
 -0.016983
  0.044677
  0.008654
 -0.014489
  0.000088
 -0.018370
 -0.033932
 -0.024242
  0.025964
 -0.025186
 -0.011314
 -0.009138
 -0.031678
 -0.049697
  0.019841
 -0.042550
 -0.014963
 -0.018520
  0.027693
 -0.015649
 -0.019775
 -0.024262
  0.007014
  0.017825
 -0.002873
 -0.051535
 -0.032206
  0.017553
 -0.036662
  0.000410
  0.026119
 -0.000564
 -0.034076
  0.044718
 -0.003610
  0.017868
  0.018144
  0.020393
 -0.015274
 -0.005101
  0.054468
  0.001618
 -0.000553
 -0.036916
 -0.005412
  0.031007
  0.016293
 -0.012084
 -0.003709
 -0.051431
  0.032952
 -0.021073
  0.048383
  0.022667
 -0.036022
 -0.010625
 -0.005284
 -0.040438
 -0.009058
 -0.019484
 -0.005181
  0.009794
  0.035792
 -0.000542
  0.037676
  0.052453
  0.014401
 -0.025675
  0.000796
  0.044500
  0.012072
 -0.035662
 -0.001820
  0.018791
  0.025386
  0.004289
  0.050727
 -0.067111
  0.025513
 -0.029251
 -0.024603
 -0.000045
 -0.026968
 -0.014123
 -0.006291
  0.040711
 -0.024821
  0.012967
 -0.006226
  0.012566
  0.028329
 -0.017685
 -0.018603
  0.026104
 -0.045784
 -0.047451
 -0.005191
  0.005390
 -0.008601
  0.004007
  0.028013
 -0.019778
 -0.001362
  0.052134
 -0.020729
  0.012505
  0.004437
 -0.073463
  0.022952
  0.015541
 -0.003600
  0.031978
 -0.030575
 -0.027254
 -0.019428
 -0.010681
  0.030745
  0.017096
 -0.010089
 -0.022759
  0.014838
 -0.030300
  0.029862
  0.004368
 -0.008235
  0.009822
  0.018232
 -0.011665
  0.026611
  0.004461
  0.020851
 -0.005952
 -0.013598
 -0.026079
  0.046295
  0.002631
  0.027302
 -0.011588
  0.008132
  0.021279
  0.001441
 -0.005985
 -0.004326
  0.011779
 -0.038399
  0.024994
 -0.033053
  0.004365
  0.035873
  0.009840
 -0.034888
  0.004983
  0.027116
  0.033643
 -0.040577
  0.005012
 -0.024244
 -0.010088
 -0.010827
  0.005664
 -0.029208
  0.031043
 -0.008832
  0.037730
 -0.026959
  0.003951
  0.050029
 -0.016954
  0.003860
 -0.038553
  0.011894
  0.007068
 -0.007943
 -0.043422
 -0.034041
 -0.027056
  0.059249
  0.004069
  0.001550
  0.041675
 -0.014343
  0.017466
  0.009530
 -0.003179
  0.016741
 -0.038597
  0.004703
 -0.005257
 -0.039408
  0.047100
 -0.041349
  0.002382
 -0.020561
 -0.024565
 -0.051929
 -0.025910
 -0.006685
 -0.015152
 -0.034587
  0.012993
  0.002889
 -0.078079
 -0.024830
 -0.041112
 -0.004504
 -0.009151
 -0.022923
  0.003228
 -0.025086
 -0.009667
  0.043793
  0.012069
 -0.001108
  0.003808
 -0.020530
 -0.016770
 -0.006680
  0.024217
 -0.002100
  0.055143
  0.030853
  0.005220
 -0.018261
  0.017605
 -0.015028
  0.005857
 -0.032831
  0.030797
  0.001636
  0.049788
  0.000971
 -0.019826
 -0.048894
  0.029734
 -0.008071
 -0.016429
  0.036384
  0.007873
 -0.013711
  0.026009
 -0.028647
 -0.016811
 -0.015384
 -0.044597
 -0.023439
 -0.024623
 -0.001908
 -0.023379
 -0.005957
 -0.036057
  0.009069
 -0.028992
  0.017416
 -0.038651
 -0.000906
  0.007795
 -0.030472
  0.006466
  0.004485
  0.038096
  0.020088
 -0.001209
 -0.023221
 -0.009074
 -0.008126
 -0.009978
 -0.010099
  0.013863
  0.041382
  0.010912
  0.003387
 -0.013270
  0.007880
 -0.018118
 -0.019204
 -0.008051
  0.024356
  0.004049
  0.022955
 -0.007110
  0.010779
 -0.004578
  0.014275
 -0.003217
  0.009478
  0.018271
 -0.010337
  0.009514
 -0.003544
 -0.028330
 -0.025499
 -0.038422
  0.040437
 -0.032874
 -0.005256
  0.052116
 -0.029524
  0.017871
  0.031673
 -0.001874
  0.022098
  0.011827
 -0.006679
 -0.008643
 -0.013089
 -0.006998
  0.004080
  0.019497
 -0.011686
 -0.016304
 -0.018853
 -0.018215
  0.045996
 -0.000189
  0.053287
 -0.041118
  0.017388
  0.035766
  0.031617
 -0.022701
 -0.013074
  0.007176
 -0.034891
  0.016786
 -0.005883
  0.050503
 -0.044207
  0.006004
 -0.007314
  0.009939
 -0.029386
  0.049016
 -0.007240
  0.011032
  0.025992
 -0.005459
  0.021338
 -0.048714
  0.009250
 -0.007908
  0.040034
 -0.041380
 -0.041946
 -0.004980
  0.035131
  0.013305
  0.046908
 -0.030002
 -0.019659
  0.004511
 -0.002839
  0.029761
 -0.029406
 -0.021569
  0.061708
  0.001637
  0.024695
 -0.024671
  0.016699
  0.003097
 -0.066008
  0.012234
  0.014284
 -0.019255
  0.009538
 -0.044759
  0.011768
 -0.047785
 -0.006073
 -0.012433
  0.032245
 -0.056786
  0.020969
  0.027348
 -0.011181
 -0.011592
  0.036855
  0.014411
 -0.008838
  0.015678
 -0.018043
  0.000364
 -0.001952
 -0.004926
  0.042527
 -0.013149
 -0.008737
  0.006123
  0.017674
 -0.002904
 -0.000820
 -0.012198
  0.006888
  0.011559
 -0.019043
 -0.010616
 -0.012066
  0.039382
 -0.014100
  0.004245
  0.003209
  0.013456
  0.000014
  0.020659
 -0.028218
 -0.023433
 -0.001652
 -0.035384
  0.039529
  0.059229
 -0.002809
  0.024704
  0.008108
 -0.007985
 -0.040373
  0.015703
  0.001391
 -0.007057
  0.010260
 -0.050598
 -0.052600
  0.003891
  0.003512
 -0.002105
  0.009759
 -0.000933
 -0.060645
 -0.001781
 -0.025460
  0.012443
  0.005578
  0.004227
  0.045127
 -0.012648
 -0.004500
  0.019882
 -0.039946
 -0.020335
 -0.029011
  0.006111
  0.009298
  0.015985
  0.013260
  0.038695
 -0.001501
 -0.019094
 -0.001329
  0.029169
  0.007718
  0.012539
 -0.052143
  0.004850
  0.033903
  0.005854
  0.012351
 -0.020408
 -0.009533
  0.032335
 -0.025257
  0.004424
  0.050891
 -0.001591
 -0.026862
  0.003445
 -0.052313
  0.027647
  0.010975
  0.005251
 -0.013203
  0.007983
  0.002571
 -0.036981
  0.039300
  0.015604
 -0.009135
 -0.036443
  0.002098
 -0.049654
 -0.019606
  0.056448
 -0.002819
  0.032139
  0.032488
  0.045383
 -0.003800
  0.004712
  0.012250
  0.001629
  0.026646
  0.036136
  0.006342
  0.041444
 -0.039078
  0.046345
  0.010437
  0.043830
  0.011626
  0.002593
 -0.041607
 -0.018838
  0.045264
 -0.017215
  0.014893
  0.024965
 -0.015866
  0.010248
 -0.014001
  0.016011
 -0.065969
  0.031576
 -0.009166
 -0.023145
 -0.011444
  0.011468
 -0.029965
  0.016525
 -0.007075
 -0.021376
  0.007534
  0.063897
 -0.019183
  0.002193
  0.014043
  0.019140
 -0.007104
  0.002747
  0.017243
 -0.020173
 -0.001715
  0.020678
 -0.013453
 -0.040337
  0.011906
  0.001320
  0.010739
 -0.013423
  0.005814
  0.018387
 -0.056563
  0.032942
 -0.058132
 -0.022902
 -0.027210
 -0.020281
 -0.004198
  0.012196
  0.002843
  0.030502
 -0.013520
  0.001654
 -0.065036
 -0.003079
  0.022918
  0.019240
  0.020524
  0.004139
  0.027902
  0.022565
 -0.005533
 -0.028148
  0.028612
 -0.019009
  0.007539
 -0.034061
  0.002843
  0.004913
 -0.000531
 -0.004159
  0.033704
 -0.001743
 -0.019774
  0.048755
  0.039035
 -0.011395
 -0.000667
 -0.018857
  0.007551
 -0.018012
 -0.001964
  0.024929
  0.021055
  0.017288
 -0.021416
  0.004009
  0.017383
  0.044436
 -0.015913
 -0.005353
  0.012577
 -0.023421
  0.006115
  0.040599
  0.004576
 -0.034466
  0.011767
 -0.014629
  0.025624
 -0.007958
  0.041598
  0.093010
 -0.016424
 -0.002053
  0.034791
  0.074324
 -0.020526
 -0.008500
 -0.005484
 -0.021655
  0.010212
 -0.005308
  0.033350
  0.030715
 -0.012944
 -0.026860
 -0.004269
  0.003244
  0.027885
  0.003603
 -0.033363
 -0.031199
 -0.033148
  0.001323
  0.018628
 -0.040488
 -0.009524
  0.004533
  0.026693
 -0.051478
 -0.004527
  0.005642
  0.016601
  0.014879
 -0.025193
  0.037345
 -0.033573
 -0.005562
  0.061989
 -0.019747
  0.018435
 -0.039503
  0.023315
  0.035386
  0.028609
 -0.000092
 -0.021315
  0.004676
 -0.055942
 -0.021634
  0.009068
  0.012882
  0.051936
  0.021547
 -0.012412
 -0.001737
 -0.018772
  0.002220
 -0.022445
  0.003221
  0.011731
  0.019894
 -0.025480
 -0.036055
 -0.014238
 -0.005014
 -0.014120
 -0.021775
 -0.005960
  0.016732
 -0.023855
 -0.101850
  0.032599
  0.060790
 -0.056586
  0.037263
 -0.013005
  0.003966
  0.015187
  0.064543
 -0.001379
  0.009695
 -0.058864
  0.013883
  0.034319
 -0.000035
  0.029602
 -0.034810
  0.019950
  0.012182
 -0.016184
  0.017033
  0.036034
 -0.007076
 -0.048926
 -0.014825
  0.020816
 -0.010732
  0.015109
 -0.011134
  0.001289
 -0.007173
  0.021167
 -0.039295
 -0.007921
  0.013457
  0.009430
  0.025641
 -0.024717
 -0.006824
 -0.009737
 -0.000721
 -0.013989
 -0.025365
  0.026963
 -0.033338
 -0.008861
 -0.006567
 -0.012758
  0.004111
  0.036398
 -0.001726
  0.044308
  0.002256
 -0.016092
  0.016442
  0.001636
 -0.025920
 -0.021333
  0.011101
 -0.058717
 -0.031195
  0.009058
  0.002967
 -0.010553
 -0.044385
  0.011815
  0.024419
 -0.007403
  0.009964
 -0.007729
  0.002340
  0.021716
 -0.007183
  0.013013
  0.029619
  0.022944
  0.017780
  0.046576
  0.056428
 -0.019124
  0.046719
  0.006246
 -0.009723
 -0.023288
 -0.040453
  0.016119
  0.040122
 -0.004337
  0.005184
 -0.006295
  0.000842
  0.009192
  0.029458
  0.029555
  0.023944
 -0.009854
  0.043138
  0.005326
 -0.026451
  0.008199
  0.007286
 -0.062868
 -0.009843
 -0.002431
 -0.013918
  0.000824
 -0.012895
  0.017856
  0.019120
  0.036607
  0.007051
  0.032985
 -0.037823
  0.009942
 -0.006092
 -0.006806
 -0.024131
 -0.010494
 -0.049173
 -0.035212
  0.001207
  0.051847
 -0.034005
  0.039452
 -0.023780
  0.034568
 -0.016042
  0.032916
 -0.002943
  0.041877
 -0.015893
  0.049134
  0.008197
 -0.017845
 -0.007171
 -0.034310
  0.036353
 -0.011825
 -0.002837
  0.050042
  0.003802
  0.026395
 -0.038539
  0.007261
  0.006113
  0.006850
  0.077946
 -0.004580
  0.026301
  0.024577
  0.030690
 -0.002535
 -0.019845
  0.039537
  0.068236
  0.044225
 -0.003909
  0.029386
 -0.036059
 -0.018940
  0.067034
 -0.007191
 -0.034713
 -0.015856
  0.010019
 -0.007144
 -0.009923
  0.033456
  0.012890
  0.002753
  0.037737
  0.028983
  0.021219
  0.012591
 -0.080581
 -0.040480
 -0.016586
 -0.045922
 -0.002960
 -0.019061
 -0.027866
  0.031320
 -0.008209
  0.007220
  0.000470
  0.015833
  0.072045
  0.092725
  0.024008
 -0.008143
 -0.001194
 -0.037789
  0.010976
  0.050179
  0.002309
  0.010737
  0.025393
  0.003083
  0.035852
  0.018332
  0.006959
 -0.002852
 -0.005241
  0.018692
  0.038271
  0.044521
  0.021517
  0.034618
  0.028127
 -0.061106
 -0.001315
  0.045724
  0.069591
  0.009273
  0.023896
  0.023714
 -0.032193
  0.037576
  0.017153
 -0.064330
  0.000401
  0.004357
  0.032975
  0.011173
  0.016031
 -0.005371
 -0.041467
  0.033490
  0.023948
  0.008864
  0.004059
  0.060029
  0.015951
 -0.016289
  0.000414
  0.021430
 -0.028560
 -0.011591
  0.024707
 -0.030197
  0.020687
  0.044116
 -0.022492
  0.024401
  0.024899
 -0.017249
 -0.009863
  0.007709
 -0.010641
  0.034363
  0.008275
  0.052160
  0.002875
  0.050357
  0.016351
  0.034716
  0.049383
  0.002224
  0.035763
 -0.003734
 -0.017246
  0.028420
  0.020109
  0.027068
 -0.009756
  0.036319
  0.057940
  0.010018
 -0.043554
  0.021806
  0.061125
  0.010553
  0.034857
 -0.001844
  0.008536
  0.035332
 -0.042067
 -0.012958
  0.004639
  0.040370
 -0.001736
 -0.012146
  0.028113
  0.025191
  0.074223
 -0.034589
  0.012981
  0.057229
  0.080766
  0.014938
  0.042544
  0.048631
  0.029412
  0.009943
  0.033230
  0.032030
 -0.001984
  0.020002
  0.047008
  0.028303
  0.017207
  0.023010
 -0.003560
  0.058686
  0.013627
  0.081019
  0.006900
  0.020976
  0.011741
  0.015992
  0.024299
  0.072674
 -0.012000
  0.056698
  0.026763
  0.097878
  0.005172
 -0.010845
  0.021809
  0.008468
  0.010086
  0.040576
  0.057381
  0.037826
 -0.000366
  0.063466
  0.008089
  0.062243
  0.021662
  0.030662
  0.051628
  0.024693
  0.054145
  0.023528
  0.034307
  0.034286
  0.011284
  0.003187
  0.066089
  0.021355
  0.074916
 -0.008713
 -0.021023
  0.007341
  0.026411
  0.041478
  0.005094
 -0.009032
  0.041563
  0.012263
  0.045357
  0.069556
  0.061223
  0.038986
  0.063905
  0.012981
  0.064926
  0.023351
  0.035042
  0.019033
  0.068946
  0.018227
  0.075178
  0.047249
  0.005586
  0.036538
 -0.022250
  0.002174
  0.026598
  0.005699
 -0.017569
  0.019016
  0.038056
  0.010547
  0.012910
  0.021872
  0.004049
 -0.014801
 -0.002161
  0.033768
  0.002202
  0.023718
  0.039082
  0.022719
  0.053298
  0.037456
 -0.006009
 -0.001348
 -0.006338
 -0.002094
  0.026789
 -0.009415
  0.046791
  0.030341
  0.040580
 -0.013976
  0.057390
 -0.003925
 -0.024550
  0.011577
  0.020527
  0.017538
  0.014778
  0.003328
  0.013416
 -0.010948
 -0.022702
 -0.024917
  0.005668
  0.010282
 -0.014323
 -0.016001
  0.011411
 -0.037838
 -0.020808
  0.049127
 -0.013845
  0.014395
  0.007226
 -0.004227
 -0.047429
  0.034211
 -0.020524
  0.057574
  0.003877
  0.017691
  0.005184
  0.029752
 -0.009698
  0.004142
 -0.005026
 -0.017545
  0.024735
  0.005335
  0.016850
  0.024436
 -0.043904
  0.000544
  0.032567
 -0.045899
  0.009569
  0.014812
  0.015915
  0.013475
  0.010184
  0.003382
 -0.004744
 -0.022684
 -0.033749
  0.044116
  0.018760
 -0.026160
 -0.060498
  0.020075
 -0.005502
 -0.003261
  0.028493
  0.013287
 -0.024860
  0.023929
  0.003727
 -0.002258
  0.006524
 -0.016947
  0.004147
  0.018465
 -0.002098
  0.053305
 -0.023069
 -0.003914
  0.003543
  0.030198
  0.003831
  0.026949
 -0.012669
  0.009128
  0.018025
 -0.009166
  0.053721
  0.039517
 -0.002712
 -0.008805
 -0.041167
 -0.037942
  0.002251
 -0.014763
 -0.032655
  0.018519
 -0.013251
 -0.029649
  0.014263
 -0.018863
 -0.035459
 -0.022884
 -0.006235
  0.005670
 -0.014708
 -0.000408
 -0.033266
 -0.003815
  0.025457
  0.017158
 -0.025071
  0.007353
  0.016849
 -0.048907
  0.022484
  0.020714
  0.009007
  0.008500
 -0.035853
  0.010838
  0.026001
 -0.019413
 -0.018388
  0.021046
 -0.025837
  0.022688
  0.061787
  0.012803
  0.011413
  0.029616
  0.021387
  0.000490
 -0.047335
  0.013352
  0.006903
 -0.010724
 -0.020195
  0.021957
 -0.016974
  0.018133
 -0.055704
  0.002985
  0.014705
  0.020691
  0.002508
 -0.008552
  0.019483
 -0.003591
 -0.030412
  0.012763
  0.006902
  0.036497
 -0.021085
 -0.033690
 -0.017665
  0.002745
 -0.013724
 -0.030091
 -0.055620
 -0.011817
 -0.029425
  0.011890
  0.026718
 -0.003836
  0.001525
  0.041324
  0.021439
  0.021582
  0.024988
  0.001845
 -0.044349
  0.080103
 -0.020646
  0.008877
 -0.021310
 -0.022443
  0.023566
 -0.019988
  0.018194
 -0.039139
 -0.009570
 -0.008759
 -0.004283
  0.012072
 -0.027017
  0.005949
  0.042044
 -0.031144
  0.021020
 -0.021111
  0.018134
 -0.023190
 -0.011992
 -0.012198
  0.024405
 -0.002223
 -0.016312
 -0.023428
  0.026593
 -0.000334
 -0.016629
  0.027731
 -0.004008
  0.005874
 -0.049589
  0.014832
 -0.000551
 -0.036392
 -0.013702
 -0.038778
  0.028805
 -0.018462
 -0.001588
 -0.001275
  0.000920
 -0.003643
 -0.067188
 -0.034649
 -0.017577
  0.024118
  0.030568
  0.014023
  0.045361
  0.044528
 -0.025211
 -0.043393
  0.005869
  0.019664
  0.016562
  0.045028
 -0.026132
  0.030184
 -0.025421
 -0.002226
 -0.031714
 -0.043556
  0.036121
 -0.001636
 -0.027128
 -0.036887
  0.001018
  0.030062
 -0.008858
  0.031063
 -0.004183
 -0.000068
  0.020108
 -0.001228
  0.035715
 -0.042835
  0.061488
 -0.049194
 -0.021486
  0.011840
 -0.038674
 -0.004796
 -0.020407
  0.026824
 -0.011568
  0.044010
 -0.009432
  0.028412
  0.021772
  0.016990
  0.027046
 -0.009841
  0.025741
 -0.037962
  0.007673
  0.016899
 -0.022354
 -0.000465
  0.029669
  0.000412
 -0.016321
 -0.043226
  0.011098
  0.070414
  0.022030
 -0.001796
 -0.054464
 -0.023452
  0.041126
  0.041871
 -0.010234
  0.023711
  0.060140
  0.008436
 -0.045430
  0.002102
 -0.031448
  0.004804
  0.004110
  0.024873
 -0.034498
 -0.001032
  0.044907
 -0.004132
 -0.029614
  0.023653
  0.017552
 -0.037988
 -0.004873
  0.005002
  0.042781
  0.012697
 -0.015971
 -0.036420
  0.058712
 -0.017118
  0.011457
 -0.041827
  0.004807
 -0.018677
 -0.033408
 -0.009826
 -0.005014
 -0.014658
 -0.015909
 -0.002081
  0.000049
  0.020711
  0.004935
 -0.012347
 -0.007295
 -0.023295
 -0.015526
  0.022755
 -0.031561
 -0.033481
 -0.016839
 -0.008383
 -0.041586
 -0.004164
  0.028172
  0.007260
 -0.035934
 -0.039643
 -0.009036
 -0.011319
 -0.045860
  0.025072
  0.027990
  0.048067
  0.011392
  0.006299
 -0.018578
  0.020198
  0.009162
  0.020538
  0.024390
  0.038374
  0.005613
  0.013967
  0.021945
 -0.025935
 -0.007715
  0.002587
 -0.024139
 -0.003970
  0.004806
  0.060832
 -0.071022
 -0.028416
  0.021281
  0.040605
  0.007416
 -0.011873
  0.026333
 -0.016832
 -0.009610
  0.002329
  0.013563
 -0.009693
  0.031064
 -0.026006
 -0.012560
  0.022748
 -0.021275
  0.012330
  0.019928
 -0.013255
 -0.005107
  0.000103
 -0.004820
 -0.006760
 -0.006200
  0.037537
  0.042550
 -0.004894
 -0.011105
  0.046038
  0.015641
 -0.015287
  0.025240
  0.033045
  0.029856
  0.039609
  0.004207
  0.030894
 -0.003746
  0.026949
  0.029073
 -0.025653
 -0.012040
  0.047812
  0.003162
  0.041707
 -0.011708
  0.001167
  0.008727
 -0.018374
 -0.037883
  0.034489
 -0.000424
  0.005470
  0.016066
 -0.007182
  0.018581
 -0.020643
 -0.003891
 -0.008703
  0.058680
  0.017265
  0.028500
  0.012975
 -0.000492
  0.017955
  0.007090
 -0.020778
  0.031570
 -0.009396
 -0.042244
  0.006209
 -0.004337
 -0.018141
  0.022798
 -0.014391
  0.020600
 -0.042967
 -0.007612
  0.020083
  0.036908
 -0.009488
  0.008825
 -0.075673
 -0.016006
 -0.005359
  0.028364
 -0.030810
  0.020814
 -0.013974
  0.016028
 -0.029202
 -0.026586
  0.023467
 -0.007011
 -0.020292
 -0.002497
  0.022998
 -0.005636
 -0.014554
  0.020822
  0.012639
 -0.021906
  0.043584
  0.026551
 -0.013015
 -0.039879
  0.016479
  0.040676
 -0.029884
  0.028070
 -0.009008
  0.033497
 -0.034949
 -0.044696
  0.029935
 -0.018862
  0.001148
 -0.020499
 -0.009727
 -0.027694
  0.039601
 -0.003493
  0.002974
 -0.002574
 -0.033122
 -0.034577
 -0.035130
  0.026098
  0.010078
 -0.038347
 -0.041523
  0.056225
  0.000907
 -0.038633
 -0.005763
  0.038635
 -0.032602
  0.009489
 -0.061377
  0.039799
  0.013733
 -0.006823
  0.005525
  0.012352
 -0.044374
 -0.002758
  0.008470
  0.007948
 -0.001748
 -0.040250
  0.010363
  0.013070
  0.027655
 -0.013763
  0.020364
  0.026855
 -0.011378
 -0.005857
 -0.035286
  0.015258
 -0.025701
 -0.015445
  0.050369
 -0.007660
 -0.011536
 -0.013060
  0.038147
  0.013387
  0.006245
  0.051061
 -0.069093
 -0.020704
 -0.019107
 -0.015938
 -0.036938
  0.038916
  0.019268
  0.030365
 -0.017874
  0.008660
  0.054368
 -0.032715
 -0.027725
  0.003999
  0.032298
  0.002952
  0.050791
  0.005906
  0.045723
 -0.035177
 -0.006955
  0.019633
  0.024042
  0.027532
  0.017060
 -0.000207
 -0.045436
 -0.004704
 -0.007642
  0.001631
 -0.009874
 -0.015799
 -0.040804
 -0.013875
 -0.047439
 -0.008292
  0.028326
  0.024865
 -0.008492
  0.011601
 -0.005059
 -0.016939
 -0.011457
  0.005914
  0.003668
 -0.028238
 -0.052069
  0.031474
 -0.030101
 -0.030412
 -0.036534
 -0.063062
 -0.016379
  0.024816
 -0.027161
  0.010912
  0.020056
 -0.011421
  0.000498
 -0.028163
  0.040891
  0.060379
  0.006952
  0.027344
  0.012069
 -0.025470
  0.018721
 -0.010152
  0.010662
  0.008657
 -0.012746
 -0.023388
  0.001345
  0.018332
 -0.026930
 -0.016713
 -0.016694
 -0.036338
 -0.027759
 -0.017320
  0.008751
 -0.004049
 -0.012694
  0.003542
 -0.004786
 -0.026475
 -0.036107
  0.014089
  0.006682
 -0.017262
 -0.028675
 -0.042212
  0.039954
  0.011659
  0.019558
  0.037525
 -0.032164
  0.011098
  0.013301
  0.007859
 -0.016784
 -0.022376
 -0.012016
 -0.036839
 -0.027834
  0.012655
 -0.006885
  0.024489
 -0.037295
 -0.030095
  0.003076
  0.020564
 -0.018038
 -0.021062
 -0.008209
  0.065719
 -0.023573
  0.002203
  0.010048
  0.072222
  0.024600
  0.001029
 -0.034387
 -0.002644
 -0.036408
  0.034605
 -0.003939
  0.035221
 -0.009758
 -0.003428
 -0.005191
  0.002792
 -0.003510
 -0.020868
 -0.002135
 -0.000907
  0.039586
  0.010304
  0.008869
  0.023159
 -0.014438
  0.046885
  0.013069
 -0.029353
 -0.004513
 -0.013103
  0.009079
  0.067123
  0.007006
 -0.019733
 -0.006239
  0.036607
 -0.009887
  0.013561
 -0.060576
 -0.004121
 -0.001125
 -0.014873
 -0.015941
 -0.040405
  0.016594
 -0.010028
 -0.005145
 -0.016473
  0.040404
  0.005922
  0.031408
 -0.011363
 -0.018747
  0.040909
 -0.001378
 -0.006555
 -0.007889
  0.031017
 -0.050320
  0.006381
  0.048692
  0.011785
  0.028048
 -0.005301
  0.041028
 -0.014622
 -0.050909
  0.048033
  0.007478
 -0.013616
 -0.015853
  0.019464
  0.001321
  0.012124
 -0.026762
  0.016318
  0.009147
 -0.010609
 -0.023489
 -0.009106
  0.061454
  0.032683
  0.029365
  0.009153
 -0.004072
 -0.032269
 -0.001208
 -0.018403
 -0.007119
  0.018228
  0.001838
 -0.026979
 -0.000833
 -0.016094
 -0.007324
  0.005049
 -0.002062
  0.026131
  0.041573
  0.053443
  0.029578
 -0.028864
  0.016799
 -0.031549
  0.004938
 -0.028968
  0.022297
  0.038961
 -0.059282
 -0.020625
  0.023387
  0.027822
 -0.007993
  0.056204
  0.044962
  0.032718
 -0.011132
  0.013707
 -0.001572
 -0.004725
 -0.025006
 -0.030569
 -0.024486
  0.017977
  0.004570
 -0.032100
 -0.039550
 -0.013217
 -0.031726
  0.029540
  0.009778
  0.013929
 -0.016879
  0.025121
 -0.033302
  0.042203
  0.006242
  0.013292
  0.033425
  0.010411
  0.035804
  0.020408
 -0.017957
  0.025107
 -0.005273
 -0.025259
 -0.008039
  0.003208
  0.045293
 -0.011681
 -0.008201
  0.011072
  0.030961
 -0.010381
 -0.026713
  0.022610
 -0.035349
  0.033402
  0.006626
  0.020099
 -0.015549
 -0.004049
  0.015543
  0.010470
 -0.005531
  0.021112
  0.047241
 -0.007350
 -0.000541
 -0.003958
  0.025638
 -0.070563
 -0.008358
  0.013741
  0.021752
  0.015847
  0.052459
  0.014365
 -0.001492
  0.001737
 -0.007191
 -0.029868
  0.015113
 -0.004948
  0.035169
  0.031220
 -0.007259
 -0.006368
 -0.049384
 -0.022004
 -0.022889
  0.014457
 -0.035417
  0.004725
 -0.013693
 -0.026942
  0.021019
  0.003295
  0.007812
  0.010089
 -0.027301
 -0.011928
  0.001155
  0.016677
  0.025124
 -0.021653
  0.016904
  0.032316
 -0.015372
  0.033502
  0.004063
  0.008537
  0.020232
  0.029789
 -0.019376
  0.000780
 -0.016172
 -0.003932
 -0.032397
  0.005079
 -0.013667
 -0.023587
 -0.055339
  0.041990
  0.016435
  0.008430
  0.006136
  0.027861
 -0.005972
 -0.026002
 -0.055952
 -0.040067
 -0.035463
  0.005117
 -0.047851
  0.010944
 -0.027169
 -0.010186
 -0.002563
  0.008260
 -0.026227
  0.016604
 -0.020389
 -0.004271
 -0.026296
 -0.017505
 -0.018259
 -0.019929
 -0.022382
  0.000470
  0.020611
 -0.009588
  0.011013
  0.002535
  0.022632
  0.006176
  0.003768
 -0.002090
  0.002932
 -0.063257
 -0.003141
 -0.019250
 -0.005689
  0.026144
 -0.024524
  0.037289
 -0.007844
 -0.002198
  0.007691
 -0.001944
 -0.004920
 -0.028186
  0.046932
  0.021126
  0.021725
  0.014720
 -0.005301
 -0.040150
  0.011696
  0.009465
 -0.050296
 -0.051265
 -0.018349
  0.054900
 -0.006668
 -0.019412
 -0.005176
  0.017424
  0.014765
 -0.005596
 -0.013686
 -0.022431
 -0.067724
  0.007988
  0.014401
  0.003227
  0.060283
 -0.009394
  0.038372
  0.017342
 -0.009342
  0.005203
  0.005186
 -0.008173
  0.013525
  0.024503
  0.000117
 -0.017046
 -0.017522
  0.023265
 -0.038933
  0.031989
 -0.003531
  0.018349
 -0.003827
  0.000377
 -0.021567
  0.037106
  0.005058
 -0.005072
  0.049777
 -0.024124
  0.054209
  0.012557
 -0.028247
  0.051430
 -0.007218
 -0.002433
 -0.006846
  0.038905
 -0.017176
 -0.008774
 -0.015745
 -0.033539
 -0.057544
  0.018214
 -0.017664
 -0.001414
  0.054707
  0.031010
  0.021523
 -0.010303
  0.036724
 -0.027395
 -0.045131
 -0.023062
  0.024053
  0.003856
 -0.018686
  0.007147
  0.006295
  0.011674
  0.013074
  0.012430
  0.030653
 -0.039043
 -0.023547
 -0.004329
 -0.009416
 -0.035544
  0.001087
  0.012432
 -0.038874
  0.015387
 -0.034079
 -0.004782
 -0.002531
  0.002762
 -0.032000
  0.007389
  0.009975
  0.005859
  0.028707
 -0.001946
  0.017530
 -0.012552
  0.030300
  0.049398
 -0.020585
  0.000907
  0.010413
 -0.032880
  0.003055
  0.034151
  0.033309
 -0.011180
 -0.004561
 -0.028246
 -0.000491
  0.007663
 -0.035066
 -0.048747
 -0.072088
  0.017741
  0.036239
  0.015222
  0.002136
  0.023024
  0.000447
  0.013440
 -0.001994
  0.042627
 -0.001232
  0.012481
 -0.047829
  0.022336
 -0.007611
  0.036662
 -0.032885
 -0.008003
 -0.046228
  0.020964
 -0.022493
 -0.055307
  0.018974
 -0.063626
  0.013761
 -0.019070
 -0.023981
 -0.009037
  0.014270
  0.051482
 -0.016630
 -0.034658
 -0.000857
 -0.028855
 -0.001977
 -0.016500
 -0.041092
  0.015353
 -0.069325
  0.003180
 -0.024454
  0.015357
 -0.010101
  0.017844
 -0.044437
  0.019203
  0.006761
 -0.007888
  0.030644
 -0.021448
  0.009954
  0.036940
 -0.009159
 -0.018083
  0.004722
 -0.043466
 -0.031454
 -0.031606
 -0.046826
  0.001774
 -0.024050
 -0.012136
  0.053201
  0.013181
 -0.010233
  0.023288
  0.035247
  0.015099
  0.005835
 -0.047334
  0.004792
 -0.013763
  0.009030
  0.008543
 -0.001635
 -0.018897
  0.009846
  0.027741
 -0.050185
  0.012405
 -0.000834
 -0.023350
 -0.037649
 -0.032248
 -0.024748
  0.043827
 -0.016961
 -0.015672
  0.008666
  0.024676
  0.018501
  0.035857
 -0.032689
  0.025665
  0.021783
  0.006229
  0.032378
  0.012317
  0.004608
  0.032043
  0.005169
  0.008630
  0.026664
  0.023152
  0.012551
 -0.056888
  0.013124
 -0.005603
  0.016680
  0.000270
 -0.007719
  0.022556
  0.022911
  0.000236
  0.008418
  0.029096
 -0.004977
  0.015916
  0.023783
  0.011860
 -0.012213
 -0.026151
 -0.013312
 -0.014283
  0.009956
 -0.010041
  0.006865
  0.005501
  0.049608
  0.002791
  0.021718
  0.026717
  0.061069
 -0.033227
 -0.033896
  0.010558
  0.020600
  0.027902
  0.037986
  0.046137
  0.029019
  0.004944
  0.050069
 -0.021591
  0.027867
  0.040214
  0.014448
  0.013613
  0.019880
 -0.004107
  0.070221
 -0.023673
 -0.032106
  0.001383
 -0.030640
  0.017273
 -0.002916
 -0.029771
  0.015719
 -0.035801
 -0.026716
 -0.022609
 -0.021108
 -0.029168
 -0.012636
  0.010419
  0.027024
 -0.007260
 -0.000378
 -0.005792
 -0.065582
 -0.041095
  0.011472
  0.041364
 -0.013334
  0.029446
 -0.012961
  0.011288
  0.001819
 -0.010931
  0.023477
  0.024389
 -0.006449
  0.007015
  0.004183
  0.010267
 -0.036050
 -0.037770
  0.014363
 -0.002663
  0.000150
  0.002258
 -0.038227
  0.050895
  0.006910
  0.024619
 -0.013297
  0.004583
  0.017644
  0.001985
 -0.006555
 -0.035143
 -0.013838
  0.040999
 -0.022148
 -0.006848
  0.008614
 -0.009456
  0.005108
  0.029072
 -0.007442
 -0.020626
  0.010035
 -0.011811
 -0.011688
  0.001866
 -0.033851
 -0.031757
 -0.036342
  0.024717
  0.013388
  0.018678
  0.005976
 -0.036527
 -0.000940
 -0.041444
 -0.007181
  0.000222
  0.034644
 -0.005482
 -0.018866
 -0.012885
  0.016738
 -0.016428
  0.023042
 -0.024056
 -0.009968
 -0.019094
 -0.009478
 -0.012656
 -0.016373
 -0.048084
  0.009334
 -0.048047
 -0.037929
  0.019625
 -0.040179
 -0.005434
  0.016522
 -0.028613
 -0.046516
  0.002224
 -0.023970
 -0.026947
  0.022409
 -0.001343
 -0.046477
 -0.044078
 -0.002637
  0.008726
 -0.026957
 -0.013119
 -0.030189
  0.053703
 -0.032402
 -0.045241
  0.019831
  0.005331
  0.053639
  0.008975
 -0.001808
  0.012031
 -0.043322
 -0.020689
  0.007170
  0.006943
  0.008287
  0.014038
  0.012993
 -0.003593
 -0.058023
  0.013264
  0.022588
 -0.017713
  0.030590
 -0.003124
 -0.022725
 -0.023904
  0.021207
 -0.008236
  0.015565
 -0.026211
 -0.027997
 -0.016758
 -0.033512
  0.022216
  0.046956
  0.031228
 -0.037233
 -0.071777
  0.016002
 -0.019988
  0.005850
 -0.018910
  0.009240
  0.015391
  0.060646
  0.000536
 -0.010682
  0.024798
 -0.034970
  0.028407
 -0.015508
  0.021240
  0.029942
 -0.006063
 -0.000192
  0.048551
  0.005285
  0.015143
  0.034313
  0.026791
 -0.022946
  0.021262
 -0.061311
 -0.017094
  0.035882
 -0.001641
 -0.044617
  0.017675
 -0.015917
 -0.024773
 -0.005625
 -0.049144
  0.004878
 -0.030041
 -0.001644
  0.063550
 -0.001783
  0.031001
  0.014883
 -0.013655
  0.038732
  0.030381
  0.017131
 -0.017269
  0.026217
 -0.028764
  0.042750
 -0.054784
  0.009693
  0.011936
  0.002721
  0.024925
  0.049270
  0.042450
  0.008135
 -0.014587
 -0.005982
 -0.032466
 -0.009165
 -0.022998
  0.026484
  0.000424
  0.026166
  0.005168
  0.020998
  0.027563
 -0.009491
  0.015378
 -0.020872
  0.005748
 -0.005073
  0.021742
  0.068811
 -0.035555
 -0.027355
 -0.011229
 -0.006932
 -0.022743
 -0.006519
  0.010417
 -0.015932
  0.003858
 -0.032309
 -0.029412
  0.052169
  0.013234
  0.061791
 -0.005190
 -0.002474
  0.016816
 -0.015900
  0.000174
  0.044942
 -0.010864
  0.044700
  0.030389
  0.044689
 -0.014360
 -0.007582
  0.003480
  0.022223
 -0.000810
  0.020500
 -0.025660
 -0.012571
 -0.000576
  0.032631
 -0.042054
 -0.014604
  0.019373
  0.022112
 -0.041869
  0.004390
  0.032565
 -0.002093
  0.025815
  0.001590
 -0.012500
  0.002848
 -0.044697
 -0.018244
  0.021242
 -0.030033
  0.024959
  0.026930
  0.024486
  0.019669
  0.000992
  0.018596
 -0.049939
  0.000791
  0.028219
  0.023327
 -0.001581
 -0.001365
 -0.028978
  0.006480
  0.013630
 -0.019204
  0.006327
  0.025214
  0.008062
  0.006596
 -0.031154
  0.009142
  0.010039
 -0.034016
  0.024305
 -0.035123
 -0.037111
  0.016409
 -0.003547
  0.017571
 -0.014220
  0.040469
 -0.011922
  0.046475
 -0.008984
 -0.021875
 -0.009287
 -0.011867
  0.012556
  0.008958
 -0.032288
 -0.000736
 -0.006777
 -0.005620
  0.009287
 -0.003017
 -0.006500
 -0.009773
 -0.009117
  0.030403
  0.001035
  0.061617
  0.039425
  0.014282
 -0.009381
  0.006859
 -0.007286
 -0.054127
  0.029594
 -0.007573
 -0.007621
  0.006544
 -0.005891
  0.017677
 -0.002714
  0.016194
  0.059253
  0.032381
 -0.040260
  0.008599
 -0.018961
 -0.012126
  0.019114
 -0.012719
  0.006445
  0.016685
 -0.002045
  0.009282
  0.009230
 -0.013072
  0.009924
  0.026769
 -0.009621
 -0.012632
  0.026217
  0.034080
  0.037290
  0.016184
 -0.001942
 -0.032398
  0.036771
  0.038814
  0.032190
 -0.051380
  0.054318
  0.045343
 -0.033869
 -0.026126
  0.011355
  0.016994
 -0.013414
  0.028194
 -0.001300
 -0.003371
  0.002222
  0.007112
 -0.029240
  0.042422
  0.002178
  0.024185
 -0.023194
 -0.004738
 -0.032577
  0.002948
 -0.023225
 -0.016616
 -0.014419
  0.035551
 -0.023334
 -0.023865
  0.013976
  0.010643
 -0.011924
  0.061937
 -0.036005
 -0.071375
 -0.029194
  0.046532
 -0.044870
 -0.009768
  0.006261
 -0.005662
 -0.033700
  0.049977
 -0.048760
  0.012960
  0.019068
 -0.030104
 -0.005867
  0.055633
  0.009289
  0.013602
 -0.046486
 -0.019698
  0.020048
  0.002619
  0.002873
 -0.017131
  0.065227
 -0.017448
 -0.027253
 -0.010783
  0.019880
  0.002942
 -0.022219
  0.005612
 -0.042662
 -0.004122
 -0.020212
  0.021114
  0.023606
 -0.040076
  0.017774
  0.030158
 -0.019551
  0.018557
 -0.016921
 -0.006600
  0.001204
 -0.044013
 -0.038405
  0.016608
 -0.024239
  0.035232
 -0.013873
 -0.021301
  0.012947
  0.003208
 -0.049526
  0.040253
  0.036312
 -0.011470
 -0.066125
  0.016702
  0.019669
  0.049290
 -0.031221
 -0.024736
 -0.022647
  0.001752
 -0.020542
  0.010030
  0.041963
  0.005799
 -0.014293
  0.034378
  0.017961
 -0.007472
 -0.019760
 -0.038138
  0.010973
 -0.003525
  0.011515
 -0.014853
 -0.013569
 -0.053919
 -0.027506
 -0.004346
  0.015728
 -0.002639
  0.045848
 -0.026642
  0.009053
 -0.004412
 -0.023316
 -0.034208
  0.033839
  0.043886
  0.069514
  0.002259
 -0.017225
  0.008650
 -0.020413
  0.039735
  0.000043
 -0.016183
 -0.002901
 -0.003442
  0.049229
  0.024424
 -0.032412
 -0.038251
  0.030787
 -0.027221
  0.012696
 -0.007570
  0.005930
 -0.003312
  0.009116
  0.015589
 -0.020380
 -0.020659
  0.037593
  0.019325
 -0.011705
  0.009004
  0.019244
 -0.057681
  0.029594
 -0.000354
  0.032761
 -0.029927
  0.009732
  0.024567
 -0.008607
  0.025478
  0.033245
 -0.020985
 -0.018387
  0.042996
 -0.004476
 -0.015959
 -0.024011
 -0.010231
 -0.003997
 -0.048853
  0.014758
  0.019222
  0.030768
  0.036668
  0.037080
  0.056805
  0.022995
  0.061471
  0.050027
  0.022840
  0.056047
  0.038528
  0.081432
  0.086481
  0.129168
  0.079443
  0.193662
  0.147323
  0.160246
  0.137148
  0.138436
  0.107477
  0.113776
  0.100084
  0.039893
  0.129335
  0.129339
  0.084105
  0.038647
  0.108360
  0.060278
  0.137878
  0.074980
  0.044926
  0.056127
  0.047411
  0.062475
  0.006102
  0.045289
  0.015338
  0.032955
  0.068050
  0.003296
  0.055038
  0.036090
  0.030642
  0.016478
  0.030022
  0.039666
  0.037462
 -0.001289
  0.018775
  0.050403
  0.055078
  0.100956
  0.095840
  0.045481
 -0.008701
  0.075391
  0.073918
  0.086869
  0.121939
  0.181690
  0.158926
  0.204029
  0.203853
  0.238706
  0.288036
  0.325170
  0.381470
  0.391100
  0.466530
  0.514290
  0.609143
  0.683586
  0.697955
  0.716009
  0.763020
  0.697772
  0.636961
  0.547521
  0.446488
  0.453745
  0.330316
  0.263243
  0.278082
  0.195693
  0.168169
  0.129797
  0.097421
  0.192449
  0.192656
  0.157747
  0.182518
  0.186102
  0.145565
  0.142481
  0.131461
  0.097092
  0.054097
  0.070116
  0.067285
  0.012313
 -0.002615
  0.013667
  0.043277
  0.001422
 -0.020685
 -0.064070
 -0.019573
 -0.025880
  0.050436
  0.054363
 -0.030452
  0.011659
 -0.011953
  0.025570
 -0.029952
  0.016489
  0.062345
  0.034760
 -0.008876
  0.030095
 -0.010775
 -0.040604
  0.001784
  0.007916
 -0.010097
  0.008037
 -0.035718
  0.004029
 -0.000685
 -0.063167
 -0.021717
  0.002359
  0.013131
 -0.016834
 -0.001063
 -0.025270
 -0.046043
 -0.002361
 -0.027403
  0.018267
 -0.040717
 -0.016040
  0.013944
 -0.020981
  0.031756
 -0.016594
  0.067290
  0.017307
 -0.048158
 -0.025052
  0.041708
 -0.003904
 -0.026749
  0.003148
  0.003111
 -0.006368
 -0.035377
 -0.034243
  0.002573
  0.025224
  0.033828
  0.049498
  0.003455
  0.032690
 -0.035892
 -0.011761
 -0.018565
  0.004789
  0.047372
 -0.015542
  0.015404
 -0.012138
 -0.005697
  0.002374
 -0.053238
  0.021027
  0.011494
  0.028320
  0.040837
  0.016043
 -0.028170
  0.007352
 -0.033810
  0.010851
 -0.003338
 -0.011931
 -0.000798
  0.012965
 -0.030582
 -0.027181
 -0.017583
  0.005668
 -0.026492
  0.004813
 -0.017086
 -0.002995
  0.012815
  0.009261
  0.041309
 -0.008711
  0.029771
 -0.038214
  0.045146
  0.009823
 -0.035001
  0.014009
  0.038356
  0.011497
  0.025327
 -0.013362
 -0.030951
  0.027423
 -0.042070
  0.003978
  0.003796
 -0.005070
 -0.056541
 -0.022537
  0.007180
 -0.056042
 -0.020300
  0.021832
  0.019241
  0.029387
 -0.011311
 -0.001987
 -0.014412
  0.016311
 -0.023676
  0.027869
 -0.066223
  0.008662
  0.042841
 -0.011022
  0.011796
 -0.013333
 -0.025728
 -0.026747
 -0.004565
 -0.056009
  0.006556
  0.029500
  0.010577
 -0.027282
  0.015413
  0.053365
  0.019357
  0.001913
  0.005536
  0.021358
  0.012703
  0.048103
 -0.010622
  0.021419
  0.005624
 -0.006498
 -0.021429
 -0.023257
 -0.001001
 -0.022557
 -0.026819
  0.019980
  0.014501
  0.033827
  0.026110
  0.042373
  0.002742
 -0.036903
 -0.016231
  0.010274
  0.004756
 -0.000012
  0.018095
  0.025311
  0.035092
  0.021299
 -0.033332
  0.035292
  0.067745
  0.038733
 -0.013840
 -0.009340
 -0.056155
 -0.019005
 -0.005477
 -0.029301
 -0.001277
 -0.018158
 -0.025556
  0.013254
  0.030149
  0.017611
 -0.027525
 -0.020693
  0.014926
  0.036026
  0.020917
 -0.018017
  0.007697
 -0.003646
  0.030107
  0.001948
 -0.019990
 -0.019309
  0.034735
  0.018346
 -0.042391
 -0.011311
 -0.034840
  0.056607
  0.006451
 -0.001074
  0.014810
 -0.036368
 -0.018331
  0.025402
 -0.034233
  0.020673
 -0.005747
 -0.031666
  0.013257
 -0.009022
  0.036962
  0.013680
 -0.032310
 -0.044699
  0.018801
 -0.008739
  0.039352
  0.058556
  0.046518
  0.037561
  0.044904
  0.030447
 -0.015797
  0.018916
  0.062515
  0.010150
  0.012036
  0.075197
  0.027693
  0.021897
  0.037780
  0.020028
 -0.026015
 -0.006494
 -0.040863
  0.033230
  0.005878
  0.052827
  0.001095
  0.001663
 -0.003835
 -0.000689
 -0.049072
 -0.019053
 -0.027885
 -0.009879
 -0.016578
  0.043921
  0.002633
  0.022163
  0.034086
 -0.031439
 -0.037162
 -0.000382
  0.022872
 -0.008792
 -0.009614
  0.043663
 -0.018099
  0.011324
  0.033200
 -0.017935
 -0.003136
 -0.006682
  0.028390
  0.004562
  0.004764
 -0.051014
 -0.011814
  0.049459
 -0.014991
 -0.071937
 -0.001735
 -0.026241
  0.020119
 -0.007724
  0.022126
  0.019943
 -0.007556
  0.037800
  0.053875
 -0.012891
 -0.043368
  0.043993
  0.061267
 -0.009525
  0.027305
 -0.020344
 -0.004052
  0.028851
  0.002691
  0.028991
 -0.017979
  0.011650
  0.005391
 -0.006228
 -0.025097
  0.005199
  0.005723
 -0.017952
 -0.005929
  0.035658
 -0.070598
 -0.017997
 -0.024429
 -0.025715
  0.005131
  0.028492
  0.009442
  0.009405
  0.022838
  0.010798
 -0.061504
 -0.003246
 -0.024533
 -0.027685
  0.023187
 -0.010299
 -0.027725
 -0.074137
 -0.047216
 -0.000356
 -0.007888
  0.017806
 -0.007210
  0.009718
 -0.000583
 -0.037966
  0.004388
  0.018962
  0.013024
  0.012129
  0.016041
  0.004092
 -0.008485
  0.025796
  0.005605
  0.014730
  0.004813
 -0.007191
 -0.057054
 -0.043712
 -0.005531
  0.000862
  0.012837
 -0.007869
  0.017058
  0.019401
  0.063416
  0.019857
  0.015428
 -0.006250
 -0.017714
 -0.019048
 -0.028846
  0.001897
  0.034004
  0.018467
  0.059559
 -0.018700
 -0.013726
  0.027267
  0.057110
  0.044821
 -0.022295
 -0.015957
 -0.010901
  0.041813
 -0.004133
 -0.008133
  0.025142
 -0.015392
  0.016861
  0.018289
  0.033819
  0.007395
 -0.020643
  0.023154
 -0.019495
 -0.020200
  0.009983
  0.008524
 -0.004181
 -0.024340
  0.056259
 -0.010838
  0.012072
  0.002175
 -0.007553
 -0.023251
  0.022426
 -0.018276
 -0.008441
  0.018238
 -0.044107
  0.033035
 -0.050186
 -0.040002
 -0.034908
  0.011101
 -0.067821
 -0.047203
 -0.027019
  0.011599
 -0.015415
  0.004913
 -0.069549
  0.028157
 -0.017913
 -0.017909
 -0.014350
 -0.013058
 -0.017921
 -0.044348
  0.012375
 -0.024724
  0.033008
 -0.026665
 -0.018607
 -0.012283
  0.037677
  0.009935
  0.017426
 -0.047942
 -0.027106
 -0.036402
 -0.017855
 -0.025974
  0.005324
 -0.006946
  0.020196
 -0.014483
 -0.037891
 -0.018271
  0.030948
  0.019991
  0.006361
 -0.017801
  0.055534
 -0.022568
  0.030445
 -0.036345
  0.020640
 -0.016414
 -0.000311
  0.013872
 -0.046553
  0.001812
 -0.018796
 -0.012408
 -0.003712
 -0.019201
  0.005004
 -0.010558
 -0.002109
  0.022805
 -0.024317
 -0.019427
  0.028144
 -0.029569
 -0.027482
  0.053437
  0.048828
  0.070020
  0.012080
 -0.041419
 -0.025452
  0.019015
 -0.018751
 -0.047111
  0.022431
 -0.025105
 -0.000013
  0.007325
 -0.012001
  0.006318
 -0.016611
  0.021284
  0.013777
 -0.051307
  0.002761
 -0.017019
  0.012420
 -0.032702
  0.004399
 -0.031574
  0.015884
 -0.002023
 -0.035076
 -0.027058
  0.031057
  0.029969
 -0.011964
  0.029616
  0.006985
 -0.020070
 -0.017948
  0.001294
 -0.023794
  0.005766
 -0.027358
 -0.036900
 -0.008023
  0.007582
 -0.044580
  0.010347
  0.013793
  0.009921
  0.000390
 -0.044656
 -0.042533
  0.015413
 -0.046223
  0.005053
  0.013393
 -0.027827
  0.009776
  0.018221
  0.041676
  0.031101
 -0.022184
 -0.011336
 -0.038154
 -0.033783
 -0.034095
 -0.007823
 -0.007813
 -0.039625
 -0.029729
 -0.001692
  0.009084
  0.002104
  0.005802
  0.032149
 -0.035205
 -0.022380
 -0.034601
  0.010749
 -0.016338
 -0.008429
  0.048229
  0.009070
  0.010074
 -0.011885
 -0.011124
 -0.041352
 -0.025314
  0.008128
 -0.037307
 -0.015789
 -0.023438
 -0.010003
  0.007174
  0.006539
 -0.053646
  0.050286
  0.017318
  0.002773
  0.010239
 -0.036340
  0.021436
  0.031659
  0.047937
  0.028593
 -0.000783
  0.014502
 -0.013481
  0.035195
 -0.017860
  0.008442
  0.034092
 -0.053227
  0.005610
  0.024749
 -0.022374
  0.035096
 -0.023993
  0.027018
  0.020329
  0.015315
 -0.004852
 -0.016893
 -0.014050
 -0.015968
  0.005131
 -0.021788
  0.009530
 -0.031905
 -0.002057
 -0.046418
  0.001872
  0.010181
  0.012155
  0.011942
  0.015895
 -0.015814
  0.000260
 -0.006727
 -0.012337
  0.018200
  0.042331
  0.041406
  0.002346
  0.009705
  0.006098
  0.003192
  0.044587
 -0.017896
 -0.009975
 -0.024924
 -0.033808
 -0.012808
  0.012108
  0.028692
 -0.061610
  0.001174
 -0.016834
  0.027928
 -0.030033
  0.008217
  0.029306
  0.029989
  0.010519
 -0.032944
  0.034682
 -0.010334
 -0.020454
  0.001537
  0.006779
  0.015698
  0.026942
 -0.026816
  0.019784
  0.027513
  0.012058
  0.042759
 -0.055514
  0.015307
 -0.002698
  0.058383
  0.024590
 -0.029727
 -0.006313
 -0.004876
 -0.021464
 -0.027544
 -0.006548
 -0.029702
 -0.036525
  0.014254
  0.011575
 -0.011091
  0.017997
  0.064894
  0.045885
 -0.005361
 -0.018754
  0.013004
 -0.037009
  0.029540
  0.009033
 -0.025491
 -0.000943
 -0.005127
  0.031089
 -0.032423
 -0.010411
  0.036930
  0.043039
 -0.056681
  0.005825
  0.025463
  0.025308
  0.020866
 -0.049109
 -0.027137
  0.019634
 -0.003164
 -0.039924
 -0.000018
  0.014943
  0.022237
 -0.017714
 -0.031468
  0.026655
  0.066296
 -0.001306
  0.054646
 -0.005056
 -0.003883
  0.026510
 -0.003085
  0.021390
  0.035749
 -0.024310
 -0.035691
 -0.022401
  0.004690
 -0.052245
  0.019002
  0.018302
 -0.002566
  0.013858
 -0.016205
  0.008029
  0.021079
 -0.007281
  0.008959
 -0.021420
 -0.030195
  0.001011
 -0.023368
  0.019988
  0.062728
 -0.006610
 -0.031208
  0.018847
  0.032826
  0.023962
  0.003560
 -0.009344
  0.016642
  0.037032
  0.062765
 -0.059287
  0.038448
 -0.027671
 -0.034774
 -0.000032
 -0.015536
  0.006332
 -0.035392
 -0.009208
 -0.011227
  0.022666
 -0.035799
  0.019195
  0.006493
  0.001563
  0.028761
  0.023046
  0.040054
  0.009914
  0.007841
 -0.013378
  0.029993
  0.032526
 -0.036517
  0.025049
  0.006327
  0.001565
  0.039207
  0.032747
  0.019029
  0.001425
 -0.005265
  0.023400
  0.016733
  0.036765
  0.018938
  0.017350
  0.009773
 -0.027429
  0.000398
 -0.054416
  0.039987
  0.004118
 -0.009469
  0.030931
 -0.035439
 -0.019351
 -0.025677
  0.042193
  0.036781
 -0.038865
 -0.011700
  0.020422
  0.039135
  0.036007
 -0.019197
  0.056010
  0.033912
 -0.034047
 -0.011839
  0.003840
  0.021753
 -0.021681
 -0.025563
  0.002564
 -0.039070
  0.030375
  0.007554
 -0.026450
  0.018517
 -0.039755
  0.025736
 -0.040214
 -0.048201
 -0.029705
 -0.025652
  0.007581
  0.002213
 -0.010128
  0.007073
  0.019227
  0.004374
  0.006888
  0.007959
  0.025596
 -0.012104
 -0.035784
 -0.029917
 -0.018735
 -0.033977
 -0.031776
 -0.001197
 -0.014762
 -0.056215
 -0.040836
 -0.006086
  0.008721
 -0.016500
  0.037779
  0.046502
  0.002639
  0.016316
  0.019329
 -0.004482
  0.029420
 -0.018983
  0.010622
 -0.038474
 -0.003153
 -0.001824
  0.013629
 -0.003632
  0.000963
  0.031179
 -0.026545
 -0.014805
 -0.023000
  0.030560
 -0.025172
  0.015096
  0.009389
 -0.009966
 -0.026404
  0.014310
  0.019040
  0.003030
  0.006735
  0.015375
  0.032074
 -0.017855
  0.009634
  0.002436
  0.019528
  0.018537
 -0.007585
  0.014147
  0.007090
 -0.006293
  0.041896
 -0.001365
 -0.008217
 -0.009738
  0.023544
  0.000860
 -0.023015
 -0.006666
 -0.011810
 -0.012787
 -0.033542
 -0.007730
  0.039366
  0.055472
  0.032315
  0.011672
 -0.001266
  0.014280
  0.005067
 -0.016492
 -0.001307
 -0.056745
  0.012150
 -0.028432
 -0.016208
 -0.017742
  0.003691
 -0.041918
  0.010559
  0.010446
  0.039638
 -0.029469
 -0.010257
 -0.014940
 -0.003678
  0.005165
  0.056799
 -0.044532
 -0.003760
  0.018975
 -0.004860
 -0.009706
  0.007594
 -0.036938
 -0.014139
  0.010501
 -0.012453
 -0.013644
 -0.015192
  0.022880
 -0.029036
  0.010866
 -0.000981
  0.004560
  0.044861
 -0.048448
  0.026263
 -0.058536
 -0.017032
 -0.004342
 -0.011580
  0.001775
  0.002227
 -0.032819
  0.007195
  0.012518
 -0.053288
 -0.030484
  0.041470
 -0.005418
  0.004328
 -0.009092
 -0.013117
  0.002359
 -0.034907
 -0.043264
 -0.016145
  0.008995
 -0.018552
  0.019243
 -0.007328
  0.037528
  0.015317
  0.019761
 -0.006659
  0.009114
 -0.028617
 -0.015506
 -0.015317
 -0.010820
 -0.028701
 -0.012791
 -0.046388
  0.037141
 -0.003550
  0.079502
  0.007638
 -0.000299
  0.032327
 -0.007669
 -0.044511
 -0.008543
 -0.062394
 -0.013988
  0.004312
  0.045942
  0.008304
 -0.038132
  0.033519
 -0.001523
  0.007122
  0.021840
 -0.037874
  0.004519
 -0.000990
 -0.019351
  0.001861
 -0.013545
  0.002474
  0.051990
 -0.045475
 -0.003331
 -0.031242
 -0.038719
 -0.009198
 -0.006757
 -0.027203
  0.001224
 -0.005096
  0.005336
 -0.017909
  0.030185
 -0.022611
 -0.022893
  0.063165
 -0.059672
 -0.017118
 -0.000659
  0.004571
  0.001826
 -0.030712
 -0.013889
 -0.016378
 -0.015416
 -0.006106
  0.007551
 -0.027754
  0.009531
  0.022456
  0.025238
  0.037998
  0.028954
 -0.012272
  0.017189
  0.030561
 -0.025393
 -0.009078
 -0.003687
  0.017562
 -0.025597
  0.042123
  0.025876
 -0.005827
 -0.041210
 -0.026103
  0.067908
 -0.009759
  0.004007
  0.008375
 -0.007572
  0.023431
  0.027290
  0.006325
 -0.000452
  0.010814
  0.051178
 -0.014836
 -0.016637
 -0.018109
  0.009434
  0.027954
 -0.035322
  0.018958
  0.017267
  0.023894
 -0.048191
  0.013353
  0.009762
 -0.005894
 -0.020196
  0.008788
  0.004782
 -0.009828
  0.015408
  0.012924
  0.005073
 -0.007458
  0.011707
  0.031981
  0.039996
 -0.016106
 -0.003235
  0.020871
 -0.028099
 -0.014166
  0.012884
 -0.022810
 -0.024056
  0.022648
  0.015789
  0.001537
 -0.027340
 -0.014064
 -0.011126
 -0.017950
  0.001019
 -0.003988
  0.034505
  0.003171
  0.005847
 -0.020899
  0.022864
 -0.004446
 -0.023927
 -0.066403
 -0.011489
 -0.008960
 -0.030081
  0.032166
  0.000835
 -0.035160
  0.005110
  0.010431
 -0.027802
 -0.002068
  0.000215
 -0.028845
 -0.025351
 -0.043633
  0.033603
  0.001305
  0.044143
  0.035202
  0.020164
 -0.001901
  0.023499
  0.001738
  0.014304
  0.043670
 -0.008783
  0.001078
 -0.005257
  0.023789
  0.015109
  0.011349
  0.026919
  0.009530
 -0.025120
  0.001258
  0.013349
  0.040275
  0.006365
  0.006439
  0.004003
 -0.046161
  0.044818
  0.023727
  0.024827
  0.006324
  0.012619
  0.010889
  0.024868
  0.022009
 -0.008109
  0.017656
 -0.029186
 -0.021325
 -0.010384
  0.010326
 -0.025571
  0.034292
  0.002691
  0.001569
  0.014466
 -0.065893
  0.015110
 -0.001132
  0.025366
 -0.041640
  0.009249
  0.044075
  0.024499
  0.020844
  0.000157
  0.044561
  0.005622
  0.023508
 -0.012208
  0.011187
  0.007675
  0.010127
 -0.001456
 -0.009194
  0.017584
  0.069593
 -0.000659
  0.023845
 -0.001535
  0.021221
  0.063859
  0.011502
  0.045511
 -0.011422
  0.011385
  0.003864
 -0.010463
  0.008556
  0.017162
  0.013327
 -0.025072
 -0.037784
  0.040912
  0.036095
  0.000949
  0.021581
  0.004368
  0.009955
  0.032097
 -0.015819
  0.003833
  0.022008
  0.025463
 -0.003178
 -0.006062
 -0.010904
 -0.017321
 -0.018589
 -0.040589
 -0.020549
 -0.014633
 -0.005860
 -0.012320
 -0.025083
 -0.010244
 -0.020057
  0.015956
 -0.006589
  0.025878
  0.000878
 -0.017700
  0.032752
 -0.029832
 -0.040765
 -0.023840
 -0.019519
  0.004294
  0.020642
 -0.059659
 -0.023981
 -0.012368
 -0.025223
 -0.014517
  0.002046
  0.009938
 -0.002719
 -0.011186
 -0.005158
 -0.031943
  0.015471
 -0.012985
 -0.051325
  0.033773
  0.060744
 -0.022041
 -0.019610
  0.007674
  0.022854
 -0.021492
  0.031053
 -0.042378
  0.001245
 -0.040808
 -0.025597
 -0.005942
 -0.032405
  0.042174
 -0.012156
 -0.049472
 -0.003045
  0.009085
 -0.024571
  0.018164
 -0.024276
 -0.002263
  0.012796
  0.002989
  0.000577
  0.017739
 -0.029712
 -0.020186
  0.032049
 -0.027501
 -0.044431
 -0.039833
 -0.012991
 -0.036170
  0.012803
  0.031368
  0.006558
  0.020889
 -0.002480
  0.008291
 -0.011925
 -0.006894
 -0.054744
  0.028682
  0.004553
 -0.013478
  0.021196
 -0.001580
  0.038276
 -0.011356
 -0.015067
  0.023740
  0.008430
  0.035432
 -0.008477
 -0.034493
  0.006672
 -0.020973
  0.008084
  0.061595
 -0.039850
 -0.021035
 -0.004081
  0.030611
  0.038877
 -0.004178
  0.023468
 -0.018764
  0.027675
  0.045424
  0.018962
 -0.038131
  0.010431
 -0.004181
 -0.007712
 -0.004537
 -0.001022
  0.017465
 -0.046854
  0.039685
 -0.049854
  0.006956
  0.055580
  0.044603
  0.014865
 -0.017461
 -0.013272
  0.037389
  0.032743
  0.006828
  0.024490
 -0.054792
  0.005558
 -0.019759
 -0.019159
 -0.011379
 -0.023653
  0.029742
 -0.038970
 -0.000133
  0.012392
 -0.012854
  0.037214
  0.016313
  0.062455
  0.027014
 -0.049835
 -0.020673
 -0.004071
 -0.000518
  0.012244
 -0.059444
 -0.030649
 -0.041397
  0.038210
  0.041203
  0.013070
  0.023919
  0.038640
  0.002060
 -0.037495
  0.011036
 -0.020390
 -0.008799
  0.024847
  0.008118
 -0.004625
 -0.018509
 -0.024900
 -0.009355
 -0.016045
  0.004710
  0.014308
  0.015255
  0.043670
 -0.019126
  0.024660
  0.032457
 -0.000468
  0.015851
  0.039351
 -0.004285
  0.000247
 -0.009115
 -0.001604
  0.034678
  0.019579
  0.050030
  0.022011
  0.004338
 -0.008224
  0.024595
  0.010996
 -0.021296
 -0.016217
 -0.045181
 -0.015594
 -0.011855
 -0.058426
  0.007115
 -0.001104
  0.028212
  0.004649
  0.026477
 -0.021238
  0.029460
  0.019133
  0.000789
 -0.006274
  0.010315
 -0.030443
 -0.032242
  0.030987
  0.016160
  0.000970
 -0.077965
  0.005421
  0.003333
  0.017483
  0.012730
 -0.014502
  0.006350
  0.000970
 -0.007757
  0.018057
  0.017753
 -0.004648
  0.022854
 -0.035380
 -0.031078
  0.028185
 -0.030894
  0.018383
 -0.008433
  0.018099
 -0.009087
 -0.012915
  0.028053
  0.004185
 -0.057348
 -0.008132
  0.051840
 -0.030551
  0.043499
  0.004914
  0.011551
  0.006715
  0.034529
  0.013427
 -0.008484
 -0.058498
 -0.060151
  0.022482
  0.025500
 -0.035563
  0.022135
 -0.011772
  0.003561
 -0.050936
  0.003376
 -0.022379
 -0.028858
  0.019617
 -0.005217
  0.006718
  0.015526
 -0.011370
 -0.036896
 -0.039638
 -0.010321
  0.026028
  0.046866
  0.030178
  0.015705
 -0.029381
  0.005066
 -0.003069
  0.047958
 -0.039083
 -0.018421
  0.032547
 -0.036324
  0.009103
 -0.007677
 -0.039120
  0.008635
  0.005210
  0.032837
  0.011952
  0.045348
  0.033652
 -0.022749
  0.017040
 -0.009686
 -0.002073
  0.017422
  0.003389
 -0.028609
 -0.001941
 -0.006527
 -0.018446
  0.021546
  0.011270
 -0.008879
  0.029087
  0.025645
  0.017937
  0.000068
 -0.006288
 -0.003202
 -0.033504
  0.000960
 -0.051857
  0.035478
  0.033102
  0.002397
  0.013251
 -0.028024
 -0.029347
 -0.016899
 -0.032370
 -0.017169
  0.008067
  0.027158
 -0.007254
  0.015843
 -0.042464
 -0.047741
  0.028562
 -0.005741
 -0.030870
  0.018465
 -0.008283
  0.021266
 -0.010796
 -0.007976
 -0.016145
  0.049089
  0.020390
  0.003935
  0.054817
  0.006116
 -0.027055
  0.016801
 -0.002033
 -0.010927
 -0.026506
 -0.030538
 -0.017074
 -0.031838
 -0.016148
  0.002318
  0.038889
 -0.005432
  0.012349
  0.064411
 -0.017680
 -0.022197
  0.025912
 -0.008151
 -0.033381
  0.024556
 -0.055181
  0.007444
 -0.007599
  0.021054
  0.000607
  0.049317
 -0.031864
 -0.040252
 -0.002996
  0.027272
  0.012937
  0.028189
  0.016454
  0.021965
 -0.000774
 -0.039684
  0.036971
  0.023994
 -0.002502
  0.017475
  0.000265
 -0.001815
 -0.005302
  0.026026
  0.049458
 -0.028149
  0.011007
  0.022558
  0.043516
  0.010868
  0.008214
  0.042971
  0.026687
 -0.008893
 -0.026488
  0.021028
  0.013260
 -0.002169
  0.016788
 -0.019525
 -0.002760
 -0.042957
  0.011933
  0.022286
  0.013849
  0.007874
  0.006318
  0.002477
 -0.063357
 -0.035114
  0.020487
  0.013969
 -0.015438
  0.045188
 -0.030750
 -0.057283
  0.030947
 -0.031063
 -0.018452
 -0.005226
  0.039204
  0.006046
 -0.035981
 -0.020795
 -0.001508
 -0.002094
 -0.003720
 -0.009580
 -0.022517
  0.039822
 -0.051724
 -0.036195
 -0.005367
  0.022674
 -0.005344
  0.022023
 -0.031141
  0.044700
 -0.001371
  0.015272
 -0.001071
  0.011285
  0.050334
  0.042302
 -0.051042
 -0.007492
 -0.015662
 -0.055287
 -0.006722
 -0.026957
  0.030564
  0.019815
  0.008364
 -0.002915
  0.002208
 -0.027762
 -0.034633
 -0.016952
  0.057424
 -0.038530
  0.019795
 -0.025955
 -0.032380
  0.000633
 -0.001823
  0.000579
 -0.024635
  0.056360
 -0.010206
  0.002356
  0.036437
  0.032921
 -0.046988
  0.019279
  0.002619
 -0.020288
  0.033139
  0.000429
  0.013538
  0.005216
 -0.018497
 -0.064804
  0.019294
  0.013814
 -0.027426
 -0.011765
 -0.000265
 -0.018569
  0.006785
  0.010785
 -0.021938
 -0.049228
  0.019157
 -0.025862
 -0.002125
  0.037359
 -0.009808
 -0.015914
 -0.029151
  0.006514
 -0.016068
  0.012634
  0.004880
  0.019914
 -0.020735
  0.026281
  0.003315
  0.048244
 -0.008408
 -0.016957
  0.008209
 -0.021032
  0.010811
 -0.030547
 -0.009333
 -0.035735
 -0.006902
 -0.016739
 -0.028544
  0.031693
 -0.003375
 -0.007753
 -0.014152
  0.012310
 -0.033485
  0.012767
  0.026028
  0.024584
  0.055966
  0.012151
  0.055863
 -0.015080
  0.001523
  0.000285
 -0.006436
  0.008931
 -0.014414
 -0.051675
 -0.000845
 -0.003555
  0.018064
 -0.032159
 -0.002173
 -0.004166
 -0.014608
 -0.023342
 -0.047552
 -0.017641
  0.003647
  0.012078
 -0.000250
  0.022436
  0.008684
  0.037520
 -0.018719
 -0.034180
  0.027972
 -0.033164
  0.056604
 -0.019281
 -0.026446
 -0.014856
  0.020710
 -0.000368
 -0.015600
 -0.053378
 -0.041427
 -0.011181
 -0.004287
 -0.003443
 -0.015893
  0.017855
  0.023456
 -0.055614
  0.021569
  0.045652
  0.010790
 -0.034277
  0.005918
 -0.020727
 -0.014650
  0.034781
  0.036705
  0.006464
  0.030374
  0.012029
  0.052284
 -0.017518
  0.009777
 -0.027502
 -0.003079
 -0.002874
 -0.002401
  0.015436
 -0.052229
 -0.021183
 -0.001745
  0.025784
  0.041879
  0.006810
 -0.029472
  0.018655
 -0.024689
  0.029335
  0.000675
 -0.016749
 -0.008289
 -0.018937
 -0.032770
 -0.028400
  0.002538
 -0.008942
  0.024612
 -0.013631
 -0.010393
  0.022079
  0.009394
 -0.019561
  0.012501
 -0.021447
 -0.024265
 -0.007861
  0.000114
  0.035573
 -0.008683
  0.037548
  0.035475
 -0.012266
 -0.017852
 -0.026017
  0.007148
 -0.007381
  0.005488
 -0.066762
 -0.029207
 -0.045421
  0.014328
 -0.038357
  0.025245
 -0.012927
 -0.011783
  0.009535
  0.004477
  0.023198
 -0.038714
 -0.007910
  0.032637
 -0.007120
  0.017224
 -0.033199
  0.016288
 -0.014569
  0.030717
  0.052325
  0.055434
  0.053701
  0.011595
  0.021062
  0.015400
 -0.028463
  0.034298
 -0.024630
 -0.003682
 -0.001424
 -0.032409
 -0.004564
 -0.020782
  0.035268
  0.035931
 -0.041089
  0.021323
 -0.023740
 -0.023598
 -0.020148
 -0.017280
 -0.007344
  0.030390
  0.049601
 -0.038719
  0.017611
  0.031458
 -0.046378
 -0.005042
  0.023081
  0.022791
  0.057042
  0.053680
 -0.016354
  0.022045
  0.014848
  0.025264
 -0.035274
 -0.005880
  0.003220
 -0.010615
 -0.039570
 -0.032140
 -0.035111
  0.037658
 -0.009743
  0.005329
 -0.014809
 -0.007544
  0.024572
  0.050218
  0.017456
  0.016242
 -0.004062
 -0.011577
 -0.035043
  0.012361
 -0.031507
  0.003608
 -0.021515
  0.004335
  0.023238
  0.024525
 -0.024526
  0.036836
 -0.016779
  0.013739
 -0.018086
  0.004343
  0.033597
  0.023700
  0.016615
 -0.014611
  0.020855
 -0.043255
 -0.020039
  0.012272
  0.024705
 -0.007717
 -0.032010
 -0.061586
  0.043106
 -0.023261
 -0.019211
  0.038432
  0.025007
 -0.009911
 -0.025666
 -0.027096
  0.007454
 -0.034656
  0.008929
 -0.029587
 -0.001036
 -0.017468
  0.008874
  0.014174
 -0.026723
  0.012337
  0.003935
  0.014220
 -0.005604
 -0.050682
  0.005299
  0.009805
 -0.015690
 -0.000132
 -0.039640
 -0.014528
 -0.017810
 -0.035377
  0.006275
 -0.037171
 -0.000113
  0.012521
  0.001956
 -0.011184
  0.024213
  0.037803
 -0.071373
  0.018570
  0.035999
  0.011182
 -0.015453
  0.010484
  0.031378
  0.020021
  0.008410
 -0.025357
 -0.037376
  0.037530
  0.015705
 -0.027447
 -0.013807
  0.039426
 -0.046077
 -0.008735
  0.007970
 -0.004141
  0.064559
  0.012436
  0.008646
  0.029364
 -0.015903
  0.033943
 -0.020906
  0.012722
  0.031381
  0.011687
 -0.019930
  0.012814
  0.049926
  0.038855
  0.030418
 -0.003099
 -0.019911
  0.014831
 -0.007734
  0.025905
 -0.011814
 -0.040479
  0.007111
  0.025694
  0.012128
 -0.008518
  0.045776
 -0.035578
  0.001697
 -0.027060
 -0.042543
  0.023977
 -0.003386
 -0.025283
  0.022868
  0.035688
 -0.021831
 -0.011052
  0.012670
 -0.008590
 -0.033180
 -0.006990
 -0.024065
  0.011304
  0.000455
 -0.026323
  0.037476
  0.007367
  0.007375
  0.036476
 -0.003139
  0.015627
 -0.027738
 -0.023015
 -0.008802
 -0.021329
 -0.032721
 -0.030336
 -0.014289
  0.021161
 -0.011595
  0.022472
  0.058734
  0.002333
  0.001832
  0.038484
 -0.004723
 -0.021589
 -0.086406
  0.024643
  0.007746
  0.000162
 -0.038437
  0.011402
 -0.003793
 -0.037525
 -0.004642
  0.021637
 -0.018085
  0.015867
 -0.033628
  0.056015
 -0.016555
  0.001472
 -0.019034
 -0.022011
  0.014426
  0.008749
 -0.013866
  0.031233
  0.000260
 -0.023381
 -0.009273
 -0.006385
 -0.006718
 -0.011833
 -0.003143
  0.067060
 -0.004389
  0.010888
 -0.020596
  0.033182
  0.031552
 -0.002257
  0.030183
  0.003677
  0.000205
  0.023113
  0.000150
  0.028067
 -0.017257
  0.026301
  0.020554
  0.023203
 -0.015910
  0.012921
 -0.041583
  0.011337
 -0.016675
 -0.006574
  0.022676
  0.014263
 -0.019087
 -0.009559
 -0.018587
  0.013995
  0.003875
 -0.031448
  0.009153
  0.010010
  0.043258
  0.011323
 -0.004712
 -0.011293
  0.022345
 -0.007567
  0.011722
  0.023968
 -0.010471
  0.026640
 -0.014512
 -0.024151
  0.084913
 -0.001518
  0.007677
  0.011836
 -0.014212
  0.000805
 -0.039569
  0.014945
  0.031862
 -0.012737
 -0.030743
  0.005692
  0.022976
  0.024705
  0.009808
 -0.003689
  0.035919
  0.003422
  0.023889
  0.055574
 -0.005766
 -0.022245
 -0.000969
 -0.007660
 -0.002004
 -0.016671
  0.038560
 -0.007794
  0.013631
  0.027016
  0.028666
  0.031767
  0.038197
  0.006408
  0.024978
  0.005490
  0.010225
 -0.012549
 -0.031001
  0.008528
  0.008060
 -0.025440
  0.069625
  0.072827
  0.013174
  0.001438
 -0.031814
  0.009329
 -0.033561
  0.026515
 -0.014920
  0.000996
  0.007619
 -0.019199
 -0.025203
  0.010600
  0.008592
 -0.011535
  0.029345
  0.027331
 -0.007267
 -0.035168
 -0.013317
  0.061663
  0.004995
 -0.019106
 -0.017785
  0.021590
 -0.029173
  0.029590
 -0.030311
  0.027780
  0.048407
 -0.041082
  0.021149
 -0.062152
 -0.042556
  0.023709
  0.025434
 -0.044089
  0.051048
 -0.014094
  0.001776
  0.033652
  0.001756
 -0.003385
 -0.004693
 -0.030267
  0.033306
 -0.027650
  0.028191
****
