PROJECT: W75X_2013Aug23
NCH:     4096
BW:   2.50000e+07
VELOCITY:       0.00000
PV:      0.480000
FREQ:    2.2235080e+09
DATE:     2013       8      24
TIME:        0      55      29
POSITION:       309.704      42.6272
INTEGRATION TIMES:       30.0000      30.0000
MAX VALUE:      0.012968677
  0.114454
  0.448528
  0.003245
 -0.006889
  0.082691
  0.140705
  0.066446
 -0.190967
 -0.088566
  0.165641
  0.217264
  0.419169
 -0.027995
  0.325852
  0.358859
 -0.214541
  0.224519
  0.012850
  0.067062
 -0.216552
 -0.069398
 -0.148333
  0.281115
  0.001851
  0.023738
  0.053607
 -0.005100
 -0.100288
 -0.235151
 -0.210698
  0.256422
 -0.153744
  0.200131
 -0.322874
 -0.038173
 -0.042272
  0.327220
  0.086173
  0.029700
  0.010064
  0.410807
  0.305473
  0.363257
  0.304337
 -0.231686
 -0.008522
 -0.390334
  0.028087
  0.141978
 -0.069357
  0.009206
 -0.052250
  0.201095
  0.440500
 -0.214095
 -0.227601
 -0.224978
 -0.061206
 -0.027858
 -0.125937
  0.195332
  0.124588
  0.224429
  0.309748
  0.087883
  0.297595
  0.055062
  0.429161
 -0.348681
 -0.205477
  0.209890
 -0.065981
  0.327180
 -0.070181
 -0.211603
 -0.007211
 -0.025526
 -0.049323
  0.152623
 -0.075937
 -0.116184
 -0.042538
  0.276873
  0.098737
  0.104074
  0.043607
  0.045321
 -0.128515
  0.478516
 -0.242017
  0.012716
  0.143969
 -0.090197
  0.099607
  0.308495
 -0.282847
  0.129976
 -0.148540
  0.272056
  0.459325
  0.187880
 -0.282725
 -0.161119
 -0.039921
  0.270620
 -0.109959
  0.205962
  0.096244
  0.048234
  0.059822
 -0.074661
 -0.007886
 -0.082124
  0.279830
 -0.134983
  0.156146
 -0.295071
 -0.104597
 -0.275542
  0.063295
  0.147801
  0.199035
  0.493743
 -0.247858
  0.212380
 -0.249354
 -0.038439
  0.193244
 -0.127851
 -0.023213
  0.016422
  0.202844
 -0.373515
  0.148804
 -0.235063
  0.399088
  0.252993
  0.085249
 -0.119029
 -0.235183
  0.021810
 -0.290731
  0.175918
 -0.205375
 -0.141378
 -0.178585
  0.171841
  0.213452
 -0.236773
 -0.079671
 -0.046944
  0.147998
 -0.364680
 -0.046211
 -0.281499
  0.471398
 -0.025829
 -0.052064
  0.011747
  0.078198
 -0.110773
  0.047468
 -0.332018
 -0.092871
 -0.265425
 -0.219364
 -0.186865
 -0.256118
  0.040116
 -0.060649
 -0.078922
  0.042208
  0.076488
  0.156474
  0.095206
  0.225413
  0.077718
 -0.098304
  0.022296
 -0.100050
 -0.189006
  0.176709
 -0.300867
  0.169975
  0.471248
  0.227223
  0.220752
  0.066294
 -0.150365
  0.050581
  0.128690
 -0.418725
 -0.199345
 -0.462080
  0.022132
  0.137071
 -0.004863
 -0.316659
  0.252546
  0.070435
  0.092855
  0.021183
  0.013502
 -0.023875
  0.104637
  0.282729
 -0.072032
  0.253558
  0.154847
 -0.070943
 -0.196156
  0.191939
  0.175687
  0.040766
  0.068756
  0.272901
 -0.208863
  0.081424
 -0.038484
 -0.061950
  0.140969
 -0.142353
 -0.108410
 -0.492221
  0.009173
  0.103400
 -0.196665
 -0.046408
  0.052055
 -0.143128
  0.113010
  0.063578
 -0.125387
  0.037124
  0.149485
  0.132127
  0.426689
  0.159807
 -0.143797
  0.209671
  0.334333
  0.048682
  0.408895
  0.052465
 -0.029501
 -0.069544
 -0.206282
 -0.018866
 -0.059901
  0.024973
 -0.113287
  0.190236
 -0.109766
 -0.109308
  0.161707
 -0.161216
 -0.335418
 -0.176301
  0.032010
  0.193737
 -0.250227
 -0.158382
 -0.005020
 -0.239546
  0.070029
  0.172959
 -0.012455
 -0.189840
  0.231145
 -0.025514
  0.087210
 -0.136992
 -0.141828
 -0.306890
 -0.001493
 -0.261973
  0.201819
 -0.313661
  0.088313
  0.040516
  0.004821
 -0.138805
 -0.176259
 -0.256166
 -0.337627
 -0.019522
 -0.063311
 -0.036184
  0.107688
 -0.010507
  0.068856
 -0.046157
 -0.143394
 -0.078494
  0.077719
  0.051069
  0.201886
  0.116865
  0.142817
  0.025304
 -0.061109
 -0.125639
 -0.336680
 -0.011206
 -0.214192
  0.195145
  0.080521
 -0.153607
 -0.226765
 -0.185175
 -0.119278
  0.333080
  0.139520
  0.248032
 -0.220902
  0.147076
 -0.257209
  0.099546
  0.023664
 -0.159745
  0.148660
 -0.001393
 -0.066774
  0.283180
  0.129909
 -0.048388
  0.007082
 -0.252551
 -0.054163
  0.131213
  0.225389
  0.191289
  0.146869
  0.061994
 -0.004533
  0.041207
  0.145080
 -0.059557
 -0.050742
  0.273623
  0.007332
  0.096424
 -0.036004
 -0.067123
  0.360740
  0.211410
 -0.114600
 -0.289257
  0.218994
 -0.288288
  0.416400
  0.442552
  0.165112
  0.311345
  0.198241
  0.275746
 -0.110755
  0.169558
 -0.068222
 -0.181864
 -0.018926
  0.063154
  0.322375
 -0.225273
  0.002604
 -0.003100
  0.173202
  0.067693
  0.145618
 -0.299588
  0.028269
  0.050543
 -0.248625
  0.005902
  0.090342
  0.028422
  0.051554
 -0.107975
 -0.376604
  0.096962
  0.024180
  0.139989
 -0.012074
  0.125384
 -0.021347
 -0.475559
 -0.243437
  0.200415
 -0.039825
  0.188880
  0.163340
  0.168220
  0.152292
  0.173025
  0.089720
  0.303708
 -0.056931
  0.208295
 -0.274898
  0.068099
  0.008075
  0.198829
  0.011824
 -0.040013
  0.118304
 -0.193086
  0.140228
  0.296426
  0.085058
  0.132818
  0.076053
 -0.067523
 -0.198863
  0.198909
 -0.114130
 -0.232624
  0.099000
 -0.391287
 -0.335439
  0.247521
 -0.060888
 -0.212638
 -0.076098
 -0.111150
  0.302435
 -0.049327
  0.253205
  0.359798
  0.013493
 -0.400272
  0.058962
 -0.153998
  0.085766
 -0.049632
 -0.045011
 -0.008790
 -0.015509
 -0.128386
 -0.413021
 -0.162624
  0.005531
  0.022393
  0.100715
 -0.221059
 -0.233867
  0.128561
 -0.196711
 -0.013900
  0.120045
 -0.038684
 -0.050382
 -0.075982
  0.101498
  0.016105
  0.164662
  0.025282
  0.066956
 -0.064648
  0.305016
 -0.119949
  0.338056
 -0.349171
  0.283391
  0.072887
 -0.302028
  0.243732
  0.172927
 -0.145469
 -0.172882
 -0.219414
  0.211659
 -0.066630
  0.113170
  0.323252
  0.419486
  0.392033
 -0.160460
 -0.183018
  0.010315
 -0.175782
  0.050683
  0.057320
 -0.232364
 -0.141974
  0.584857
 -0.227383
 -0.357297
  0.105666
 -0.059094
  0.162859
  0.140592
  0.122608
 -0.145162
  0.323313
  0.061880
 -0.095457
 -0.379415
  0.029772
  0.350396
 -0.154456
  0.210621
  0.494466
 -0.212366
 -0.157910
 -0.008411
  0.013873
  0.014299
 -0.518038
 -0.039983
  0.025269
 -0.283988
  0.118073
  0.108113
  0.280863
 -0.531238
 -0.051913
  0.369583
 -0.340262
  0.190695
  0.165189
  0.008335
  0.088024
 -0.279612
 -0.134841
 -0.130649
 -0.100290
  0.106436
  0.294749
  0.004463
  0.063605
  0.308339
  0.177308
 -0.161675
  0.164783
  0.072626
 -0.141733
 -0.109889
 -0.078493
 -0.129625
  0.111852
 -0.127999
 -0.065727
 -0.161933
 -0.140778
 -0.103508
  0.651405
  0.138304
 -0.046033
 -0.224495
  0.043336
 -0.021314
  0.039024
 -0.129886
 -0.198692
  0.104326
  0.138511
 -0.083777
 -0.088161
  0.542791
  0.130682
  0.405311
 -0.003548
 -0.072254
 -0.304279
  0.418173
  0.285465
 -0.192944
 -0.377996
  0.165709
 -0.468417
 -0.180859
 -0.102707
  0.266055
  0.133352
 -0.216475
  0.029428
 -0.059767
  0.208925
 -0.453702
 -0.035223
  0.085726
  0.042610
  0.064600
  0.141176
 -0.239962
  0.167717
  0.034706
  0.233332
 -0.255243
  0.278001
  0.266647
 -0.024147
 -0.214357
 -0.086441
 -0.182754
  0.191750
 -0.059134
  0.165756
 -0.028820
 -0.113482
 -0.253448
  0.015604
 -0.158942
 -0.100304
 -0.179807
  0.082900
 -0.193491
  0.193411
  0.300949
 -0.247775
 -0.172367
 -0.065130
 -0.166742
 -0.085739
 -0.128020
 -0.316445
  0.028676
 -0.256597
  0.217378
 -0.233533
 -0.104823
  0.364522
  0.093073
  0.269781
  0.151277
 -0.346428
 -0.099238
  0.051803
  0.044688
 -0.121845
  0.109903
  0.002129
  0.357326
  0.229503
  0.053339
 -0.061846
 -0.064022
  0.387866
  0.037648
 -0.437734
 -0.162469
 -0.155667
 -0.288508
 -0.152158
 -0.169043
 -0.309922
 -0.223223
  0.003001
  0.180499
 -0.263689
 -0.320675
  0.269209
 -0.034672
  0.021087
  0.377662
  0.062460
  0.039829
  0.073844
 -0.158216
 -0.261940
 -0.042779
 -0.014549
 -0.103135
 -0.222951
  0.109190
 -0.100197
  0.168310
 -0.239703
  0.198711
 -0.054079
  0.019331
  0.186123
 -0.173466
 -0.308770
  0.001494
 -0.096372
 -0.068223
 -0.197747
  0.070862
  0.021988
 -0.099717
  0.041272
 -0.266854
 -0.002112
 -0.149654
  0.370563
 -0.141356
  0.264443
 -0.167422
 -0.033537
 -0.198144
  0.375428
 -0.318687
 -0.099046
 -0.089332
 -0.100701
 -0.139898
 -0.120516
  0.038611
 -0.271852
  0.343688
  0.352603
  0.207638
  0.042191
 -0.182864
 -0.005171
  0.048680
  0.100026
  0.144324
  0.242042
  0.410879
  0.068315
  0.175041
  0.247495
  0.155290
  0.031239
  0.406699
 -0.239599
  0.435400
  0.090212
 -0.236068
  0.049729
  0.009965
  0.060074
 -0.165362
  0.078017
  0.157800
  0.064393
 -0.055247
 -0.139023
  0.421826
 -0.250687
 -0.109455
 -0.094796
 -0.123921
 -0.019164
 -0.024146
 -0.108862
  0.153258
  0.179416
  0.075668
  0.187274
 -0.203873
  0.494314
 -0.150768
 -0.215014
 -0.031440
 -0.184789
  0.066132
 -0.008941
  0.202439
  0.030896
  0.105807
 -0.025895
  0.447060
 -0.158705
 -0.328298
 -0.196379
 -0.065008
  0.192790
 -0.035479
 -0.109602
  0.070699
 -0.160289
  0.408536
 -0.033312
  0.475577
 -0.355533
  0.124492
 -0.026141
  0.062452
 -0.048083
 -0.411449
 -0.155458
 -0.100169
  0.149466
  0.103980
  0.311312
 -0.019022
 -0.174194
 -0.189600
  0.218791
 -0.074571
  0.007361
 -0.195666
 -0.255112
  0.170788
 -0.047771
  0.270362
  0.487004
  0.373428
  0.244605
  0.061183
 -0.154569
  0.165514
  0.187634
 -0.258824
 -0.376693
 -0.268898
  0.062994
  0.174579
  0.055643
  0.192683
 -0.350935
  0.113344
 -0.069591
 -0.093185
 -0.341207
  0.102565
  0.171051
  0.051977
 -0.274092
  0.111411
 -0.127506
  0.224025
  0.089082
  0.315392
 -0.091582
 -0.152332
 -0.107454
 -0.043486
  0.043827
  0.244135
 -0.344110
  0.066570
  0.040993
  0.259396
 -0.576842
  0.017530
  0.215272
 -0.058039
 -0.352519
  0.089000
  0.012132
  0.153860
 -0.090217
 -0.138395
  0.085715
  0.296327
 -0.111984
 -0.092090
  0.113336
 -0.387034
  0.134167
  0.106597
 -0.003175
 -0.214325
  0.027924
  0.274859
 -0.196700
 -0.035422
 -0.173726
  0.105218
 -0.100411
  0.060442
  0.246923
 -0.061279
  0.188192
 -0.424152
  0.035516
  0.064024
  0.071687
  0.165493
  0.078870
  0.197393
  0.013261
 -0.045861
  0.031918
 -0.540206
 -0.162148
  0.032770
 -0.015299
  0.243006
  0.280909
 -0.279206
  0.272288
 -0.437361
 -0.208583
  0.009429
  0.051837
  0.092290
 -0.130215
  0.164986
  0.200225
  0.233556
 -0.041513
 -0.322386
  0.125354
  0.043924
 -0.123343
  0.176232
  0.349650
  0.231256
  0.381233
 -0.296688
 -0.310006
  0.101747
  0.105988
 -0.066656
 -0.137065
  0.378861
 -0.714095
  0.126169
  0.098257
  0.042634
  0.116471
 -0.287907
  0.021445
 -0.188074
 -0.236456
 -0.183478
 -0.176577
  0.056965
 -0.272684
  0.231585
 -0.002605
 -0.016210
 -0.061855
 -0.020660
  0.177683
  0.405550
 -0.020331
 -0.415743
 -0.122371
 -0.097203
 -0.160200
  0.249322
 -0.005697
 -0.004256
  0.036535
  0.004864
 -0.053676
  0.030872
  0.212584
 -0.171178
  0.073580
  0.094935
 -0.145324
 -0.116214
 -0.018514
  0.174006
 -0.387171
 -0.468056
 -0.132797
  0.067791
  0.036188
 -0.257083
 -0.531285
  0.360771
 -0.063179
 -0.079092
 -0.065718
 -0.104439
 -0.256708
 -0.070938
  0.096801
  0.233638
 -0.231543
 -0.205938
 -0.128825
  0.141433
 -0.001206
 -0.044765
 -0.051117
 -0.022857
 -0.290656
  0.275490
 -0.049803
 -0.084161
  0.226840
  0.109303
  0.136311
  0.051164
  0.249661
 -0.101632
 -0.359971
  0.205924
 -0.033616
  0.166162
  0.408037
 -0.406631
  0.274555
 -0.056001
 -0.352706
 -0.353395
  0.353127
 -0.100799
 -0.003099
 -0.024210
 -0.113042
 -0.091242
  0.361727
 -0.008455
 -0.123500
  0.165219
 -0.312886
  0.122466
 -0.139661
 -0.189782
  0.182052
 -0.021724
  0.165215
 -0.343752
 -0.148236
  0.211433
 -0.268163
  0.191950
 -0.016432
 -0.041101
 -0.132680
  0.036644
 -0.043918
 -0.086907
 -0.108213
  0.157014
  0.149938
 -0.275765
 -0.059246
 -0.165530
 -0.074666
 -0.061935
  0.135290
  0.172102
  0.105860
 -0.081919
 -0.026416
 -0.192267
  0.191146
  0.077018
  0.150761
  0.124732
 -0.430344
  0.117123
 -0.328764
  0.310255
 -0.338422
  0.203472
 -0.006666
  0.161636
 -0.222457
 -0.031202
  0.011683
  0.066832
 -0.194506
 -0.183063
  0.030310
 -0.238710
  0.390577
 -0.104698
  0.006449
 -0.078101
 -0.019034
 -0.304793
  0.245203
  0.119236
 -0.188201
 -0.138871
 -0.040902
  0.326322
  0.022243
  0.306625
 -0.080619
  0.184166
  0.225743
 -0.249255
  0.311155
  0.045610
  0.058767
 -0.212154
  0.039678
  0.215736
  0.260860
  0.039903
  0.251356
  0.010349
  0.120572
 -0.037957
  0.056123
  0.162547
  0.008244
  0.000734
  0.147566
  0.059613
 -0.194654
  0.383924
  0.030537
  0.146774
 -0.010771
  0.076574
  0.189904
 -0.502007
 -0.208275
  0.021033
 -0.321904
 -0.309055
  0.157425
  0.048046
 -0.200757
  0.074659
  0.032474
  0.156767
  0.172977
 -0.248042
  0.200103
  0.052950
 -0.300610
 -0.014179
 -0.411548
  0.206970
  0.254953
  0.170172
 -0.175962
 -0.197353
  0.107254
 -0.136306
  0.056730
 -0.265235
  0.157094
  0.121476
 -0.038820
  0.064550
 -0.154257
 -0.047595
 -0.035054
 -0.134431
  0.129185
  0.138189
 -0.021412
  0.350781
 -0.023624
 -0.107506
  0.109462
 -0.083334
 -0.430416
 -0.096614
 -0.244030
 -0.215218
 -0.155627
 -0.291613
  0.074120
 -0.106674
  0.534461
 -0.272428
 -0.044339
 -0.269149
 -0.037943
 -0.118285
 -0.306496
  0.149707
 -0.326597
  0.213333
  0.054148
  0.279182
  0.153387
  0.184113
 -0.349430
 -0.071898
 -0.112110
  0.167609
  0.118726
 -0.019606
 -0.149198
  0.498840
  0.153686
  0.010928
 -0.256315
  0.095697
 -0.275647
 -0.066020
  0.040326
 -0.068933
  0.213895
 -0.044124
 -0.011546
  0.282866
  0.018186
  0.302595
  0.070193
  0.012496
 -0.064313
  0.154640
 -0.348537
 -0.141544
 -0.152766
  0.100385
  0.068226
  0.025847
  0.156517
 -0.321281
  0.153480
  0.037102
 -0.032681
  0.152349
 -0.365104
 -0.538974
 -0.339137
 -0.275813
  0.039986
 -0.171403
 -0.090695
  0.025785
  0.302546
 -0.076574
 -0.025635
  0.293956
  0.350751
 -0.143896
 -0.108623
 -0.001659
 -0.667889
 -0.048887
 -0.019298
  0.051171
  0.256221
  0.294088
 -0.041376
 -0.031145
 -0.284107
  0.302663
 -0.069874
  0.191692
  0.162215
 -0.003680
  0.322617
  0.007745
  0.315771
 -0.290099
  0.289552
  0.047466
  0.039861
  0.004804
 -0.013834
  0.209119
 -0.288741
 -0.105017
  0.265662
  0.191795
  0.220316
 -0.139095
  0.268686
  0.104080
  0.063300
 -0.169520
  0.082791
 -0.017778
 -0.067054
 -0.018091
 -0.139628
  0.182344
 -0.096406
 -0.038462
 -0.218962
  0.087142
  0.168898
  0.240422
  0.068089
  0.015859
 -0.050060
 -0.118922
  0.455934
 -0.068661
  0.233006
 -0.303848
  0.081269
  0.050696
  0.137803
  0.363503
 -0.199173
  0.165936
 -0.042226
  0.041260
  0.068841
  0.022478
 -0.103342
 -0.079296
  0.265197
  0.306520
  0.190175
  0.009992
 -0.045708
  0.035824
  0.194292
  0.031160
  0.163886
  0.234940
 -0.072558
 -0.200633
  0.514798
 -0.145693
 -0.280558
 -0.155599
 -0.183359
 -0.037456
  0.016997
  0.188705
 -0.055213
 -0.068694
  0.133533
 -0.284892
 -0.050642
 -0.001386
 -0.084812
 -0.004291
  0.420978
 -0.059639
 -0.293234
 -0.119099
  0.049656
 -0.044547
  0.402452
  0.157300
 -0.108754
  0.142496
  0.010669
 -0.153327
 -0.400678
  0.126576
  0.052958
 -0.010815
  0.100479
  0.406187
 -0.139003
 -0.268454
 -0.139359
  0.265018
 -0.199675
 -0.038998
 -0.052155
  0.275699
 -0.184881
  0.068993
  0.243423
 -0.331207
  0.657390
 -0.348983
 -0.255816
 -0.121753
  0.005274
  0.022656
 -0.096083
  0.021004
  0.205567
 -0.152132
  0.262831
 -0.090280
 -0.202800
 -0.094364
  0.090774
  0.057809
 -0.130614
  0.029021
 -0.100747
  0.122921
  0.053212
 -0.066244
  0.028883
  0.188794
 -0.048853
 -0.080478
 -0.259577
 -0.116796
  0.240365
  0.338806
 -0.302149
  0.099096
  0.105158
  0.128070
 -0.067435
  0.117774
  0.028697
  0.362696
  0.302297
  0.280245
  0.139274
  0.070590
  0.114848
  0.041210
  0.056241
 -0.092781
  0.355852
  0.051050
 -0.262866
  0.343730
 -0.276393
  0.092150
 -0.275670
 -0.118256
 -0.078889
 -0.093338
  0.409767
 -0.233565
  0.046984
 -0.040983
 -0.258878
 -0.164839
  0.465320
  0.297400
  0.281713
 -0.122074
 -0.048346
  0.015916
 -0.226159
 -0.075902
 -0.223897
 -0.121500
  0.267949
  0.049139
 -0.005796
 -0.034649
  0.172906
  0.091519
 -0.126529
  0.033858
 -0.033065
  0.142364
  0.050596
  0.131201
  0.351361
  0.093407
  0.074276
  0.073933
  0.120974
  0.134870
 -0.021276
  0.052717
 -0.064450
 -0.187990
  0.324843
  0.044612
 -0.047165
 -0.051907
 -0.043034
  0.031210
 -0.334922
  0.125187
 -0.174860
  0.163438
 -0.182908
 -0.020553
 -0.095968
 -0.002850
  0.019387
  0.002399
 -0.114863
 -0.081790
 -0.282792
 -0.287405
 -0.224557
  0.127611
  0.037787
  0.138333
 -0.249428
  0.052155
  0.061086
  0.070494
  0.271901
  0.257413
  0.122969
  0.036940
  0.466677
  0.386327
  0.236818
  0.443056
 -0.006632
 -0.286261
  0.053511
  0.125375
  0.138233
  0.253211
 -0.527393
 -0.062366
  0.111701
 -0.215754
 -0.101418
 -0.342807
  0.296206
 -0.061367
  0.319336
 -0.268486
 -0.286449
  0.277231
  0.420468
 -0.232642
 -0.119127
 -0.296494
 -0.144356
 -0.098079
 -0.193867
  0.214248
 -0.163736
 -0.506199
  0.076146
  0.027311
 -0.000080
  0.328193
 -0.059145
  0.128604
  0.200273
 -0.036207
  0.029281
  0.148511
  0.003638
  0.051780
  0.219288
 -0.068648
  0.354614
 -0.005075
 -0.084604
 -0.100217
 -0.383110
 -0.081654
  0.153722
  0.053982
  0.320884
 -0.121295
 -0.124707
 -0.233799
  0.054959
 -0.026783
 -0.322114
 -0.339079
 -0.029088
 -0.061559
 -0.003039
  0.038434
 -0.195305
  0.166710
  0.070227
  0.173288
  0.027272
 -0.085834
 -0.230487
  0.013508
  0.154723
 -0.417419
 -0.255173
 -0.348784
 -0.035772
  0.025393
 -0.191442
  0.163282
  0.021013
 -0.339535
  0.613566
 -0.101098
  0.188510
 -0.189528
 -0.104015
  0.003945
  0.048114
  0.107317
 -0.138960
  0.093451
  0.128825
  0.169470
  0.404554
  0.132551
 -0.137444
 -0.194545
  0.116700
 -0.090625
  0.084452
  0.462893
  0.081657
 -0.301225
 -0.049176
 -0.437743
 -0.046931
 -0.131179
  0.288107
 -0.301385
  0.063115
  0.336090
 -0.179353
 -0.170662
  0.015678
  0.138974
  0.094418
 -0.296113
 -0.199293
  0.194358
 -0.135565
 -0.230470
 -0.483258
 -0.210906
 -0.180069
 -0.102548
 -0.235614
 -0.005496
  0.099384
 -0.120895
  0.131305
 -0.210121
  0.158319
 -0.248523
  0.308683
 -0.290636
  0.166560
  0.127426
  0.328112
  0.284145
 -0.092017
 -0.342169
  0.420567
  0.045122
 -0.252931
 -0.152874
 -0.252758
  0.136311
  0.005663
 -0.024669
  0.271203
 -0.159482
 -0.003850
  0.060422
 -0.211929
 -0.009010
 -0.036415
  0.280747
  0.182033
  0.109189
  0.348156
  0.153384
  0.197458
 -0.256540
  0.015173
  0.159685
  0.108048
 -0.030229
  0.057504
 -0.202044
 -0.113126
 -0.502965
  0.104169
 -0.091296
  0.444949
 -0.298302
  0.077149
  0.254551
  0.052582
 -0.025157
  0.002219
 -0.247016
 -0.152172
  0.042617
  0.024479
 -0.177467
 -0.206074
 -0.302280
 -0.683737
  0.308091
  0.015565
  0.210274
  0.181064
  0.132703
  0.078691
  0.271183
  0.593608
 -0.126038
  0.095340
  0.018148
  0.283864
 -0.255588
 -0.339637
 -0.188375
  0.114069
 -0.299301
 -0.017184
  0.077697
  0.180058
 -0.336967
 -0.280268
 -0.044205
 -0.291191
 -0.040997
  0.186624
  0.296696
  0.380754
  0.118802
 -0.419173
 -0.014108
  0.160743
  0.002673
  0.150022
 -0.274205
 -0.056384
 -0.345863
 -0.311304
  0.102962
  0.071099
 -0.163381
  0.134150
  0.097388
 -0.089389
 -0.058973
 -0.412662
 -0.094522
  0.495212
 -0.125548
 -0.004192
  0.182047
  0.014833
 -0.211162
  0.162162
 -0.079130
  0.112749
  0.051856
 -0.163407
  0.152698
 -0.211207
  0.209822
  0.266763
  0.170523
 -0.014040
 -0.110601
  0.192090
  0.054516
 -0.298076
 -0.137796
  0.284915
  0.010896
  0.050245
 -0.140822
  0.243551
 -0.097483
  0.042763
 -0.038893
  0.071771
 -0.087693
 -0.091147
 -0.399742
 -0.302003
  0.041533
  0.088247
  0.278350
  0.127370
 -0.184469
 -0.003337
  0.249848
  0.239369
 -0.535815
  0.033100
  0.271921
  0.137923
  0.341359
  0.294106
  0.094913
 -0.013694
  0.054985
  0.354178
 -0.228280
  0.179316
 -0.085368
 -0.213328
 -0.079246
 -0.273361
  0.124199
  0.178313
  0.160605
 -0.139507
  0.031134
 -0.454297
  0.003336
 -0.067618
 -0.073862
  0.111188
  0.244435
  0.169636
  0.360862
  0.050479
 -0.148390
  0.350429
  0.305753
 -0.049078
 -0.077034
  0.388589
  0.105991
 -0.244719
 -0.084261
 -0.129962
  0.097182
  0.195620
 -0.072460
  0.105061
  0.230669
  0.215135
 -0.262631
  0.152938
  0.283438
  0.140915
 -0.187539
  0.246171
  0.218694
 -0.243686
 -0.219783
 -0.023118
  0.009383
 -0.120731
  0.010554
  0.010461
  0.181653
  0.020608
  0.332825
  0.060967
  0.231142
  0.070742
 -0.258749
  0.410500
  0.078409
  0.233732
  0.121794
  0.311656
  0.170109
  0.286856
  0.148410
  0.005940
  0.139658
  0.170417
  0.345043
  0.153998
  0.622585
  0.428638
  0.431535
  0.489898
  0.457295
  0.891586
  0.694017
  0.549164
  0.435477
  0.795843
  0.580879
  0.463985
  0.246381
  0.443919
  0.209922
  0.610488
  0.481066
  0.683552
  0.412862
  0.606903
  0.330063
  0.390343
  0.354288
  0.387937
  0.103519
  0.190914
 -0.061050
 -0.086537
  0.105395
 -0.062635
  0.188891
  0.430321
 -0.190783
  0.202899
  0.206368
 -0.057465
  0.273766
  0.132698
  0.051403
 -0.093302
 -0.416423
  0.244607
  0.058618
 -0.351400
  0.202904
 -0.334839
  0.204912
 -0.116586
  0.021229
 -0.114179
  0.267676
 -0.114821
 -0.111438
  0.205815
  0.241498
 -0.305785
  0.018406
  0.032358
  0.261487
 -0.225324
  0.112462
  0.050707
 -0.065285
  0.195973
  0.027264
  0.134757
 -0.126479
 -0.147676
  0.348153
  0.194649
  0.063079
 -0.027199
 -0.113933
  0.032484
 -0.050134
 -0.246478
 -0.031481
 -0.007904
 -0.328008
 -0.165575
 -0.029746
  0.074366
  0.466486
 -0.543715
 -0.071530
 -0.139238
 -0.107540
 -0.121582
 -0.176036
  0.048357
  0.235600
  0.388190
  0.001921
 -0.175568
 -0.077050
  0.180773
 -0.169165
 -0.011619
  0.228730
  0.319031
  0.118728
 -0.198755
  0.029449
  0.384669
 -0.030518
 -0.345381
  0.074307
 -0.106483
  0.064241
  0.112430
 -0.206549
  0.048352
 -0.347671
 -0.323645
  0.055801
  0.444915
  0.061132
 -0.469001
  0.053066
  0.135136
  0.107477
 -0.089912
 -0.085756
 -0.247634
  0.287877
  0.087478
  0.181944
  0.145760
 -0.022626
 -0.178340
 -0.369649
 -0.034189
 -0.058130
  0.199068
 -0.295772
 -0.100255
  0.154004
  0.394850
  0.297059
 -0.024021
  0.041249
  0.175605
 -0.112173
  0.011698
  0.097551
 -0.007193
  0.135363
 -0.294310
  0.100427
 -0.009551
 -0.035524
  0.078965
  0.015110
 -0.117465
 -0.044062
  0.096756
 -0.229380
 -0.022566
 -0.133921
  0.232263
 -0.148171
 -0.024884
  0.323695
 -0.105506
  0.409985
  0.414761
 -0.135326
  0.360244
  0.341039
  0.098000
 -0.222616
 -0.100262
  0.149523
  0.252746
 -0.244955
  0.080232
 -0.397236
 -0.043165
 -0.200255
 -0.079036
 -0.052997
  0.093220
 -0.417302
 -0.025043
 -0.143507
  0.049031
 -0.062792
  0.263537
  0.035715
  0.150781
 -0.136674
 -0.032370
  0.160614
 -0.408872
 -0.077188
 -0.054932
  0.325721
 -0.001863
 -0.204014
 -0.061171
  0.117983
  0.076412
 -0.062234
  0.237446
  0.001241
 -0.050193
 -0.138692
 -0.224785
 -0.009413
  0.256314
 -0.297373
  0.346712
  0.049452
 -0.195720
 -0.235757
 -0.032106
  0.103481
  0.133596
 -0.196615
 -0.024175
  0.169215
  0.319808
  0.020175
 -0.097293
  0.010697
 -0.202795
 -0.076747
  0.362197
  0.169231
 -0.099745
 -0.014130
  0.299083
  0.212008
 -0.223203
  0.129971
  0.093443
 -0.037032
  0.114591
 -0.022539
  0.235335
 -0.017725
 -0.435806
  0.196114
  0.034168
 -0.005198
  0.102794
 -0.123530
 -0.051766
  0.019637
 -0.018898
  0.377957
 -0.191888
  0.005830
 -0.503184
 -0.006200
  0.120931
 -0.013185
  0.332761
 -0.244306
 -0.097854
  0.057672
 -0.059984
  0.340408
  0.075977
  0.048413
 -0.008128
 -0.224706
  0.068303
 -0.109118
 -0.136491
  0.190770
  0.407519
  0.202539
  0.297770
  0.168337
 -0.101065
 -0.113427
 -0.212016
 -0.139443
  0.256576
 -0.216648
  0.341314
 -0.292774
  0.183858
 -0.365926
  0.230600
 -0.159875
  0.359650
 -0.078202
  0.131225
  0.042764
 -0.188194
 -0.192574
 -0.010439
  0.079316
 -0.394679
  0.421232
  0.206967
 -0.211678
 -0.038957
 -0.045536
 -0.379339
 -0.185906
 -0.035979
 -0.242226
 -0.236751
 -0.146564
  0.023855
  0.109524
  0.017256
 -0.471473
 -0.060068
  0.178983
 -0.019530
  0.569668
  0.164738
 -0.116478
  0.220799
  0.091529
 -0.067959
  0.216511
  0.187534
 -0.166794
 -0.076601
  0.230847
 -0.038913
 -0.077476
  0.284595
  0.037388
  0.061087
  0.271359
 -0.145986
  0.191045
  0.213293
 -0.328954
 -0.512931
 -0.406333
  0.194136
  0.010479
 -0.020192
 -0.383350
  0.321119
 -0.261692
  0.238038
  0.206813
 -0.416779
  0.081033
  0.034551
  0.210489
  0.349360
  0.076718
 -0.099332
  0.172521
  0.098666
 -0.078065
  0.329196
  0.207348
 -0.021252
  0.242869
 -0.184185
 -0.039083
 -0.256553
 -0.068720
  0.118525
  0.085607
 -0.013881
 -0.109626
  0.089606
 -0.048444
 -0.053695
  0.241961
 -0.239255
 -0.242421
 -0.084977
  0.195317
 -0.135516
 -0.055760
 -0.096110
  0.222944
  0.170181
  0.235344
 -0.396955
  0.179069
  0.325148
 -0.153820
 -0.043403
  0.318531
 -0.152501
 -0.045802
 -0.094236
  0.065877
 -0.282230
  0.221439
  0.249203
 -0.089690
 -0.166616
  0.046366
  0.052533
  0.112114
  0.041016
 -0.219489
 -0.155837
 -0.355062
  0.140461
  0.134042
  0.202632
 -0.089811
 -0.093302
  0.120435
  0.352502
  0.032023
 -0.141694
 -0.135066
 -0.006130
  0.160056
 -0.049457
  0.170978
 -0.294025
  0.123027
 -0.167553
 -0.092957
 -0.155978
 -0.218303
  0.130630
 -0.209131
  0.376362
  0.314552
 -0.012721
 -0.215215
 -0.043735
  0.196117
  0.195940
 -0.216146
 -0.263742
  0.179411
  0.474198
 -0.196149
  0.251791
 -0.003411
 -0.277849
 -0.370947
 -0.378850
 -0.278319
 -0.215905
  0.144543
 -0.131181
  0.237344
  0.046108
 -0.095191
 -0.261208
 -0.179704
 -0.218404
  0.456520
 -0.225383
  0.160522
 -0.085414
  0.366985
  0.372667
 -0.145961
  0.108944
  0.170307
 -0.333161
 -0.070418
  0.084663
 -0.280370
 -0.060730
 -0.250328
  0.033168
 -0.059284
  0.014212
  0.437428
 -0.336709
 -0.213762
  0.190020
  0.011465
  0.119223
 -0.176480
  0.104993
 -0.297756
  0.220460
  0.051429
 -0.251061
  0.141287
 -0.033825
 -0.511415
 -0.146075
 -0.269006
  0.028360
  0.289965
  0.337678
 -0.214217
  0.534096
 -0.068019
  0.207343
 -0.229506
  0.104083
 -0.138336
 -0.000805
 -0.017413
 -0.167477
 -0.374280
 -0.044654
  0.126854
  0.319885
 -0.150823
  0.365028
 -0.224179
  0.158262
  0.063919
 -0.138242
  0.231235
  0.073914
  0.113034
  0.377295
 -0.160222
 -0.192856
 -0.053446
  0.191744
 -0.171360
 -0.267034
 -0.026406
 -0.168384
  0.169842
 -0.228255
  0.104698
 -0.262618
 -0.151344
 -0.302544
 -0.019872
 -0.008155
  0.255486
 -0.132841
 -0.046083
 -0.197245
  0.128311
  0.201069
  0.014190
 -0.009992
 -0.302994
 -0.311495
 -0.197092
  0.365815
 -0.024704
  0.249965
  0.315395
  0.234513
 -0.019371
  0.259996
 -0.113326
 -0.342302
  0.358981
  0.028687
 -0.125691
 -0.349610
  0.150064
  0.329070
  0.056621
  0.114745
 -0.133085
  0.072454
 -0.040385
 -0.190266
  0.127058
  0.141710
 -0.513298
 -0.181341
 -0.092072
 -0.018676
 -0.211223
  0.070312
  0.212446
 -0.254291
 -0.091305
 -0.005527
 -0.066034
  0.199397
  0.147221
 -0.279943
 -0.348400
  0.063602
 -0.094935
 -0.156893
 -0.206876
  0.015537
 -0.055007
  0.163791
  0.042050
  0.018224
  0.226123
  0.101025
  0.071211
 -0.039720
 -0.155852
  0.070330
 -0.012154
  0.054732
 -0.215377
 -0.011841
 -0.036158
 -0.135325
  0.094815
  0.156814
 -0.035075
  0.046481
 -0.197044
  0.224395
 -0.313503
 -0.123151
  0.490140
 -0.166013
  0.104107
  0.046775
 -0.193513
  0.143425
  0.245877
 -0.246002
  0.308312
 -0.195347
  0.312871
 -0.160383
 -0.162245
 -0.339767
  0.255473
  0.021618
 -0.021396
  0.048605
  0.031788
  0.314511
  0.233696
 -0.210986
 -0.258894
 -0.241890
 -0.079358
  0.308983
  0.413185
  0.126097
  0.109871
  0.037576
  0.218452
 -0.094656
 -0.178399
 -0.218121
  0.203517
 -0.055253
 -0.105930
 -0.185010
  0.399714
  0.056424
 -0.519754
 -0.195155
 -0.105667
  0.329546
  0.080736
 -0.217747
  0.100057
  0.055452
  0.067549
  0.030011
 -0.133814
 -0.279904
 -0.305302
 -0.198929
 -0.118586
 -0.160609
  0.050367
  0.206234
 -0.051416
  0.065303
  0.124880
  0.035927
 -0.136064
  0.349967
  0.071130
  0.001346
  0.067747
 -0.213868
  0.074511
 -0.143352
  0.100096
  0.014879
 -0.064282
  0.074558
  0.002512
  0.217130
 -0.043616
 -0.017475
  0.141160
 -0.274786
  0.236235
 -0.014871
  0.175748
 -0.059656
  0.008578
 -0.162000
 -0.035923
 -0.224194
  0.035147
  0.088360
  0.216137
  0.224379
  0.040482
  0.297951
  0.250080
  0.137440
 -0.222483
  0.031617
 -0.149145
 -0.518614
  0.164172
 -0.178759
 -0.276603
 -0.246792
 -0.026891
  0.157041
  0.101397
  0.156576
 -0.310792
  0.301054
  0.261494
 -0.081927
  0.127635
  0.055907
  0.099695
 -0.029976
 -0.125418
 -0.117127
  0.138703
  0.255159
 -0.247339
  0.140428
 -0.090098
 -0.087320
  0.047714
 -0.253842
  0.387624
  0.157743
 -0.071304
  0.266973
 -0.249689
  0.092728
  0.034886
 -0.240653
  0.123794
 -0.136182
 -0.319003
  0.235341
  0.022260
 -0.200016
  0.308283
 -0.490047
 -0.196681
  0.035017
  0.148828
  0.070303
  0.302682
 -0.239368
  0.402836
 -0.408670
 -0.094467
 -0.066524
 -0.315091
 -0.099585
  0.079838
 -0.233649
  0.056868
 -0.196706
  0.380039
 -0.013227
  0.195348
 -0.302756
  0.051274
  0.166450
 -0.344277
 -0.296169
  0.077613
  0.024417
  0.179549
 -0.258448
 -0.331096
 -0.027439
  0.241266
 -0.324815
  0.050408
 -0.030755
 -0.199235
 -0.147229
 -0.290881
 -0.003228
  0.068807
  0.267531
 -0.140777
  0.129537
  0.228416
 -0.116492
  0.136583
  0.047867
 -0.407484
  0.343366
 -0.004909
  0.128594
  0.108166
  0.242569
 -0.170096
 -0.163471
  0.023210
  0.371204
 -0.114568
  0.048395
 -0.168291
  0.140621
 -0.034154
 -0.227618
 -0.195690
 -0.047017
 -0.137209
  0.063985
 -0.060223
  0.089093
 -0.243799
 -0.142928
 -0.183749
 -0.235066
 -0.106633
 -0.301022
 -0.128994
 -0.036695
  0.084513
 -0.347980
  0.155457
  0.088254
  0.268014
  0.112475
  0.138830
  0.039052
 -0.273397
  0.278303
  0.094882
  0.051590
 -0.119258
 -0.036013
 -0.253226
 -0.218815
 -0.139400
 -0.104202
  0.105025
  0.130842
 -0.355730
 -0.182718
  0.035195
  0.180390
  0.086594
  0.025370
 -0.130320
 -0.095310
  0.335601
  0.173855
 -0.150258
  0.030372
  0.207850
  0.210149
 -0.290711
 -0.029554
  0.012047
  0.379895
 -0.313573
  0.007480
  0.132268
  0.086116
  0.351649
 -0.263583
 -0.054551
 -0.248335
 -0.162457
  0.173677
 -0.044497
  0.383736
 -0.148619
 -0.262639
  0.194725
 -0.189555
  0.216303
 -0.087510
  0.194724
 -0.036000
  0.486258
  0.046745
 -0.028298
  0.094271
  0.023092
 -0.081776
  0.439617
 -0.081126
 -0.022731
  0.114758
  0.107578
 -0.009593
  0.001697
  0.060703
 -0.187136
  0.049152
  0.267896
  0.046481
  0.005770
  0.155690
  0.217556
  0.128226
 -0.160583
  0.377532
 -0.036568
  0.020625
  0.022155
  0.119070
  0.160032
  0.114264
  0.276566
 -0.596138
  0.120740
  0.328666
  0.109280
 -0.080824
 -0.222230
 -0.508455
  0.207756
  0.300303
  0.173766
  0.013413
  0.286418
  0.096048
  0.237837
  0.184404
  0.114583
 -0.115046
 -0.047989
 -0.222118
 -0.197786
  0.167306
 -0.193120
  0.069483
 -0.242851
 -0.169905
  0.178592
 -0.397027
  0.214333
 -0.111295
 -0.047197
  0.310262
  0.091030
  0.045949
 -0.238187
 -0.513349
  0.283365
 -0.171275
  0.086598
  0.072431
  0.548736
  0.193395
 -0.304349
  0.197087
 -0.202410
  0.082430
  0.140580
 -0.041711
  0.074179
  0.029004
  0.069001
  0.324244
  0.437921
  0.319723
 -0.103565
  0.030465
  0.026468
  0.092082
 -0.137773
 -0.412461
  0.154285
  0.034937
  0.439926
 -0.249616
 -0.019504
  0.232716
 -0.138397
 -0.034071
  0.138862
  0.048832
  0.563759
 -0.233287
 -0.017672
  0.085294
  0.039365
 -0.199990
  0.211658
 -0.113958
 -0.268441
 -0.507394
 -0.211325
 -0.410632
  0.276218
 -0.068239
  0.213260
 -0.036480
  0.032223
 -0.235639
  0.139321
  0.092532
 -0.176832
 -0.253877
 -0.209518
  0.154702
  0.183684
 -0.140714
  0.144618
 -0.202741
  0.009742
  0.282821
  0.005752
  0.457982
 -0.289628
  0.018048
  0.114984
 -0.128973
  0.211380
  0.188520
  0.254099
 -0.028953
 -0.110760
 -0.176008
  0.436711
 -0.011065
 -0.164745
  0.155572
 -0.138550
  0.268583
  0.243379
  0.123584
  0.110720
 -0.114712
 -0.325366
  0.021119
  0.214186
 -0.412843
 -0.116101
  0.392402
  0.607177
 -0.160339
  0.097797
  0.101914
 -0.257645
 -0.189271
 -0.066471
 -0.017357
 -0.230998
 -0.322032
  0.155411
 -0.011874
 -0.100159
  0.192992
  0.402303
  0.190282
  0.002169
 -0.063741
  0.032270
  0.079804
  0.064973
  0.051085
  0.006235
 -0.055510
  0.136517
 -0.141441
 -0.044945
  0.250975
  0.200716
 -0.378735
  0.130480
  0.044743
 -0.182431
 -0.068904
  0.325988
  0.013654
 -0.022674
 -0.119735
 -0.093486
 -0.042351
 -0.065791
 -0.297908
  0.007727
  0.293756
  0.276470
  0.190779
 -0.179516
  0.055164
 -0.017785
 -0.279114
  0.251902
  0.225391
  0.041547
  0.142310
  0.017740
 -0.259575
  0.116293
 -0.127710
 -0.039636
 -0.222923
 -0.351273
  0.014713
  0.017412
  0.156510
 -0.147917
 -0.012646
  0.040934
 -0.010383
 -0.331941
 -0.209273
  0.050409
 -0.145457
 -0.440236
 -0.260594
 -0.020504
 -0.215556
  0.005225
 -0.130514
 -0.234072
  0.234989
  0.038758
 -0.292809
  0.107055
  0.080150
 -0.086350
 -0.133052
  0.037203
  0.033115
 -0.011639
 -0.160762
  0.078483
  0.067719
  0.118233
 -0.350121
  0.191739
  0.143800
  0.095553
  0.151586
  0.252198
 -0.074171
 -0.325797
 -0.133082
  0.086069
 -0.277994
 -0.149421
 -0.231543
 -0.071678
  0.092774
  0.004310
  0.050988
 -0.007805
 -0.124711
 -0.328922
 -0.230573
  0.148549
 -0.006738
 -0.279407
  0.249079
 -0.363567
  0.356110
  0.131482
 -0.387974
  0.126661
 -0.138871
 -0.157179
 -0.008220
 -0.120192
 -0.255351
 -0.119298
  0.173457
 -0.092138
 -0.291853
 -0.031315
 -0.153935
  0.208590
  0.209617
 -0.011487
 -0.037103
  0.144968
  0.172695
  0.220587
  0.006045
 -0.108015
  0.056899
  0.098822
 -0.205697
 -0.449233
  0.089846
 -0.076830
  0.150508
 -0.056659
  0.327844
 -0.018491
  0.302412
 -0.165431
 -0.212344
  0.040825
 -0.233914
  0.481134
 -0.042353
 -0.342559
  0.042593
 -0.375471
 -0.023372
 -0.365288
  0.136133
 -0.173517
 -0.299065
  0.076606
  0.213607
  0.120891
  0.009544
  0.085852
  0.004080
  0.188650
  0.289738
 -0.231666
 -0.164705
  0.025636
  0.335939
 -0.085477
  0.161501
  0.226997
  0.094173
  0.320224
 -0.039940
 -0.108737
  0.478875
 -0.269795
  0.080014
  0.082434
  0.019908
 -0.132655
 -0.015913
 -0.056186
 -0.063083
 -0.156896
  0.018129
  0.103144
  0.070571
 -0.352177
 -0.273012
 -0.090115
 -0.127130
  0.137071
 -0.250390
  0.065440
 -0.201263
  0.087628
  0.207345
  0.009042
 -0.343941
  0.217356
 -0.174426
  0.063851
  0.130370
  0.156537
 -0.182767
 -0.053293
  0.063940
 -0.138452
 -0.033518
  0.007486
 -0.238223
  0.122365
  0.420739
  0.241006
  0.126828
  0.121634
 -0.192062
  0.229423
  0.006078
  0.081005
 -0.121581
  0.375813
  0.389701
  0.218574
 -0.007175
  0.090043
 -0.003197
 -0.284483
 -0.008320
 -0.013206
 -0.052988
 -0.055272
  0.218834
 -0.086212
  0.151339
  0.055232
 -0.338021
 -0.091289
 -0.341667
 -0.080969
 -0.221379
  0.244998
 -0.034838
  0.038310
  0.112671
  0.005839
  0.130842
  0.239875
 -0.308133
  0.049360
  0.168394
 -0.123253
 -0.134539
  0.124681
  0.227064
  0.147153
 -0.065280
  0.001084
  0.098835
  0.007192
  0.342272
 -0.202900
 -0.181913
  0.350257
  0.249600
 -0.358208
  0.120683
  0.229930
  0.222670
 -0.189038
  0.005201
  0.033571
 -0.055224
  0.137780
 -0.131759
 -0.031973
 -0.065865
 -0.175255
  0.085245
  0.017071
  0.186708
 -0.084168
 -0.031843
  0.237266
  0.059145
  0.062840
 -0.301882
  0.051720
  0.167898
  0.074933
  0.032547
  0.361883
  0.121046
  0.000841
  0.306412
  0.150032
 -0.260348
  0.319032
  0.325264
  0.050059
 -0.273877
 -0.137041
  0.186148
  0.140220
 -0.211588
  0.433488
 -0.207614
  0.025826
  0.408212
 -0.126577
 -0.035949
 -0.018246
 -0.149504
 -0.073371
  0.200639
  0.091925
  0.458002
  0.292799
  0.263189
  0.089418
 -0.307546
 -0.400551
 -0.365063
  0.085916
  0.111598
  0.230012
  0.253155
  0.057224
 -0.097067
 -0.148865
 -0.545068
  0.005328
 -0.349549
 -0.027578
  0.061697
 -0.122560
 -0.039720
 -0.022078
  0.235487
 -0.023630
 -0.168045
 -0.005906
  0.227393
 -0.235243
 -0.229276
  0.164827
 -0.154604
 -0.022979
 -0.027641
 -0.058714
 -0.411826
 -0.017040
  0.088340
 -0.108304
  0.118020
  0.025279
 -0.264107
 -0.062724
  0.150161
 -0.121349
  0.025244
  0.242507
 -0.009790
 -0.249270
 -0.018816
 -0.027685
  0.044753
 -0.367301
  0.057738
 -0.038540
 -0.144262
  0.009984
 -0.046037
 -0.076963
  0.130998
  0.218356
  0.301395
 -0.226203
  0.317468
  0.218806
  0.178108
 -0.242637
  0.346172
  0.200372
 -0.120857
 -0.146334
  0.176567
 -0.044876
  0.223602
 -0.002297
 -0.126822
 -0.149807
 -0.317002
  0.254679
  0.123025
 -0.172470
 -0.440956
 -0.267867
  0.260235
  0.098990
  0.212977
 -0.169051
  0.002169
  0.134598
  0.265290
 -0.014520
  0.310677
  0.118109
  0.318603
  0.060167
 -0.151063
  0.089419
 -0.257508
 -0.136520
  0.154475
 -0.252757
  0.050117
 -0.001177
  0.019377
  0.184532
  0.067137
 -0.180804
  0.244720
  0.278068
  0.195249
  0.107906
  0.069757
  0.348076
  0.172977
 -0.432364
 -0.125271
 -0.054428
  0.133521
 -0.084742
  0.021608
 -0.129485
 -0.381486
  0.142004
 -0.191056
 -0.298500
 -0.155476
  0.050779
 -0.155668
  0.119489
 -0.219815
 -0.211030
 -0.378912
 -0.350734
 -0.014270
 -0.232937
 -0.167896
  0.204084
  0.375595
 -0.119636
  0.138113
 -0.225291
  0.068282
  0.381768
  0.239235
 -0.090568
  0.095538
  0.101534
  0.296341
  0.226224
 -0.432087
 -0.050926
 -0.059084
 -0.076877
 -0.150937
  0.272668
  0.084871
  0.054746
  0.007939
  0.326373
  0.158854
 -0.033321
 -0.067983
 -0.522506
  0.086107
 -0.237879
  0.131434
 -0.408136
 -0.086590
 -0.541873
 -0.425108
  0.334300
  0.045250
  0.573573
 -0.370800
  0.129504
 -0.218996
  0.244903
  0.194054
  0.257523
 -0.192042
  0.147800
  0.108911
 -0.270917
 -0.143426
 -0.368247
  0.599402
 -0.235022
 -0.409503
 -0.043428
  0.035408
 -0.103860
  0.245644
  0.052452
  0.264524
 -0.089598
 -0.061895
 -0.097250
 -0.112397
  0.182392
  0.159065
  0.178368
 -0.090699
 -0.200956
  0.045789
  0.163804
 -0.119191
  0.207545
 -0.271774
  0.140054
  0.468733
  0.167911
  0.016160
  0.067610
 -0.066486
 -0.011101
  0.062658
  0.044872
 -0.037710
  0.101121
 -0.088668
 -0.153682
  0.174639
  0.213570
 -0.308301
  0.359201
  0.122725
  0.148092
 -0.295512
 -0.036880
 -0.695111
  0.379105
  0.229012
 -0.051035
 -0.029357
 -0.296908
 -0.045707
 -0.104390
  0.074255
 -0.086069
 -0.113510
  0.230830
 -0.054900
  0.117447
  0.025283
 -0.071722
  0.181510
 -0.102747
  0.027842
  0.483783
 -0.130962
 -0.338232
 -0.137475
  0.004683
  0.130028
 -0.294472
  0.121557
  0.069566
 -0.009578
  0.310043
  0.026688
 -0.115773
 -0.117656
 -0.060341
  0.277175
 -0.388920
  0.232229
 -0.228855
 -0.024313
 -0.130569
  0.000593
 -0.608743
 -0.076439
 -0.064278
 -0.061404
 -0.113012
  0.094820
  0.144261
 -0.173925
 -0.117241
  0.084364
 -0.047282
  0.141367
  0.219953
 -0.180062
 -0.123508
  0.205887
  0.227546
  0.208919
  0.096136
  0.126467
 -0.049381
  0.344875
  0.141509
 -0.173518
 -0.236330
 -0.326654
 -0.046896
 -0.396802
 -0.248219
 -0.037746
 -0.044132
 -0.303293
  0.318669
  0.285124
 -0.288018
  0.023972
 -0.219865
  0.117978
  0.275928
  0.268578
  0.264375
  0.194265
 -0.214309
 -0.176864
 -0.112387
  0.161202
 -0.242941
 -0.168018
  0.094860
 -0.212368
  0.411177
 -0.254540
 -0.227048
  0.124535
  0.200317
 -0.083019
 -0.031972
  0.250295
  0.240405
  0.000636
  0.177559
 -0.024075
 -0.285539
  0.107193
 -0.087634
 -0.216945
 -0.202983
  0.063560
  0.337848
 -0.084327
 -0.375975
  0.146894
  0.131261
  0.159242
  0.234369
  0.168227
  0.022086
 -0.618028
  0.175933
  0.109072
  0.439088
  0.006915
  0.136875
  0.118949
  0.248348
 -0.235082
  0.413697
  0.137692
  0.040478
 -0.251814
 -0.249529
 -0.139363
  0.383534
  0.252079
 -0.377657
 -0.454263
 -0.118660
 -0.257502
  0.004199
 -0.333091
  0.122095
  0.285820
  0.200694
 -0.009099
  0.169957
 -0.145463
 -0.001838
 -0.073307
 -0.109394
  0.150321
  0.040311
  0.159110
 -0.111544
  0.242737
  0.044985
 -0.184122
 -0.012277
  0.469036
 -0.327515
 -0.131058
  0.205220
  0.162870
 -0.207384
 -0.081331
 -0.001669
  0.209542
  0.236288
  0.210355
 -0.036103
  0.194666
 -0.188476
  0.063379
 -0.267747
  0.034792
 -0.147135
  0.253816
 -0.061529
 -0.152630
 -0.253216
  0.106826
  0.014478
  0.366839
  0.032991
 -0.596845
  0.185308
  0.052754
 -0.072927
  0.292988
 -0.168910
 -0.226107
 -0.001533
 -0.274203
 -0.009216
 -0.038283
  0.039609
  0.000354
 -0.202349
  0.033144
 -0.080937
  0.091154
 -0.262153
 -0.342324
 -0.179852
 -0.409344
  0.177060
 -0.197066
 -0.183145
 -0.233582
  0.283243
 -0.310032
 -0.362679
 -0.031302
  0.177868
 -0.214137
  0.280288
 -0.381000
  0.417770
  0.251554
 -0.202443
  0.150350
 -0.204649
  0.245320
 -0.123066
  0.141769
 -0.187484
 -0.454186
  0.021874
 -0.051476
 -0.021473
  0.203165
  0.021080
  0.216766
  0.444903
  0.205005
 -0.369201
 -0.298819
  0.070084
  0.039754
  0.122210
  0.043357
 -0.115450
  0.193072
 -0.426731
 -0.206600
 -0.174290
 -0.028169
  0.114261
 -0.020744
 -0.141550
 -0.131514
  0.172675
 -0.048402
 -0.079313
  0.011784
  0.110924
  0.036899
 -0.027688
 -0.015544
 -0.229411
 -0.172500
 -0.143091
  0.024912
  0.045580
  0.041691
  0.228034
 -0.398261
 -0.136499
 -0.031122
 -0.014920
  0.170939
 -0.111989
  0.264325
 -0.086519
 -0.034882
 -0.116464
  0.151837
 -0.243679
 -0.065482
  0.173068
  0.557212
 -0.015752
 -0.317654
 -0.097069
  0.139493
  0.413548
  0.454195
  0.117207
  0.046422
 -0.316643
  0.055483
  0.272633
 -0.018402
 -0.045305
 -0.221434
 -0.127265
  0.002447
  0.017464
 -0.382639
  0.362049
  0.089380
  0.442896
  0.091057
 -0.006731
 -0.021011
  0.095333
  0.032469
  0.184209
  0.438180
  0.216729
  0.250093
  0.295974
  0.054050
 -0.073859
  0.062996
  0.133243
 -0.306924
 -0.136137
 -0.255711
 -0.107315
  0.265291
  0.247277
  0.185939
  0.332421
 -0.106406
  0.158796
 -0.272014
  0.135149
  0.370788
  0.255408
 -0.095760
 -0.043351
 -0.070408
 -0.098234
 -0.057885
  0.027306
  0.150012
 -0.127841
 -0.057362
  0.041687
  0.225829
 -0.072186
 -0.288050
 -0.374893
  0.060049
  0.238392
 -0.201183
 -0.010896
 -0.298378
  0.267031
 -0.254393
 -0.164262
  0.159620
 -0.202678
  0.060595
  0.209726
 -0.110246
  0.078516
 -0.284579
 -0.176011
  0.026593
  0.118220
 -0.188978
 -0.059529
 -0.007552
  0.094158
 -0.223569
  0.095638
 -0.024750
  0.016196
  0.080251
 -0.065436
  0.239748
  0.126106
  0.047847
  0.003999
 -0.190826
 -0.165333
  0.035726
 -0.058321
 -0.270640
  0.417755
  0.256754
  0.114437
  0.115813
 -0.062359
  0.211202
  0.154539
  0.212024
  0.050120
  0.013567
 -0.471964
  0.021438
 -0.450243
  0.080740
 -0.117477
  0.182556
 -0.014684
 -0.012060
 -0.063619
  0.071227
  0.246361
  0.287225
  0.258697
  0.060921
 -0.198258
  0.233253
  0.019493
  0.043747
  0.048895
  0.060902
  0.070836
 -0.032672
 -0.144399
  0.032250
 -0.129782
 -0.110470
  0.457862
  0.103972
  0.407076
  0.108352
  0.102379
  0.029916
 -0.062012
  0.491277
  0.219827
  0.162878
  0.141751
  0.224650
  0.344918
 -0.170610
  0.140738
 -0.407361
  0.216802
 -0.121401
  0.068933
 -0.270635
  0.051955
 -0.138313
 -0.062229
 -0.092045
  0.084150
  0.090505
 -0.041655
 -0.026323
  0.134822
  0.040670
 -0.197136
  0.255761
  0.344476
  0.116801
  0.045315
 -0.038340
  0.002517
 -0.013561
  0.140990
  0.078714
  0.027067
 -0.090866
  0.092668
  0.117187
 -0.334326
  0.353988
  0.005509
 -0.277442
  0.296059
  0.308775
  0.115752
  0.038814
 -0.044938
 -0.092968
 -0.176729
  0.001254
  0.015783
 -0.008395
  0.015047
  0.086364
  0.617954
 -0.053044
 -0.098268
  0.087231
  0.123106
  0.116330
 -0.055422
  0.217157
 -0.265527
 -0.083881
  0.010105
  0.219001
 -0.270797
 -0.051296
 -0.177192
  0.015397
  0.164844
  0.263321
  0.301875
 -0.169007
  0.481277
  0.354976
 -0.027127
  0.181234
  0.100945
  0.387416
 -0.006636
  0.149930
  0.144303
  0.233734
  0.270023
 -0.080484
  0.214438
  0.286887
 -0.180239
  0.192382
  0.084289
 -0.198715
 -0.068623
  0.033028
 -0.164676
  0.206944
 -0.350687
  0.125005
 -0.362965
  0.506019
 -0.336287
 -0.549608
  0.061422
  0.122698
 -0.158646
 -0.217319
  0.089169
 -0.288791
 -0.003028
  0.322606
 -0.077050
 -0.096833
  0.396000
  0.167927
  0.054853
 -0.338430
  0.074673
  0.444453
  0.078587
 -0.195514
  0.226520
 -0.036833
 -0.049979
 -0.206293
  0.273233
  0.280497
 -0.084397
  0.188607
 -0.084829
  0.282311
 -0.101769
  0.140571
  0.151405
  0.221840
 -0.056411
  0.114433
  0.314030
  0.022805
 -0.195228
  0.016383
 -0.112459
  0.279402
  0.053820
 -0.151030
 -0.186808
 -0.039848
  0.178863
  0.362722
 -0.107692
  0.004441
 -0.348045
  0.365552
  0.394540
  0.146424
 -0.228905
 -0.131307
  0.256610
 -0.181962
 -0.214456
  0.443217
  0.230116
 -0.089851
  0.144861
  0.369444
 -0.005283
  0.295253
  0.213198
 -0.008142
  0.049420
 -0.035261
  0.252344
 -0.118571
  0.335949
 -0.315258
 -0.138938
 -0.131906
 -0.400053
  0.056572
 -0.297252
 -0.063104
 -0.041932
  0.010080
  0.076490
 -0.191672
  0.234387
 -0.014674
 -0.044113
 -0.052530
  0.202304
 -0.158040
 -0.064725
  0.105004
  0.416194
  0.516158
  0.571762
  0.230565
 -0.248525
  0.218202
  0.338082
  0.109058
 -0.351026
 -0.253927
 -0.104922
  0.114789
 -0.040963
  0.239409
  0.122500
 -0.140531
 -0.049684
  0.008037
 -0.009452
 -0.218030
 -0.156586
  0.429421
  0.097852
  0.182124
 -0.126779
 -0.263242
  0.128523
 -0.156696
 -0.141654
 -0.161843
  0.224218
 -0.007797
  0.089736
  0.051218
  0.313852
 -0.046469
 -0.057513
 -0.104173
  0.037042
 -0.344196
  0.041436
 -0.355878
 -0.005008
  0.377146
  0.338741
  0.012494
 -0.190148
  0.109313
  0.277507
 -0.008910
 -0.307439
  0.222561
  0.404563
 -0.010746
 -0.312542
  0.124262
  0.067738
  0.241717
  0.226135
  0.136337
 -0.061011
  0.287360
 -0.609486
 -0.200657
 -0.293719
 -0.202882
 -0.054644
 -0.245804
 -0.108858
  0.387304
  0.051377
 -0.091171
 -0.333802
  0.287169
  0.109786
  0.255787
 -0.004518
  0.001568
  0.288553
 -0.102848
  0.387431
  0.331903
 -0.017021
  0.239716
  0.029626
  0.109107
  0.086222
  0.156153
  0.340594
  0.407170
  0.022348
 -0.080342
 -0.195766
  0.302803
  0.228443
 -0.123079
  0.156473
  0.277464
 -0.084093
 -0.268748
 -0.158794
  0.512048
 -0.048158
  0.142237
 -0.016384
 -0.005074
 -0.093382
  0.013846
  0.447527
 -0.232242
  0.146769
  0.060567
 -0.139769
  0.083347
 -0.181775
  0.016191
 -0.052658
 -0.190915
  0.060564
 -0.787864
 -0.059064
 -0.020300
  0.044823
  0.153111
  0.095438
 -0.008678
 -0.145984
 -0.275997
  0.475360
  0.300317
  0.372218
 -0.017116
 -0.007575
 -0.059243
 -0.053245
  0.075536
 -0.153217
  0.153060
  0.303440
 -0.061970
  0.101688
  0.077019
  0.259903
 -0.067068
 -0.144868
  0.228533
  0.057056
  0.055426
  0.029311
 -0.203711
 -0.048565
 -0.141239
  0.168908
 -0.290378
  0.343168
  0.169854
 -0.168169
  0.117515
 -0.092704
  0.264409
  0.204821
  0.252169
  0.012714
  0.366929
  0.116189
 -0.266977
  0.202502
 -0.398923
  0.130750
 -0.080847
 -0.169435
 -0.168667
  0.249664
 -0.152461
 -0.019426
  0.087015
  0.032263
 -0.101567
  0.027237
  0.156874
 -0.200864
 -0.359425
  0.062524
 -0.379582
 -0.021382
 -0.270841
  0.095675
  0.037910
  0.277380
  0.329825
  0.231575
  0.053199
  0.007214
  0.345558
 -0.149778
  0.292033
 -0.245999
  0.285383
  0.101412
  0.331244
 -0.295171
 -0.028567
 -0.081495
  0.423749
  0.299437
  0.099523
 -0.160088
 -0.059991
  0.026024
  0.124980
  0.200192
 -0.056007
 -0.152588
 -0.139757
  0.157155
 -0.035532
 -0.283196
  0.464242
  0.182071
 -0.155701
 -0.299137
 -0.238106
 -0.008177
  0.076695
  0.232289
  0.216052
  0.490731
  0.348651
  0.326955
  0.208768
 -0.060314
  0.082966
 -0.327594
  0.031247
  0.142433
 -0.046223
 -0.109775
 -0.224951
  0.180245
  0.115729
  0.298337
  0.236240
  0.337005
  0.056659
  0.079276
 -0.183648
 -0.208834
 -0.019309
  0.167908
 -0.105561
  0.052406
  0.054807
 -0.234818
 -0.023337
 -0.202650
  0.159327
 -0.091684
  0.215262
 -0.256412
  0.047474
  0.093370
 -0.285152
 -0.109684
 -0.446491
 -0.043542
 -0.043215
 -0.260885
 -0.002870
 -0.081830
  0.106888
 -0.102163
 -0.127509
 -0.028351
 -0.296657
  0.098125
  0.167018
 -0.116511
  0.087930
  0.292697
 -0.154466
 -0.160820
 -0.498157
  0.184316
  0.121362
  0.297747
  0.270523
  0.241350
 -0.237220
  0.532286
  0.227241
 -0.022627
 -0.099304
  0.115585
 -0.202048
  0.155728
 -0.071362
  0.116950
 -0.362549
 -0.014907
 -0.342058
  0.052151
 -0.257659
 -0.244869
 -0.061402
  0.205578
  0.120630
 -0.034616
 -0.100648
 -0.065074
  0.039537
 -0.164841
  0.230077
 -0.490952
  0.046576
 -0.018052
 -0.025714
 -0.438747
  0.011962
  0.067122
 -0.126333
 -0.156824
 -0.410661
  0.353391
  0.038469
  0.069455
 -0.129964
  0.108016
  0.104732
 -0.263609
 -0.180135
 -0.036724
 -0.098674
  0.495073
  0.025687
  0.275570
 -0.101792
 -0.006402
 -0.085601
 -0.046781
  0.012681
  0.002548
 -0.238496
 -0.442115
 -0.182547
 -0.181591
 -0.139736
  0.405750
 -0.238030
  0.215231
 -0.011892
 -0.241065
 -0.074209
 -0.409420
  0.061681
 -0.162421
 -0.003252
  0.006339
  0.163916
  0.198613
 -0.183439
  0.091753
  0.162553
  0.472769
 -0.187839
 -0.235204
  0.005907
 -0.246357
 -0.052334
 -0.106269
  0.053340
 -0.186731
  0.077735
  0.075578
 -0.400555
 -0.209227
  0.140289
 -0.018639
 -0.519358
  0.117067
  0.127416
  0.009828
  0.110339
 -0.017984
 -0.262717
  0.258582
 -0.177713
 -0.330251
  0.158070
 -0.037708
 -0.161468
 -0.036023
  0.130220
  0.005956
 -0.080937
 -0.093083
 -0.219112
 -0.005769
 -0.381968
  0.351139
 -0.160309
  0.110592
  0.279303
  0.107839
 -0.121790
 -0.545992
  0.123814
  0.061339
 -0.083564
 -0.248082
 -0.013715
 -0.273813
  0.272003
 -0.043929
  0.099614
  0.300893
 -0.113258
  0.235562
  0.108469
 -0.279984
 -0.078412
  0.273309
 -0.455681
  0.271264
 -0.077605
  0.210357
 -0.224755
  0.088039
 -0.265763
  0.283298
 -0.002719
 -0.150620
  0.452371
  0.058154
  0.309073
  0.137481
 -0.080327
  0.153430
  0.117504
 -0.001849
 -0.012125
  0.086487
  0.269331
 -0.227407
  0.279143
 -0.066275
 -0.296094
  0.293696
  0.073584
 -0.293160
  0.014918
  0.207437
  0.022306
 -0.121909
 -0.115300
  0.543256
 -0.324685
 -0.285635
 -0.472751
  0.151202
  0.096032
 -0.091811
  0.097090
 -0.138329
  0.016283
  0.009622
  0.118414
  0.123796
  0.455480
 -0.244804
 -0.430474
 -0.278478
 -0.220786
 -0.148719
 -0.180730
 -0.237030
  0.030851
 -0.178207
  0.065447
  0.065698
  0.428084
 -0.109033
  0.183579
 -0.263820
 -0.192445
 -0.158085
 -0.067468
 -0.191777
  0.451169
 -0.097333
 -0.472453
  0.121433
  0.295185
 -0.125408
 -0.009278
 -0.233511
  0.037167
 -0.283572
  0.503847
 -0.046065
  0.075536
  0.180315
 -0.187125
  0.103718
 -0.033369
 -0.033300
 -0.050475
  0.157877
  0.062390
  0.120013
 -0.036856
  0.093463
  0.423558
  0.002282
  0.375570
 -0.123402
  0.212540
  0.328207
  0.003940
 -0.088053
 -0.047774
 -0.301488
  0.079649
  0.103036
 -0.210824
  0.111241
  0.151344
 -0.202752
 -0.176593
 -0.117885
  0.038236
 -0.139180
  0.197905
  0.326271
 -0.055442
  0.022861
  0.221795
  0.249486
  0.257733
 -0.078842
 -0.035992
  0.192969
  0.196137
 -0.078633
 -0.340067
 -0.131804
  0.060213
 -0.153797
  0.106053
  0.294131
  0.476894
  0.198907
  0.187826
  0.075533
 -0.079657
 -0.180163
  0.007010
  0.267242
 -0.071344
 -0.083622
 -0.387533
 -0.188947
 -0.089888
 -0.156997
 -0.062287
  0.337243
  0.057837
  0.457567
 -0.111815
 -0.082387
 -0.284180
 -0.172766
  0.043842
  0.078637
 -0.106033
  0.227077
  0.103813
 -0.493407
  0.067560
 -0.115067
  0.349620
 -0.190358
 -0.178088
 -0.023868
 -0.072216
 -0.105983
  0.004201
  0.116817
 -0.112930
 -0.418689
 -0.149250
 -0.213056
  0.442133
 -0.047805
  0.001982
  0.112653
  0.327930
  0.281637
 -0.042443
  0.117636
  0.446582
  0.354100
 -0.177398
 -0.017668
 -0.141172
  0.041664
 -0.212219
 -0.329636
  0.090155
 -0.001770
 -0.016274
  0.000018
 -0.210032
  0.003221
  0.291503
 -0.064582
 -0.087696
 -0.136212
  0.407775
 -0.040274
  0.227926
 -0.077481
 -0.086018
  0.102057
  0.108866
 -0.087647
 -0.224331
 -0.112528
 -0.046548
 -0.325842
  0.225842
 -0.156220
  0.245687
 -0.101107
 -0.103294
  0.252326
 -0.225466
  0.045675
 -0.349623
  0.183537
  0.504987
  0.604122
 -0.054252
  0.152805
 -0.109850
  0.186732
 -0.196574
 -0.132138
 -0.014042
 -0.113771
  0.027969
  0.218901
  0.288657
 -0.144134
  0.169081
  0.113337
  0.312474
 -0.059012
  0.128808
  0.044348
  0.015753
  0.047136
  0.071965
  0.337585
 -0.043570
  0.136953
 -0.337268
 -0.006054
  0.046873
  0.011772
 -0.016997
 -0.011493
  0.212066
 -0.013678
  0.125199
 -0.283121
  0.061304
  0.019350
 -0.106894
 -0.030417
 -0.138566
 -0.554523
 -0.289617
 -0.273926
  0.250590
 -0.029468
  0.147781
  0.036633
  0.207024
 -0.005419
 -0.009042
 -0.063319
 -0.205334
 -0.117459
  0.341979
  0.093774
  0.071375
  0.171187
  0.229171
 -0.005720
  0.157878
 -0.037353
 -0.341455
  0.300757
  0.171777
  0.016957
  0.006637
 -0.235093
 -0.082757
 -0.003585
 -0.111249
  0.253133
 -0.224646
 -0.189075
  0.138567
 -0.294561
  0.349312
 -0.294988
  0.262752
  0.063247
  0.265271
  0.309001
  0.233604
 -0.131777
  0.071128
  0.104099
 -0.000350
 -0.730674
  0.043111
  0.278052
  0.263321
  0.036892
 -0.050735
 -0.211884
  0.000141
 -0.036154
 -0.092885
 -0.057128
 -0.089038
 -0.105028
 -0.075870
  0.043683
  0.129914
 -0.029185
 -0.254088
 -0.107798
  0.158445
  0.391742
 -0.139092
 -0.194921
 -0.013212
 -0.195810
 -0.264774
  0.095206
  0.010065
  0.147724
  0.009713
  0.122768
 -0.120471
  0.003033
 -0.233169
 -0.087532
 -0.233534
  0.094204
  0.298700
  0.094423
 -0.035657
 -0.421467
  0.173130
  0.029287
 -0.092001
 -0.344389
  0.332636
 -0.075539
  0.130638
  0.486382
 -0.184020
  0.103508
  0.014643
 -0.402101
  0.197253
  0.141378
 -0.076010
  0.014839
 -0.175794
  0.024804
 -0.020321
 -0.297489
 -0.076306
 -0.032086
 -0.023439
 -0.111058
  0.337348
  0.236626
 -0.430773
  0.058305
  0.144338
 -0.330638
 -0.246874
 -0.407840
  0.017229
 -0.379175
  0.323863
  0.169792
  0.011033
 -0.054679
 -0.100984
  0.232422
 -0.062542
 -0.098779
  0.097632
  0.068572
  0.009434
 -0.002192
  0.080010
  0.093756
  0.341657
 -0.066861
  0.086963
  0.095661
 -0.000923
 -0.072065
  0.011994
  0.031994
  0.072542
 -0.049582
  0.084518
  0.108587
  0.261058
  0.067097
 -0.051774
 -0.249856
  0.231258
 -0.158226
  0.296632
  0.376605
 -0.065172
  0.160993
  0.280179
 -0.120746
 -0.104406
 -0.015540
 -0.328921
 -0.023158
 -0.344667
 -0.234891
 -0.153796
  0.098184
  0.455867
  0.525460
 -0.162539
 -0.125740
  0.038304
  0.158113
  0.258448
  0.092560
  0.210654
 -0.475749
 -0.056199
 -0.142405
 -0.042780
  0.261408
 -0.185502
 -0.156119
  0.007304
 -0.223693
  0.072606
  0.262875
  0.388428
  0.216801
  0.105883
 -0.066310
  0.143275
  0.226107
  0.107914
  0.315034
  0.437198
  0.135696
 -0.370214
 -0.135111
  0.098702
 -0.169118
  0.013761
  0.297444
 -0.091025
 -0.025984
 -0.050711
 -0.360450
 -0.018911
 -0.114086
 -0.396806
  0.015408
  0.011558
  0.044320
 -0.323121
 -0.166399
 -0.280292
  0.185642
  0.047160
  0.167796
 -0.103820
  0.093271
 -0.168678
  0.179307
 -0.403164
  0.052558
  0.107816
  0.292978
  0.067973
 -0.272456
  0.006356
  0.123951
 -0.095154
  0.458472
 -0.247305
 -0.509603
 -0.125524
 -0.096445
 -0.025640
  0.190926
 -0.047533
 -0.156855
 -0.369090
  0.158794
  0.231286
 -0.144492
  0.020066
  0.099134
 -0.073510
  0.085280
 -0.002162
 -0.217005
 -0.481428
  0.060575
 -0.373996
  0.284218
  0.005689
  0.102208
 -0.199291
 -0.179159
 -0.279327
  0.042458
 -0.017180
  0.082454
  0.076276
 -0.186082
  0.000006
 -0.027570
 -0.150897
  0.022282
  0.035652
  0.297097
 -0.215141
 -0.308032
 -0.019159
  0.216367
  0.121062
  0.320482
 -0.322997
 -0.286344
  0.042553
 -0.234121
  0.339637
  0.236749
  0.057447
 -0.286862
 -0.220092
 -0.056822
  0.119914
  0.276850
  0.288506
 -0.077117
  0.126158
 -0.246382
 -0.041400
 -0.299856
 -0.102237
  0.407097
  0.181746
 -0.463901
 -0.114812
  0.109173
  0.177811
 -0.006977
  0.304826
 -0.041270
 -0.200239
  0.185281
 -0.212333
  0.060735
 -0.228289
 -0.381585
  0.352650
 -0.052275
  0.191390
 -0.323237
  0.326712
  0.391701
 -0.310511
  0.058444
  0.013057
  0.134208
 -0.027712
  0.095485
  0.276912
 -0.115951
  0.228970
  0.068706
 -0.247388
  0.000979
  0.238576
 -0.032417
 -0.255230
 -0.015888
 -0.064738
 -0.229230
  0.187796
  0.306480
 -0.484876
  0.337816
  0.042181
 -0.128994
 -0.299630
  0.205100
 -0.135539
  0.367941
  0.282471
  0.345007
  0.110931
  0.118224
  0.155399
  0.207059
 -0.132346
 -0.161664
  0.137944
 -0.309616
  0.357076
 -0.257738
 -0.111178
  0.100122
  0.181309
  0.070717
  0.105244
  0.111753
  0.232692
 -0.178361
 -0.166656
 -0.064175
  0.022906
 -0.099244
  0.103572
 -0.065903
  0.178490
 -0.071445
  0.147817
 -0.331944
  0.081950
 -0.035637
  0.110907
 -0.090914
  0.012202
  0.059876
 -0.144783
 -0.094862
  0.230589
 -0.064105
  0.320892
  0.354050
  0.189987
 -0.020062
  0.027607
 -0.268552
  0.077934
  0.092298
 -0.018353
 -0.121100
  0.288266
  0.375604
 -0.062157
  0.200607
 -0.261200
 -0.018541
  0.128888
 -0.100846
  0.285458
 -0.187248
 -0.028259
 -0.145824
  0.207907
  0.223986
 -0.091381
 -0.000371
 -0.276966
  0.074729
  0.047904
 -0.291615
  0.333322
  0.294111
  0.137800
  0.025366
  0.069007
  0.469156
  0.126812
  0.089673
  0.123104
 -0.130972
  0.096538
  0.145897
 -0.215134
 -0.182520
  0.171849
 -0.524041
 -0.350756
 -0.136635
  0.129562
 -0.213458
  0.144059
  0.286961
  0.101694
 -0.075422
 -0.111436
  0.231187
  0.263601
  0.134514
  0.584953
 -0.011272
  0.253223
 -0.407994
 -0.265765
 -0.186075
 -0.125433
  0.127186
 -0.163892
 -0.436116
 -0.122792
 -0.121368
 -0.264860
  0.040782
 -0.086242
 -0.018314
  0.103304
 -0.012456
  0.071744
 -0.009389
  0.250199
 -0.012331
 -0.274083
 -0.379982
 -0.102000
  0.078154
  0.095369
 -0.260100
  0.560910
  0.121071
  0.023911
  0.241676
 -0.558834
 -0.254134
  0.195747
 -0.163291
  0.019904
  0.320589
  0.214595
 -0.055864
  0.114178
  0.005169
  0.202577
  0.287739
  0.304590
  0.343434
  0.030076
 -0.047066
 -0.209378
  0.026239
  0.144726
 -0.011820
  0.026435
 -0.121526
 -0.168955
 -0.023930
  0.019800
 -0.248268
  0.070872
  0.013864
  0.128846
 -0.040344
 -0.064190
 -0.048850
 -0.241739
 -0.253568
  0.001331
  0.112309
  0.054239
  0.022514
 -0.182535
  0.210345
  0.128136
 -0.018653
  0.172361
 -0.209868
 -0.430597
  0.338498
 -0.180135
 -0.099147
 -0.240710
 -0.202237
 -0.350779
  0.132471
 -0.277641
  0.061557
  0.031472
  0.248570
  0.080825
 -0.068364
  0.231817
  0.143603
 -0.018121
  0.016125
 -0.244050
  0.150867
 -0.159064
  0.003563
 -0.075003
 -0.255843
 -0.024883
 -0.177794
  0.342299
 -0.237137
 -0.052854
 -0.234317
  0.086381
  0.292973
 -0.464313
  0.045078
 -0.440543
 -0.084666
  0.094019
  0.055061
 -0.002244
  0.130092
 -0.106584
  0.141603
  0.082910
  0.222349
 -0.084966
  0.129442
  0.342203
 -0.009873
 -0.179098
 -0.043711
 -0.337604
 -0.181982
  0.147614
 -0.096579
 -0.240453
  0.029760
 -0.476530
 -0.154354
 -0.012289
  0.093159
 -0.331980
  0.167491
  0.251556
  0.109889
 -0.025387
 -0.078419
  0.345298
  0.167909
 -0.143002
  0.130066
 -0.341380
  0.094220
 -0.039309
 -0.222179
 -0.071362
  0.080800
 -0.099931
 -0.173760
 -0.204435
 -0.005081
  0.329778
 -0.148247
  0.021261
 -0.186987
 -0.165754
 -0.168245
  0.177532
  0.377442
  0.041153
  0.128141
  0.180113
 -0.121672
  0.148996
  0.195573
  0.060841
 -0.137548
 -0.101362
 -0.294636
 -0.140965
  0.437178
  0.226195
 -0.110823
  0.034490
 -0.260957
 -0.500284
  0.144952
  0.100086
  0.026279
 -0.090977
 -0.398352
 -0.331538
  0.050197
 -0.228941
 -0.267830
 -0.141487
  0.226780
 -0.258312
 -0.070339
  0.183732
 -0.044996
  0.043552
 -0.013921
  0.206232
 -0.117606
 -0.138180
 -0.278049
  0.215676
  0.384764
  0.177822
 -0.108633
 -0.161159
 -0.688889
 -0.054764
  0.045118
 -0.174060
 -0.139431
 -0.056026
  0.280623
  0.124032
 -0.039654
  0.070749
  0.179205
  0.169187
 -0.125642
 -0.066348
  0.082174
  0.080325
  0.149822
 -0.178348
  0.076753
  0.295758
 -0.165906
  0.281995
  0.336885
 -0.128758
  0.151702
 -0.201628
 -0.074755
 -0.286446
  0.055146
 -0.043129
  0.020296
 -0.031854
 -0.039958
  0.257395
  0.055013
 -0.111152
 -0.458170
 -0.155656
 -0.156347
 -0.033001
 -0.151466
  0.192927
  0.177941
  0.026975
 -0.152438
  0.110211
 -0.041456
 -0.176683
 -0.161742
 -0.126180
  0.188231
 -0.203579
  0.205993
 -0.219561
  0.389189
 -0.274012
 -0.045333
  0.152282
  0.054092
  0.093128
  0.187148
  0.173959
 -0.030072
  0.086491
  0.224152
  0.090642
  0.094867
  0.303320
 -0.233587
 -0.008239
 -0.240130
  0.117600
  0.028130
  0.320850
  0.159327
  0.170438
 -0.046857
 -0.096707
 -0.220670
  0.117860
 -0.141656
 -0.135191
 -0.228120
  0.082177
  0.294762
  0.112634
  0.220538
  0.133162
  0.145301
  0.089013
 -0.119357
 -0.007044
  0.062033
  0.217376
 -0.365437
 -0.258392
 -0.021133
 -0.069535
 -0.090349
  0.299655
  0.070981
 -0.149003
  0.119391
 -0.153543
 -0.075279
 -0.224012
  0.116484
  0.149978
 -0.171515
 -0.051918
 -0.105256
  0.053676
  0.018318
  0.547229
  0.195751
  0.068080
  0.072180
 -0.121789
  0.050761
  0.088520
 -0.298697
 -0.607576
 -0.171791
 -0.033071
 -0.135125
 -0.254177
  0.129178
 -0.177534
  0.271736
 -0.119810
  0.052860
  0.141938
 -0.002180
 -0.080623
 -0.208321
 -0.108332
  0.066407
  0.037554
 -0.268306
  0.166015
  0.248347
 -0.012431
 -0.066289
 -0.183182
 -0.035911
 -0.433430
 -0.138972
  0.288533
 -0.046856
 -0.366185
  0.059747
  0.086006
 -0.013323
  0.313608
  0.317029
 -0.108271
 -0.031211
  0.197354
 -0.235351
 -0.325826
 -0.249838
  0.072075
  0.025862
 -0.093795
 -0.031662
  0.264728
  0.026082
  0.110343
  0.220919
  0.078686
 -0.032596
  0.111738
  0.070897
 -0.048101
 -0.055272
  0.153115
  0.106365
 -0.219712
  0.027465
  0.071378
 -0.091458
  0.161693
 -0.007230
  0.291009
  0.159014
  0.013770
  0.039943
  0.008176
 -0.534093
 -0.134896
  0.367979
 -0.558680
 -0.161860
 -0.107820
  0.100642
  0.056111
 -0.128053
 -0.084364
  0.375103
 -0.060140
  0.428462
 -0.111109
  0.260784
  0.226364
  0.307888
 -0.139215
  0.135400
 -0.040639
  0.225608
  0.322860
 -0.251008
  0.075896
  0.348085
  0.009446
 -0.092735
 -0.010776
 -0.052850
  0.187884
  0.148767
 -0.100828
 -0.156737
  0.297857
 -0.064816
  0.031396
 -0.106904
 -0.007293
 -0.146259
  0.121893
 -0.550657
 -0.323535
  0.299598
  0.049990
 -0.125292
  0.039508
  0.455550
  0.105889
  0.048211
  0.287279
 -0.078227
 -0.237597
 -0.074313
 -0.105613
 -0.196599
  0.074721
 -0.000748
  0.106179
 -0.071264
 -0.139921
 -0.094279
  0.249936
 -0.134251
 -0.057981
  0.171701
  0.158370
 -0.294554
 -0.177974
  0.207063
  0.091097
  0.728561
  0.155989
  0.153303
  0.096298
 -0.104146
  0.286801
 -0.320558
 -0.534217
  0.447707
  0.507463
  0.004758
 -0.311877
 -0.267170
  0.195567
  0.097481
 -0.357838
 -0.308095
 -0.043686
 -0.069980
  0.053734
 -0.074681
 -0.244365
  0.028021
  0.141218
 -0.008108
 -0.065214
 -0.197097
 -0.134186
  0.138880
 -0.279011
 -0.215693
  0.085283
  0.122638
  0.092782
  0.013761
  0.033217
  0.083799
  0.285007
  0.024406
 -0.067920
 -0.260934
  0.254841
  0.115708
  0.133536
 -0.163209
  0.221533
 -0.193442
  0.142519
 -0.039998
 -0.262267
  0.008259
 -0.245759
 -0.279799
  0.444129
 -0.052375
  0.055696
 -0.245187
 -0.061156
  0.030418
 -0.149651
  0.282097
  0.192705
  0.363836
 -0.102305
 -0.145474
  0.524344
  0.286111
  0.137679
  0.268570
  0.034367
  0.068058
  0.477883
 -0.411923
  0.155560
  0.287587
 -0.149722
  0.017129
  0.027772
  0.190474
 -0.296352
  0.219183
 -0.179474
 -0.163986
  0.041198
  0.050421
  0.056312
  0.322228
 -0.356355
  0.112215
 -0.122962
  0.011833
  0.193114
 -0.282921
  0.170656
  0.063787
  0.052548
 -0.115564
 -0.396558
  0.138431
 -0.412157
 -0.131143
  0.327670
  0.170680
 -0.453279
  0.014181
 -0.144810
 -0.145639
 -0.085331
 -0.014276
 -0.299149
 -0.139859
  0.121496
  0.037570
 -0.098442
 -0.244246
  0.097798
  0.044130
  0.280231
 -0.074440
  0.109085
 -0.078582
 -0.064309
 -0.178111
  0.077505
  0.110717
  0.219107
 -0.037163
 -0.072273
  0.103525
 -0.197502
 -0.082603
 -0.257876
 -0.044496
 -0.049150
 -0.261285
  0.267933
  0.112568
 -0.148532
 -0.500152
 -0.095588
 -0.321299
  0.176577
  0.121294
  0.141436
  0.048212
  0.198638
 -0.208336
  0.081740
  0.054416
 -0.031220
 -0.336572
  0.006596
 -0.012227
 -0.186796
 -0.075834
 -0.146198
  0.066058
  0.120442
  0.082533
  0.014217
 -0.118449
 -0.189801
  0.080179
  0.688122
  0.293113
  0.028715
 -0.261547
  0.135027
  0.131773
 -0.258996
 -0.045598
 -0.162713
 -0.200226
  0.034390
  0.352292
  0.044310
 -0.118725
  0.006812
 -0.295614
  0.058081
  0.212174
  0.165841
  0.023088
 -0.023014
 -0.242657
  0.051311
  0.267504
  0.432138
 -0.123876
 -0.182610
  0.145716
  0.321403
  0.186269
 -0.100446
  0.237115
 -0.305534
 -0.081939
  0.149973
 -0.089525
  0.059186
 -0.074743
 -0.242952
 -0.158907
  0.032985
 -0.328144
 -0.114791
 -0.167361
 -0.015414
 -0.231472
 -0.531568
  0.010605
  0.092123
 -0.374979
  0.061786
  0.526289
 -0.097397
 -0.323850
 -0.114695
 -0.158088
 -0.246148
  0.129193
 -0.175373
 -0.302452
 -0.039028
  0.004425
 -0.124539
  0.042885
 -0.101167
 -0.212801
  0.028054
 -0.428407
  0.223110
 -0.323376
 -0.149716
  0.142261
 -0.124344
 -0.310045
  0.264814
 -0.281179
 -0.067674
 -0.068522
 -0.113222
  0.198340
  0.027494
  0.491386
  0.094924
  0.420611
  0.442781
  0.016037
  0.090795
  0.415756
  0.127659
  0.215310
 -0.117069
 -0.101502
 -0.088001
  0.118728
  0.164619
  0.103480
 -0.064047
 -0.008159
  0.069139
  0.362994
  0.300603
  0.195432
 -0.131236
 -0.102199
 -0.010905
 -0.079208
  0.084191
 -0.333686
  0.021999
  0.232008
 -0.060761
 -0.179818
 -0.071965
  0.173838
  0.000310
 -0.000423
  0.336813
 -0.054359
  0.217494
 -0.107739
 -0.081803
 -0.083372
  0.248126
  0.393199
  0.821704
 -0.234333
  0.725554
  0.564094
  0.301562
  0.494128
  0.494163
  0.830937
  0.468505
  0.306587
  0.463057
  0.536317
  0.631333
  0.475376
  0.738006
  0.640245
  0.545672
  0.617197
  0.703094
  0.686604
  0.967782
  0.628700
  0.836671
  1.000000
  0.839718
  0.442989
  0.280424
  0.412572
  0.471673
 -0.004678
  0.275840
 -0.072822
  0.134342
 -0.192710
  0.188152
  0.091809
 -0.212390
  0.089332
  0.105687
 -0.071543
 -0.102519
  0.223498
  0.262044
  0.366756
 -0.101361
 -0.240625
 -0.044546
 -0.119898
 -0.027525
 -0.154947
  0.194863
 -0.004911
 -0.357793
  0.496498
 -0.176588
  0.085051
  0.003290
 -0.077296
  0.224278
 -0.063429
 -0.206984
  0.148573
  0.000257
  0.496169
 -0.331212
 -0.009894
  0.262227
  0.219850
  0.062051
 -0.008410
 -0.159641
 -0.550818
  0.165375
  0.038433
  0.159654
 -0.248021
  0.012332
  0.008842
  0.392210
  0.285027
 -0.167449
  0.032718
 -0.359823
 -0.089107
 -0.044879
  0.141025
  0.109409
 -0.082389
 -0.427448
  0.159454
 -0.091187
 -0.175506
  0.055537
  0.259461
  0.197388
 -0.107363
 -0.128496
  0.053086
  0.005652
  0.054997
 -0.111211
 -0.243812
  0.110741
  0.155167
  0.337021
  0.006389
 -0.130623
 -0.163771
  0.242756
 -0.036599
 -0.159213
 -0.212996
  0.196382
  0.040071
 -0.014210
  0.180418
 -0.148656
 -0.136730
 -0.160762
 -0.029775
  0.027578
  0.255291
  0.032533
  0.084467
 -0.153678
 -0.307914
 -0.284159
  0.013351
 -0.129948
 -0.154140
 -0.122987
 -0.029114
 -0.071709
 -0.218920
  0.157949
  0.164731
  0.259995
 -0.019744
 -0.007980
 -0.017089
  0.107082
  0.118424
  0.006753
  0.155411
 -0.221159
 -0.024181
  0.027117
 -0.062132
 -0.029329
 -0.000959
 -0.164541
  0.259891
  0.135188
  0.137434
 -0.058773
  0.137907
 -0.088534
  0.050728
 -0.342761
 -0.162265
  0.130317
 -0.266786
 -0.099407
  0.075171
 -0.406950
  0.097341
 -0.255942
 -0.225314
  0.105366
 -0.049218
  0.206895
  0.018310
  0.023486
  0.148694
  0.035416
 -0.025935
 -0.034050
 -0.334252
  0.034184
 -0.189673
 -0.038633
  0.106099
 -0.164447
 -0.283442
 -0.137821
 -0.104743
  0.102788
 -0.043198
  0.279440
 -0.015957
 -0.006309
  0.150214
 -0.056123
  0.033344
 -0.085810
 -0.168624
 -0.058367
 -0.079226
  0.160450
 -0.107178
 -0.063035
  0.276304
 -0.025890
 -0.103845
 -0.081806
  0.248420
 -0.085782
  0.260136
 -0.067714
  0.025259
 -0.421793
  0.057504
  0.097383
 -0.142208
 -0.097329
 -0.425095
  0.048574
 -0.117305
  0.078607
  0.219688
  0.057727
 -0.227132
 -0.006157
 -0.037410
  0.003584
  0.080625
  0.116608
 -0.134486
 -0.319455
  0.544291
 -0.019895
  0.096910
  0.282043
 -0.324247
  0.125710
 -0.158345
  0.086795
  0.102821
  0.131067
  0.033775
  0.151156
 -0.145096
  0.266223
 -0.240899
  0.028387
 -0.025855
  0.333918
  0.256935
  0.049805
  0.200882
  0.194153
 -0.045175
 -0.252875
  0.321963
  0.019418
  0.269491
  0.319531
 -0.064550
 -0.123798
 -0.027026
 -0.094989
  0.003838
  0.005003
 -0.323743
  0.070497
  0.078059
 -0.020260
  0.228544
 -0.110212
 -0.112455
 -0.010343
 -0.149500
  0.099732
 -0.019915
 -0.131728
  0.292618
  0.157171
 -0.321305
 -0.003611
 -0.235752
 -0.224602
  0.063611
  0.280804
  0.087071
  0.076967
  0.011059
  0.370280
  0.294697
 -0.000135
 -0.030207
  0.142302
 -0.041698
  0.005655
  0.263303
 -0.045856
  0.177930
  0.016453
  0.115712
 -0.151992
  0.112338
  0.273110
  0.010095
 -0.007955
  0.020543
  0.152739
 -0.197884
  0.170769
  0.177514
 -0.114583
 -0.019428
  0.401272
 -0.090652
 -0.094057
 -0.098015
  0.253470
  0.308911
  0.060925
  0.214569
  0.058555
 -0.051572
  0.068108
 -0.089330
 -0.046901
 -0.172751
  0.402561
 -0.128586
 -0.127150
 -0.344655
  0.121519
  0.196163
 -0.043240
  0.235857
 -0.089747
 -0.128064
  0.413806
  0.025514
 -0.130693
 -0.042482
 -0.131771
 -0.102784
  0.020144
  0.062184
  0.182666
  0.183282
 -0.387880
  0.031038
 -0.131460
 -0.302585
 -0.436945
 -0.284350
  0.122896
 -0.063552
 -0.028302
  0.151065
  0.331198
 -0.022885
 -0.064395
  0.122218
 -0.225965
  0.046054
  0.189176
 -0.245111
 -0.118917
  0.043508
  0.026943
 -0.315610
 -0.097540
 -0.156380
  0.115040
 -0.007481
 -0.087017
 -0.449134
  0.298906
  0.055268
  0.310184
  0.212544
 -0.074849
 -0.412639
  0.179801
 -0.079360
 -0.012411
 -0.373619
  0.093218
  0.120404
  0.677757
 -0.029113
  0.063670
  0.359761
 -0.158413
  0.164350
 -0.011808
 -0.244899
 -0.076740
  0.009116
 -0.346938
  0.173238
 -0.071779
 -0.098213
  0.247618
  0.394694
 -0.075721
 -0.026719
 -0.045971
  0.016943
  0.100647
  0.195164
 -0.022977
  0.216943
 -0.154293
 -0.440450
 -0.180000
  0.052675
 -0.195527
 -0.200985
  0.222789
  0.298275
 -0.092123
  0.301929
 -0.012865
 -0.054615
 -0.035908
 -0.093323
  0.202474
  0.340379
  0.191388
  0.159457
 -0.041917
 -0.234685
 -0.054057
  0.130478
 -0.141030
  0.370868
  0.048297
 -0.123135
  0.052172
 -0.365358
  0.035916
 -0.206111
  0.164545
 -0.145702
  0.132903
  0.237974
  0.130838
 -0.012550
  0.339809
  0.170396
  0.454500
 -0.157393
  0.003788
 -0.203584
  0.247013
 -0.424464
  0.119553
 -0.020353
  0.208129
  0.127295
 -0.118996
  0.062184
 -0.365649
 -0.100402
 -0.087198
 -0.282953
  0.115376
 -0.192550
  0.132178
  0.164143
 -0.298500
  0.263017
  0.118070
 -0.334199
 -0.036573
 -0.015388
  0.081583
  0.100637
  0.179180
 -0.264007
  0.152554
 -0.200647
  0.001916
  0.207531
 -0.409184
  0.024248
 -0.151745
  0.223636
  0.035962
 -0.167388
  0.039109
  0.068105
  0.329261
  0.122655
  0.152674
  0.286522
  0.206828
 -0.242387
  0.199717
 -0.328816
 -0.342959
  0.009010
  0.133491
 -0.160928
  0.047215
  0.081443
 -0.279709
 -0.034434
 -0.346806
  0.107605
  0.010409
  0.069999
  0.230192
 -0.323105
 -0.228882
 -0.057578
 -0.210521
 -0.073637
 -0.274053
  0.058164
  0.443082
 -0.072210
  0.093113
 -0.088905
 -0.138585
  0.312789
 -0.146701
 -0.111705
  0.152232
  0.279905
  0.329552
 -0.234072
 -0.090906
 -0.204707
  0.006610
  0.296088
  0.217537
 -0.373737
 -0.082713
 -0.012691
 -0.162334
  0.235331
  0.147721
 -0.086730
 -0.131379
 -0.170618
 -0.128494
  0.227383
 -0.187515
 -0.067614
 -0.545410
  0.252565
 -0.355667
 -0.131537
 -0.291198
  0.261287
  0.113436
 -0.088614
  0.177698
 -0.173699
  0.149090
  0.075264
  0.164696
  0.232926
  0.225272
 -0.152304
 -0.121233
  0.021520
 -0.287222
  0.137373
 -0.091080
 -0.158612
  0.262959
  0.094289
 -0.264054
  0.238873
  0.240962
 -0.008015
  0.015345
  0.131633
 -0.191508
  0.216024
 -0.103594
 -0.157181
 -0.101062
  0.032931
  0.084065
 -0.216853
  0.446071
 -0.289472
  0.119136
  0.054373
 -0.342351
 -0.192774
  0.252437
 -0.101289
 -0.080004
 -0.080485
  0.227414
 -0.128284
  0.080652
 -0.082612
  0.202883
  0.163799
 -0.005188
 -0.055949
 -0.145661
  0.466249
  0.039417
 -0.060161
 -0.121099
  0.029013
 -0.184558
 -0.184610
 -0.252268
 -0.159256
 -0.205231
 -0.143115
  0.140204
 -0.089170
  0.189947
 -0.135152
  0.153245
  0.042676
  0.300888
 -0.288345
 -0.404246
 -0.152710
 -0.436748
  0.150417
 -0.127791
 -0.377862
  0.028841
 -0.225579
  0.240312
  0.135099
  0.199660
  0.130804
  0.093597
  0.146150
  0.055667
 -0.094518
  0.254834
 -0.137533
  0.252434
 -0.017678
  0.239888
 -0.193079
  0.258353
 -0.078492
  0.411599
 -0.029007
 -0.449314
 -0.195876
  0.479043
 -0.111252
  0.034141
 -0.127076
  0.120112
 -0.209394
 -0.012695
 -0.192178
 -0.196985
  0.311776
 -0.124632
  0.146469
 -0.054730
  0.065980
  0.025361
 -0.071451
  0.162771
 -0.656434
 -0.205927
  0.011977
 -0.165717
 -0.415941
 -0.228293
 -0.191286
  0.175031
  0.192142
  0.112143
  0.189679
 -0.037527
  0.027595
  0.183376
 -0.133634
 -0.069930
  0.177209
 -0.131769
 -0.124931
 -0.027224
  0.024569
 -0.000790
  0.085388
 -0.181864
  0.092998
  0.121002
 -0.332467
 -0.091756
  0.249305
 -0.323883
  0.207235
  0.120681
 -0.309879
  0.059864
 -0.000167
  0.196347
  0.075091
  0.399843
  0.089445
  0.119224
  0.300320
  0.058252
 -0.001480
  0.048920
  0.037592
  0.345034
  0.097101
 -0.168618
  0.117257
 -0.112654
 -0.168581
  0.194021
  0.148780
  0.036369
  0.033096
  0.003433
  0.052420
  0.476632
 -0.280542
  0.222724
  0.134227
 -0.189039
  0.038174
 -0.306244
 -0.018355
 -0.337007
  0.245871
  0.070367
  0.081494
  0.142984
  0.042923
 -0.085083
 -0.084341
 -0.112050
  0.160965
 -0.031767
  0.120129
 -0.167278
  0.308085
 -0.217607
 -0.024489
  0.162259
  0.113702
 -0.010813
  0.182451
 -0.242812
 -0.263768
 -0.279379
  0.172736
  0.123774
  0.018427
  0.253129
 -0.113059
  0.051897
  0.143122
 -0.131559
  0.077952
  0.268866
  0.134602
  0.057033
  0.010908
 -0.203959
 -0.357389
  0.190118
 -0.237955
 -0.225066
  0.085019
 -0.215584
 -0.101261
 -0.127608
  0.424362
 -0.080045
 -0.200911
  0.343546
 -0.093731
 -0.009360
 -0.121587
  0.196021
 -0.037813
  0.264737
  0.203402
 -0.085540
 -0.038031
 -0.243111
 -0.248141
  0.217363
 -0.111116
  0.143601
  0.225441
 -0.091950
  0.029465
  0.088780
 -0.297071
 -0.044914
  0.016104
  0.160857
 -0.047479
 -0.065372
 -0.054655
  0.172435
  0.353686
 -0.150320
 -0.226246
  0.031779
  0.063849
  0.239228
  0.114028
  0.454545
  0.144885
  0.160011
 -0.043163
  0.375724
 -0.158338
  0.303394
 -0.205715
  0.325148
 -0.396170
  0.295847
  0.309695
  0.208166
  0.229853
  0.141726
 -0.184187
 -0.157775
  0.243642
  0.157494
 -0.218565
  0.007184
  0.076657
  0.141388
 -0.083345
  0.035316
  0.079762
 -0.110880
 -0.071534
 -0.132767
 -0.272740
 -0.006328
 -0.081180
  0.133004
 -0.117296
 -0.026423
 -0.339946
 -0.087561
  0.100307
 -0.011298
  0.015798
 -0.147615
 -0.230431
  0.090617
  0.319364
  0.122344
  0.282533
 -0.104486
  0.104255
 -0.112525
 -0.264580
  0.033180
  0.231397
  0.141746
 -0.476568
 -0.147276
 -0.234650
  0.216731
  0.095475
 -0.193399
 -0.009224
  0.344142
 -0.135079
 -0.187254
  0.324767
  0.246380
 -0.342803
  0.096065
  0.106428
 -0.064664
 -0.291175
  0.251563
  0.342485
  0.322360
  0.074854
 -0.252523
 -0.210291
 -0.010127
  0.360840
 -0.014367
  0.204934
  0.145761
  0.027910
  0.283355
  0.057664
  0.081690
 -0.197943
  0.150201
  0.007878
  0.437479
 -0.025224
 -0.064086
 -0.143122
 -0.528343
 -0.028592
  0.283421
  0.171322
 -0.121898
 -0.247146
 -0.016551
 -0.350913
  0.179663
 -0.146505
  0.079775
  0.218938
  0.016616
 -0.416339
 -0.167011
 -0.165614
 -0.018690
  0.029863
  0.210629
  0.158435
  0.036131
  0.418947
  0.079694
 -0.117463
  0.128235
  0.037158
  0.120553
  0.097821
 -0.096895
 -0.101165
  0.178580
  0.051367
 -0.128774
 -0.326290
  0.004197
  0.172983
 -0.256920
  0.023559
  0.134169
  0.112760
 -0.017276
 -0.045955
 -0.359537
  0.091226
  0.082858
 -0.207040
  0.056407
 -0.176133
  0.024550
 -0.123722
 -0.140235
 -0.104598
  0.135785
  0.036711
  0.017605
 -0.029781
 -0.024528
  0.147069
 -0.014541
 -0.021756
  0.253254
 -0.052486
  0.076903
 -0.056167
 -0.052743
  0.068148
 -0.123974
 -0.201118
  0.223176
  0.084704
  0.114163
  0.321700
  0.092730
 -0.182440
  0.247903
  0.214566
 -0.203782
  0.180301
  0.233681
 -0.195785
 -0.165420
 -0.257649
 -0.360023
 -0.399898
  0.341614
 -0.043381
  0.143266
 -0.128249
 -0.126464
 -0.011622
 -0.361344
 -0.219958
 -0.236909
 -0.234903
 -0.028280
  0.050248
 -0.159873
 -0.034028
  0.030632
 -0.253117
  0.039497
 -0.242580
 -0.324906
  0.147993
  0.295828
  0.410853
  0.143640
 -0.319192
  0.189092
 -0.320392
 -0.296851
  0.006059
 -0.214339
 -0.348122
 -0.342901
 -0.070764
  0.102696
  0.371537
  0.068476
 -0.090120
  0.026377
  0.107337
 -0.006092
  0.013409
 -0.061031
  0.025266
 -0.373339
  0.228731
  0.117892
  0.134696
  0.204556
 -0.038920
 -0.065955
  0.202834
 -0.049808
  0.169987
 -0.234304
  0.075202
 -0.062542
  0.213850
 -0.244334
  0.006551
  0.020935
 -0.060222
  0.004413
  0.031613
  0.180283
  0.029692
  0.503579
 -0.227809
 -0.279366
 -0.030127
 -0.361440
  0.342463
 -0.356715
  0.006639
 -0.031001
 -0.093832
  0.202373
 -0.112836
 -0.079833
 -0.162585
  0.087929
  0.098724
 -0.120530
  0.003548
 -0.137880
  0.167718
 -0.077842
 -0.063711
 -0.028690
  0.082799
 -0.021587
  0.018218
 -0.119647
 -0.092750
  0.320386
 -0.179392
 -0.253230
 -0.096611
 -0.348603
 -0.017151
  0.273152
  0.232673
 -0.178358
 -0.152359
  0.001585
 -0.003633
 -0.033464
  0.482033
  0.031855
 -0.150635
 -0.025326
  0.066956
  0.070226
  0.178886
  0.068079
 -0.074417
  0.266995
 -0.066789
 -0.282792
 -0.170973
  0.202655
 -0.084032
 -0.202903
 -0.117574
 -0.111833
 -0.045351
 -0.449217
  0.176302
 -0.239020
 -0.345114
  0.269436
 -0.193981
  0.178941
 -0.113740
  0.223066
 -0.168064
  0.103315
  0.293364
  0.059857
  0.050486
  0.210804
 -0.180681
  0.077220
 -0.100612
  0.202317
 -0.449920
 -0.158980
 -0.149300
 -0.018975
 -0.016174
 -0.042914
 -0.238711
  0.290828
 -0.158294
  0.200683
 -0.119091
  0.168728
 -0.146068
 -0.218428
  0.045443
  0.094743
  0.156009
  0.190425
 -0.228187
 -0.427601
 -0.357423
 -0.191296
 -0.019642
  0.103567
  0.035547
  0.168574
 -0.031642
  0.231106
  0.067918
 -0.177925
  0.277603
  0.010267
  0.017937
 -0.285895
 -0.057902
  0.116796
  0.244948
  0.191762
 -0.611358
  0.649191
 -0.097978
  0.087313
  0.011171
  0.245251
  0.295479
  0.186363
 -0.162988
  0.101663
 -0.010608
 -0.271436
 -0.319619
 -0.168392
 -0.008307
  0.170347
 -0.018445
 -0.297314
 -0.007126
 -0.041847
 -0.029101
  0.004922
 -0.166682
 -0.086438
  0.134301
  0.178462
  0.007135
  0.069856
  0.144476
  0.391013
 -0.008907
  0.134439
  0.395948
 -0.270565
 -0.129910
  0.044401
 -0.071780
  0.147169
  0.508985
 -0.017889
  0.069847
 -0.146805
 -0.277852
  0.253450
  0.286803
 -0.542414
 -0.245658
 -0.007503
 -0.040882
  0.244161
  0.455997
 -0.126455
 -0.221861
 -0.236693
  0.291909
  0.080308
 -0.420369
  0.051629
  0.105302
 -0.304588
  0.114491
 -0.092657
 -0.615135
 -0.147796
  0.032298
  0.089099
  0.073686
 -0.125639
 -0.327456
 -0.095391
  0.107036
  0.051299
  0.222509
 -0.004477
 -0.084034
  0.246468
  0.253780
  0.082389
  0.086978
  0.033233
  0.081467
  0.210795
 -0.083874
  0.034436
 -0.170588
  0.009753
  0.048472
  0.257142
 -0.363220
  0.077262
 -0.293659
  0.217715
 -0.164460
  0.004449
  0.286535
 -0.132748
 -0.199488
  0.162506
 -0.277564
  0.073747
  0.386530
 -0.100296
 -0.009397
  0.022236
 -0.109516
  0.098647
 -0.249953
 -0.116978
  0.309261
  0.145733
  0.079344
 -0.102414
 -0.272760
  0.406467
  0.061039
 -0.101766
  0.016115
 -0.056068
 -0.285501
 -0.028404
 -0.036581
 -0.248240
  0.042976
 -0.024030
 -0.131691
  0.259684
 -0.035549
 -0.011638
 -0.268456
  0.154271
 -0.102653
  0.340890
 -0.120534
 -0.180851
  0.208587
  0.393111
  0.083050
 -0.228604
  0.258928
  0.185350
  0.066547
 -0.062325
 -0.099229
  0.186316
  0.155258
  0.169297
 -0.074403
 -0.117451
  0.043117
  0.069851
  0.037443
 -0.009244
  0.101860
 -0.140629
  0.057490
  0.008976
  0.086171
 -0.225070
 -0.109484
 -0.212480
 -0.268159
 -0.112845
  0.014227
  0.185256
 -0.386850
  0.028254
 -0.012828
  0.161850
 -0.051874
 -0.138292
 -0.211092
 -0.195197
  0.136089
  0.217932
  0.058551
  0.008649
  0.019474
 -0.096980
 -0.205261
  0.191203
 -0.203613
  0.016594
  0.100679
 -0.543627
 -0.156940
  0.016822
  0.189734
 -0.499004
 -0.163770
 -0.127701
  0.107131
  0.224318
 -0.177609
  0.260112
  0.141106
  0.144921
 -0.327235
  0.228846
 -0.171092
  0.085712
 -0.013824
 -0.027804
 -0.069514
 -0.120689
 -0.232102
 -0.059177
 -0.423882
  0.242286
 -0.344149
  0.024513
  0.093955
 -0.170700
 -0.236600
  0.373554
  0.257963
  0.149525
 -0.264372
 -0.127415
  0.024274
  0.288235
  0.084829
 -0.381076
 -0.133116
  0.110762
  0.182874
 -0.205259
  0.146120
  0.227518
  0.241778
  0.225417
 -0.020826
  0.168708
  0.228576
  0.100009
 -0.085835
 -0.244598
 -0.291542
  0.251318
  0.223770
  0.292205
  0.035321
 -0.288837
 -0.117547
  0.308193
  0.177198
 -0.143110
  0.250203
  0.049316
  0.289166
  0.063742
 -0.024858
  0.099415
  0.041981
 -0.188300
  0.202939
  0.022494
  0.310955
  0.343222
 -0.024775
  0.035808
 -0.138278
  0.012934
 -0.127572
  0.121775
 -0.315879
  0.100697
  0.015415
  0.513340
  0.348812
  0.150931
 -0.279974
 -0.111654
  0.164641
  0.235252
 -0.408366
 -0.105364
 -0.091549
  0.233305
  0.347221
  0.230967
 -0.078398
 -0.077399
  0.224412
  0.059549
 -0.172100
 -0.123200
 -0.241751
 -0.070878
  0.122265
  0.335386
  0.101346
 -0.092426
 -0.127333
  0.119090
  0.091934
  0.010386
  0.171213
  0.175099
 -0.181490
  0.414149
  0.170291
 -0.207715
 -0.070485
  0.099248
  0.002757
  0.117893
 -0.250282
  0.007863
 -0.364767
  0.153315
  0.094573
 -0.088919
  0.098324
  0.080106
 -0.078682
 -0.210827
 -0.154178
  0.037306
 -0.185915
  0.038943
 -0.112712
 -0.015867
 -0.149219
 -0.319771
  0.028766
  0.091820
  0.218683
 -0.222522
 -0.223428
  0.120678
 -0.147822
  0.004949
 -0.210158
 -0.397003
  0.245355
 -0.270769
 -0.023864
  0.077804
  0.038992
  0.186898
 -0.184635
 -0.038585
 -0.355016
 -0.351095
 -0.301973
  0.640845
  0.171575
 -0.068443
 -0.169375
 -0.030517
  0.013212
 -0.081709
  0.441289
  0.126040
  0.445762
  0.183289
 -0.254971
  0.151929
 -0.005382
  0.096185
  0.022534
 -0.040356
  0.193722
 -0.104349
 -0.308827
 -0.337275
 -0.021644
  0.137003
 -0.202746
 -0.089719
 -0.041096
  0.276985
 -0.367266
  0.326602
 -0.083060
 -0.139438
  0.147063
 -0.143840
  0.079110
  0.146015
 -0.011552
 -0.040987
 -0.393916
 -0.201051
 -0.249370
 -0.053100
 -0.247880
 -0.004141
  0.057196
 -0.132016
  0.120259
 -0.040546
  0.031137
  0.176843
 -0.138807
  0.368924
 -0.296039
  0.029149
 -0.051874
  0.129361
  0.063829
 -0.132963
  0.104718
  0.099407
  0.271302
  0.222806
 -0.053831
  0.078307
 -0.026580
  0.137336
  0.087136
  0.472252
  0.180062
 -0.247443
 -0.250452
  0.037637
  0.026169
  0.197118
 -0.123620
  0.139958
  0.097439
 -0.002774
 -0.168159
 -0.032408
  0.022051
 -0.144549
 -0.371218
  0.171838
 -0.404130
  0.071903
  0.082384
  0.205370
  0.055747
 -0.088097
  0.077423
 -0.009444
  0.204881
 -0.014738
 -0.036405
  0.139541
 -0.006773
 -0.152560
  0.180295
 -0.008636
 -0.290301
  0.470821
 -0.058217
 -0.226940
  0.105232
  0.338682
  0.059153
  0.315339
 -0.204270
  0.213307
 -0.024128
  0.025516
 -0.006106
 -0.035081
 -0.121601
 -0.033028
 -0.128718
  0.028637
  0.081963
  0.054485
  0.149029
 -0.309762
 -0.000936
 -0.023009
 -0.088885
  0.063338
 -0.010188
  0.041729
  0.492674
  0.161657
 -0.110589
 -0.015769
 -0.016323
  0.016489
 -0.162005
 -0.203204
  0.131203
  0.379210
 -0.094196
 -0.107684
 -0.278885
  0.011821
  0.167151
 -0.385938
 -0.035489
 -0.215021
 -0.221098
  0.044280
  0.032181
  0.079933
  0.269042
  0.007124
  0.031337
 -0.074113
  0.104122
 -0.212045
  0.229573
  0.386692
  0.538335
  0.072391
 -0.501883
  0.056897
  0.276900
 -0.022449
 -0.267769
  0.063625
  0.013077
 -0.072929
 -0.054080
  0.359749
  0.205278
 -0.209070
 -0.149819
 -0.102446
  0.097483
 -0.134811
  0.396644
 -0.078751
 -0.076022
 -0.097411
 -0.096103
 -0.099008
  0.112001
 -0.352333
 -0.035163
 -0.049482
  0.060986
 -0.395888
  0.125163
 -0.522730
  0.233144
  0.543732
 -0.006020
 -0.126583
 -0.042274
  0.136386
  0.212561
  0.074633
 -0.297549
  0.113182
 -0.102865
  0.130161
 -0.059412
 -0.329546
  0.007409
  0.031975
  0.311628
 -0.159026
 -0.009595
  0.126524
 -0.174085
  0.263967
  0.127161
  0.046281
 -0.308379
  0.039810
  0.487548
 -0.144417
 -0.110685
 -0.244426
 -0.142625
  0.048739
 -0.056126
  0.083639
 -0.149434
 -0.296738
 -0.077270
 -0.112205
 -0.034974
  0.168628
  0.167467
 -0.260463
 -0.196637
  0.028209
 -0.079085
  0.082117
 -0.087629
 -0.176075
  0.002321
  0.120462
 -0.245577
  0.042336
  0.108708
  0.172442
  0.246820
  0.331124
 -0.175070
  0.260691
  0.278902
 -0.243329
  0.526133
  0.156411
  0.375767
  0.102200
 -0.352034
 -0.134007
 -0.355561
  0.121884
  0.150705
  0.064685
  0.230663
 -0.153186
 -0.065614
 -0.256316
  0.047132
  0.043335
 -0.075656
  0.140002
 -0.077454
  0.134617
  0.039207
  0.211706
  0.149508
 -0.042323
 -0.144691
  0.166991
  0.368510
 -0.347977
 -0.111351
  0.086033
  0.033052
  0.039836
 -0.068954
 -0.046183
  0.096074
  0.004421
 -0.092607
 -0.015361
  0.157771
  0.056947
 -0.096530
  0.064106
  0.047646
  0.154439
 -0.124381
  0.015417
  0.012888
  0.285140
 -0.091661
  0.086939
 -0.069636
 -0.003536
  0.017419
 -0.035530
  0.059291
  0.155558
 -0.278584
 -0.209001
  0.073958
  0.038949
  0.248590
 -0.197396
 -0.100171
  0.002324
 -0.216394
 -0.166387
  0.072179
 -0.170463
 -0.097399
 -0.194925
  0.074132
 -0.061324
 -0.185085
 -0.308536
  0.103265
 -0.182845
 -0.010695
  0.121811
  0.289733
 -0.071485
  0.048690
 -0.330064
 -0.293761
  0.098641
 -0.251844
  0.041312
  0.255089
 -0.187530
 -0.145563
  0.207932
 -0.152038
 -0.248534
  0.261627
 -0.046782
 -0.243115
 -0.154485
  0.178694
 -0.065434
 -0.490768
  0.124321
 -0.262284
  0.170107
 -0.260830
  0.287030
 -0.241386
 -0.068928
 -0.134737
  0.296788
 -0.083482
 -0.141360
  0.097811
  0.603379
 -0.313757
  0.196237
  0.237546
  0.256315
  0.198878
  0.054311
  0.243795
  0.126317
  0.115906
  0.013880
 -0.161272
 -0.037720
 -0.368545
  0.029010
  0.061890
 -0.140903
  0.233498
  0.368538
 -0.071453
  0.034938
  0.152725
  0.042420
 -0.059255
  0.055294
 -0.087286
  0.240467
  0.237201
 -0.100294
 -0.275558
 -0.419225
 -0.545013
  0.104025
  0.177917
 -0.231975
  0.045086
 -0.050791
 -0.562434
 -0.121118
  0.238992
 -0.035093
 -0.151675
  0.256353
 -0.061273
 -0.229151
  0.417075
  0.129375
  0.280758
  0.064939
 -0.025222
 -0.043321
  0.028065
  0.394446
 -0.258046
  0.202627
 -0.073824
  0.609881
 -0.146281
 -0.017928
 -0.131887
  0.425074
 -0.305075
  0.227358
  0.139902
 -0.035136
 -0.189893
 -0.036352
 -0.082969
 -0.179185
 -0.002575
 -0.076672
 -0.036607
 -0.031314
 -0.317146
 -0.030407
 -0.126792
  0.235190
  0.083686
  0.013884
 -0.118260
 -0.071506
 -0.152450
  0.001704
  0.203650
  0.157877
  0.105136
 -0.049716
  0.154341
  0.267776
 -0.052496
 -0.220598
  0.072443
  0.040218
  0.162277
 -0.139384
  0.588754
 -0.142236
 -0.146499
 -0.150644
 -0.179702
 -0.343523
  0.126636
 -0.005385
 -0.020581
 -0.083342
 -0.286309
 -0.088975
 -0.107118
  0.090522
  0.236715
 -0.045188
  0.150998
  0.079270
  0.431490
  0.068646
  0.351619
  0.114345
 -0.025733
  0.390360
  0.208958
  0.215498
 -0.433626
  0.114608
  0.017111
  0.231150
 -0.163545
  0.083138
  0.046180
  0.087880
  0.170438
  0.082300
  0.105951
  0.097387
  0.220018
 -0.204513
 -0.043089
 -0.110491
  0.271073
 -0.243488
 -0.038439
  0.186199
 -0.094210
  0.117173
 -0.253875
 -0.395753
  0.051053
  0.192406
 -0.036218
  0.030950
  0.102904
 -0.135033
  0.160775
 -0.133099
 -0.270478
 -0.267898
 -0.342358
  0.234964
  0.030203
 -0.203770
  0.138964
 -0.105049
 -0.029788
  0.020734
  0.344857
 -0.083622
  0.083587
 -0.047078
 -0.141637
 -0.315773
  0.141921
 -0.083805
  0.044308
 -0.196844
 -0.114617
  0.138798
  0.137022
  0.144261
 -0.001724
 -0.034702
  0.041806
  0.134259
 -0.222637
  0.318979
  0.058573
 -0.027940
 -0.222663
  0.168855
  0.239366
  0.156484
 -0.214665
 -0.252650
  0.145034
  0.233941
 -0.300965
 -0.359620
 -0.081128
 -0.637956
 -0.132104
  0.000382
  0.008179
 -0.148147
  0.251377
 -0.305627
  0.027044
  0.253665
  0.069346
  0.216976
  0.030297
 -0.055987
  0.323954
  0.094190
 -0.387543
 -0.141718
  0.044710
 -0.401793
  0.341261
  0.010677
  0.156734
  0.074507
  0.013140
  0.126407
  0.220590
  0.255240
  0.337691
 -0.345940
  0.007233
  0.013857
 -0.064462
 -0.266039
  0.061540
 -0.011421
 -0.398241
 -0.284259
 -0.013251
  0.177865
  0.363969
  0.026844
  0.250319
  0.019052
 -0.060292
  0.312783
 -0.384669
  0.021600
  0.203731
 -0.079269
 -0.162542
 -0.043836
  0.170127
  0.208861
  0.099686
  0.419184
 -0.282076
 -0.151211
 -0.153895
  0.194005
  0.450208
  0.374997
 -0.215711
  0.338671
 -0.447141
 -0.062574
  0.361920
 -0.220184
 -0.049514
  0.192230
 -0.093657
 -0.303919
 -0.083037
 -0.164290
  0.253715
  0.110033
 -0.020010
 -0.119441
 -0.190772
  0.104957
 -0.202549
  0.154812
 -0.537577
  0.245019
  0.070208
  0.441256
 -0.081952
  0.032406
 -0.099833
  0.097038
 -0.028869
 -0.214463
 -0.071622
 -0.078988
  0.200779
  0.345588
 -0.077144
 -0.178294
 -0.189359
  0.104336
 -0.112269
 -0.056620
  0.017513
 -0.244019
  0.068488
 -0.292087
 -0.059247
 -0.029557
 -0.168487
 -0.418728
 -0.175105
 -0.300714
  0.265231
  0.062124
 -0.201489
 -0.062622
 -0.190036
  0.120766
 -0.004681
  0.391791
 -0.225508
 -0.306903
  0.002735
 -0.003766
  0.051097
  0.013137
 -0.164416
  0.123049
 -0.177732
  0.286884
  0.047344
  0.056088
  0.049562
 -0.057437
 -0.427066
 -0.061637
 -0.196184
 -0.251089
 -0.229863
 -0.015815
 -0.174147
  0.102727
 -0.230479
 -0.054084
  0.113950
 -0.637697
  0.214752
  0.173042
  0.032386
 -0.035339
 -0.321410
 -0.356631
 -0.044997
  0.013486
  0.262110
  0.116457
 -0.213115
  0.101881
  0.232743
 -0.156616
 -0.074763
  0.009528
 -0.029652
  0.295718
 -0.312420
  0.117510
 -0.430213
 -0.234042
  0.318507
  0.047375
 -0.123213
 -0.041416
  0.312539
  0.034321
 -0.104156
  0.266498
 -0.045076
 -0.225178
 -0.084890
  0.170246
  0.068301
  0.585692
  0.505501
  0.126398
 -0.056478
  0.443486
 -0.373506
 -0.190857
 -0.009113
 -0.088265
 -0.055141
  0.228063
  0.324909
  0.042004
  0.201117
  0.038959
 -0.038850
  0.093333
  0.048559
 -0.055747
  0.078799
  0.094391
 -0.189361
 -0.172328
 -0.069592
  0.245103
 -0.013923
 -0.293155
 -0.262418
 -0.026612
 -0.255610
 -0.114968
****
