PROJECT: W75X_2015Jun19
NCH:     4096
BW:   2.50000e+07
VELOCITY:       0.00000
PV:      0.480000
FREQ:    2.2235080e+09
DATE:     2015       6      20
TIME:        3      28      37
POSITION:       309.654      42.6272
INTEGRATION TIMES:       30.0000      30.0000
MAX VALUE:      0.020798617
 -0.153829
 -0.284009
 -0.193051
 -0.112975
 -0.023501
 -0.109655
 -0.133637
 -0.324253
  0.020739
 -0.186405
  0.107757
 -0.085337
  0.059610
 -0.024502
 -0.178144
 -0.170140
  0.082202
 -0.057848
 -0.022558
 -0.019479
  0.100410
 -0.034346
 -0.029409
 -0.050797
 -0.316116
  0.166284
 -0.143068
  0.137466
 -0.196121
 -0.273866
  0.059998
 -0.061666
 -0.049076
  0.055516
  0.216185
 -0.043280
  0.224131
  0.008643
 -0.196694
  0.065953
  0.077414
  0.150319
  0.054442
 -0.151304
  0.038983
 -0.087752
 -0.211945
  0.053425
  0.167410
  0.104104
 -0.040302
 -0.030783
 -0.177728
 -0.204424
 -0.006852
 -0.087273
  0.044003
  0.102591
 -0.124634
  0.246315
  0.147702
  0.197638
  0.053923
 -0.050129
 -0.181742
  0.017864
 -0.053580
 -0.035949
 -0.259003
 -0.035433
  0.066404
 -0.001992
 -0.114944
 -0.038004
 -0.130852
 -0.168952
  0.134580
 -0.045805
  0.164645
  0.128263
 -0.052140
  0.007647
 -0.048602
  0.201466
  0.085004
 -0.088454
 -0.148635
  0.030949
 -0.003903
  0.030495
  0.130722
 -0.088175
 -0.054915
  0.142400
 -0.016104
  0.106690
  0.070995
  0.043892
 -0.057301
  0.131200
  0.195888
 -0.061655
 -0.162757
  0.028973
 -0.276799
  0.129864
  0.006142
  0.138420
  0.099136
 -0.183008
 -0.177994
 -0.174960
  0.103068
  0.110470
  0.143310
 -0.081931
 -0.003705
 -0.042958
 -0.101425
  0.113025
  0.098753
  0.124091
  0.084601
 -0.016649
 -0.005631
 -0.232592
  0.234709
 -0.433838
 -0.074235
  0.083354
  0.097180
  0.077314
  0.159624
 -0.013785
  0.074452
  0.133409
 -0.145134
  0.042886
 -0.267072
 -0.009441
 -0.117138
  0.106952
 -0.001674
 -0.085868
 -0.223694
  0.102261
  0.183302
  0.161007
 -0.128908
  0.153997
  0.033552
  0.167732
  0.021128
  0.056603
 -0.040715
  0.043821
  0.291925
  0.074480
 -0.080989
 -0.106447
 -0.094563
 -0.119669
 -0.105850
  0.183483
  0.178432
  0.241013
  0.032369
 -0.030861
  0.081466
  0.005969
  0.208589
  0.004254
  0.086282
 -0.124923
  0.064691
 -0.388423
  0.129687
 -0.071987
 -0.084407
  0.061849
  0.015135
 -0.020194
 -0.121425
 -0.213135
  0.105875
  0.070017
 -0.126360
  0.020170
  0.006115
  0.037666
 -0.030684
 -0.310133
 -0.020180
 -0.085991
 -0.081865
  0.095404
 -0.062873
  0.056548
  0.190283
 -0.128267
  0.035211
  0.064532
 -0.036950
 -0.139348
  0.026496
 -0.013057
 -0.144500
  0.342848
  0.160777
  0.042046
 -0.160941
  0.010311
 -0.018422
 -0.085701
 -0.129190
 -0.020045
 -0.051633
 -0.019118
 -0.039171
  0.130073
 -0.182127
  0.019978
  0.043557
  0.202272
  0.054378
  0.083618
 -0.159204
 -0.033496
 -0.302883
  0.069496
  0.005094
  0.149713
  0.101128
 -0.055556
  0.323306
 -0.008701
 -0.102199
 -0.013215
 -0.118624
  0.251794
  0.004372
  0.108286
  0.005924
  0.113149
  0.059019
  0.028424
  0.056874
  0.096894
 -0.032757
  0.000512
 -0.004837
  0.080359
 -0.007952
  0.035834
  0.030260
 -0.187430
  0.111055
  0.071646
 -0.020005
  0.027358
  0.017733
  0.047683
  0.073346
  0.106304
  0.042496
  0.032382
 -0.176180
  0.059338
  0.252537
 -0.150211
  0.071255
 -0.011193
  0.093240
  0.119351
  0.009870
 -0.078022
 -0.029262
  0.102450
  0.131411
 -0.059902
  0.065267
  0.084139
  0.087082
 -0.127613
 -0.077349
  0.084294
 -0.015199
 -0.082684
 -0.096600
 -0.086383
  0.125149
  0.045738
 -0.087505
  0.113081
  0.127942
 -0.165230
 -0.157380
 -0.073375
 -0.086487
 -0.087524
 -0.128574
 -0.032139
 -0.185125
 -0.254809
  0.173817
  0.056699
 -0.053503
  0.101934
 -0.177919
 -0.251561
  0.237720
 -0.126699
  0.104384
 -0.094325
 -0.069544
 -0.035246
  0.118066
  0.034625
  0.116639
  0.059505
 -0.041210
 -0.056289
 -0.197318
 -0.012849
  0.089620
  0.135438
  0.029916
  0.007425
 -0.212090
 -0.132588
  0.143485
 -0.178985
 -0.065773
 -0.097335
 -0.004295
  0.002903
 -0.112139
 -0.243739
  0.026858
  0.072845
 -0.011743
  0.046089
 -0.029754
 -0.106149
 -0.045637
 -0.053189
  0.027228
 -0.069467
 -0.001527
 -0.266840
  0.045119
 -0.092502
 -0.071990
 -0.160349
 -0.108687
 -0.105965
  0.098402
  0.046418
  0.041956
 -0.253285
 -0.080792
 -0.172318
  0.057341
 -0.119287
  0.057492
  0.068081
 -0.111796
  0.190267
  0.288704
 -0.026960
  0.126112
 -0.064318
 -0.232946
  0.073517
 -0.201056
  0.021009
 -0.244016
 -0.257836
 -0.115709
 -0.052185
  0.048623
 -0.155413
 -0.212015
  0.240535
  0.051077
  0.198973
 -0.125189
 -0.033469
  0.015043
  0.141421
  0.138297
  0.086398
 -0.101659
  0.052807
  0.106638
 -0.064161
 -0.159693
  0.195281
 -0.103894
  0.077426
 -0.164614
 -0.020617
  0.115534
  0.067576
 -0.076899
 -0.112931
 -0.105015
  0.000052
  0.095282
  0.135257
 -0.015906
  0.144080
  0.098489
 -0.061194
  0.032040
 -0.034950
 -0.037796
  0.092952
  0.182192
 -0.034573
  0.147639
  0.059760
 -0.111626
  0.232418
 -0.207194
 -0.048330
  0.103121
  0.053823
  0.081347
  0.026465
  0.017189
  0.016896
 -0.078474
 -0.074701
  0.003638
  0.105307
 -0.042232
  0.276091
 -0.039584
 -0.080721
  0.058663
 -0.147781
  0.095308
  0.115639
 -0.045019
  0.038133
 -0.087549
 -0.181295
 -0.067766
  0.043273
 -0.044281
  0.119435
 -0.059190
  0.075092
  0.099259
 -0.089314
 -0.135306
 -0.203143
 -0.078964
 -0.025352
 -0.019315
  0.118783
  0.041110
 -0.076513
  0.141217
 -0.153231
  0.086237
  0.075899
 -0.278261
  0.063761
  0.007661
 -0.067690
 -0.147689
  0.119797
  0.118695
  0.021616
  0.257425
  0.059956
 -0.072258
  0.059703
 -0.017976
 -0.055583
  0.135192
  0.253196
  0.124819
 -0.146673
 -0.011655
 -0.084562
  0.035654
 -0.088603
 -0.047112
 -0.157943
  0.184682
 -0.154690
 -0.149437
 -0.097824
 -0.303675
  0.102266
  0.130155
 -0.094752
 -0.103822
 -0.069878
 -0.060301
  0.060468
  0.106467
  0.035731
  0.262056
 -0.034864
 -0.073185
 -0.032918
 -0.236073
 -0.113794
  0.073218
 -0.068135
 -0.084829
 -0.032295
 -0.052661
  0.245665
  0.112310
  0.005980
 -0.131087
 -0.257066
 -0.053182
 -0.126801
  0.011417
 -0.051952
 -0.032957
 -0.039638
  0.060084
 -0.073626
  0.241823
  0.175792
 -0.309806
  0.125791
  0.139987
 -0.134804
  0.191661
  0.129245
 -0.031948
  0.131253
  0.079718
 -0.064704
  0.009340
 -0.144173
 -0.054643
  0.105474
 -0.070469
 -0.015515
  0.092519
  0.007893
  0.040534
  0.109906
  0.005277
 -0.019873
 -0.135259
 -0.080773
 -0.051066
  0.106141
  0.047614
 -0.054719
  0.197350
 -0.045582
  0.084575
  0.114768
  0.022145
 -0.027763
 -0.031582
 -0.036690
  0.005373
 -0.286436
  0.123306
  0.185338
  0.104336
  0.149707
  0.195322
 -0.215625
  0.011844
  0.081843
  0.111142
  0.182547
  0.033449
  0.094045
 -0.002928
 -0.151986
  0.168373
  0.267702
  0.114734
 -0.044610
  0.153174
  0.066484
  0.140627
 -0.089288
  0.194576
 -0.024124
 -0.069390
  0.067912
 -0.042878
  0.018872
  0.267542
 -0.037957
  0.103716
 -0.045620
  0.186372
 -0.361762
  0.227978
  0.060337
  0.095355
  0.059432
  0.064524
 -0.079614
 -0.073925
 -0.153684
  0.181498
  0.085882
  0.006627
  0.121674
  0.148649
 -0.017649
 -0.065965
  0.098468
 -0.209018
  0.059013
  0.191290
 -0.204485
  0.216975
  0.172844
 -0.162559
  0.128658
 -0.089233
 -0.018712
  0.043443
  0.159776
 -0.031813
  0.289391
 -0.155280
  0.017806
 -0.051172
  0.292039
 -0.256592
  0.108583
  0.019998
 -0.060562
 -0.225317
  0.064751
 -0.194337
  0.018283
 -0.069331
  0.123780
 -0.076240
 -0.003432
 -0.315489
 -0.033363
 -0.029271
 -0.080840
  0.035131
  0.034848
  0.176050
  0.062663
  0.088190
  0.023293
 -0.167562
 -0.277622
 -0.016079
  0.026265
  0.008992
  0.061799
  0.050569
  0.048769
 -0.016590
 -0.009240
  0.071703
 -0.070186
  0.061675
  0.088334
  0.027413
  0.029762
 -0.025607
  0.089366
 -0.080330
 -0.148261
 -0.117234
 -0.074135
 -0.187074
 -0.020500
 -0.231489
  0.183978
  0.109438
  0.126501
  0.141242
 -0.096176
  0.045984
 -0.002692
  0.273129
 -0.206747
 -0.085989
 -0.261657
  0.087549
  0.072914
  0.092959
  0.127558
 -0.089081
 -0.126099
 -0.004776
  0.031899
  0.056520
 -0.023719
 -0.019962
 -0.049776
  0.096889
 -0.065171
  0.218607
  0.054480
 -0.096231
 -0.120631
 -0.164863
  0.120873
 -0.014717
 -0.034285
 -0.007430
  0.020642
 -0.068190
  0.079642
 -0.166721
 -0.031732
 -0.049113
  0.080618
 -0.138624
  0.011654
 -0.083896
  0.072546
  0.096174
  0.009553
 -0.205329
  0.284248
 -0.000531
  0.137810
  0.111990
  0.002556
  0.147229
  0.010525
  0.017714
  0.072000
 -0.101789
  0.106201
  0.024278
  0.164379
  0.043224
  0.084744
  0.054699
 -0.059372
 -0.064362
 -0.054851
 -0.091871
 -0.034728
  0.087625
  0.121428
  0.142591
  0.090545
 -0.027277
 -0.014401
  0.043299
  0.085408
 -0.098575
  0.230446
  0.037965
  0.025293
 -0.091840
 -0.038862
 -0.085208
  0.081037
  0.062047
 -0.133943
  0.072338
  0.127584
 -0.084301
  0.184625
 -0.052229
  0.156715
 -0.008797
  0.039437
 -0.234780
  0.217007
 -0.094007
  0.166030
 -0.009257
 -0.021798
 -0.029478
 -0.142922
  0.012536
  0.203739
 -0.055587
  0.028483
  0.071503
  0.082045
  0.081297
 -0.010459
 -0.009252
 -0.034887
  0.038591
 -0.141220
 -0.143985
 -0.153878
  0.187344
  0.011096
  0.022426
 -0.010754
  0.113764
 -0.013407
  0.097030
 -0.019268
 -0.115822
 -0.030624
  0.061951
 -0.160368
  0.009911
 -0.008580
  0.189848
 -0.085987
  0.036582
  0.020694
 -0.090332
  0.030662
  0.118558
 -0.059855
 -0.256747
 -0.016548
  0.239283
 -0.301412
 -0.112453
 -0.105434
  0.031814
  0.146293
  0.025451
  0.086481
 -0.059757
 -0.104435
 -0.177084
  0.052122
  0.157911
 -0.107168
 -0.127815
 -0.149035
 -0.387605
 -0.129851
  0.034505
  0.108521
  0.245971
  0.176632
 -0.053326
  0.003048
  0.139398
  0.107786
 -0.030394
 -0.070314
 -0.187322
  0.024734
 -0.365138
  0.099514
  0.266285
 -0.040289
  0.082167
 -0.041259
  0.187132
 -0.040333
  0.037134
 -0.048330
  0.038800
  0.023107
  0.057321
  0.044831
  0.070673
  0.022829
  0.100706
 -0.032149
  0.277669
  0.047620
 -0.382440
  0.241125
  0.094600
 -0.047499
 -0.097123
 -0.078035
 -0.101335
  0.062323
  0.045566
 -0.160149
  0.111274
  0.019252
  0.153770
 -0.025795
 -0.387265
  0.085351
 -0.220428
 -0.157210
  0.072433
 -0.114042
  0.017786
  0.075452
 -0.226998
  0.056990
 -0.368992
  0.012743
 -0.044929
 -0.182330
 -0.015928
  0.046063
 -0.099761
  0.008450
 -0.032576
 -0.171773
  0.014156
  0.026665
 -0.168829
 -0.088756
 -0.044397
  0.033026
 -0.134215
  0.155620
  0.044985
 -0.068550
 -0.003717
 -0.256436
  0.221958
  0.036035
 -0.049081
 -0.229134
 -0.031570
 -0.087175
 -0.021776
 -0.253652
  0.098698
  0.027905
 -0.126247
 -0.218181
  0.137576
 -0.041963
 -0.231115
 -0.279204
  0.073774
 -0.037471
 -0.086715
 -0.207016
  0.179805
  0.012869
 -0.198613
 -0.144415
 -0.211334
 -0.189243
  0.041244
 -0.096225
  0.115590
 -0.193644
 -0.111376
  0.221489
  0.106025
  0.079331
 -0.129309
  0.107240
 -0.163734
  0.294515
  0.017860
 -0.155619
  0.197789
  0.073045
  0.157029
  0.070462
 -0.056697
 -0.025154
 -0.312360
  0.023782
  0.073675
 -0.083630
 -0.148132
  0.119908
  0.243647
  0.111553
 -0.052706
 -0.086632
  0.202612
  0.235077
  0.004539
  0.302920
  0.091395
 -0.110941
 -0.014591
 -0.024476
 -0.038563
 -0.127664
 -0.030171
 -0.041012
  0.152841
  0.138882
  0.111062
  0.049702
 -0.165914
  0.191864
 -0.130479
 -0.017413
 -0.082228
  0.077522
 -0.217395
  0.006513
  0.019056
 -0.013409
 -0.238492
  0.196158
  0.046872
 -0.004367
  0.028189
  0.002449
 -0.093411
 -0.119199
  0.013209
  0.042793
  0.058739
 -0.181048
  0.013099
  0.071656
 -0.016732
  0.080380
  0.234329
 -0.123035
 -0.078151
 -0.040817
  0.017203
 -0.079040
  0.011736
 -0.082123
  0.110213
 -0.004274
  0.097723
  0.061402
 -0.069026
  0.095373
  0.120613
  0.006914
  0.291367
 -0.068123
 -0.007789
 -0.098460
 -0.257882
  0.027862
  0.034728
 -0.027941
 -0.170803
 -0.159904
 -0.127361
 -0.028729
  0.112910
  0.000788
 -0.302974
 -0.043368
 -0.050162
 -0.309400
  0.002998
 -0.069386
 -0.059087
  0.164439
 -0.001184
 -0.083605
  0.019653
  0.014227
  0.022469
  0.332882
  0.167433
  0.008008
  0.135730
  0.287293
  0.084464
  0.153463
 -0.013473
 -0.014791
 -0.145479
 -0.147197
  0.096287
  0.005809
  0.012051
  0.097790
  0.152180
 -0.082615
 -0.016768
 -0.046646
  0.041853
  0.043531
  0.051950
  0.141986
  0.080278
 -0.191598
  0.188420
 -0.037010
  0.093639
  0.190856
 -0.176814
 -0.097509
  0.031409
 -0.358485
 -0.035977
 -0.091539
  0.219867
  0.084520
 -0.223015
  0.145662
  0.076997
  0.136077
 -0.081521
 -0.022021
 -0.135557
  0.027565
  0.010551
 -0.100489
 -0.053579
  0.074562
 -0.080555
  0.091869
 -0.066014
 -0.111445
  0.010014
  0.172930
 -0.026538
  0.130717
 -0.030746
  0.082543
  0.006839
  0.020578
 -0.038009
  0.003443
  0.092536
  0.150589
  0.082517
  0.107914
 -0.026090
 -0.115405
 -0.073683
 -0.178561
  0.005514
 -0.098856
 -0.036198
  0.018575
 -0.052751
  0.166193
 -0.010264
 -0.103579
  0.080911
  0.198081
 -0.088548
 -0.181663
 -0.127419
  0.083052
  0.194952
  0.164571
  0.095737
 -0.220639
 -0.051464
 -0.185510
 -0.175585
  0.164985
 -0.042897
 -0.135832
 -0.095620
  0.008443
 -0.081040
 -0.350449
 -0.149287
  0.069535
  0.119990
  0.161660
 -0.157983
  0.081973
 -0.024782
  0.001382
  0.073208
 -0.106897
  0.080139
  0.055599
  0.035025
 -0.016726
  0.018401
 -0.087472
  0.154294
 -0.039769
  0.168829
 -0.000956
  0.038580
  0.039462
  0.142893
 -0.007719
 -0.025243
 -0.107202
  0.016044
  0.057255
  0.212483
 -0.131084
 -0.248474
  0.075536
  0.289982
 -0.146186
 -0.065603
  0.123150
 -0.106656
 -0.091372
 -0.013866
 -0.065778
  0.039590
 -0.075554
 -0.106518
 -0.015619
 -0.155339
 -0.111858
 -0.107745
  0.188151
 -0.196862
  0.101252
 -0.348906
  0.173143
  0.118753
 -0.223101
 -0.069073
  0.114180
  0.035809
 -0.085578
  0.084486
  0.119804
  0.005807
  0.047299
 -0.048377
 -0.092559
  0.012953
 -0.024343
 -0.025538
 -0.180573
  0.127432
  0.039804
  0.133740
  0.054296
  0.211181
 -0.101971
 -0.000465
  0.192797
  0.202548
  0.170212
 -0.229210
  0.162102
 -0.054765
 -0.124547
  0.129845
  0.062980
 -0.188869
  0.053869
 -0.091569
 -0.251486
  0.277006
  0.170751
 -0.124892
  0.155072
  0.142189
 -0.029262
 -0.021364
 -0.155239
  0.268365
  0.173277
  0.044915
  0.142606
 -0.019343
 -0.038682
 -0.113389
  0.128698
  0.195101
 -0.261584
  0.002447
  0.026089
  0.335413
 -0.067013
 -0.160140
  0.172290
 -0.030131
  0.014587
 -0.060924
 -0.053503
 -0.026100
  0.221275
  0.008109
  0.110129
  0.100066
  0.088332
  0.042741
 -0.011582
  0.112432
 -0.139571
 -0.270916
  0.190730
 -0.187712
 -0.057873
 -0.216899
  0.201264
  0.116872
 -0.156443
  0.091358
 -0.173341
 -0.118572
 -0.050340
  0.234914
 -0.003851
  0.085151
 -0.055493
  0.057410
 -0.057246
  0.095255
 -0.121652
  0.018610
  0.010212
 -0.101160
  0.162377
  0.213881
  0.052237
  0.078145
 -0.100904
 -0.057956
  0.160666
  0.043687
  0.039591
  0.002478
 -0.069101
 -0.261195
 -0.074541
  0.240781
 -0.002454
 -0.018253
 -0.078798
  0.157005
  0.251651
  0.072778
  0.019602
 -0.058459
  0.220030
  0.066527
  0.072445
  0.019714
  0.073629
  0.073398
 -0.055233
 -0.194131
  0.020198
  0.041668
  0.078600
  0.206925
  0.085960
 -0.173601
  0.193684
 -0.020024
 -0.055129
 -0.256215
 -0.093836
 -0.209488
 -0.033634
  0.086037
  0.151510
 -0.088375
 -0.116564
 -0.167936
 -0.032204
 -0.090247
 -0.124648
  0.033984
  0.315541
 -0.107680
 -0.164577
 -0.126460
  0.073367
  0.214661
 -0.124199
  0.133435
  0.072401
 -0.098970
  0.154328
 -0.053002
  0.049357
  0.174157
  0.153549
 -0.092238
  0.104114
  0.018472
  0.045508
  0.043874
 -0.104174
  0.160553
  0.126902
 -0.058012
  0.009162
  0.248152
  0.135587
 -0.260547
  0.138935
 -0.037612
 -0.062673
 -0.125644
 -0.011828
  0.105733
 -0.003280
 -0.151458
  0.002733
  0.173657
  0.059434
  0.110156
 -0.193679
  0.010261
  0.150696
  0.131685
 -0.138497
  0.059679
 -0.028153
  0.011517
 -0.317075
 -0.043191
  0.007942
 -0.239033
  0.050291
 -0.118405
 -0.123466
 -0.211002
  0.089004
 -0.144218
  0.004868
 -0.260354
 -0.253424
  0.175865
 -0.000052
  0.014243
  0.145239
 -0.158932
 -0.077237
  0.081595
 -0.006253
 -0.047129
  0.155484
 -0.024505
  0.151717
  0.038874
  0.147290
 -0.009625
 -0.279643
 -0.301522
  0.216209
  0.088920
 -0.117909
 -0.017286
  0.205083
  0.026498
 -0.040755
  0.129910
  0.046126
  0.057987
 -0.105571
  0.134841
 -0.174892
 -0.056343
 -0.078114
  0.090926
 -0.084707
  0.011455
 -0.102419
 -0.064093
 -0.138780
  0.030137
  0.169306
  0.132270
 -0.010291
  0.188707
  0.141612
  0.167572
 -0.207038
 -0.071037
  0.011683
  0.026625
 -0.114953
  0.255668
  0.024294
  0.075436
  0.119959
  0.030784
 -0.072912
 -0.062650
  0.199387
 -0.131251
 -0.353723
  0.079907
 -0.037268
  0.055693
 -0.079585
  0.201426
  0.108980
 -0.365402
 -0.164378
  0.106553
 -0.062585
 -0.055348
  0.387156
  0.033711
  0.056850
  0.086053
 -0.101054
  0.077343
 -0.006763
 -0.114171
  0.050722
  0.115117
  0.066450
 -0.009849
 -0.029588
  0.311317
 -0.011576
 -0.022657
 -0.201153
  0.027669
 -0.293345
 -0.024803
  0.031896
  0.029686
 -0.050979
  0.051602
  0.240059
  0.036462
  0.277609
 -0.337414
  0.107638
  0.072286
 -0.057791
 -0.219719
  0.120429
 -0.071314
  0.235375
 -0.051326
  0.065261
  0.185489
  0.030940
  0.240439
 -0.029967
  0.207087
  0.126087
 -0.090577
  0.025318
  0.082096
  0.191066
  0.083435
 -0.141876
  0.095059
  0.057846
 -0.214036
 -0.058859
  0.164986
  0.073071
 -0.008053
 -0.204825
 -0.049379
 -0.076082
  0.050742
  0.101718
  0.024285
  0.206094
  0.088879
 -0.066215
 -0.252885
  0.164789
  0.014073
 -0.114213
 -0.022303
 -0.019512
 -0.035137
  0.108768
 -0.047388
  0.131139
 -0.081214
 -0.114971
  0.019548
 -0.012777
 -0.178167
 -0.083494
 -0.018030
  0.047692
  0.066815
 -0.116002
 -0.051373
 -0.027660
 -0.173383
 -0.077140
 -0.074038
 -0.171745
  0.155560
 -0.055036
 -0.024416
 -0.060279
  0.036275
 -0.068776
  0.018432
  0.035380
  0.142844
  0.129584
  0.040990
 -0.327140
  0.233208
  0.262326
  0.059762
 -0.016838
  0.054155
  0.070462
  0.027985
 -0.212620
  0.196424
 -0.089472
  0.059671
 -0.083106
 -0.234506
 -0.170817
 -0.008200
 -0.069601
 -0.051580
 -0.197218
 -0.043202
 -0.063424
  0.196411
  0.279943
 -0.297181
 -0.040476
  0.333289
  0.060539
  0.042044
  0.021264
  0.042713
 -0.110066
 -0.223373
  0.153903
 -0.002286
 -0.199570
 -0.158705
 -0.058015
 -0.163420
 -0.166714
 -0.085152
 -0.264113
 -0.133856
 -0.234745
 -0.074712
  0.008738
 -0.159846
 -0.210350
  0.051088
 -0.113075
 -0.050650
 -0.177885
 -0.132871
  0.010183
  0.034122
  0.168198
 -0.121455
  0.087489
  0.200742
  0.093405
  0.128068
  0.192942
  0.092050
 -0.165419
  0.127579
 -0.098157
  0.103332
  0.117805
  0.130506
  0.083432
 -0.014928
 -0.007543
 -0.018798
  0.095860
 -0.084269
 -0.083759
  0.035255
 -0.012200
 -0.224675
 -0.228623
 -0.101443
 -0.056885
 -0.305472
 -0.073502
  0.175262
  0.014492
 -0.107875
  0.076272
  0.001230
  0.069226
  0.002601
 -0.034330
 -0.081374
 -0.100125
 -0.040536
  0.098597
  0.133524
 -0.030463
  0.171353
  0.170141
  0.059574
 -0.041225
 -0.027777
  0.103617
  0.050248
  0.010570
  0.060608
  0.054156
 -0.102374
 -0.116480
  0.069263
 -0.095088
 -0.094702
  0.232613
  0.077475
  0.067647
  0.149911
 -0.053950
  0.138638
 -0.037968
  0.021820
 -0.124988
  0.044188
 -0.123126
  0.129375
 -0.142504
  0.231298
 -0.083600
  0.002179
  0.050356
  0.091452
 -0.007885
  0.175386
 -0.094884
  0.063362
 -0.211404
  0.106340
  0.036036
 -0.018909
 -0.241478
 -0.041049
 -0.351444
  0.154056
  0.172471
 -0.120071
 -0.021083
 -0.299430
  0.216908
 -0.025668
  0.028471
  0.094857
  0.021159
  0.030556
 -0.072090
  0.075370
  0.152898
 -0.092799
 -0.016873
 -0.096735
  0.128394
  0.304712
 -0.004892
 -0.179816
 -0.185215
  0.039094
  0.054075
  0.117092
  0.012714
  0.228171
 -0.135195
 -0.076115
  0.101202
  0.085543
  0.236868
  0.097670
 -0.032135
  0.218230
  0.033234
  0.132387
  0.032743
  0.024532
 -0.100014
 -0.005381
  0.206156
  0.088362
  0.042328
 -0.067876
  0.087115
  0.202497
  0.027577
  0.045760
 -0.091586
  0.315693
 -0.005346
 -0.038080
  0.135111
  0.048173
  0.194169
  0.129640
 -0.063363
  0.152042
  0.173874
 -0.039092
  0.127193
  0.023965
  0.026319
  0.461366
 -0.015690
  0.003521
  0.142928
  0.559248
 -0.076970
  0.066662
  0.128471
  0.373841
  0.197011
  0.540524
  0.391473
  0.191866
  0.166348
  0.364781
  0.276658
  0.395491
  0.315474
  0.532666
  0.262748
  0.387996
  0.290201
  0.532575
  0.302474
  0.494013
  0.488200
  0.711219
  0.758563
  0.684018
  0.816616
  0.597709
  0.524470
  0.911086
  0.670378
  0.929943
  0.688595
  0.762301
  0.641718
  0.497776
  0.788201
  0.532516
  0.415559
  0.582395
  0.530956
  0.511743
  0.331534
  0.527813
  0.469354
  0.755974
  0.832543
  0.308448
  0.681053
  0.534008
  0.523357
  0.364170
  0.196752
  0.154573
 -0.192908
  0.275689
  0.060923
  0.071182
  0.007258
  0.066344
  0.031059
  0.074601
 -0.033803
  0.035923
  0.060018
 -0.040134
  0.169981
 -0.167306
  0.072359
  0.065190
  0.092376
 -0.109528
 -0.168441
 -0.082032
  0.019484
  0.129109
  0.118315
  0.180539
  0.089607
  0.098887
  0.140185
 -0.089705
 -0.198926
  0.136531
 -0.023770
  0.112410
  0.071655
 -0.029117
 -0.063858
  0.176075
 -0.004203
  0.083046
  0.123310
 -0.047455
 -0.215106
 -0.156470
  0.019794
  0.017105
  0.090140
  0.178701
  0.066605
 -0.132154
 -0.284403
 -0.000743
  0.102643
  0.046314
 -0.060837
 -0.018394
  0.012711
 -0.077197
 -0.023828
  0.042375
  0.060487
  0.100658
 -0.089133
 -0.061314
  0.076640
 -0.230464
  0.035582
 -0.141639
  0.026908
  0.014018
  0.005353
  0.020905
  0.028198
  0.095694
  0.032262
  0.219465
  0.202212
  0.007431
  0.037701
 -0.005250
 -0.097265
 -0.129556
 -0.247922
  0.012487
 -0.193499
 -0.047049
 -0.006804
 -0.063820
  0.031047
  0.009220
 -0.160192
  0.057474
  0.012752
 -0.075847
 -0.071479
 -0.233193
  0.243863
  0.043940
 -0.021325
 -0.152223
  0.156327
  0.139951
 -0.037768
 -0.083212
  0.073757
  0.047646
  0.108192
 -0.125188
 -0.138071
  0.346110
 -0.185229
  0.071409
 -0.242788
 -0.196395
  0.132436
  0.048269
 -0.076534
  0.263650
 -0.208218
 -0.003630
  0.215746
 -0.024649
 -0.010454
 -0.165348
 -0.037351
 -0.133764
 -0.052564
  0.005531
 -0.109489
  0.032773
 -0.086608
  0.057350
  0.106787
  0.019871
  0.194036
 -0.080218
 -0.080400
  0.137063
  0.047928
  0.183533
 -0.047674
  0.036292
 -0.079196
 -0.091384
  0.089855
 -0.014535
  0.006417
  0.105155
  0.185196
 -0.180160
  0.099764
 -0.020765
  0.061359
 -0.178673
 -0.161358
 -0.113721
 -0.083205
  0.065635
 -0.006202
  0.119084
  0.199181
 -0.107730
 -0.086729
  0.159483
  0.125409
 -0.127976
 -0.104244
 -0.132685
 -0.119270
  0.020384
 -0.082421
 -0.015177
 -0.105002
  0.151001
  0.044398
 -0.163936
  0.265125
  0.008479
 -0.104585
 -0.124251
 -0.032789
  0.022922
 -0.054200
 -0.191001
 -0.179393
  0.029400
 -0.085859
 -0.273375
 -0.060072
 -0.115283
 -0.101856
 -0.016632
 -0.092311
  0.163568
 -0.089242
 -0.228532
 -0.069478
 -0.092838
 -0.204141
  0.163938
 -0.004218
 -0.031015
 -0.027917
  0.204298
  0.027056
  0.197102
  0.274318
  0.032910
 -0.156437
 -0.098948
  0.107311
  0.126989
 -0.002283
  0.130196
 -0.033348
  0.147897
  0.144083
  0.020453
 -0.008504
  0.044546
 -0.095642
 -0.035515
  0.024764
  0.015289
  0.093495
  0.146690
  0.055213
  0.118868
  0.054683
 -0.060614
 -0.102953
 -0.076756
 -0.050158
 -0.116310
 -0.155851
 -0.082079
  0.000330
  0.064688
  0.010744
 -0.103426
 -0.094243
  0.080417
  0.159123
  0.260387
 -0.212146
  0.015367
  0.198468
  0.209570
 -0.076738
  0.075643
 -0.010497
 -0.171987
 -0.209906
  0.061402
 -0.139457
 -0.039484
 -0.040189
  0.077941
  0.098721
 -0.079066
  0.255300
 -0.064278
  0.137454
  0.161375
 -0.025531
  0.162766
  0.295273
  0.233024
  0.038034
 -0.078520
  0.090015
  0.018640
 -0.005189
  0.230642
  0.187704
 -0.081878
 -0.128844
 -0.024828
 -0.039475
 -0.157987
 -0.229614
  0.060316
  0.213734
 -0.055766
 -0.090184
  0.098807
 -0.064935
 -0.002535
  0.010317
  0.212379
  0.244971
  0.033968
 -0.099974
  0.244253
 -0.016972
  0.070051
  0.091319
  0.226810
  0.099295
  0.090147
  0.124279
  0.010858
 -0.160332
  0.003151
 -0.317298
  0.161627
 -0.044215
  0.048925
  0.317250
  0.075853
  0.052412
 -0.064085
 -0.000137
  0.362614
 -0.172752
 -0.062433
 -0.000904
 -0.028611
 -0.336975
 -0.182520
 -0.354496
  0.036617
 -0.182161
 -0.179293
  0.089125
 -0.056309
  0.091511
 -0.020691
  0.151103
 -0.241261
 -0.123769
 -0.190645
 -0.020871
  0.079883
  0.054346
 -0.104083
 -0.072720
  0.185418
 -0.179284
  0.115093
 -0.068867
  0.108629
 -0.012251
  0.118880
  0.031879
  0.044866
 -0.138300
 -0.135456
  0.272083
  0.058813
 -0.104926
  0.124652
  0.071854
  0.039034
 -0.002752
  0.119931
  0.277495
  0.118247
 -0.091910
 -0.055968
 -0.231217
  0.030636
  0.104907
  0.062906
  0.228579
  0.005807
 -0.202849
  0.180111
  0.237874
 -0.019502
  0.000369
 -0.100652
  0.058730
 -0.001490
 -0.080786
  0.223723
  0.033515
 -0.093606
  0.093092
  0.132450
  0.093048
 -0.153934
 -0.087490
  0.048801
 -0.051879
  0.149733
  0.047968
 -0.045243
 -0.035965
  0.179119
  0.058002
 -0.059862
 -0.158199
  0.114954
  0.036300
  0.169182
  0.165503
  0.259986
 -0.141052
 -0.016595
  0.188616
  0.073865
 -0.155649
  0.109012
 -0.119236
 -0.013029
 -0.090331
 -0.056375
 -0.101896
  0.011012
 -0.268842
 -0.071032
  0.128754
  0.023079
  0.118104
 -0.172911
  0.130363
  0.040376
  0.026637
 -0.416152
  0.097665
 -0.034603
  0.022264
  0.096408
  0.089165
 -0.157801
 -0.009026
 -0.105221
  0.098378
  0.225196
 -0.086833
 -0.099123
  0.057391
 -0.121636
 -0.053163
  0.021649
  0.185850
  0.120248
 -0.110764
 -0.127101
 -0.164952
  0.011527
  0.087138
 -0.003937
  0.074251
 -0.286166
 -0.095787
  0.013470
 -0.063788
  0.100529
 -0.085769
  0.053105
  0.029994
  0.092155
 -0.098128
 -0.098607
  0.006871
  0.089290
 -0.149273
  0.109577
 -0.031619
  0.036732
  0.029612
  0.076211
 -0.015524
 -0.075098
  0.098449
 -0.057158
 -0.050378
  0.027576
 -0.041882
  0.040642
  0.150464
  0.180700
  0.045471
 -0.168901
 -0.042227
 -0.210217
  0.271124
  0.000321
  0.069296
  0.157916
 -0.012146
  0.051891
  0.063621
  0.107762
 -0.019518
  0.010463
  0.027196
 -0.157481
 -0.089488
 -0.014494
 -0.052221
  0.045477
 -0.039800
 -0.100812
  0.011502
  0.166237
  0.075722
  0.116436
  0.099681
  0.013357
  0.286820
  0.006321
  0.016196
  0.199277
  0.124904
  0.071952
 -0.120906
  0.032603
 -0.011527
 -0.031453
 -0.087768
 -0.094000
 -0.057831
 -0.097890
  0.108981
 -0.013377
  0.020566
 -0.202928
 -0.043597
 -0.001254
  0.105407
  0.118079
  0.119658
 -0.194331
 -0.139707
 -0.084005
 -0.104744
 -0.205846
 -0.039878
  0.130241
 -0.126987
  0.013696
 -0.300045
 -0.120285
  0.064221
  0.065682
  0.041124
 -0.118558
  0.024527
 -0.144966
  0.134341
 -0.112627
 -0.109771
  0.217593
  0.081504
 -0.177136
  0.053985
  0.172771
  0.144941
 -0.080401
  0.186237
 -0.124505
 -0.018724
 -0.067978
 -0.046361
 -0.072268
  0.016942
 -0.051331
  0.141219
  0.046925
  0.163885
 -0.088888
 -0.078037
  0.011544
 -0.123604
  0.193180
  0.007213
 -0.115361
 -0.186008
 -0.138089
  0.095564
 -0.084993
  0.105006
  0.209190
 -0.045594
  0.151820
  0.040300
  0.142515
 -0.268078
 -0.169695
 -0.151401
  0.022226
 -0.149623
 -0.218756
 -0.154945
 -0.311464
 -0.184250
 -0.153522
  0.120367
  0.033792
 -0.046163
  0.108660
  0.272432
 -0.075382
 -0.002129
  0.104920
  0.011921
  0.243688
  0.178097
 -0.037564
 -0.103557
  0.270510
  0.114205
  0.102654
  0.050050
 -0.064869
 -0.009661
  0.001614
 -0.122199
  0.050406
  0.056720
 -0.033891
 -0.095432
  0.054243
 -0.119858
  0.005373
  0.045685
  0.025578
  0.123025
 -0.089104
 -0.094470
 -0.008454
 -0.019092
 -0.233460
  0.008964
  0.029933
  0.044636
 -0.069303
  0.017728
  0.113160
 -0.114890
  0.150272
  0.059546
 -0.017071
  0.134597
 -0.051514
 -0.139790
 -0.045633
 -0.140978
 -0.078599
 -0.032354
 -0.080550
  0.128947
  0.054130
  0.014977
  0.120352
 -0.090069
  0.143571
 -0.025918
 -0.056931
 -0.031221
 -0.003107
 -0.093833
  0.003283
  0.175386
 -0.033233
 -0.096342
  0.045929
  0.050160
  0.015263
  0.195380
  0.229705
 -0.031390
 -0.017260
  0.053870
  0.005711
 -0.030252
 -0.242505
  0.007954
  0.032690
  0.161444
  0.059176
 -0.088640
  0.091599
 -0.021210
 -0.075194
 -0.181552
 -0.021431
 -0.135217
 -0.032708
 -0.201244
 -0.178246
  0.002844
 -0.103131
 -0.169358
  0.082855
 -0.045099
 -0.001365
 -0.140140
 -0.171109
 -0.134531
 -0.008349
  0.012595
  0.090936
  0.003819
  0.001247
 -0.079491
 -0.118144
 -0.121917
 -0.127067
  0.220755
  0.050738
 -0.008139
 -0.055882
  0.198845
  0.046125
 -0.088807
 -0.109474
 -0.027589
  0.045175
  0.039197
  0.029281
 -0.043491
 -0.016282
 -0.140512
  0.081146
  0.067494
  0.128317
  0.016314
  0.122819
 -0.305268
 -0.046082
  0.259371
  0.022675
  0.024909
 -0.050195
 -0.090166
 -0.051824
  0.272048
  0.034280
 -0.087272
 -0.166286
  0.109386
  0.039872
 -0.147543
 -0.008329
 -0.106405
 -0.151584
 -0.038027
  0.058384
 -0.008372
 -0.137747
  0.114402
 -0.152237
  0.166091
  0.222757
  0.096585
  0.273599
  0.172951
 -0.238099
  0.046819
 -0.083427
 -0.082889
 -0.099557
  0.052222
  0.024694
 -0.067472
  0.072591
  0.324362
 -0.064738
 -0.128326
  0.041343
  0.198262
 -0.209128
  0.003131
 -0.269436
 -0.059809
 -0.028996
 -0.096965
 -0.042696
  0.099212
 -0.024091
  0.040382
  0.018147
 -0.129056
 -0.038886
  0.005882
 -0.010240
 -0.038579
 -0.035195
  0.065114
 -0.016064
 -0.137380
  0.143396
 -0.066277
  0.049002
 -0.024184
  0.036977
  0.033226
  0.115903
 -0.051122
 -0.028566
  0.249540
 -0.015474
  0.147537
  0.070513
 -0.080035
 -0.199562
  0.049274
  0.050709
  0.063528
  0.023315
 -0.340135
  0.080134
 -0.009767
  0.087340
 -0.007748
 -0.073895
 -0.252170
  0.152981
  0.040335
 -0.002891
 -0.122123
  0.165644
 -0.107441
  0.001178
  0.065800
 -0.026520
  0.081309
  0.082579
 -0.194617
  0.222125
  0.089255
 -0.196224
 -0.101847
 -0.082779
 -0.069524
 -0.128797
  0.063680
  0.047013
 -0.234247
  0.167893
 -0.045994
  0.142055
  0.188328
 -0.065029
 -0.100220
  0.060829
  0.011786
  0.186661
 -0.047574
 -0.151491
 -0.049076
 -0.019993
 -0.024033
  0.111248
  0.108839
  0.198951
 -0.140308
  0.096024
  0.102698
  0.093365
 -0.097056
  0.042154
  0.206033
 -0.219829
 -0.125579
 -0.048986
  0.101275
 -0.061570
 -0.003077
 -0.116968
 -0.188738
  0.051412
  0.121162
  0.052199
 -0.231388
 -0.032253
  0.164628
 -0.103527
  0.006005
  0.196905
  0.033530
  0.174773
 -0.091073
 -0.121501
 -0.020327
  0.033040
 -0.245397
 -0.065347
 -0.061686
 -0.061385
 -0.011571
 -0.151478
  0.049994
  0.098463
  0.018546
  0.073432
  0.211261
  0.165258
 -0.036553
 -0.131912
  0.049130
  0.163892
  0.232488
  0.027066
 -0.038148
  0.102659
  0.047650
 -0.103249
  0.100486
  0.074850
  0.040287
 -0.035585
  0.045612
 -0.013272
  0.391984
 -0.038859
 -0.009058
  0.071112
 -0.146485
  0.089011
  0.065065
 -0.399774
 -0.342484
 -0.099388
  0.102672
 -0.165200
 -0.293866
  0.160755
  0.127267
 -0.033344
  0.043686
 -0.089393
  0.149823
 -0.009923
  0.117784
  0.122955
 -0.138371
  0.092966
 -0.108129
  0.012376
 -0.006311
  0.046384
  0.021773
  0.068263
 -0.061294
 -0.020142
 -0.004934
  0.102590
  0.094752
  0.045671
 -0.145972
  0.078739
  0.094769
 -0.208108
  0.330992
 -0.098178
 -0.130226
  0.092282
 -0.108209
  0.068067
  0.108091
  0.243548
 -0.041393
  0.079450
  0.200031
  0.156750
  0.020423
  0.117579
 -0.057089
 -0.212960
  0.158668
  0.215590
  0.072969
  0.018118
 -0.046738
  0.184952
  0.046280
 -0.004119
 -0.002413
 -0.001385
  0.058362
  0.038185
  0.044764
 -0.123041
  0.017964
 -0.074134
 -0.003362
  0.095050
  0.017337
 -0.174574
 -0.278015
 -0.159564
 -0.025689
 -0.000551
  0.006229
 -0.127879
  0.142652
 -0.023219
  0.019078
 -0.038321
 -0.179633
 -0.075917
  0.277787
 -0.095397
 -0.088309
  0.107375
  0.023441
 -0.133707
  0.151108
 -0.104860
  0.046758
  0.071997
 -0.070806
 -0.240725
  0.007244
  0.112538
 -0.263263
  0.058266
  0.139534
 -0.225481
  0.057144
  0.053885
  0.156434
 -0.040420
  0.155485
 -0.013588
  0.066735
 -0.129549
  0.194721
 -0.070584
 -0.061766
 -0.046406
  0.175252
  0.225585
  0.136585
  0.100258
  0.044554
  0.040278
  0.092319
  0.125371
 -0.036148
  0.064997
  0.021160
 -0.013718
  0.195237
 -0.005417
 -0.014420
  0.011823
 -0.080816
  0.294907
  0.113505
  0.000795
 -0.289138
  0.068276
 -0.055042
 -0.119355
  0.107303
 -0.001381
  0.068029
  0.079437
  0.233203
  0.069476
  0.080698
  0.072380
  0.103623
 -0.009487
 -0.079315
  0.059046
 -0.117925
 -0.003308
  0.136017
 -0.075853
 -0.157379
  0.143931
  0.146580
 -0.129901
  0.154976
  0.131032
 -0.034514
 -0.036710
  0.049340
  0.078923
  0.125861
  0.128687
  0.030589
 -0.021473
  0.056867
 -0.174473
 -0.055310
 -0.070519
 -0.220268
  0.022677
  0.058082
 -0.248503
 -0.228616
 -0.027067
 -0.023096
 -0.193527
 -0.091864
  0.051751
 -0.046467
  0.032580
 -0.071492
 -0.117158
  0.243562
  0.143881
 -0.088106
  0.013553
  0.043888
 -0.033526
 -0.014782
 -0.046108
  0.012595
  0.020233
  0.056852
 -0.142213
  0.029313
  0.082175
  0.108089
  0.040992
  0.152793
 -0.225200
 -0.122096
  0.180264
  0.109499
 -0.082045
 -0.256046
  0.083057
  0.001335
 -0.026188
 -0.143214
  0.057126
 -0.054359
 -0.098357
 -0.205318
 -0.131093
  0.080628
  0.140830
 -0.003521
 -0.058900
  0.213538
 -0.095089
 -0.020670
  0.170791
 -0.063883
 -0.004142
 -0.120864
 -0.142541
  0.197480
 -0.025941
 -0.064006
  0.122725
 -0.039830
  0.169344
 -0.050262
  0.007288
  0.000472
 -0.022804
 -0.027032
  0.001823
 -0.115666
 -0.174674
  0.055577
 -0.011988
 -0.033424
  0.064409
  0.036178
 -0.057877
  0.172220
 -0.023824
 -0.062129
 -0.049815
  0.040737
 -0.239698
  0.044227
 -0.033262
 -0.084627
 -0.207596
 -0.007968
 -0.104770
  0.144269
 -0.042325
  0.062528
 -0.249616
  0.142791
 -0.036749
  0.028449
 -0.160624
 -0.120232
 -0.238384
  0.053781
  0.020258
  0.035906
 -0.061861
  0.135564
 -0.130992
  0.030568
  0.019858
  0.036293
 -0.006495
 -0.106104
 -0.156240
 -0.189522
  0.004464
 -0.162781
 -0.088095
 -0.046012
 -0.091322
 -0.011920
  0.084611
  0.041450
  0.083081
  0.046672
  0.167542
  0.176820
  0.060930
 -0.046590
 -0.306344
 -0.095268
 -0.022962
  0.065472
 -0.000168
  0.074071
 -0.039357
  0.263448
 -0.209813
  0.043360
 -0.202295
 -0.146563
  0.214956
 -0.066968
  0.126454
 -0.011347
 -0.021725
 -0.150714
  0.089234
  0.044670
 -0.246936
 -0.130648
  0.231864
  0.193889
 -0.140638
 -0.090210
  0.079855
 -0.115547
 -0.278629
  0.262068
  0.006772
  0.087691
  0.157266
 -0.205116
 -0.134574
  0.076382
  0.016187
 -0.151318
 -0.071731
 -0.005322
  0.023323
  0.240050
 -0.021196
  0.158817
 -0.100071
 -0.009202
  0.066913
 -0.009833
 -0.016468
  0.040398
  0.011647
  0.067653
  0.180298
  0.167780
 -0.129242
 -0.076384
 -0.115383
  0.052289
 -0.065321
 -0.148523
  0.096895
 -0.194564
 -0.098184
  0.085763
 -0.116208
 -0.055228
 -0.096299
 -0.031440
 -0.017029
  0.183235
 -0.105575
 -0.060016
 -0.008336
  0.038120
  0.114157
 -0.071988
  0.168450
  0.023948
 -0.042426
  0.007107
 -0.091840
  0.068017
  0.011804
  0.064837
 -0.077689
  0.017330
  0.026808
 -0.032463
  0.001881
  0.014978
  0.155581
  0.003330
 -0.049145
  0.194875
  0.092889
  0.327707
  0.164493
  0.081428
 -0.092346
  0.012862
 -0.122987
  0.025896
 -0.043263
  0.097477
  0.003902
  0.044167
  0.006705
  0.149872
 -0.074804
 -0.224162
  0.210352
 -0.299680
  0.034444
 -0.161463
 -0.040125
  0.034167
  0.188070
 -0.218222
 -0.149085
  0.087036
  0.057510
 -0.061465
  0.104971
 -0.016926
 -0.185648
 -0.108690
  0.058915
 -0.207649
 -0.247862
  0.280616
 -0.208593
 -0.015898
  0.031203
  0.174587
  0.003682
  0.278881
 -0.167043
  0.175345
  0.012711
 -0.240387
  0.003185
 -0.010074
 -0.060610
  0.206101
  0.164612
 -0.134082
  0.055156
 -0.021666
 -0.204704
  0.251861
 -0.072425
  0.046831
 -0.084942
 -0.058369
 -0.015980
  0.331701
  0.024638
 -0.001430
 -0.074660
 -0.121694
  0.035571
  0.102593
 -0.052519
  0.097477
  0.117762
 -0.004282
 -0.082817
 -0.083924
 -0.039177
 -0.028084
 -0.177634
 -0.139534
  0.139266
 -0.061361
  0.064240
  0.057779
 -0.133563
 -0.087422
 -0.065676
  0.006316
  0.021422
 -0.035745
  0.078234
 -0.040605
 -0.059770
 -0.068938
  0.111896
 -0.118179
 -0.066548
  0.048570
  0.130446
  0.117925
  0.049947
 -0.079424
 -0.113175
  0.047776
 -0.023680
  0.008130
  0.105621
 -0.164153
 -0.084417
  0.148543
  0.089608
  0.145643
  0.040531
 -0.115163
  0.023247
 -0.045008
 -0.002925
  0.093083
 -0.006533
 -0.223039
 -0.091168
 -0.108540
 -0.084104
 -0.232292
  0.028485
 -0.157590
 -0.089568
 -0.042881
 -0.227862
  0.206945
 -0.043940
  0.137929
 -0.155298
  0.136443
  0.079900
 -0.010623
 -0.205458
 -0.120161
 -0.019788
  0.075976
  0.108601
 -0.026521
  0.123866
  0.043367
  0.098858
 -0.141826
  0.087704
  0.034070
 -0.088848
 -0.321263
 -0.092946
 -0.159367
 -0.001661
 -0.039276
  0.056768
  0.132403
 -0.097045
 -0.135966
  0.174614
  0.135534
 -0.054061
 -0.122609
  0.031808
 -0.098464
  0.098587
  0.125136
  0.132878
 -0.305993
 -0.233848
 -0.144552
  0.043894
 -0.019397
  0.164479
  0.058629
  0.161880
 -0.183438
 -0.082859
  0.154721
  0.042797
  0.085475
 -0.024221
  0.025626
  0.073537
  0.159938
 -0.099987
  0.233596
 -0.106284
 -0.038609
  0.260701
  0.168488
  0.150175
 -0.002872
 -0.116536
 -0.003621
  0.209228
 -0.050676
 -0.135168
  0.044024
  0.269948
  0.274747
 -0.085438
  0.275533
 -0.033505
  0.046596
 -0.000309
  0.135269
 -0.343077
 -0.217888
 -0.100794
  0.176269
  0.292080
  0.118364
  0.042975
  0.147690
 -0.082240
 -0.290365
 -0.039580
 -0.031986
 -0.064172
  0.324541
  0.304609
 -0.079028
  0.147661
 -0.084787
 -0.121569
 -0.013372
  0.106426
 -0.107822
 -0.150361
  0.006468
 -0.103158
  0.138157
  0.167994
  0.041438
 -0.042127
  0.156881
  0.307196
 -0.018855
 -0.095280
  0.028242
 -0.113555
  0.092494
 -0.021850
  0.064169
  0.035347
  0.016353
 -0.012625
 -0.029515
  0.003008
  0.113399
 -0.222301
 -0.229905
  0.034390
 -0.015906
  0.177004
  0.013833
 -0.064560
  0.130766
 -0.021308
  0.138882
  0.159117
 -0.027249
  0.182024
  0.036703
  0.197523
 -0.196875
  0.057894
  0.016137
 -0.031632
 -0.071306
  0.036329
  0.144898
 -0.070898
  0.109229
  0.055635
  0.085452
  0.045743
  0.000311
  0.308075
  0.026469
  0.137426
 -0.033214
  0.253450
  0.083846
  0.098511
 -0.005504
 -0.004825
 -0.025943
 -0.036956
 -0.145437
  0.179446
 -0.145320
 -0.101115
 -0.072968
 -0.068084
  0.010843
  0.181542
  0.095107
  0.005124
 -0.240326
  0.060741
 -0.102324
 -0.067620
  0.015640
 -0.034183
 -0.137615
 -0.000670
  0.192993
  0.094306
 -0.047299
 -0.116487
  0.107440
  0.145300
  0.158098
  0.078476
 -0.344284
 -0.102378
 -0.036723
 -0.054236
 -0.020948
 -0.066318
  0.114990
 -0.166461
  0.037380
 -0.001542
 -0.086639
 -0.143298
 -0.025573
 -0.110563
  0.059547
  0.005749
  0.016572
 -0.195662
 -0.046199
  0.133294
 -0.029620
  0.059524
 -0.139296
  0.006651
  0.111006
 -0.077379
  0.287974
 -0.125895
 -0.195988
 -0.087748
  0.191002
 -0.221913
 -0.028167
  0.145314
 -0.143567
 -0.090683
 -0.048254
  0.026368
  0.020012
 -0.036303
 -0.322162
 -0.021388
 -0.019501
 -0.068738
  0.210950
 -0.030111
 -0.130802
 -0.013274
 -0.108120
 -0.193112
  0.142858
 -0.211604
  0.055363
 -0.182190
 -0.195632
 -0.225601
  0.100060
 -0.200653
 -0.084918
  0.043275
  0.286652
 -0.096100
 -0.130584
 -0.158368
 -0.291452
  0.168592
  0.188521
 -0.035001
 -0.046412
  0.094624
 -0.041304
  0.058601
  0.175648
  0.091999
 -0.144234
 -0.173550
 -0.245595
 -0.080149
 -0.220641
  0.043062
 -0.021703
 -0.042591
  0.095788
 -0.160892
 -0.271087
  0.047252
 -0.044136
  0.011629
  0.166311
 -0.038000
 -0.120495
  0.178506
  0.000642
  0.344848
  0.009256
  0.138737
  0.089361
 -0.063504
 -0.005011
 -0.047110
  0.010333
  0.015019
  0.388078
  0.109338
  0.134843
 -0.064541
  0.075734
  0.142813
  0.074842
 -0.067850
  0.044163
 -0.072059
 -0.071729
  0.005521
  0.066349
 -0.041768
  0.064580
  0.083593
 -0.096546
 -0.123177
  0.036104
  0.071217
  0.059344
 -0.105035
  0.025520
  0.043273
  0.108504
  0.044721
 -0.088826
  0.101304
  0.009252
 -0.155442
  0.016505
  0.201302
  0.106616
  0.026699
 -0.093993
 -0.080976
 -0.048648
  0.139867
  0.010043
 -0.133880
  0.142257
 -0.065085
  0.084037
  0.132813
 -0.029237
 -0.041266
 -0.139185
  0.081350
 -0.210982
 -0.233413
  0.093524
 -0.070173
  0.250009
 -0.132263
  0.054650
 -0.131695
 -0.153830
 -0.003931
  0.158712
  0.212650
  0.029682
 -0.210594
  0.036227
  0.035258
  0.239880
  0.208832
 -0.181373
 -0.172341
  0.172986
  0.048764
 -0.095806
  0.050233
 -0.131929
  0.017148
 -0.026585
 -0.143517
 -0.233749
 -0.049165
 -0.061264
 -0.118035
 -0.069216
  0.002716
 -0.059215
  0.053709
  0.187691
  0.157220
  0.072506
  0.073572
  0.025768
 -0.128421
 -0.088101
  0.108408
  0.045029
  0.117596
  0.065399
 -0.037548
  0.110086
 -0.030065
 -0.036763
 -0.003371
  0.065598
  0.049500
 -0.263649
  0.036650
 -0.115413
  0.024367
  0.299095
  0.022248
  0.110957
  0.138132
  0.079825
 -0.040324
 -0.067990
  0.132083
  0.086577
  0.188450
  0.102638
  0.080315
 -0.070491
  0.116170
  0.214548
 -0.068138
 -0.062247
 -0.258250
 -0.060137
  0.102621
 -0.002914
  0.183619
  0.052045
  0.188240
 -0.219754
  0.235676
  0.013262
  0.239207
  0.205828
 -0.106663
 -0.223545
 -0.018636
 -0.055308
 -0.021599
 -0.225060
  0.065518
  0.051301
 -0.142479
 -0.165843
 -0.098871
  0.001738
  0.031022
 -0.221078
 -0.051907
  0.085118
  0.073278
  0.274910
 -0.188965
 -0.175464
  0.040647
 -0.129793
  0.021708
 -0.034679
  0.142288
  0.117776
  0.125048
  0.203248
 -0.077433
  0.152490
 -0.134363
 -0.089395
 -0.058896
 -0.189701
 -0.056675
 -0.234564
 -0.016788
  0.060588
 -0.106169
 -0.087454
 -0.125808
  0.046585
 -0.045483
  0.006847
  0.066451
  0.150631
 -0.076704
  0.053536
 -0.088549
  0.021667
 -0.029104
  0.156028
  0.039682
 -0.047072
 -0.000750
  0.148578
 -0.125795
  0.022148
 -0.017357
 -0.157464
 -0.002588
 -0.068710
  0.006764
 -0.097950
 -0.105524
  0.005578
  0.170140
 -0.073126
 -0.046857
 -0.023263
 -0.038565
 -0.075899
 -0.094617
 -0.111462
 -0.160408
 -0.020707
 -0.066734
  0.171478
  0.031916
 -0.028143
 -0.006173
  0.193119
  0.066805
  0.261770
  0.059597
 -0.062894
  0.143768
 -0.018336
 -0.090901
 -0.050322
  0.022518
 -0.038538
  0.040577
  0.104516
 -0.079900
 -0.034413
 -0.235828
  0.164081
 -0.075427
 -0.169533
  0.164616
 -0.026087
  0.006973
 -0.024897
  0.097391
 -0.012329
 -0.031081
  0.001982
  0.170459
 -0.203392
  0.027127
  0.005055
 -0.143779
 -0.018623
  0.200924
 -0.028732
 -0.069229
  0.002212
 -0.117188
 -0.093095
 -0.023397
  0.112067
  0.115202
 -0.016497
  0.074613
  0.063112
 -0.120506
 -0.267525
 -0.007084
  0.004012
 -0.177942
  0.037266
 -0.132228
  0.021672
 -0.183655
 -0.138140
  0.181848
  0.090607
  0.181563
 -0.059211
 -0.061451
  0.071803
 -0.118061
 -0.023985
  0.290805
 -0.250471
 -0.191916
 -0.088419
  0.152459
 -0.019846
  0.047657
  0.005556
  0.095062
  0.066149
  0.053328
 -0.119311
 -0.155133
 -0.037677
 -0.126188
  0.162470
 -0.089879
 -0.066285
 -0.147531
  0.106869
  0.145631
  0.064312
 -0.054186
  0.048023
  0.017513
  0.041353
 -0.032976
 -0.186865
  0.000009
 -0.047080
 -0.066011
 -0.134947
 -0.013493
  0.112072
 -0.127731
 -0.159668
  0.185650
 -0.475849
  0.041346
 -0.021395
  0.061387
 -0.073499
 -0.146634
 -0.131513
 -0.003342
  0.120701
 -0.212531
 -0.020935
 -0.066494
  0.027714
 -0.089099
 -0.018447
 -0.051935
  0.308913
  0.061920
 -0.061758
 -0.079708
 -0.074707
 -0.126323
 -0.136213
  0.098762
  0.108930
  0.081674
 -0.158300
  0.002006
 -0.028790
  0.022957
  0.107063
 -0.096472
 -0.123939
 -0.104581
  0.049792
  0.129927
 -0.255864
  0.129705
 -0.160481
  0.090489
  0.018882
  0.074829
 -0.181052
 -0.126119
 -0.030714
 -0.041045
 -0.010074
 -0.021244
 -0.095980
 -0.225784
 -0.024874
  0.142188
  0.167292
 -0.223256
  0.027658
  0.195856
  0.040536
  0.154101
 -0.012807
 -0.052841
 -0.043199
 -0.185343
 -0.072627
  0.062180
 -0.101499
 -0.065702
  0.128799
  0.188873
  0.000202
 -0.059710
  0.097904
  0.115747
 -0.196310
  0.032747
 -0.004076
  0.088972
 -0.256639
 -0.114801
  0.062533
  0.064400
 -0.070491
  0.192375
  0.126775
  0.010913
  0.011749
  0.040502
  0.019128
 -0.026871
 -0.140237
  0.009670
 -0.040837
  0.028187
  0.050759
 -0.071324
 -0.273130
  0.024619
 -0.159618
 -0.028963
 -0.023341
 -0.041324
 -0.138065
  0.031345
  0.151305
 -0.105378
 -0.194477
 -0.105660
 -0.062630
 -0.011398
  0.131496
 -0.041002
 -0.018547
  0.027923
 -0.028876
 -0.064588
  0.039790
 -0.110362
 -0.335858
 -0.024233
  0.060834
 -0.143812
 -0.009856
 -0.013460
  0.190424
 -0.161531
 -0.102799
 -0.318170
 -0.114569
 -0.135312
 -0.170267
  0.053225
 -0.047783
  0.011574
 -0.209636
  0.271029
 -0.189551
  0.205918
 -0.132301
 -0.046829
 -0.161782
 -0.204718
  0.161344
  0.248654
 -0.045994
  0.161375
 -0.112766
 -0.323535
  0.030235
  0.064791
 -0.165808
 -0.149266
 -0.184039
 -0.246203
 -0.115394
 -0.040202
 -0.195223
 -0.127825
 -0.015734
 -0.049659
  0.106878
 -0.156777
 -0.150176
 -0.201639
  0.072893
  0.138346
 -0.223990
 -0.030298
 -0.128021
 -0.311530
  0.036192
 -0.083564
 -0.293063
  0.134592
  0.125064
 -0.093233
 -0.243973
 -0.119331
  0.090773
 -0.245368
 -0.294331
 -0.126012
 -0.109168
  0.028937
 -0.062838
 -0.049639
  0.026422
 -0.048866
 -0.056203
 -0.083504
 -0.211595
  0.064857
 -0.157349
 -0.082769
 -0.216689
  0.077723
 -0.006306
 -0.016736
 -0.137932
  0.059408
 -0.076589
  0.064405
 -0.006781
  0.020370
 -0.089382
  0.147791
  0.204181
  0.072220
 -0.058613
  0.063613
  0.158323
 -0.023735
 -0.112122
  0.027500
 -0.129103
 -0.065772
  0.143683
 -0.296774
 -0.040652
  0.013962
 -0.192113
 -0.065617
 -0.250118
  0.054478
 -0.022587
  0.131860
  0.090801
 -0.215077
 -0.150883
  0.020916
  0.063431
 -0.077062
  0.334717
 -0.078919
 -0.069584
  0.074206
 -0.201726
 -0.126499
  0.132026
 -0.039334
 -0.058498
 -0.013253
  0.135677
  0.102913
  0.112330
  0.042129
 -0.151851
  0.094809
 -0.002580
 -0.080484
 -0.194171
 -0.157367
  0.019199
  0.127695
  0.155502
 -0.040645
 -0.166682
 -0.009493
  0.125693
  0.221037
 -0.060493
 -0.090831
  0.101625
  0.070258
 -0.026319
  0.251517
 -0.042585
 -0.013813
 -0.066627
 -0.202954
  0.036569
 -0.024887
  0.224423
 -0.159452
  0.073299
  0.186610
 -0.080888
 -0.202471
 -0.126741
 -0.055984
  0.050699
 -0.024841
  0.019047
  0.032234
  0.042906
  0.057915
 -0.036179
  0.277647
  0.016703
 -0.036764
 -0.043854
 -0.157509
 -0.234462
  0.144362
 -0.044892
 -0.071633
 -0.221388
  0.203494
 -0.072117
  0.035468
  0.032862
  0.132805
 -0.111580
  0.024965
  0.143245
 -0.125949
  0.051420
 -0.043187
  0.010514
 -0.184289
 -0.084619
  0.166690
  0.152586
  0.024643
  0.202779
 -0.071991
 -0.130837
 -0.017026
 -0.020378
  0.372343
  0.018812
 -0.164628
 -0.083120
 -0.217702
 -0.058149
 -0.162646
  0.071891
  0.203752
 -0.056531
 -0.154347
  0.054519
 -0.108420
 -0.079109
 -0.020980
 -0.148944
  0.249133
 -0.010901
  0.003671
 -0.025449
  0.026215
 -0.048301
  0.116480
  0.081962
 -0.031918
  0.197337
  0.157755
 -0.082431
 -0.000861
  0.232768
  0.190803
 -0.146403
  0.189816
 -0.079557
  0.125143
 -0.256811
  0.052829
  0.017718
  0.045150
  0.027233
 -0.080588
  0.059059
  0.102481
  0.016453
 -0.003028
 -0.117738
  0.073847
 -0.082299
  0.077376
 -0.075855
 -0.080316
  0.000217
 -0.042688
  0.020727
  0.119656
 -0.130114
 -0.135567
  0.145119
  0.068976
 -0.091748
  0.156556
  0.044768
 -0.031123
 -0.036402
  0.078648
  0.128144
 -0.299282
  0.039712
  0.116061
  0.022983
 -0.173232
  0.269754
 -0.011903
 -0.124941
 -0.018235
  0.354539
 -0.101488
 -0.383413
 -0.115096
 -0.019098
  0.104545
 -0.139457
  0.110761
 -0.206476
  0.061804
  0.058201
  0.144317
  0.010536
  0.049986
 -0.094923
  0.000255
  0.028937
  0.061004
 -0.245008
 -0.037471
 -0.105321
  0.011690
  0.018342
 -0.018889
  0.000476
  0.072661
  0.064732
 -0.144982
  0.114502
 -0.187336
 -0.029189
 -0.018836
 -0.082079
 -0.062698
  0.208103
 -0.163597
 -0.143322
  0.059243
 -0.183990
  0.217723
 -0.050264
 -0.149990
 -0.136338
 -0.034231
 -0.141105
 -0.250281
 -0.050135
 -0.126407
  0.087817
  0.117913
  0.086765
  0.085458
 -0.057558
 -0.088583
  0.100056
 -0.058580
 -0.037631
  0.032201
  0.006806
  0.030373
 -0.044463
  0.029611
  0.211558
 -0.021396
 -0.096449
  0.054509
  0.037487
  0.012545
  0.024307
  0.069295
  0.280265
 -0.051601
  0.150922
  0.021912
 -0.048086
  0.140356
 -0.117048
  0.062732
  0.023144
 -0.068045
 -0.159325
 -0.064705
 -0.230773
  0.131015
  0.311028
  0.152621
  0.020613
 -0.235463
 -0.019138
  0.080174
  0.066033
 -0.046888
  0.018985
 -0.077193
 -0.033757
 -0.085557
 -0.225248
 -0.234989
 -0.031087
  0.242077
  0.089893
 -0.073069
  0.096721
  0.060162
 -0.204028
  0.216884
 -0.236323
 -0.130990
  0.041718
 -0.163009
 -0.005074
  0.054680
 -0.056317
 -0.157842
 -0.047991
  0.263783
 -0.069676
  0.105596
  0.096191
  0.022331
  0.057216
 -0.039008
 -0.074088
  0.051779
  0.153173
 -0.106490
  0.116032
 -0.097989
  0.039639
  0.165373
  0.091738
 -0.097694
  0.131811
  0.000035
 -0.053377
  0.139332
  0.248451
 -0.094823
 -0.057579
  0.316936
  0.124378
 -0.039767
 -0.037555
  0.104333
  0.144167
 -0.066966
 -0.216904
  0.075663
 -0.062134
  0.107523
 -0.137355
 -0.253663
  0.102976
 -0.030192
 -0.041226
 -0.251281
 -0.033802
  0.033356
  0.269341
 -0.012355
 -0.050417
  0.130526
 -0.163624
 -0.132331
  0.029367
 -0.066115
 -0.041305
  0.137453
 -0.010121
  0.212966
  0.057366
  0.125594
 -0.155807
 -0.268262
 -0.072282
  0.207531
 -0.149339
  0.300280
 -0.376430
  0.051406
  0.133005
  0.022737
 -0.033078
  0.076651
 -0.103964
 -0.098345
 -0.144647
  0.156622
 -0.069077
  0.143048
 -0.175566
 -0.043902
  0.161014
 -0.017805
 -0.033333
 -0.086081
  0.050031
  0.209957
  0.257055
  0.061119
  0.027358
  0.035046
  0.072505
  0.038843
 -0.085846
  0.180362
  0.313714
  0.087390
 -0.074792
 -0.093854
  0.015568
  0.115964
  0.358840
  0.088887
 -0.052380
 -0.040807
  0.209857
  0.137496
  0.160003
  0.047094
 -0.196671
 -0.092664
  0.007872
 -0.013541
 -0.238827
 -0.048376
 -0.142219
 -0.061284
 -0.068426
 -0.023194
  0.149017
 -0.106992
 -0.137236
  0.056624
 -0.123624
  0.048901
 -0.144397
 -0.072928
 -0.068531
 -0.032415
 -0.058586
 -0.214401
 -0.059336
  0.110218
  0.070735
  0.067471
  0.019921
 -0.016787
 -0.099092
  0.000076
 -0.168808
  0.186494
 -0.053026
  0.195035
 -0.167776
 -0.000556
 -0.031841
  0.019878
 -0.124238
  0.185785
  0.185140
  0.181519
  0.067063
 -0.002794
 -0.056220
 -0.054577
 -0.029671
 -0.059128
  0.110414
  0.103550
  0.102296
 -0.004931
  0.053768
  0.034186
 -0.052164
 -0.043990
 -0.066454
 -0.014750
  0.012410
  0.050778
 -0.174191
 -0.008029
 -0.113860
  0.027130
  0.020354
 -0.045804
 -0.191548
 -0.155043
  0.045368
 -0.040426
 -0.115209
 -0.282583
 -0.027270
  0.115347
  0.137509
 -0.004856
 -0.041330
  0.038781
 -0.054131
 -0.003839
  0.029283
 -0.001167
  0.109152
  0.170975
  0.113196
 -0.052288
 -0.043892
  0.037092
 -0.073743
  0.023917
 -0.022494
  0.116637
 -0.103605
  0.164037
 -0.138669
 -0.214042
 -0.049756
 -0.073652
  0.120114
  0.005537
 -0.183130
 -0.111171
 -0.030793
  0.259693
 -0.076805
 -0.168194
  0.167900
  0.072747
  0.031202
 -0.105115
  0.180866
 -0.004358
  0.075356
 -0.232770
 -0.100380
 -0.023608
  0.234746
  0.226173
  0.125999
  0.003922
  0.151172
 -0.174106
  0.272707
 -0.099244
  0.057238
  0.155159
 -0.112932
  0.142312
 -0.027443
  0.138458
  0.145437
  0.134526
 -0.001408
 -0.007713
 -0.062621
 -0.005758
 -0.086810
  0.115610
 -0.179349
 -0.131426
  0.245635
  0.000296
 -0.039366
 -0.119012
  0.115994
  0.089871
 -0.095573
  0.012250
  0.066756
 -0.123947
 -0.204645
  0.092951
  0.008561
 -0.256188
  0.003010
  0.190290
 -0.087177
  0.043168
  0.099908
  0.286429
  0.050385
  0.162658
 -0.208848
  0.064096
  0.135578
 -0.120768
  0.058516
 -0.174718
 -0.130836
 -0.046840
  0.023719
 -0.043843
 -0.030914
 -0.064670
 -0.007370
 -0.016654
 -0.174084
  0.105561
 -0.138183
 -0.024114
  0.251650
 -0.042296
 -0.223863
 -0.145484
  0.200319
  0.126288
 -0.024878
  0.018192
  0.094147
 -0.084587
 -0.113039
  0.173989
 -0.019668
 -0.008991
 -0.065976
 -0.355833
 -0.297232
  0.070888
  0.298765
  0.050477
  0.019353
  0.060749
  0.043905
 -0.288287
 -0.019691
  0.134772
  0.070309
 -0.122734
 -0.008273
 -0.058876
  0.020867
 -0.155961
  0.070125
 -0.031355
  0.157175
 -0.074934
  0.081788
  0.013653
 -0.054972
  0.059857
 -0.140214
 -0.009498
  0.103633
  0.197341
 -0.172334
 -0.106755
  0.049691
  0.193307
  0.035773
  0.149050
 -0.002151
  0.057751
  0.124032
 -0.032970
 -0.081784
  0.215003
 -0.042007
 -0.056934
  0.197105
  0.115754
 -0.241028
 -0.026994
  0.066512
  0.090346
  0.050298
 -0.043486
  0.068257
  0.145707
  0.078997
 -0.058658
  0.033501
 -0.253693
 -0.066378
 -0.067508
  0.149347
 -0.115474
  0.062944
 -0.013736
 -0.040090
 -0.010670
 -0.071691
 -0.071696
  0.037323
  0.071281
  0.005092
 -0.169278
 -0.067587
  0.104707
 -0.029688
 -0.095928
  0.171442
 -0.165026
  0.189334
  0.051572
 -0.011939
 -0.103259
  0.098965
 -0.108430
 -0.099385
  0.232532
  0.022459
 -0.052003
  0.006242
 -0.071368
 -0.007113
  0.045932
 -0.093867
 -0.015556
 -0.174869
 -0.029061
 -0.018054
  0.013951
 -0.088695
 -0.004736
  0.146064
  0.141719
  0.053251
 -0.019784
 -0.207714
 -0.222809
 -0.075707
  0.053471
  0.006155
 -0.105048
 -0.096600
 -0.038309
 -0.087421
  0.047989
  0.141008
 -0.156582
 -0.205647
 -0.121009
 -0.029941
  0.076334
  0.167718
 -0.034527
 -0.062990
  0.028275
 -0.015065
 -0.260481
 -0.044529
  0.249767
 -0.055339
  0.077574
 -0.011204
  0.064530
 -0.076223
  0.051044
  0.218170
 -0.299076
  0.060280
 -0.109999
 -0.194673
 -0.019959
 -0.034404
  0.108054
  0.093562
 -0.114191
  0.122176
 -0.065529
 -0.027262
 -0.060577
  0.028100
  0.073950
  0.117591
 -0.097700
 -0.076739
 -0.068332
 -0.076171
  0.108414
 -0.123991
 -0.078336
  0.176478
  0.015678
  0.047014
  0.041181
  0.175165
  0.217307
 -0.091689
 -0.112437
  0.190460
  0.093228
 -0.140422
  0.200889
  0.124553
  0.046500
  0.000667
  0.025291
  0.028259
 -0.118296
  0.061024
 -0.277877
  0.174449
 -0.026401
 -0.173722
  0.177960
 -0.115995
  0.056877
  0.032225
 -0.159893
  0.144331
  0.101726
  0.117118
 -0.245561
 -0.204681
  0.034654
 -0.043783
  0.140324
 -0.104260
 -0.028257
 -0.000237
 -0.260967
 -0.072578
  0.098610
  0.147922
  0.070089
 -0.158681
 -0.198745
 -0.075574
  0.155887
  0.074233
 -0.021549
 -0.055233
  0.054184
 -0.109325
  0.187858
 -0.228403
 -0.012778
  0.067615
 -0.177596
  0.089594
  0.057710
 -0.025090
 -0.219014
 -0.155658
 -0.222899
  0.033996
 -0.119095
  0.084318
 -0.046091
 -0.126721
  0.100503
 -0.065336
 -0.016418
  0.290371
 -0.144084
  0.079566
 -0.006429
  0.039620
  0.053099
  0.150774
 -0.174275
  0.181830
 -0.199724
 -0.174339
 -0.229227
  0.045100
  0.089025
 -0.092589
 -0.027304
  0.242393
 -0.053195
 -0.022310
 -0.131417
 -0.126070
  0.209158
 -0.198347
  0.070365
  0.023831
 -0.031586
  0.169068
  0.009161
  0.032881
  0.191013
 -0.004798
  0.261084
  0.090116
 -0.038134
  0.015799
  0.155173
 -0.192715
 -0.120095
  0.008872
  0.029488
  0.071092
  0.172541
  0.083290
  0.047934
 -0.029733
 -0.194421
  0.144785
  0.010569
 -0.263153
  0.037372
 -0.032822
  0.023769
  0.168813
  0.015673
 -0.066824
  0.063548
  0.003757
 -0.121208
  0.047752
  0.030592
 -0.091839
 -0.162526
 -0.008103
 -0.024509
  0.064896
  0.234182
 -0.052933
 -0.146046
 -0.057240
  0.166990
 -0.048405
 -0.040677
  0.085884
  0.137788
 -0.046139
 -0.029813
 -0.069139
  0.025444
  0.029299
  0.253896
 -0.130358
 -0.007081
  0.112344
  0.148148
  0.115338
 -0.085312
 -0.115028
 -0.036270
 -0.058164
  0.072482
  0.178589
  0.010864
 -0.068329
 -0.238122
 -0.143553
 -0.069423
 -0.101325
  0.082654
  0.010132
 -0.086761
  0.032281
  0.000419
  0.097585
  0.008138
 -0.081108
 -0.021305
 -0.086765
  0.131205
  0.022295
 -0.059440
 -0.010304
  0.314686
 -0.265592
 -0.018708
  0.009883
 -0.110162
  0.107736
 -0.024898
  0.113876
 -0.015366
 -0.031090
  0.085406
 -0.122305
  0.043652
  0.085883
 -0.074304
  0.118481
 -0.055607
 -0.018290
 -0.063580
  0.070688
  0.013756
 -0.221145
  0.132606
  0.055900
 -0.031745
  0.012958
 -0.187331
  0.074051
 -0.090220
 -0.098019
  0.164092
  0.140366
 -0.144384
 -0.038884
 -0.164535
  0.102693
  0.067603
  0.027999
  0.153531
 -0.236831
  0.023607
  0.089353
  0.304869
  0.107690
 -0.030707
 -0.009637
 -0.191641
 -0.136993
  0.105848
  0.053398
  0.117409
  0.084112
 -0.043398
  0.056277
 -0.071063
 -0.051269
 -0.067504
  0.149737
 -0.003922
  0.136827
  0.069177
  0.133873
 -0.104548
  0.111099
  0.000824
 -0.330636
 -0.046532
  0.187649
  0.125973
 -0.188975
  0.137975
  0.066944
  0.199391
  0.023113
 -0.022640
  0.012119
 -0.130172
 -0.181082
 -0.309628
  0.165165
 -0.036528
 -0.140767
  0.085750
  0.053654
  0.222667
  0.171625
  0.131961
  0.039379
 -0.016078
  0.001915
 -0.034011
  0.057614
 -0.015300
 -0.149692
 -0.074832
 -0.175595
 -0.137205
  0.026620
 -0.161156
 -0.114930
  0.169700
 -0.057674
 -0.050442
 -0.180081
  0.074095
  0.040759
  0.043288
  0.094069
 -0.031716
  0.111567
 -0.004941
  0.072098
 -0.035769
 -0.022196
  0.107067
  0.031236
 -0.069301
 -0.007598
 -0.063985
  0.057964
 -0.026136
 -0.033707
 -0.056716
  0.016075
 -0.124516
 -0.002179
 -0.306267
  0.032915
 -0.088475
 -0.229016
  0.128182
 -0.065662
 -0.004232
 -0.157340
  0.055389
  0.265804
  0.122410
 -0.049228
 -0.038290
  0.115670
  0.194333
 -0.236729
  0.165816
  0.055531
  0.050029
  0.004937
 -0.178017
  0.200519
 -0.016168
 -0.217888
 -0.084972
  0.264120
  0.074014
  0.005017
 -0.169189
 -0.004471
 -0.229262
  0.022873
  0.050856
  0.043832
 -0.102356
 -0.097904
 -0.077718
 -0.150679
 -0.091338
  0.063863
  0.254116
 -0.021109
 -0.186944
  0.128274
 -0.134425
  0.005197
  0.084755
  0.121687
 -0.008822
  0.245571
  0.160863
 -0.040375
 -0.113672
 -0.101325
 -0.069717
  0.165076
  0.082769
 -0.129222
 -0.106667
 -0.006548
 -0.071130
  0.226548
 -0.094328
 -0.208980
  0.173457
  0.133593
 -0.182951
  0.045165
  0.195315
  0.140744
 -0.056163
  0.204589
  0.235381
 -0.091934
 -0.166173
 -0.114484
  0.078136
 -0.219348
  0.037598
 -0.153100
 -0.073727
  0.186042
 -0.108739
 -0.135167
  0.125684
  0.016200
 -0.104591
  0.225884
 -0.194578
 -0.158362
 -0.155054
  0.061010
 -0.047096
  0.180542
 -0.046427
  0.047655
 -0.021264
 -0.022402
 -0.025720
 -0.051507
 -0.018871
  0.139666
 -0.037525
  0.030712
  0.171289
 -0.093553
  0.143712
  0.054101
 -0.196161
 -0.103390
  0.064911
  0.064093
  0.066986
 -0.161040
 -0.118359
  0.009961
 -0.106235
  0.152582
  0.193632
 -0.060164
 -0.003336
  0.199754
  0.105302
  0.081628
  0.038115
 -0.069305
  0.041514
  0.157600
 -0.054899
  0.039964
  0.090002
 -0.040137
  0.041343
  0.026211
 -0.128838
  0.043958
 -0.000306
 -0.138293
  0.040944
  0.065824
 -0.143004
 -0.127311
 -0.055690
  0.240955
  0.138520
  0.039136
  0.060786
 -0.038979
 -0.248375
 -0.017112
  0.067404
  0.006036
  0.073510
 -0.059366
  0.039977
 -0.080825
 -0.251995
  0.016315
 -0.111728
 -0.057005
  0.065767
  0.095734
  0.069157
  0.179418
 -0.011569
  0.014207
 -0.016736
  0.093119
 -0.164655
 -0.122320
  0.108467
 -0.161407
 -0.076564
  0.015033
 -0.215030
  0.024605
 -0.209521
  0.137606
  0.276357
  0.095432
  0.092257
  0.060904
 -0.125254
  0.077593
  0.015642
  0.164877
 -0.019661
  0.020945
 -0.122905
 -0.021178
 -0.113695
  0.092257
 -0.058270
  0.120822
  0.076758
 -0.087777
  0.246606
  0.118573
 -0.026126
  0.112391
 -0.023096
 -0.100774
 -0.103624
 -0.168664
 -0.063102
  0.021178
  0.137195
  0.061059
 -0.106305
  0.283592
  0.008408
  0.032523
  0.018586
  0.135857
  0.022553
  0.020974
  0.122711
  0.147863
  0.053946
  0.226819
 -0.040085
 -0.127293
 -0.055448
 -0.094037
 -0.012097
 -0.050096
  0.239825
  0.130702
 -0.077951
  0.027318
  0.002744
 -0.017612
 -0.057626
 -0.033580
 -0.265617
  0.125771
  0.007028
  0.175292
  0.039049
  0.141256
 -0.091584
  0.184560
  0.014746
 -0.018343
 -0.110010
  0.156868
  0.061682
 -0.050815
 -0.061684
  0.096040
 -0.129306
  0.054441
 -0.047695
  0.035861
 -0.040556
 -0.081328
  0.080761
  0.089948
 -0.113709
 -0.063430
  0.283643
 -0.009325
  0.072996
  0.089467
  0.143395
 -0.043643
 -0.067451
  0.079658
 -0.008121
  0.002067
 -0.055501
  0.206611
 -0.163603
 -0.278044
  0.105376
  0.044759
 -0.052210
  0.234836
 -0.037478
  0.028337
  0.296184
 -0.131387
 -0.008785
  0.144512
 -0.071634
 -0.016267
 -0.251798
 -0.084860
 -0.221628
 -0.036381
 -0.011732
  0.016150
 -0.176686
  0.098509
 -0.122230
 -0.115319
 -0.146261
 -0.256953
 -0.014957
 -0.172220
 -0.090785
  0.180337
  0.020682
  0.135557
  0.025201
  0.052353
 -0.020856
  0.183952
 -0.067966
  0.054930
  0.105735
 -0.042928
  0.028351
 -0.017999
  0.004327
  0.115461
 -0.093959
 -0.203321
 -0.030678
 -0.108831
  0.174429
  0.176023
  0.114694
  0.044075
  0.021977
  0.084000
  0.016076
 -0.023765
  0.003672
  0.127359
  0.146578
  0.065994
 -0.159233
 -0.003608
  0.069819
  0.096497
  0.098940
 -0.029758
 -0.135141
  0.276395
  0.045860
 -0.003078
  0.087801
  0.028583
 -0.076526
  0.268743
 -0.057488
 -0.007826
  0.061689
 -0.017621
 -0.072634
 -0.038407
  0.082800
  0.067057
  0.108330
 -0.105712
 -0.018799
  0.114951
 -0.069398
  0.165489
  0.103590
 -0.100661
  0.013478
  0.238132
 -0.200204
 -0.127982
 -0.064324
 -0.072488
  0.210578
 -0.073863
  0.021539
 -0.084980
  0.018019
  0.002715
  0.078309
  0.074499
  0.073874
  0.188405
 -0.103211
  0.026387
 -0.036851
 -0.012393
  0.023909
 -0.233199
  0.070260
  0.013673
 -0.284200
 -0.178939
  0.104210
  0.025077
 -0.216162
 -0.002078
 -0.056968
  0.000117
 -0.056771
 -0.056509
 -0.136157
  0.001302
  0.009862
 -0.000459
 -0.027816
  0.001861
 -0.098764
  0.079386
  0.085676
 -0.037861
 -0.043749
 -0.005135
 -0.040148
  0.073954
  0.227271
 -0.138990
 -0.069197
 -0.074757
 -0.000006
 -0.064799
  0.026739
 -0.000756
 -0.005050
 -0.104827
 -0.083042
  0.102060
 -0.013846
  0.114005
 -0.070921
  0.098810
  0.092443
  0.030579
 -0.099110
  0.108666
  0.004328
  0.222250
 -0.167741
 -0.013969
 -0.127532
  0.043901
  0.030650
  0.122289
 -0.175537
 -0.055049
  0.041400
 -0.114196
  0.249772
 -0.050932
  0.103259
 -0.107067
 -0.419261
 -0.117472
 -0.045201
 -0.019164
 -0.206636
 -0.114064
  0.030591
 -0.156330
 -0.151278
 -0.009362
 -0.171233
  0.162620
  0.034582
 -0.179106
  0.126910
  0.203894
  0.069877
 -0.010736
 -0.153037
  0.121601
  0.044307
 -0.059945
 -0.276731
 -0.002969
 -0.032631
 -0.149873
 -0.097555
 -0.019432
 -0.237082
  0.012341
 -0.062666
  0.357522
 -0.002629
  0.260632
  0.022668
 -0.195670
  0.015835
  0.000191
 -0.049912
  0.114411
 -0.080786
  0.096754
  0.083647
 -0.143561
 -0.119173
  0.044163
  0.044772
  0.022941
 -0.135459
 -0.195562
 -0.022467
  0.268489
  0.061493
  0.156278
  0.275306
  0.097537
 -0.250026
  0.207385
  0.218503
 -0.001788
  0.078939
 -0.103791
  0.028226
  0.054682
 -0.075612
  0.075875
 -0.018358
  0.223827
 -0.210484
 -0.209225
 -0.004714
  0.116753
 -0.072005
 -0.053776
  0.352714
 -0.049563
 -0.261200
 -0.007317
 -0.130497
 -0.000991
  0.053245
  0.071659
  0.192172
 -0.097030
 -0.145352
  0.052993
  0.051599
 -0.030932
  0.079891
 -0.112344
  0.025162
  0.058772
  0.382466
  0.207731
 -0.061368
 -0.101387
 -0.009818
 -0.051557
 -0.204724
 -0.088969
 -0.217098
  0.196812
  0.111132
  0.063199
  0.005963
  0.105654
 -0.027224
 -0.008199
  0.026547
  0.057656
  0.057071
  0.101169
  0.158523
 -0.090904
  0.068548
  0.130481
  0.082515
 -0.026772
 -0.045251
 -0.016442
  0.054751
  0.009787
 -0.125554
 -0.132209
 -0.078943
  0.093579
  0.087063
  0.052115
  0.000170
  0.223445
 -0.100091
 -0.277338
  0.064098
 -0.079165
 -0.225303
 -0.080228
  0.004314
  0.019518
  0.023868
  0.047165
 -0.280281
 -0.273141
 -0.004384
 -0.221348
 -0.138405
  0.026290
  0.079855
  0.086592
  0.108378
  0.194405
  0.192039
  0.094370
  0.023100
 -0.047024
 -0.139497
 -0.199723
  0.006010
 -0.025087
 -0.137799
 -0.141926
 -0.067683
  0.216685
 -0.066908
  0.102478
  0.062032
  0.068075
 -0.078932
 -0.000329
  0.031309
  0.135177
  0.105531
 -0.034762
 -0.061387
 -0.108868
  0.155596
 -0.028418
  0.098676
 -0.323148
  0.074491
 -0.019781
  0.224930
 -0.027859
  0.058084
  0.010972
 -0.079964
  0.060801
  0.041122
  0.094640
 -0.067533
  0.001774
 -0.061139
  0.085878
 -0.291021
  0.038191
  0.011914
  0.047361
  0.001081
  0.163441
 -0.064020
 -0.035101
 -0.152112
 -0.103507
  0.106243
 -0.048432
  0.309688
  0.015045
  0.004765
 -0.186405
 -0.347555
  0.072252
 -0.042775
  0.177333
  0.181052
 -0.009858
 -0.212817
 -0.149682
 -0.255513
 -0.095258
 -0.070292
  0.147049
  0.007746
  0.029390
  0.026468
 -0.080182
 -0.161084
 -0.101013
  0.106968
 -0.064115
  0.006331
 -0.097314
  0.154027
  0.155543
 -0.298720
 -0.025141
 -0.015296
 -0.092170
  0.118995
 -0.094700
  0.145406
 -0.087928
 -0.104063
 -0.088879
 -0.098661
 -0.029186
  0.096314
 -0.110260
  0.048109
  0.040358
  0.161772
  0.093118
  0.143668
  0.074518
 -0.104364
 -0.195926
 -0.124503
  0.058305
  0.026735
  0.453053
 -0.036534
  0.005504
  0.222746
  0.059209
  0.099787
  0.200128
 -0.080639
  0.271175
 -0.029709
  0.082605
  0.247661
  0.180894
  0.177261
 -0.092234
 -0.076876
 -0.127078
  0.048360
  0.113017
 -0.037626
  0.118865
  0.041716
 -0.116171
  0.088381
  0.167770
  0.110171
  0.175661
 -0.052906
  0.288358
  0.087516
  0.001629
  0.173869
  0.292778
  0.164094
  0.143431
  0.520914
  0.320938
  0.414152
  0.040407
  0.164850
  0.690084
  0.349313
  0.428749
  0.496555
  0.446836
  0.567753
  0.526950
  0.552863
  0.494046
  0.568363
  0.475549
  0.303772
  0.638748
  0.461884
  0.658052
  0.630429
  0.945034
  0.571136
  0.981010
  0.627661
  0.782367
  0.920983
  0.901903
  1.000000
  0.936320
  0.832942
  0.651805
  0.784496
  0.840838
  0.794909
  0.737360
  0.871114
  0.795715
  0.804378
  0.669829
  0.765025
  0.616796
  0.688863
  0.793574
  0.758174
  0.587433
  0.630952
  0.782906
  0.262420
  0.213801
  0.250162
  0.265152
  0.138126
 -0.033109
  0.141475
 -0.076345
  0.226679
 -0.077801
  0.171202
 -0.006310
  0.091200
 -0.057940
  0.030856
  0.145113
  0.104751
 -0.135192
 -0.000638
  0.071940
 -0.116310
  0.067245
  0.240214
  0.117122
 -0.190160
  0.075079
 -0.120020
 -0.201326
  0.188214
  0.095032
 -0.102792
  0.030365
  0.147687
  0.184699
  0.349835
 -0.049998
  0.015519
 -0.188152
  0.025257
 -0.294145
  0.180127
  0.016749
 -0.019275
 -0.206533
 -0.078293
  0.085099
 -0.011699
 -0.178291
  0.086903
 -0.067923
  0.044450
  0.050732
  0.020482
 -0.105945
  0.138146
 -0.038326
 -0.201297
 -0.134339
 -0.075932
  0.143277
  0.146215
  0.061550
  0.034417
  0.096261
 -0.005193
  0.058064
  0.034650
  0.150347
  0.105785
 -0.209474
 -0.053685
  0.101279
 -0.092386
 -0.022945
 -0.033059
 -0.166382
  0.092031
  0.220775
 -0.060270
 -0.089682
  0.010173
  0.009143
 -0.125861
 -0.074126
 -0.134044
  0.076570
  0.106293
 -0.130762
 -0.073689
 -0.116777
  0.005409
 -0.188165
 -0.064748
 -0.173040
 -0.104582
  0.152905
 -0.088271
 -0.327775
  0.195003
 -0.039133
  0.055808
  0.080109
 -0.285184
 -0.079359
  0.157395
 -0.056327
  0.108127
  0.047485
 -0.200948
 -0.025587
  0.007215
 -0.079776
  0.104850
 -0.022786
 -0.172487
 -0.024034
  0.133042
 -0.020075
 -0.051245
 -0.077675
  0.081822
 -0.140943
 -0.063891
  0.133332
  0.068487
 -0.167786
  0.213870
  0.036688
 -0.173086
  0.070774
 -0.065191
 -0.004333
 -0.195670
  0.224511
 -0.032810
 -0.193739
 -0.031597
 -0.093781
 -0.003093
  0.023939
  0.146124
  0.094183
 -0.129930
 -0.066731
  0.102399
 -0.040083
 -0.004508
 -0.233121
  0.016292
 -0.095254
  0.350651
 -0.152072
  0.051372
  0.027080
 -0.058171
 -0.138856
 -0.065884
  0.048173
  0.161866
 -0.172074
  0.016613
  0.110230
 -0.133475
 -0.251823
 -0.172956
  0.256152
 -0.104231
 -0.049807
  0.161113
 -0.059429
  0.062597
 -0.132805
 -0.011066
 -0.036371
  0.043271
  0.188290
  0.057649
  0.178756
  0.045694
 -0.071323
 -0.014326
  0.178529
  0.172068
  0.118557
 -0.075715
 -0.161776
 -0.067044
 -0.129128
 -0.094538
 -0.033322
 -0.117081
  0.098897
  0.121497
 -0.183783
  0.029563
 -0.050179
 -0.038240
  0.071129
 -0.059485
 -0.000152
 -0.132067
 -0.170504
  0.053769
  0.138679
 -0.032829
 -0.104367
 -0.152316
  0.108735
  0.050069
  0.102762
 -0.153993
 -0.017437
  0.022231
 -0.141890
  0.149136
 -0.155790
  0.098465
  0.110902
 -0.147668
  0.007923
  0.034097
  0.050882
 -0.217507
 -0.067515
  0.109406
  0.033754
 -0.014868
  0.119309
  0.039676
 -0.183920
 -0.145562
  0.120613
 -0.086279
  0.081528
 -0.126614
  0.169394
  0.013010
 -0.044012
 -0.074017
 -0.050958
  0.112950
  0.224397
  0.028989
 -0.095036
  0.037956
 -0.184792
  0.143647
  0.072581
  0.018006
 -0.107762
  0.030393
  0.046324
  0.092737
  0.196313
  0.004707
  0.045671
  0.089484
  0.018490
 -0.067874
 -0.135858
  0.000737
  0.093207
 -0.231085
 -0.009026
  0.045211
  0.145966
 -0.118163
 -0.091487
  0.073999
  0.140303
  0.183145
  0.124699
 -0.249122
 -0.242787
  0.051583
  0.186486
  0.007923
 -0.003289
 -0.112354
  0.028505
  0.077429
  0.155530
 -0.041621
  0.089969
  0.111648
  0.005799
 -0.072074
 -0.073639
  0.081259
 -0.099392
 -0.006690
  0.223498
  0.045957
  0.068196
 -0.096366
  0.144189
  0.035000
  0.088607
 -0.214338
  0.039429
 -0.301068
  0.152871
  0.185038
 -0.184368
  0.074045
  0.013544
 -0.030885
 -0.076534
  0.101841
  0.038119
 -0.020180
 -0.039168
  0.068971
 -0.067304
  0.122830
  0.187996
  0.025477
 -0.245494
  0.025077
 -0.132837
 -0.230864
 -0.037842
  0.257330
 -0.159498
 -0.008933
  0.046502
  0.184099
  0.046864
 -0.126047
 -0.076588
 -0.148725
 -0.139137
 -0.249573
  0.263236
  0.076284
  0.062065
  0.092624
  0.119277
  0.072022
 -0.007115
  0.108782
 -0.098504
 -0.024456
  0.046292
  0.253146
  0.145650
 -0.151894
 -0.000905
 -0.032163
  0.167474
  0.182371
 -0.187784
 -0.164397
 -0.108175
 -0.136527
  0.011687
 -0.170614
 -0.038169
 -0.116592
 -0.003861
  0.071513
  0.254716
 -0.100056
  0.215056
  0.034905
  0.079448
  0.110017
  0.177623
  0.110062
 -0.215360
 -0.081863
  0.168483
 -0.083411
 -0.161407
 -0.012938
  0.013219
 -0.116296
 -0.030328
 -0.166105
  0.068308
  0.111595
 -0.029806
 -0.025613
 -0.082153
 -0.095537
 -0.208850
 -0.160584
  0.119976
 -0.110229
  0.076019
 -0.022759
 -0.139111
 -0.046667
  0.192448
  0.060878
  0.034503
  0.033003
 -0.234653
 -0.005436
  0.013293
 -0.084139
  0.348090
  0.083110
 -0.059579
  0.213263
 -0.083340
  0.030267
  0.062917
  0.109096
 -0.267496
 -0.022339
  0.095115
  0.271810
 -0.154641
 -0.064307
 -0.175501
 -0.064764
 -0.001776
 -0.103585
 -0.184338
  0.116034
  0.173807
 -0.054185
  0.024437
  0.138448
 -0.061210
 -0.008404
  0.184141
  0.249354
  0.034321
 -0.072217
  0.020622
  0.154648
  0.044486
 -0.151080
 -0.041593
  0.063871
  0.130074
 -0.014430
  0.126365
  0.174752
  0.075678
 -0.078468
  0.105896
  0.110919
 -0.027939
  0.103672
 -0.066261
 -0.103654
  0.048331
  0.185874
  0.194975
 -0.202775
 -0.001882
  0.137566
 -0.048068
 -0.053208
  0.028218
 -0.218218
 -0.019645
  0.144274
 -0.075074
 -0.118968
  0.056732
 -0.073641
 -0.042025
 -0.340352
 -0.026550
  0.008078
  0.248032
 -0.200252
  0.132894
  0.022406
  0.250078
 -0.178099
 -0.169125
  0.068440
 -0.005311
  0.102180
  0.298340
  0.017176
  0.125074
 -0.115448
  0.059892
  0.204078
 -0.170489
  0.141444
  0.028307
  0.095514
 -0.085544
 -0.082838
 -0.070568
 -0.114934
  0.105455
  0.053965
  0.060293
  0.191469
 -0.030556
  0.143643
 -0.085363
  0.203923
 -0.066241
  0.006426
  0.115161
  0.028378
 -0.014746
 -0.106513
 -0.072052
  0.190460
  0.186973
 -0.132388
 -0.185137
  0.028826
 -0.107978
  0.148369
 -0.209847
 -0.066932
  0.135556
  0.076002
  0.122383
 -0.015527
  0.134230
 -0.156062
 -0.150723
 -0.048452
 -0.115236
 -0.039424
  0.130940
  0.049688
  0.118012
  0.168001
 -0.114231
 -0.063456
  0.227417
 -0.026769
 -0.280436
  0.123142
 -0.052094
 -0.032982
  0.115675
 -0.275035
 -0.030354
 -0.238434
  0.139830
  0.310209
  0.070438
 -0.179032
 -0.010526
  0.278875
 -0.063637
 -0.185210
  0.262428
 -0.230933
  0.013991
 -0.110796
  0.166458
  0.157338
  0.036590
 -0.123323
 -0.317404
  0.180789
  0.126936
 -0.044830
  0.044161
 -0.096742
  0.116627
  0.157754
  0.084485
  0.051117
  0.008842
 -0.149513
 -0.078179
 -0.087208
  0.224888
  0.033436
 -0.030904
  0.080639
  0.045865
  0.037509
 -0.158479
 -0.293742
 -0.098140
  0.086854
 -0.170899
 -0.058792
 -0.096448
  0.134777
 -0.015321
 -0.117529
 -0.099132
 -0.051996
 -0.098149
  0.007650
  0.193607
  0.274046
  0.032771
  0.022197
 -0.030750
  0.116471
  0.227622
 -0.084271
  0.068078
  0.155714
 -0.187308
 -0.072124
  0.051336
 -0.157653
 -0.094982
 -0.011834
 -0.083120
 -0.057263
 -0.014188
  0.360764
  0.205573
 -0.007028
 -0.079990
  0.040237
 -0.044229
 -0.058816
  0.017602
  0.346435
  0.081175
 -0.154563
  0.022284
 -0.104911
  0.005963
 -0.046072
 -0.019466
  0.155598
 -0.088366
 -0.119301
 -0.008848
 -0.229912
 -0.067667
  0.065760
  0.044776
 -0.175455
 -0.108298
  0.142292
  0.150235
 -0.122540
 -0.033700
 -0.048359
  0.237936
  0.063481
  0.305781
 -0.185226
  0.098090
 -0.022838
  0.059944
  0.106874
 -0.026573
 -0.027133
 -0.009371
  0.130484
 -0.023773
  0.030829
  0.120104
 -0.135607
 -0.330598
 -0.213854
 -0.153180
  0.081342
 -0.153955
  0.045917
  0.129625
 -0.189564
  0.242680
  0.127294
  0.026808
  0.194406
  0.019715
  0.092156
  0.037423
 -0.120866
 -0.058939
 -0.230878
 -0.041113
  0.081824
 -0.200534
  0.062581
 -0.157966
 -0.227104
  0.087215
 -0.113128
  0.087886
  0.016245
 -0.217792
  0.110348
 -0.056212
  0.042525
 -0.241597
  0.022143
 -0.061526
  0.073581
  0.107443
 -0.011348
 -0.113304
 -0.050719
  0.126379
  0.091647
  0.192234
 -0.070562
  0.040123
  0.070080
  0.267230
 -0.045564
 -0.076403
 -0.001820
  0.141379
 -0.110316
  0.009776
 -0.079974
 -0.232950
 -0.307870
  0.060002
 -0.170843
 -0.035995
 -0.074297
  0.162070
  0.102971
  0.002548
 -0.159127
  0.079536
  0.003566
  0.127910
  0.084952
  0.099399
  0.236612
 -0.160247
  0.168702
 -0.128742
 -0.053782
  0.113704
  0.200968
 -0.118948
 -0.039823
  0.122018
  0.086087
 -0.100963
  0.000520
  0.065708
  0.080412
 -0.008420
 -0.143017
  0.030402
 -0.089001
 -0.126062
  0.087003
 -0.090333
 -0.196736
  0.185211
  0.291297
  0.056018
  0.032247
  0.090759
  0.033003
  0.163921
  0.180909
  0.022495
 -0.053813
 -0.030978
 -0.162100
 -0.145873
 -0.229678
 -0.014423
  0.009321
  0.317783
 -0.016395
  0.003185
  0.061581
 -0.040275
 -0.036505
  0.001161
  0.068320
  0.166041
 -0.142546
 -0.056164
  0.101016
 -0.081805
  0.227645
  0.167841
  0.021838
 -0.061147
 -0.193675
 -0.088626
 -0.027284
 -0.115071
 -0.044482
 -0.154534
  0.156703
 -0.372850
 -0.029806
  0.171635
 -0.069434
  0.164945
  0.234399
  0.150229
  0.176841
  0.140907
 -0.089526
  0.051210
  0.059698
  0.017592
  0.011458
  0.004410
 -0.156236
  0.146400
 -0.048608
 -0.143404
 -0.317279
  0.006217
  0.062572
 -0.101695
  0.154392
  0.125672
  0.051584
  0.087205
  0.218229
  0.180821
  0.023879
  0.038197
  0.164536
  0.092577
  0.087628
  0.049089
  0.138644
 -0.191656
  0.118949
 -0.117482
 -0.116768
  0.062710
  0.237482
 -0.028536
 -0.094622
  0.161704
 -0.060063
  0.074870
 -0.022719
  0.003828
  0.046320
  0.008610
 -0.236825
 -0.267371
  0.025100
 -0.338332
 -0.125299
 -0.074929
 -0.272051
 -0.118612
  0.166944
  0.023423
  0.070430
  0.032493
  0.073111
  0.039559
  0.001825
 -0.244613
  0.032163
  0.002987
  0.266474
 -0.090853
 -0.021141
  0.124240
  0.080236
  0.020943
 -0.062560
 -0.070744
  0.062347
  0.087024
 -0.288523
 -0.057967
  0.163413
 -0.006463
 -0.040028
 -0.072557
 -0.075795
  0.130155
 -0.019884
 -0.223811
 -0.067726
  0.054785
  0.212182
  0.047074
 -0.149193
  0.038828
  0.034733
  0.081844
  0.055309
  0.074005
  0.074908
 -0.060175
 -0.099168
  0.072582
 -0.055928
  0.029112
  0.054273
 -0.060087
 -0.092338
  0.090369
 -0.043790
 -0.124824
  0.185039
  0.059117
 -0.047701
 -0.196050
  0.203163
 -0.035362
  0.011006
 -0.142826
 -0.083079
  0.035412
 -0.087553
  0.047960
 -0.022490
  0.093103
 -0.054628
  0.152041
  0.050074
  0.079604
 -0.106241
 -0.254684
 -0.115211
 -0.060565
 -0.071152
 -0.038374
 -0.162701
  0.182598
 -0.013927
 -0.067983
 -0.100125
 -0.039808
 -0.088991
  0.114635
 -0.074127
 -0.147151
  0.020610
 -0.054662
 -0.151968
  0.009528
  0.061688
 -0.009580
  0.016460
 -0.112898
 -0.095131
  0.022615
 -0.076477
 -0.035336
  0.034301
 -0.033447
  0.029501
  0.121386
  0.188400
 -0.027535
  0.199821
  0.098395
  0.025866
 -0.008488
  0.171741
  0.276345
 -0.109128
  0.220615
 -0.038721
 -0.032610
 -0.081668
 -0.006021
  0.001041
  0.098601
 -0.113016
  0.200725
  0.001536
  0.063026
  0.050152
 -0.056819
 -0.042950
 -0.003449
  0.005347
  0.008277
  0.112335
  0.054723
 -0.257177
 -0.033053
 -0.077654
  0.051261
 -0.033767
 -0.019304
  0.102736
 -0.032113
 -0.042502
 -0.018567
 -0.089016
  0.135566
 -0.051639
 -0.255417
 -0.089690
 -0.001116
 -0.061111
 -0.046591
 -0.005700
  0.091461
 -0.029792
 -0.020757
 -0.014294
  0.030293
 -0.264569
 -0.298938
  0.187085
  0.052514
  0.054555
  0.045345
  0.099769
  0.068428
  0.007938
 -0.156155
 -0.134147
  0.118619
 -0.062908
 -0.119646
 -0.043363
  0.162987
  0.059699
 -0.221327
 -0.024765
 -0.131376
 -0.009356
  0.102642
 -0.142533
 -0.032016
 -0.038142
 -0.036012
  0.063350
 -0.042660
  0.022126
 -0.277099
 -0.014150
  0.162403
 -0.159919
  0.027516
 -0.046614
  0.248666
 -0.069366
  0.069128
 -0.246907
 -0.061202
  0.243640
 -0.202872
 -0.070833
  0.146711
  0.018243
  0.030023
 -0.028589
 -0.132170
  0.019796
 -0.002033
 -0.013548
 -0.096715
 -0.062064
  0.062460
 -0.051688
 -0.068671
 -0.181646
 -0.279863
 -0.118576
 -0.030466
  0.159488
  0.118465
 -0.186515
 -0.183857
  0.195771
  0.087557
  0.145501
 -0.046402
  0.226469
  0.334633
  0.042267
  0.206652
 -0.040724
 -0.161813
  0.036504
 -0.031216
 -0.121696
 -0.274005
 -0.178733
  0.001718
 -0.009181
 -0.099527
  0.035276
  0.120163
  0.193351
  0.070590
  0.144627
  0.025447
  0.086293
 -0.134748
 -0.136663
 -0.378386
 -0.134236
 -0.002893
 -0.047725
 -0.022918
  0.013189
  0.084083
  0.024484
  0.046874
  0.001934
  0.064811
 -0.079077
  0.132743
  0.023779
  0.006697
 -0.180337
  0.069319
  0.248007
  0.210338
 -0.237786
  0.246818
  0.089722
  0.152603
 -0.166058
  0.079459
  0.025789
 -0.241313
 -0.189320
 -0.096230
 -0.040824
 -0.002057
 -0.100555
 -0.215727
  0.161145
  0.166003
  0.031906
 -0.235972
 -0.187655
 -0.342665
 -0.176622
  0.080398
  0.040245
 -0.057508
  0.229740
 -0.042214
  0.075621
 -0.156262
 -0.008773
  0.166697
 -0.129476
  0.084338
  0.126165
  0.076452
 -0.073374
 -0.132937
  0.107852
 -0.057109
  0.154796
 -0.008455
  0.154275
 -0.016403
  0.222388
  0.146112
 -0.054290
  0.095389
  0.003209
  0.133897
 -0.077878
 -0.220784
 -0.114729
  0.016127
  0.096027
 -0.003658
 -0.073858
  0.044089
  0.240075
  0.057483
  0.076443
  0.091381
  0.182890
  0.057172
  0.046360
  0.098128
 -0.075026
 -0.165074
  0.213708
  0.016469
  0.124658
  0.026502
  0.042633
 -0.117126
  0.058366
 -0.040869
  0.165891
  0.197899
  0.054420
 -0.065669
  0.065277
  0.173556
 -0.137669
 -0.133089
  0.192433
 -0.269679
 -0.116312
 -0.235211
 -0.008488
 -0.073736
  0.038124
 -0.096914
  0.242856
  0.053754
 -0.175902
  0.054397
 -0.092020
 -0.016397
 -0.151752
 -0.035727
 -0.013935
  0.149790
  0.097142
  0.111009
 -0.162756
  0.009664
  0.043025
 -0.007368
 -0.241191
  0.170673
 -0.029304
  0.033841
  0.045188
  0.108457
 -0.182273
  0.233720
 -0.221000
 -0.203883
  0.148519
  0.302604
 -0.065236
 -0.005205
  0.056479
 -0.111986
 -0.020872
  0.067732
  0.002585
  0.149007
 -0.129247
  0.070145
 -0.078956
 -0.198439
  0.007129
  0.002420
  0.074855
  0.115228
 -0.051862
 -0.091869
 -0.109617
  0.118821
 -0.150724
 -0.225954
  0.068418
  0.068424
  0.072442
  0.166601
 -0.198398
 -0.153542
  0.118202
  0.110359
 -0.212843
 -0.088209
  0.048045
  0.132949
  0.167135
  0.002028
 -0.059120
 -0.054481
  0.008780
 -0.076992
  0.048722
 -0.100734
  0.002234
  0.047058
 -0.059546
 -0.003066
 -0.012712
  0.159877
 -0.104243
  0.035069
  0.074302
  0.137070
 -0.045677
 -0.051873
  0.195285
 -0.039351
  0.087476
 -0.018267
  0.030616
  0.020041
  0.094662
 -0.097835
  0.049785
 -0.140783
 -0.156352
 -0.157024
 -0.050020
  0.003403
  0.048089
 -0.044547
 -0.060716
  0.056857
  0.191275
 -0.007781
 -0.250616
 -0.005854
 -0.006653
 -0.007093
  0.027054
  0.083243
 -0.116482
  0.290719
 -0.025901
  0.231905
  0.088788
 -0.092080
 -0.080336
 -0.058525
 -0.059259
 -0.024218
 -0.131937
  0.019714
  0.055105
 -0.011623
 -0.119887
 -0.111442
 -0.000810
  0.048488
  0.032403
  0.249773
  0.007891
 -0.185129
 -0.000834
 -0.182790
  0.067612
  0.183705
  0.048927
  0.032122
  0.103126
  0.172271
 -0.024461
  0.007478
 -0.030628
  0.069002
 -0.033771
  0.037290
 -0.008821
  0.003722
 -0.077725
 -0.127114
  0.197705
  0.074402
  0.191654
  0.055726
 -0.051028
 -0.095169
 -0.100877
 -0.267041
  0.000431
 -0.060276
 -0.081352
 -0.145981
  0.001458
  0.061469
  0.263222
  0.017409
 -0.126145
  0.145966
 -0.055528
  0.091346
  0.034285
 -0.090770
 -0.077686
  0.348537
 -0.006304
  0.152161
 -0.204310
  0.040838
  0.159454
  0.059756
  0.026901
 -0.006528
 -0.096968
 -0.123947
  0.025131
  0.034767
  0.046466
 -0.067660
 -0.035977
  0.091211
  0.336846
 -0.031493
 -0.073092
 -0.060997
 -0.074846
  0.005080
 -0.047351
 -0.019872
  0.079014
 -0.079571
 -0.100098
 -0.191841
  0.086479
  0.035999
 -0.078475
 -0.009254
  0.004599
 -0.022859
 -0.065589
  0.079451
 -0.044485
 -0.084779
 -0.094668
 -0.080165
 -0.169236
  0.109066
 -0.133663
 -0.020919
  0.245958
  0.094308
 -0.140378
  0.190623
  0.070767
  0.138817
 -0.132342
  0.036809
 -0.007555
 -0.221529
  0.005673
  0.024676
 -0.002102
 -0.027381
  0.068662
 -0.047903
  0.062712
  0.184562
 -0.109094
  0.153840
 -0.255324
  0.026548
 -0.297956
 -0.028086
 -0.273198
  0.168758
  0.074160
  0.135800
  0.091349
 -0.006269
  0.275958
  0.016369
  0.052643
 -0.101036
 -0.075973
 -0.027064
 -0.151951
 -0.003257
 -0.123208
  0.022253
 -0.058977
  0.154888
  0.040772
 -0.222796
  0.045597
 -0.179725
 -0.075039
  0.026481
 -0.007727
  0.020898
 -0.082321
  0.125500
 -0.090710
  0.068410
  0.123649
 -0.115538
 -0.270318
  0.198661
 -0.105876
 -0.074431
 -0.057103
 -0.148202
  0.108648
 -0.094557
 -0.042355
  0.187965
 -0.245298
 -0.026282
  0.121415
  0.205951
  0.070273
  0.119576
  0.006869
 -0.217856
  0.051997
  0.113704
  0.024310
 -0.063460
 -0.174114
 -0.028063
 -0.012507
 -0.030555
 -0.023203
  0.225443
  0.061095
  0.106397
 -0.050700
  0.137023
  0.026823
  0.200695
  0.170748
  0.229279
 -0.066209
 -0.189303
 -0.052900
  0.138514
  0.046790
  0.089112
  0.004439
  0.199924
  0.038331
 -0.190839
 -0.074464
 -0.054682
  0.056271
 -0.110160
 -0.177794
 -0.085581
 -0.296998
 -0.135161
 -0.049797
 -0.030793
  0.113310
  0.047545
  0.362883
 -0.149068
  0.203976
 -0.002222
 -0.164306
 -0.126346
  0.128603
  0.146001
  0.226166
 -0.044052
  0.168934
  0.206784
  0.229522
 -0.095799
  0.055839
  0.128782
  0.061771
 -0.227564
 -0.040099
 -0.177046
 -0.068554
 -0.105699
 -0.084010
 -0.002586
  0.105350
  0.124073
  0.032107
  0.030146
  0.181487
  0.010740
  0.137200
 -0.182987
  0.096042
  0.039314
  0.100786
 -0.093901
 -0.104023
  0.175484
 -0.023533
 -0.012943
 -0.078051
 -0.134207
  0.021704
 -0.257723
 -0.071820
  0.054499
  0.047674
  0.108184
  0.179878
 -0.093008
  0.150864
  0.077189
  0.228950
  0.031195
 -0.287558
  0.181954
 -0.153299
 -0.107142
  0.049820
 -0.112359
  0.024909
  0.093494
  0.196117
 -0.202684
  0.189208
  0.002705
  0.149252
  0.119104
  0.055138
 -0.105756
  0.100716
  0.031775
  0.030501
 -0.186479
 -0.101061
  0.333604
 -0.066491
 -0.068547
 -0.086860
 -0.055814
 -0.033186
  0.197980
 -0.029279
 -0.200406
  0.124840
  0.287220
  0.031920
 -0.021827
  0.106968
 -0.210727
 -0.021728
  0.078305
  0.117956
  0.302230
  0.099830
  0.003254
  0.223915
 -0.181665
 -0.058607
  0.131291
 -0.243971
 -0.339026
  0.011833
 -0.105374
 -0.216814
 -0.038712
  0.061182
  0.001607
 -0.071385
 -0.126405
 -0.207604
  0.102251
 -0.113452
  0.022135
 -0.078710
  0.233199
  0.129084
  0.034288
 -0.171768
  0.010440
  0.004444
  0.091174
  0.067433
 -0.178517
  0.393414
 -0.094847
  0.059033
 -0.027572
  0.045443
 -0.104648
 -0.017841
 -0.030647
 -0.028823
 -0.088846
 -0.094373
 -0.087063
  0.140262
 -0.189964
  0.036517
  0.134355
 -0.127518
 -0.214020
 -0.062726
 -0.024740
  0.222161
  0.025153
  0.097562
  0.013017
 -0.002873
  0.108064
 -0.023878
 -0.343253
 -0.101521
 -0.096992
 -0.043817
  0.160170
  0.152403
 -0.009166
  0.095351
  0.000646
 -0.097302
  0.001162
  0.030497
  0.116224
 -0.036242
 -0.102115
 -0.043683
 -0.042225
 -0.035777
 -0.188295
 -0.082940
 -0.028827
 -0.019217
 -0.104885
 -0.081751
 -0.041581
 -0.029102
 -0.034552
  0.213008
  0.005745
 -0.107814
  0.150524
 -0.191943
  0.124112
  0.121557
  0.184685
  0.126328
 -0.116514
 -0.230455
  0.043987
 -0.200068
 -0.144100
  0.077104
 -0.009478
 -0.042037
 -0.048952
 -0.034968
  0.126119
 -0.017930
  0.097077
 -0.117190
 -0.054394
 -0.032832
  0.139744
 -0.066714
  0.021301
 -0.172229
  0.244178
 -0.042828
 -0.010299
 -0.082687
  0.197363
 -0.015206
 -0.285773
  0.060670
 -0.059495
  0.004151
 -0.046895
  0.071959
  0.241013
  0.276999
 -0.095822
  0.079010
 -0.039586
 -0.062112
  0.054104
  0.084906
  0.243135
  0.203016
  0.054910
 -0.074649
  0.051149
  0.168313
 -0.095436
 -0.067745
  0.342242
  0.135893
  0.014210
 -0.066266
  0.164374
  0.061522
  0.174229
 -0.025060
 -0.103433
  0.072069
  0.033383
 -0.097885
 -0.059416
  0.003336
 -0.055203
 -0.146297
  0.065128
  0.174287
 -0.141321
  0.012448
 -0.094221
 -0.107433
  0.080094
 -0.165621
 -0.092006
 -0.248187
  0.167471
 -0.132247
 -0.219734
  0.252473
 -0.148559
 -0.123003
  0.056884
 -0.068303
 -0.048679
 -0.136261
  0.122872
 -0.048220
 -0.031714
  0.086280
 -0.175023
 -0.033883
  0.021965
  0.102754
  0.069347
 -0.187497
  0.028597
 -0.125352
  0.098901
 -0.032413
 -0.294701
 -0.072442
 -0.005551
 -0.046948
 -0.037412
  0.167898
 -0.073513
  0.029067
  0.085663
  0.092255
 -0.073064
 -0.007952
  0.135347
 -0.121491
  0.108529
 -0.025094
  0.071325
  0.051249
  0.098933
 -0.075127
 -0.185328
 -0.090874
 -0.117363
 -0.088770
  0.167505
 -0.154348
  0.280288
  0.220529
  0.075560
  0.033454
 -0.262010
 -0.055057
 -0.015854
  0.181447
  0.027357
  0.115516
 -0.168047
  0.110355
  0.080091
 -0.016782
  0.110066
  0.079311
 -0.080361
 -0.170370
 -0.061958
  0.047447
  0.066645
 -0.116002
 -0.142811
  0.005332
 -0.242929
 -0.048375
  0.022226
 -0.029508
  0.036582
 -0.223324
  0.034384
 -0.137223
  0.207304
 -0.039614
  0.114749
  0.042040
 -0.045307
 -0.126987
  0.206155
  0.047002
 -0.182140
 -0.014754
  0.037987
 -0.022108
 -0.000513
  0.316408
  0.092644
  0.100386
 -0.024263
  0.103512
 -0.052947
 -0.101609
 -0.161289
 -0.021640
  0.131011
  0.147044
  0.129385
 -0.089281
  0.002431
  0.058293
  0.126272
  0.033850
  0.001353
  0.093429
  0.010811
  0.035385
  0.175153
 -0.121792
 -0.098144
  0.025879
 -0.077209
 -0.039677
 -0.005651
 -0.149735
 -0.116447
 -0.143587
  0.001701
  0.306262
 -0.259641
 -0.081517
  0.137270
 -0.018487
 -0.050619
 -0.055686
 -0.102825
 -0.120610
 -0.074417
  0.034538
  0.068691
  0.034829
  0.127317
 -0.145779
  0.098116
  0.171991
 -0.180848
  0.169861
  0.000783
  0.071371
 -0.009728
  0.067431
  0.069454
  0.047078
 -0.193714
  0.225184
  0.229933
 -0.132659
  0.247286
 -0.106653
 -0.000150
 -0.019181
 -0.262300
 -0.221145
  0.182549
 -0.096887
 -0.060884
  0.070038
  0.108506
  0.090278
  0.037295
  0.069111
 -0.104586
 -0.132301
  0.113442
  0.028877
  0.017423
 -0.050121
  0.112352
 -0.027546
 -0.293673
  0.117461
 -0.042580
 -0.056720
  0.117813
 -0.132758
  0.005561
 -0.036294
 -0.222418
  0.151907
 -0.026821
  0.151640
  0.013896
 -0.285103
 -0.167630
  0.193495
 -0.085682
 -0.070379
  0.032335
 -0.179873
  0.095091
 -0.008767
 -0.085336
  0.078754
  0.097169
 -0.126740
  0.144161
 -0.073226
  0.072727
  0.194410
 -0.041247
 -0.315837
  0.268481
 -0.023522
 -0.102568
 -0.135089
 -0.156191
  0.118015
  0.135343
  0.053497
 -0.013081
 -0.223659
 -0.185685
  0.094244
  0.227934
  0.001149
 -0.051468
 -0.115937
 -0.109001
 -0.071968
 -0.064754
 -0.006078
 -0.032517
  0.005381
  0.136853
  0.051464
  0.217707
 -0.272136
  0.045533
 -0.254897
  0.036077
 -0.038201
  0.007983
 -0.055921
 -0.157149
 -0.079515
  0.258147
 -0.355734
  0.049706
 -0.121088
 -0.093415
 -0.211069
 -0.085538
 -0.082962
 -0.007523
 -0.093253
 -0.284443
  0.021467
 -0.076106
 -0.160215
 -0.090224
 -0.225915
 -0.079101
  0.001755
  0.027378
 -0.158648
 -0.183128
 -0.012221
 -0.079550
  0.153927
  0.005189
 -0.046961
 -0.091272
 -0.043953
 -0.098636
 -0.192105
 -0.021992
 -0.006237
 -0.076554
  0.018236
 -0.103240
 -0.124982
 -0.262949
 -0.073834
 -0.068834
  0.041919
 -0.229510
 -0.225233
  0.025268
 -0.070052
 -0.044001
 -0.105289
 -0.109128
 -0.093438
 -0.198331
 -0.181149
 -0.273306
  0.087089
 -0.049712
  0.153846
  0.237311
  0.032494
  0.114204
 -0.089405
 -0.019667
 -0.022836
 -0.098372
  0.000875
  0.064814
 -0.089470
 -0.055728
 -0.014798
  0.100523
 -0.081289
 -0.052521
 -0.143952
 -0.175363
  0.005411
  0.242762
 -0.150398
  0.022473
 -0.111899
 -0.107008
  0.134112
 -0.216315
 -0.121586
  0.062747
 -0.056431
  0.020787
  0.101681
 -0.080669
  0.054796
 -0.216680
  0.236884
 -0.343362
 -0.241730
 -0.106917
  0.273712
  0.026917
 -0.183492
 -0.264563
  0.017290
 -0.083814
 -0.045100
  0.008493
  0.025225
 -0.164166
  0.105412
 -0.211838
 -0.139265
 -0.076412
 -0.087717
 -0.086083
 -0.080310
 -0.270055
 -0.242448
 -0.048610
  0.009184
  0.146119
 -0.108942
 -0.045142
 -0.155039
 -0.132289
 -0.093856
 -0.016866
 -0.159025
 -0.000458
 -0.229268
 -0.012908
 -0.019788
 -0.082590
 -0.049894
 -0.008403
  0.028457
 -0.101629
 -0.068409
 -0.083487
 -0.247979
 -0.149473
  0.210060
 -0.095584
 -0.276803
  0.033465
  0.084271
 -0.229318
 -0.086780
 -0.328320
 -0.051569
 -0.226032
 -0.065477
 -0.233788
 -0.368831
 -0.030473
 -0.039316
 -0.128413
 -0.160703
  0.118286
  0.049202
  0.007574
 -0.080390
  0.028928
 -0.050118
 -0.033790
 -0.099085
  0.065734
  0.056641
  0.010648
 -0.115109
 -0.090550
 -0.031258
 -0.035796
 -0.235858
  0.081257
 -0.227888
 -0.132414
 -0.369733
 -0.137188
 -0.289170
 -0.053531
 -0.177325
 -0.215789
 -0.233920
 -0.079298
 -0.064197
 -0.024584
 -0.331448
  0.038276
 -0.265743
 -0.135964
 -0.184738
 -0.006537
 -0.069106
 -0.106869
  0.010589
 -0.247132
  0.147315
  0.120924
 -0.082317
 -0.252230
 -0.119948
 -0.101362
  0.086242
 -0.143771
  0.005170
 -0.183233
 -0.171981
 -0.112352
****
