PROJECT: W75X_2015Jun19
NCH:     4096
BW:   2.50000e+07
VELOCITY:       0.00000
PV:      0.480000
FREQ:    2.2235080e+09
DATE:     2015       6      20
TIME:        1      40      15
POSITION:       309.654      42.6272
INTEGRATION TIMES:       30.0000      30.0000
MAX VALUE:      0.019396368
  0.272519
  0.194067
  0.323923
 -0.161180
 -0.006782
 -0.290854
 -0.253026
  0.054034
 -0.007691
 -0.156774
  0.245240
 -0.081561
 -0.150927
 -0.173752
 -0.265565
 -0.331059
  0.028963
 -0.127987
 -0.028446
  0.043520
 -0.033456
 -0.098649
 -0.088348
 -0.102168
 -0.258316
 -0.085855
 -0.186163
 -0.200343
  0.073370
 -0.175215
 -0.066192
 -0.159087
 -0.384651
  0.088438
 -0.251253
  0.015359
 -0.200240
  0.022869
 -0.111436
 -0.125492
  0.081724
 -0.361274
  0.095094
 -0.075322
 -0.005662
 -0.104847
  0.026677
  0.058998
 -0.056447
  0.055733
 -0.075171
  0.045598
 -0.323101
 -0.094093
 -0.270630
 -0.038474
 -0.105408
 -0.006328
 -0.020167
 -0.157219
 -0.117756
 -0.013576
  0.030256
  0.137197
 -0.086079
 -0.026870
  0.013335
 -0.176012
 -0.032078
  0.120270
  0.336925
 -0.087871
  0.009019
 -0.082465
  0.045179
  0.222427
  0.114034
  0.015288
  0.004788
 -0.121740
  0.166639
 -0.040377
 -0.201549
  0.012075
 -0.080533
  0.282368
  0.077023
 -0.042294
 -0.007016
 -0.003999
  0.066930
  0.034449
 -0.064043
 -0.093487
 -0.189982
  0.110000
 -0.198423
  0.151040
  0.096919
  0.111388
  0.103292
  0.012085
  0.198163
 -0.191047
  0.146080
 -0.184434
  0.178851
 -0.141316
 -0.077084
 -0.053025
  0.048241
 -0.068029
 -0.131291
 -0.126262
  0.029792
 -0.036741
 -0.109261
 -0.031569
 -0.079398
 -0.043101
  0.038986
 -0.155301
  0.003572
 -0.055582
  0.008760
  0.049564
  0.116527
  0.074183
  0.120379
  0.012967
 -0.038459
 -0.013916
  0.095480
 -0.089007
  0.003184
  0.083889
 -0.188533
 -0.242034
 -0.085427
 -0.102953
 -0.155277
 -0.121427
  0.045618
  0.111191
  0.257989
  0.167107
  0.097179
  0.048974
  0.044232
  0.232211
 -0.077847
  0.154222
 -0.158417
 -0.100839
 -0.006964
  0.001458
 -0.210081
 -0.132600
 -0.222485
  0.067459
 -0.245666
  0.043646
 -0.052212
 -0.038180
 -0.295458
 -0.141063
 -0.256010
  0.054373
 -0.115042
 -0.151626
 -0.104778
  0.231322
 -0.015640
 -0.073665
  0.159232
  0.231623
 -0.132358
  0.053488
  0.166176
 -0.119546
  0.097122
  0.223750
 -0.160254
  0.219741
  0.160796
 -0.014887
  0.073302
 -0.186875
  0.057048
  0.197192
  0.043970
  0.082810
 -0.156781
  0.144222
  0.123752
 -0.106839
  0.132744
  0.119943
 -0.173632
  0.014815
 -0.132878
  0.106638
  0.086387
 -0.181198
 -0.082850
 -0.044142
  0.115106
 -0.093195
  0.040388
 -0.039176
 -0.038955
 -0.132801
 -0.193252
  0.001999
 -0.064635
  0.032243
 -0.051831
  0.195863
 -0.220191
 -0.016534
 -0.187400
 -0.073300
 -0.040229
  0.081596
 -0.121664
 -0.003521
 -0.024264
 -0.009681
  0.166918
  0.184085
  0.161463
 -0.121420
 -0.072783
  0.015609
  0.057901
  0.060770
  0.019188
 -0.137398
 -0.101064
  0.171298
 -0.035500
  0.202512
 -0.058077
  0.195422
  0.036188
 -0.057244
 -0.063448
  0.008796
  0.007539
  0.030948
  0.004358
 -0.002692
  0.052326
 -0.010325
 -0.017234
 -0.118308
 -0.164554
  0.179867
  0.025849
 -0.056280
  0.149957
  0.078135
  0.162183
  0.075565
  0.077116
  0.147550
 -0.031579
  0.031552
 -0.029891
 -0.038821
 -0.036487
 -0.045031
 -0.050343
  0.116802
 -0.108959
  0.144184
 -0.004645
  0.066097
 -0.373440
  0.125993
 -0.032277
  0.242699
 -0.087134
 -0.008687
  0.113696
 -0.108657
  0.204237
  0.273213
  0.158857
  0.071620
 -0.160255
  0.109152
  0.031273
 -0.205757
  0.136239
  0.016931
 -0.114167
 -0.028543
 -0.211246
  0.035027
 -0.151552
  0.068153
  0.111074
 -0.138664
 -0.076127
 -0.204388
 -0.067161
  0.213189
  0.123276
  0.087771
 -0.044574
 -0.217496
 -0.074587
  0.072342
  0.118973
  0.016226
  0.028168
 -0.024483
  0.182801
 -0.022848
  0.196160
 -0.116799
  0.198600
  0.121954
  0.068084
  0.099760
  0.114620
 -0.043674
 -0.205591
 -0.013408
  0.017954
 -0.051112
  0.200872
 -0.051256
 -0.244249
  0.003721
  0.139178
 -0.126603
 -0.075509
  0.170743
 -0.141728
 -0.266153
  0.089130
 -0.148895
  0.172212
  0.110122
 -0.222529
 -0.046440
  0.113119
 -0.050839
  0.179875
 -0.106962
  0.132550
 -0.093360
 -0.300697
 -0.238589
  0.060776
  0.276028
 -0.023799
  0.039418
  0.242971
  0.102511
  0.176542
  0.157531
 -0.001045
 -0.006333
 -0.063522
  0.103513
  0.289004
 -0.113198
 -0.019950
 -0.110039
  0.147530
  0.053174
  0.269078
 -0.142605
  0.043847
  0.167409
 -0.064482
 -0.106254
 -0.105412
 -0.023189
 -0.089219
 -0.006804
 -0.103291
  0.015277
  0.109689
  0.124738
  0.201827
 -0.049175
  0.083289
 -0.003320
 -0.176635
  0.051609
  0.204541
  0.225411
  0.110147
  0.075179
  0.144520
  0.218546
 -0.168380
  0.240211
  0.131818
  0.126821
 -0.038578
  0.126712
  0.185319
 -0.063167
  0.000729
  0.078257
  0.043733
 -0.015906
 -0.030251
 -0.070997
 -0.041901
 -0.172216
 -0.035806
  0.241443
  0.018376
  0.111027
  0.062003
  0.262690
 -0.081671
 -0.154245
 -0.060048
 -0.115862
 -0.104512
  0.016957
 -0.113060
 -0.108229
 -0.085061
  0.187588
 -0.302624
  0.096808
 -0.240259
  0.068688
  0.146283
 -0.051784
  0.399936
  0.072572
 -0.011449
 -0.034636
 -0.021169
 -0.038276
 -0.106392
  0.019420
 -0.001822
 -0.039053
 -0.124005
  0.220205
  0.105403
  0.258780
  0.073112
 -0.193272
 -0.239389
  0.072408
  0.068833
  0.005374
 -0.125837
 -0.089318
  0.065700
  0.113332
 -0.132516
  0.136219
 -0.042668
  0.001279
  0.239571
 -0.306153
 -0.105173
 -0.051985
 -0.193952
  0.177176
  0.003985
  0.082567
 -0.182232
 -0.208722
 -0.309290
 -0.123971
 -0.096935
  0.299033
 -0.023796
  0.046337
  0.022915
  0.119968
  0.124257
  0.101869
 -0.095249
  0.050278
 -0.093162
  0.038871
  0.150492
 -0.151384
  0.309514
  0.117603
  0.029043
 -0.003417
 -0.042345
 -0.006413
 -0.042100
  0.180874
 -0.118435
 -0.236571
 -0.120953
  0.157069
  0.144826
  0.022755
  0.142505
  0.030840
  0.143013
 -0.081640
 -0.115723
 -0.191759
 -0.147142
 -0.054341
  0.014255
 -0.002883
  0.065758
  0.172332
  0.175447
  0.080761
 -0.140925
 -0.108090
 -0.224769
 -0.030316
 -0.173367
 -0.202532
  0.081745
 -0.080098
  0.087581
 -0.188552
  0.029352
  0.016766
  0.120465
  0.209476
 -0.209321
 -0.031952
 -0.039048
 -0.282623
 -0.149544
  0.074498
  0.162706
 -0.106675
  0.342094
  0.043293
 -0.010569
  0.031962
 -0.084145
  0.082108
 -0.198992
 -0.065688
 -0.101999
 -0.053539
 -0.129995
 -0.078219
 -0.099736
  0.022936
  0.091229
 -0.000107
 -0.086295
 -0.002062
  0.004004
 -0.046524
  0.005141
 -0.242722
  0.132415
  0.083480
 -0.088529
 -0.138760
  0.028349
  0.063057
  0.091436
  0.308564
 -0.029933
  0.057050
  0.281317
  0.051232
  0.164099
  0.002042
 -0.197233
  0.208838
 -0.246056
  0.069708
  0.421530
 -0.043082
 -0.180050
 -0.029882
 -0.052783
 -0.015385
 -0.135123
  0.063275
  0.077961
 -0.168000
  0.217409
 -0.149874
 -0.217879
  0.153180
 -0.210594
  0.157909
 -0.072183
  0.187342
  0.311225
  0.278770
  0.016892
 -0.007066
  0.107319
  0.084927
 -0.096480
 -0.058098
 -0.039085
  0.157912
  0.131491
 -0.071875
 -0.182958
  0.172030
  0.263172
  0.123024
  0.211093
  0.124802
 -0.049066
  0.157842
 -0.158223
 -0.009411
 -0.157391
 -0.042134
 -0.078533
  0.006574
  0.068614
  0.018978
 -0.032787
  0.090151
  0.112064
  0.157692
 -0.127392
 -0.078433
  0.036749
  0.224032
 -0.217526
 -0.170147
 -0.182334
 -0.119238
 -0.104279
  0.044412
  0.152991
 -0.034159
  0.055798
  0.014700
  0.007592
  0.186290
  0.064293
 -0.280516
  0.125877
 -0.095252
  0.029188
 -0.051520
 -0.138466
 -0.117899
 -0.059805
 -0.157466
 -0.033352
 -0.020546
 -0.030976
  0.143765
 -0.039034
  0.122982
  0.074952
  0.010738
 -0.244446
 -0.181841
  0.093599
  0.018493
  0.057395
 -0.228269
  0.038437
 -0.040841
 -0.303660
 -0.022715
  0.034978
 -0.080162
 -0.127925
  0.085140
 -0.002717
  0.188824
  0.016630
  0.127316
  0.083912
 -0.029109
 -0.202887
  0.016182
 -0.076647
  0.040956
 -0.173942
 -0.020239
 -0.101509
  0.308016
 -0.018513
  0.026010
 -0.216673
 -0.043173
  0.051137
 -0.050596
  0.065033
 -0.008087
  0.034457
 -0.155924
  0.035807
 -0.183412
  0.012301
  0.166087
 -0.045807
  0.168972
  0.124295
  0.097721
 -0.096090
 -0.129122
  0.119264
 -0.186824
  0.031789
 -0.015862
  0.134919
 -0.176021
 -0.059275
 -0.067260
 -0.006494
 -0.087860
 -0.186705
  0.006851
  0.036859
 -0.123590
  0.121099
  0.006792
  0.098959
  0.023015
 -0.015077
 -0.140955
  0.316392
 -0.029124
  0.044673
 -0.066505
  0.196690
 -0.250405
 -0.149379
  0.013052
 -0.039230
 -0.160936
 -0.352942
 -0.188614
 -0.025957
  0.051014
 -0.005838
 -0.297736
 -0.186772
 -0.052416
 -0.094791
  0.270541
 -0.047697
  0.072799
  0.100476
  0.023619
  0.091388
 -0.101572
 -0.058634
  0.234063
 -0.082481
  0.013989
  0.161742
  0.042232
 -0.037418
 -0.074916
  0.027621
  0.143650
 -0.140039
  0.086371
  0.002348
 -0.215048
  0.119026
 -0.120569
  0.044107
  0.057229
  0.120063
  0.075428
 -0.239205
 -0.011301
  0.003893
 -0.063472
  0.023642
  0.464167
 -0.060706
 -0.134281
  0.045950
 -0.205769
 -0.033898
  0.142377
  0.000677
 -0.072574
  0.112647
  0.157571
 -0.137020
 -0.173263
 -0.182835
  0.017813
  0.023240
 -0.163844
  0.022090
 -0.065911
  0.009147
  0.035037
  0.065876
 -0.183333
 -0.174547
 -0.151602
 -0.077802
 -0.174264
  0.313655
 -0.172321
 -0.021583
 -0.051101
  0.009688
 -0.223978
  0.039094
  0.055619
  0.249305
  0.131218
  0.171616
 -0.242974
  0.260466
 -0.007579
 -0.051523
  0.090759
  0.220043
 -0.137739
 -0.087255
  0.251588
  0.102844
  0.030536
  0.077782
  0.158449
  0.003943
 -0.093644
 -0.228703
  0.005312
 -0.105736
 -0.076120
  0.294732
 -0.144711
  0.005021
 -0.070408
  0.064633
  0.020948
 -0.041793
 -0.018002
 -0.032120
  0.047798
 -0.310761
 -0.146203
 -0.059623
 -0.127039
  0.121386
  0.181357
  0.120226
 -0.218348
 -0.042370
 -0.025496
 -0.087412
 -0.068412
 -0.141699
 -0.022014
 -0.226678
 -0.012437
 -0.014768
  0.036753
 -0.024843
  0.152799
 -0.047595
 -0.090920
  0.060732
  0.077735
 -0.150666
  0.013440
 -0.066813
  0.036001
  0.122386
 -0.132425
 -0.016590
  0.154282
  0.114510
 -0.034687
 -0.025577
  0.055725
  0.177034
 -0.286036
 -0.069554
  0.043685
 -0.231867
 -0.033038
 -0.067328
 -0.073477
 -0.131792
 -0.100293
  0.056134
 -0.142045
  0.043530
  0.067829
  0.060256
 -0.018639
 -0.352709
 -0.191267
  0.080249
 -0.091421
  0.045462
  0.090287
  0.037425
  0.133632
  0.020087
 -0.083317
 -0.201392
 -0.062836
 -0.132778
 -0.008680
  0.029819
 -0.021585
 -0.022536
 -0.018806
  0.014827
  0.223378
  0.023727
 -0.122627
  0.054879
 -0.067172
  0.084472
 -0.126542
 -0.150527
 -0.095059
  0.279466
 -0.067508
  0.055297
 -0.196488
 -0.167612
 -0.137161
 -0.065914
 -0.074544
 -0.159494
 -0.029988
 -0.123451
 -0.069726
  0.132156
 -0.070164
  0.021561
 -0.001727
 -0.181872
  0.256293
 -0.063147
  0.038347
 -0.202332
 -0.097503
  0.088316
  0.001635
 -0.127313
  0.035329
  0.220174
  0.214675
 -0.034329
  0.192187
 -0.072271
 -0.047142
  0.074227
  0.008128
  0.117817
 -0.043912
 -0.054384
  0.183025
 -0.140783
 -0.011217
 -0.200684
  0.018580
 -0.075753
 -0.069517
  0.067191
 -0.133235
 -0.090727
  0.122603
  0.058845
  0.081483
 -0.183356
  0.044567
 -0.211017
 -0.083526
  0.197427
 -0.237999
 -0.068199
  0.170594
  0.166800
  0.023765
  0.086733
  0.093161
  0.065089
 -0.045456
  0.097785
 -0.020484
 -0.054513
 -0.245431
  0.143536
  0.108232
 -0.044135
 -0.205253
 -0.142649
 -0.113057
 -0.012303
  0.165148
 -0.041847
  0.115716
  0.013451
  0.169485
  0.120498
  0.149837
  0.077883
  0.228028
  0.067571
 -0.029757
  0.137521
 -0.024212
 -0.030188
 -0.269191
 -0.081421
  0.008689
 -0.056549
 -0.200421
 -0.113083
 -0.018307
 -0.036779
  0.250280
 -0.088768
  0.207191
 -0.038424
 -0.059094
  0.030281
  0.062523
  0.128259
  0.012056
 -0.067547
 -0.176537
  0.054621
  0.142669
  0.087539
  0.086756
 -0.036040
  0.220466
  0.079743
 -0.177614
  0.040929
  0.047326
  0.008122
  0.076880
  0.197839
  0.000006
  0.078767
 -0.024801
 -0.098205
 -0.106003
 -0.064715
  0.126085
  0.127456
 -0.174089
 -0.149467
 -0.083589
  0.159241
  0.162791
  0.206367
  0.163589
  0.128852
  0.142323
 -0.189904
  0.303006
  0.080426
 -0.087596
  0.004874
  0.169437
  0.242533
  0.233002
 -0.176891
  0.069611
  0.050628
  0.054339
 -0.030741
  0.021976
 -0.013671
  0.048002
  0.083490
  0.137660
 -0.033448
 -0.053922
 -0.177545
 -0.096926
 -0.071371
  0.079733
  0.120457
  0.112871
 -0.134628
 -0.183916
  0.116146
 -0.073153
  0.010798
 -0.007134
  0.124076
  0.027258
 -0.101550
 -0.255378
 -0.042934
  0.040793
  0.209519
  0.062206
  0.146205
  0.088949
  0.083525
  0.171446
  0.018597
 -0.044272
 -0.164168
  0.014342
  0.052213
  0.030587
 -0.007797
 -0.006422
  0.041059
 -0.154965
 -0.110039
  0.233709
 -0.057707
  0.178156
  0.033456
 -0.124589
 -0.123225
  0.132880
 -0.028319
 -0.174362
 -0.101376
 -0.043694
 -0.076015
  0.146882
 -0.149871
  0.063663
  0.037337
 -0.138840
  0.088088
  0.065061
 -0.135182
 -0.042669
  0.051081
 -0.009800
  0.083986
  0.079756
  0.096743
 -0.210784
 -0.096023
  0.157471
 -0.198283
 -0.185433
  0.268661
 -0.157276
  0.039970
  0.179438
 -0.033409
  0.065688
 -0.042032
 -0.046944
 -0.123969
  0.062069
 -0.219141
 -0.079983
 -0.009420
 -0.123822
  0.068831
  0.021852
  0.111803
  0.289576
  0.095230
  0.098065
  0.089125
  0.042601
  0.169197
 -0.162722
 -0.022276
  0.142466
 -0.040101
 -0.145476
 -0.159512
 -0.107288
  0.136567
 -0.133384
 -0.148674
 -0.069862
 -0.280672
 -0.287653
  0.118628
 -0.050903
  0.149122
 -0.192331
  0.067615
  0.088052
 -0.052284
  0.164543
  0.092694
 -0.245568
  0.158330
 -0.062871
 -0.118908
 -0.013190
 -0.164072
  0.046071
  0.097329
  0.082255
  0.129395
  0.169208
 -0.077166
 -0.223287
  0.109878
 -0.110575
 -0.181402
  0.021622
 -0.047495
 -0.149881
  0.005358
 -0.079113
  0.036457
 -0.120753
  0.050569
  0.127250
  0.036250
  0.010724
  0.128962
  0.178476
 -0.009623
 -0.269541
 -0.163434
  0.039896
  0.174461
 -0.042521
  0.235747
 -0.138958
  0.161626
  0.082934
 -0.007022
  0.104304
  0.048232
 -0.130549
 -0.026704
 -0.080289
  0.082398
  0.029742
 -0.192418
 -0.207566
 -0.141597
  0.171878
 -0.197867
  0.066283
  0.164242
 -0.104135
 -0.081534
 -0.134746
 -0.186126
 -0.064597
  0.116487
  0.064589
  0.075777
  0.094060
 -0.050944
 -0.232156
  0.194250
  0.284583
  0.104882
  0.111205
  0.029407
  0.015813
  0.051230
 -0.049180
 -0.039541
 -0.054178
 -0.020131
  0.005503
  0.298404
  0.141687
  0.110538
  0.153808
 -0.018141
  0.093894
 -0.046586
  0.078622
  0.191774
  0.174667
 -0.084132
 -0.117790
 -0.148466
  0.098018
  0.086439
  0.059856
  0.049733
  0.004258
  0.158425
  0.101666
 -0.193552
 -0.142307
 -0.070199
  0.043214
  0.081865
 -0.052838
 -0.055327
  0.124897
 -0.265105
 -0.017118
 -0.131534
 -0.099792
  0.118364
 -0.105937
 -0.016286
  0.074328
  0.186344
 -0.083958
 -0.033017
 -0.122103
 -0.232121
 -0.118399
  0.051896
  0.049443
  0.015547
 -0.054409
 -0.087255
 -0.181546
 -0.054374
 -0.131546
 -0.464565
 -0.130776
  0.179038
  0.135971
 -0.199261
 -0.030260
  0.138110
  0.056939
 -0.010275
  0.048608
  0.134225
  0.016845
 -0.033323
 -0.107876
  0.288216
 -0.074948
 -0.090224
 -0.089333
 -0.036015
 -0.121307
 -0.062358
  0.009871
 -0.042685
 -0.073626
  0.093660
  0.006373
 -0.104029
 -0.144943
 -0.150372
  0.262433
 -0.087424
  0.267164
  0.014069
  0.241503
  0.310706
  0.000192
  0.051472
 -0.289260
  0.142907
  0.055600
  0.090101
 -0.146226
  0.188917
 -0.048743
 -0.171484
  0.061217
  0.130876
 -0.010383
  0.290274
 -0.157507
  0.097308
 -0.064135
  0.082329
 -0.075160
  0.133486
 -0.060822
  0.073422
 -0.066581
 -0.002146
  0.049146
  0.314769
  0.000654
  0.170728
 -0.118554
  0.029948
  0.002068
 -0.050403
  0.070165
  0.087828
 -0.132786
  0.154432
 -0.001470
  0.143798
 -0.004040
  0.187605
 -0.086998
  0.294086
 -0.106168
  0.005872
  0.223341
 -0.306786
 -0.138924
  0.012150
  0.029492
  0.125520
  0.160304
  0.153305
  0.058211
  0.090267
  0.065234
 -0.230636
  0.086076
 -0.326733
 -0.263672
 -0.160845
  0.070067
 -0.076601
 -0.161561
  0.022460
  0.034774
 -0.071062
 -0.028876
 -0.086791
 -0.103865
  0.227086
 -0.063833
  0.341347
 -0.027652
 -0.157669
  0.165338
 -0.135252
 -0.135550
  0.262894
  0.062693
 -0.173981
 -0.124462
 -0.100598
 -0.059994
  0.105809
 -0.062496
 -0.011603
  0.022403
 -0.127906
 -0.070597
  0.118846
  0.171562
 -0.134014
  0.097600
  0.084838
 -0.055054
 -0.061403
 -0.156469
  0.101611
  0.135529
  0.077466
  0.045178
 -0.030388
 -0.021077
  0.132504
  0.014027
 -0.057444
 -0.144771
 -0.058207
  0.132215
  0.237279
  0.087237
  0.271911
  0.056771
 -0.069304
  0.037751
  0.044866
  0.054936
 -0.054361
  0.086188
  0.053535
 -0.026290
 -0.074474
  0.065588
  0.167842
 -0.022259
  0.026145
  0.036521
 -0.027707
  0.097710
 -0.039023
  0.074420
  0.024135
 -0.081491
 -0.386173
  0.185970
  0.151647
 -0.011416
  0.007457
 -0.067598
  0.219428
  0.188254
 -0.059735
  0.012796
 -0.057645
 -0.181425
  0.140364
  0.033210
  0.012233
 -0.133065
  0.221274
 -0.069774
 -0.089224
 -0.078647
 -0.035100
  0.133117
 -0.268770
  0.080778
  0.128754
  0.111644
 -0.103709
  0.078895
 -0.108792
  0.002430
 -0.001261
  0.148774
  0.045148
  0.114798
  0.174081
 -0.075618
 -0.146354
  0.061852
  0.227246
 -0.068202
 -0.020395
  0.096571
  0.148195
  0.085822
 -0.109868
 -0.200545
 -0.114686
 -0.195756
 -0.210551
 -0.059535
 -0.043469
  0.115500
  0.022020
 -0.170246
  0.047061
  0.177355
  0.034753
 -0.048291
  0.134127
  0.103505
  0.220623
 -0.071329
  0.051837
  0.168168
 -0.026143
 -0.022132
 -0.215471
 -0.075303
  0.162704
 -0.094437
  0.123468
 -0.093197
  0.070366
 -0.036364
  0.123924
 -0.146856
 -0.025260
 -0.239103
  0.045353
  0.280771
  0.172180
 -0.196120
  0.202998
 -0.068210
 -0.035503
  0.063269
  0.055798
  0.018029
 -0.185047
  0.230855
 -0.018711
  0.182229
  0.170722
  0.043912
  0.047864
  0.123797
  0.041907
 -0.090864
 -0.055241
  0.262792
 -0.191207
  0.125779
 -0.023386
 -0.263938
 -0.093303
  0.079511
  0.234178
 -0.100330
 -0.133596
 -0.184610
 -0.187375
 -0.010880
  0.163608
 -0.050573
  0.120131
 -0.253714
  0.018745
  0.177661
  0.383719
  0.182989
  0.208913
  0.079960
  0.096960
 -0.055644
 -0.028155
 -0.016988
  0.223295
  0.012219
 -0.031960
  0.022880
 -0.014496
 -0.152638
 -0.134784
  0.042064
  0.010276
 -0.053885
  0.074318
  0.107843
 -0.028002
  0.098527
  0.099899
 -0.135436
 -0.271749
  0.060620
 -0.145933
  0.221297
 -0.130897
  0.125480
 -0.035408
  0.037931
 -0.140674
  0.102873
 -0.051167
  0.154448
 -0.013240
 -0.093953
 -0.080722
 -0.294085
  0.027324
 -0.064863
  0.056669
  0.006051
 -0.172699
  0.023906
  0.162360
  0.009092
 -0.212721
  0.002448
  0.054015
  0.017425
 -0.130396
  0.001060
 -0.187144
 -0.034922
  0.150183
  0.258636
 -0.138509
 -0.172898
  0.182730
 -0.074979
  0.121484
 -0.192521
 -0.056602
 -0.042604
 -0.039072
  0.014908
  0.207142
 -0.159080
  0.152041
  0.141023
 -0.042865
  0.148440
  0.137211
  0.072005
 -0.133324
 -0.068608
  0.134443
  0.082645
  0.154000
 -0.031431
 -0.215241
  0.140699
 -0.043055
  0.054981
 -0.112895
 -0.310860
 -0.062879
 -0.114049
 -0.065925
 -0.227539
 -0.108319
  0.212666
 -0.172237
  0.213438
  0.137677
  0.218758
  0.106823
 -0.094167
  0.137833
  0.089503
  0.121375
  0.226440
  0.027155
  0.104102
 -0.001247
 -0.257227
 -0.035402
 -0.004934
 -0.164052
  0.257258
  0.141247
  0.008790
  0.035432
 -0.007579
  0.027876
  0.103763
  0.044045
  0.174860
  0.062938
 -0.116147
 -0.031339
  0.073114
 -0.029905
 -0.072707
 -0.242769
 -0.202058
 -0.354334
  0.077474
 -0.167477
  0.147788
  0.083850
  0.029248
 -0.198136
  0.004181
 -0.086824
 -0.259204
  0.049457
 -0.134252
  0.017697
  0.147716
 -0.123408
  0.283794
 -0.130975
  0.382752
  0.040849
  0.215551
  0.128222
  0.174854
  0.274709
  0.297184
  0.167260
 -0.112103
 -0.003148
 -0.008067
 -0.087454
 -0.020681
 -0.035787
  0.155905
  0.196360
  0.083950
  0.322958
  0.087149
  0.138578
  0.194619
  0.093837
  0.357295
  0.126610
 -0.046996
  0.243406
  0.216707
  0.212273
 -0.153794
 -0.028518
 -0.132709
 -0.050536
  0.016539
 -0.042358
 -0.045822
 -0.204275
  0.091439
  0.202003
  0.008691
  0.064915
 -0.017369
  0.015845
  0.202072
  0.373733
  0.237976
  0.174413
  0.383953
  0.244078
  0.032869
  0.245329
  0.484125
  0.132849
  0.460533
  0.300147
  0.223962
  0.193457
  0.414008
  0.661384
  0.251463
  0.379896
  0.237367
  0.399929
  0.331169
  0.674161
  0.201663
  0.389318
  0.632763
  0.677293
  0.665943
  0.627439
  0.695160
  0.440063
  0.591370
  0.650872
  0.752917
  0.809349
  0.590149
  0.682742
  0.711003
  0.675053
  0.563238
  0.799544
  0.410089
  0.432541
  0.570155
  0.512609
  0.311794
  0.790847
  0.593666
  0.780537
  0.627539
  0.653314
  0.590132
  0.411510
  0.572696
  0.465608
  0.388205
  0.391675
  0.265222
  0.271985
  0.356690
  0.199441
  0.214892
  0.326233
 -0.027367
  0.434700
  0.013069
  0.071364
 -0.304268
 -0.141064
  0.068910
  0.011619
  0.028615
  0.126279
 -0.135010
 -0.015925
 -0.148932
  0.004686
 -0.031101
  0.053563
 -0.078082
  0.083329
  0.174478
 -0.120406
 -0.232157
 -0.115233
  0.257395
  0.156293
  0.107804
  0.018381
  0.029599
 -0.020243
  0.004506
  0.014497
  0.143671
  0.045964
  0.180482
  0.056191
 -0.138393
  0.125737
  0.204987
  0.075107
  0.067974
  0.049507
 -0.255292
  0.028858
  0.042896
  0.183970
 -0.163660
  0.212793
  0.146959
 -0.117774
 -0.147890
 -0.208400
  0.143958
 -0.002349
  0.142988
  0.055381
 -0.164998
  0.025071
 -0.218236
 -0.258692
  0.103531
  0.338052
  0.136540
 -0.112377
  0.192114
  0.204903
 -0.034443
  0.221201
 -0.013224
  0.048869
  0.002377
 -0.094650
 -0.033069
  0.231564
 -0.093113
 -0.098960
  0.057835
  0.211737
  0.095218
 -0.296474
 -0.044733
  0.024573
 -0.209353
 -0.185417
 -0.179483
  0.022608
 -0.026172
 -0.017094
  0.158416
 -0.033664
 -0.120821
  0.145183
 -0.117353
 -0.068782
  0.117693
 -0.028008
  0.177289
  0.039976
  0.044460
  0.109867
  0.152245
 -0.169070
 -0.049451
  0.128023
 -0.088833
  0.040435
 -0.192378
  0.157626
 -0.202971
  0.005957
 -0.004334
  0.024777
 -0.148917
 -0.022648
 -0.139207
 -0.054794
  0.010226
 -0.025718
  0.099530
  0.086009
 -0.065551
  0.153469
  0.248541
  0.118777
 -0.159838
 -0.026813
 -0.015247
 -0.070823
 -0.077685
 -0.213109
  0.100589
 -0.220764
 -0.081979
  0.230916
 -0.107706
  0.071212
 -0.205846
 -0.128193
 -0.056245
  0.088698
 -0.025176
 -0.228419
 -0.074490
  0.049988
  0.130055
 -0.102837
  0.070058
 -0.064119
  0.148669
  0.208091
  0.082573
 -0.134278
 -0.147445
  0.168433
  0.015975
 -0.144608
 -0.009214
 -0.096091
 -0.188638
 -0.050797
 -0.183615
  0.106878
  0.020643
  0.047481
 -0.067789
  0.124125
 -0.098769
  0.021279
  0.022994
  0.293738
 -0.047096
  0.068975
 -0.000063
 -0.120257
 -0.082268
  0.029222
 -0.050143
 -0.013224
  0.125692
  0.103548
 -0.087070
 -0.052080
 -0.182057
 -0.198933
  0.013939
 -0.112796
 -0.340683
  0.105736
  0.159330
  0.034669
 -0.202381
  0.049833
 -0.012150
 -0.027283
 -0.214187
 -0.074936
  0.115869
  0.083906
  0.003271
  0.032307
  0.115764
 -0.059154
 -0.083859
 -0.030071
  0.005601
 -0.310614
 -0.059484
  0.000398
 -0.130583
  0.100710
  0.166504
 -0.090523
  0.137070
  0.192599
  0.005924
  0.079751
 -0.028658
  0.067716
 -0.171408
 -0.093643
  0.152149
 -0.079962
 -0.044960
  0.177346
 -0.043491
  0.051963
  0.199348
 -0.236132
 -0.119439
  0.021849
 -0.035393
  0.006907
 -0.066821
 -0.221228
  0.035522
 -0.182106
 -0.049995
 -0.186581
 -0.012760
  0.119344
 -0.064018
 -0.034576
  0.054745
  0.065460
  0.052589
  0.140388
  0.086429
 -0.010827
  0.261922
 -0.094796
 -0.100313
  0.044861
  0.008026
  0.034964
  0.061927
  0.021526
 -0.194203
  0.113667
  0.122482
 -0.183379
 -0.048468
 -0.078463
  0.007019
  0.083837
  0.068120
  0.034436
 -0.058181
  0.204892
 -0.047147
 -0.291259
  0.144188
  0.129209
 -0.001644
  0.034460
 -0.138550
  0.165790
 -0.129354
 -0.295327
  0.116122
 -0.095583
  0.228068
 -0.186024
  0.073894
  0.028026
  0.178208
  0.125580
 -0.138678
 -0.063382
 -0.045699
  0.184332
  0.048421
 -0.111564
  0.021136
  0.018515
  0.076716
  0.022497
  0.064069
 -0.035561
 -0.057707
  0.006592
  0.203701
 -0.034912
  0.118468
 -0.149138
 -0.046115
  0.033012
 -0.035380
 -0.142119
  0.204330
 -0.059174
 -0.073297
 -0.042818
  0.126592
 -0.125382
  0.042696
 -0.087564
  0.066487
  0.103844
  0.157265
 -0.251738
  0.073131
  0.049986
  0.340391
 -0.062342
 -0.064274
 -0.136928
  0.164055
 -0.066142
 -0.033371
 -0.024017
 -0.172744
 -0.066167
  0.086352
 -0.109468
 -0.009894
 -0.079330
 -0.008237
  0.038492
  0.082767
 -0.250849
 -0.052584
  0.074988
 -0.096607
  0.108788
 -0.196842
 -0.089485
 -0.172428
  0.110908
 -0.051458
 -0.076437
 -0.178536
  0.155952
 -0.080158
 -0.011804
  0.173190
 -0.049981
  0.205309
  0.198581
  0.167375
  0.092711
 -0.083934
 -0.166072
 -0.201298
 -0.077711
 -0.090247
  0.027155
  0.101328
 -0.150777
  0.126164
  0.063573
  0.198526
 -0.134659
  0.061510
 -0.222279
 -0.326688
 -0.086001
 -0.036803
  0.252269
 -0.059807
 -0.121690
 -0.201108
 -0.176541
 -0.075023
 -0.075671
 -0.122750
 -0.078593
 -0.073824
 -0.108573
  0.048061
  0.228995
  0.011660
 -0.160046
  0.148974
  0.281510
  0.092001
 -0.062335
  0.026849
 -0.000178
 -0.061495
  0.117537
  0.093761
 -0.024063
 -0.248095
  0.197030
 -0.022100
 -0.152176
 -0.238496
  0.156323
  0.184363
  0.061159
 -0.397674
 -0.181538
  0.080982
  0.049779
  0.083704
 -0.232264
  0.050817
  0.023511
 -0.009655
  0.137812
 -0.040101
  0.053865
  0.258949
  0.012452
  0.382043
 -0.080757
 -0.124486
 -0.257367
  0.102331
 -0.003968
 -0.007637
  0.164458
 -0.156781
 -0.194322
 -0.285412
  0.011472
  0.091906
 -0.571451
 -0.102336
  0.020123
 -0.231902
 -0.031445
 -0.049090
  0.018579
  0.085605
  0.139364
  0.036039
  0.139122
 -0.082746
 -0.082440
 -0.090401
 -0.090826
  0.088518
  0.010502
  0.129493
  0.012375
  0.031749
  0.064587
  0.198895
  0.137357
 -0.096328
 -0.150187
 -0.087718
 -0.074305
 -0.060273
 -0.086914
  0.047607
  0.184237
  0.010135
  0.015154
 -0.013559
  0.128032
 -0.031363
 -0.016809
  0.077006
  0.107243
 -0.061508
 -0.010003
  0.313639
  0.187812
  0.063935
 -0.087172
  0.006923
 -0.061603
 -0.157635
  0.239912
 -0.096538
  0.128732
  0.021317
 -0.049621
  0.001009
 -0.004112
  0.005279
  0.012278
 -0.053978
  0.055551
  0.055471
 -0.107012
 -0.161798
 -0.010937
 -0.069370
 -0.039464
  0.192958
 -0.101662
 -0.008467
 -0.155424
 -0.072010
 -0.074595
 -0.098743
  0.027343
  0.066811
 -0.009339
 -0.019476
 -0.169989
 -0.117487
  0.171427
  0.059278
 -0.061278
 -0.118999
 -0.290599
 -0.192585
 -0.110255
 -0.085558
  0.228510
 -0.102439
  0.167419
  0.142350
 -0.319740
  0.174012
 -0.096851
 -0.175376
 -0.130629
 -0.094143
  0.070461
 -0.172682
 -0.021101
 -0.043743
  0.028785
  0.293702
  0.180964
  0.142471
 -0.015938
  0.121080
 -0.064469
  0.119818
 -0.103000
 -0.156658
  0.063973
 -0.300856
 -0.097925
  0.042712
  0.088175
 -0.056236
  0.069202
 -0.002165
 -0.085114
 -0.014834
  0.038192
 -0.236561
  0.051596
  0.225756
  0.037652
  0.123777
 -0.051854
 -0.045663
 -0.233462
  0.011727
 -0.150087
 -0.085115
 -0.002054
  0.200393
 -0.112816
 -0.017425
  0.050810
  0.097398
 -0.042445
 -0.048506
  0.107799
  0.241274
  0.149422
 -0.024802
  0.261776
 -0.145781
 -0.106031
 -0.191055
 -0.025215
 -0.176131
  0.264637
 -0.075507
 -0.181771
  0.135880
  0.050763
 -0.273964
  0.096689
  0.088033
  0.271608
 -0.125485
 -0.018541
 -0.178424
 -0.048392
 -0.072411
  0.104605
 -0.189326
 -0.067622
 -0.018019
 -0.049756
  0.162103
 -0.118882
  0.083157
  0.011140
  0.107238
  0.133183
 -0.111789
  0.205992
  0.028192
  0.059926
  0.011951
  0.065949
  0.036177
  0.006731
 -0.134777
  0.048948
  0.009305
 -0.118281
 -0.046285
 -0.121740
  0.094018
 -0.022644
  0.128855
  0.045747
  0.049830
  0.101513
  0.182419
 -0.195981
  0.131013
 -0.025756
  0.097250
 -0.124166
  0.146946
  0.197151
 -0.203662
 -0.008682
 -0.013611
  0.070447
 -0.076968
 -0.075332
  0.043827
  0.023672
  0.138177
 -0.030043
 -0.000023
 -0.026149
  0.083267
 -0.278628
 -0.098377
 -0.172671
  0.094313
  0.152382
 -0.019085
 -0.068617
  0.102115
  0.072172
  0.177454
  0.157248
  0.007665
  0.096298
  0.110690
 -0.139011
  0.017055
 -0.143431
 -0.004623
 -0.210773
  0.219994
  0.089142
  0.045467
  0.098146
  0.131277
 -0.174249
  0.132345
 -0.108773
 -0.184234
  0.223948
  0.159975
 -0.014287
 -0.067941
 -0.122734
  0.348170
  0.069366
  0.109314
 -0.074426
 -0.251574
  0.266234
  0.089668
 -0.216338
  0.124983
 -0.203373
  0.123702
 -0.127786
 -0.231438
  0.079070
 -0.229436
 -0.046898
  0.159278
 -0.014590
  0.404289
  0.052175
  0.049597
 -0.115058
  0.100982
 -0.021598
 -0.074126
 -0.023220
  0.075035
  0.226518
 -0.130630
 -0.123709
 -0.071404
 -0.100658
 -0.287063
  0.033340
 -0.065399
  0.222720
  0.034178
  0.140039
  0.051676
  0.144708
  0.325820
 -0.092977
  0.176123
 -0.164625
 -0.116847
 -0.144809
  0.006412
 -0.115740
  0.130208
  0.139892
 -0.031860
 -0.003359
  0.426802
  0.165451
  0.012894
  0.195362
  0.073425
 -0.017137
  0.044030
  0.053826
  0.267796
  0.076018
 -0.051521
 -0.066647
  0.101024
 -0.073954
 -0.031236
  0.197262
  0.027635
 -0.119636
 -0.031107
  0.126441
  0.076811
 -0.085272
  0.078759
  0.021169
  0.017515
 -0.025713
 -0.237388
 -0.056781
 -0.078930
  0.030052
 -0.158053
  0.048957
 -0.084289
  0.097378
  0.106892
 -0.042748
 -0.341901
 -0.010556
 -0.181782
  0.035244
  0.135314
 -0.052377
 -0.054653
 -0.279589
  0.002392
  0.139150
 -0.023581
 -0.007285
 -0.195850
 -0.058375
 -0.183590
 -0.057392
 -0.142478
 -0.015091
  0.037785
 -0.108959
 -0.205651
  0.082785
  0.146113
  0.028627
 -0.076009
  0.048806
  0.066174
 -0.060942
 -0.155646
 -0.072249
  0.033458
  0.013360
 -0.171037
 -0.029141
  0.103424
 -0.071854
 -0.164862
 -0.100430
  0.142296
  0.040951
  0.017239
 -0.092946
  0.184084
  0.013070
 -0.066170
 -0.132923
 -0.198620
  0.133887
  0.062250
 -0.010272
  0.022157
 -0.007907
  0.180202
  0.003180
 -0.077759
 -0.012483
 -0.226812
  0.017306
  0.217251
  0.231891
 -0.126257
  0.147059
  0.328672
 -0.103218
  0.067345
 -0.072311
 -0.209932
 -0.101059
  0.193709
  0.161223
 -0.045376
  0.151534
 -0.022498
  0.148884
  0.183665
  0.163151
  0.110731
 -0.170390
 -0.050285
 -0.097761
  0.132413
 -0.020852
 -0.150285
 -0.217058
 -0.112554
 -0.070778
  0.076540
 -0.124299
 -0.085323
  0.254648
  0.102129
  0.117737
 -0.019281
 -0.051174
  0.024056
 -0.226478
 -0.118163
  0.213866
 -0.183121
  0.082320
 -0.075725
 -0.323068
 -0.041450
 -0.114706
 -0.184236
 -0.150590
  0.045599
 -0.098339
  0.009214
 -0.023560
 -0.042827
 -0.053524
 -0.360702
 -0.045055
  0.176929
 -0.007489
  0.052958
  0.070790
  0.071167
 -0.006620
  0.125648
  0.159114
  0.025444
  0.134780
 -0.159612
 -0.187378
 -0.038931
 -0.043229
  0.090509
 -0.026325
 -0.095229
  0.176720
  0.000680
  0.221210
  0.040657
  0.004023
 -0.081921
 -0.115923
 -0.052885
 -0.036624
  0.129402
  0.002441
 -0.117971
  0.215267
  0.032732
  0.440948
 -0.260149
  0.183957
 -0.072203
  0.246987
 -0.132924
 -0.022794
  0.131280
 -0.087330
  0.056473
 -0.110657
  0.119995
 -0.103096
  0.097902
  0.052120
 -0.061870
  0.020005
 -0.136861
 -0.020624
  0.183169
  0.119507
  0.164330
 -0.054627
 -0.065109
 -0.002126
  0.316016
 -0.008543
  0.104035
 -0.130319
 -0.071890
  0.112217
  0.047760
 -0.007511
  0.223343
 -0.008087
  0.247550
  0.077897
 -0.143568
  0.138034
 -0.132150
  0.101967
 -0.015521
 -0.091633
  0.164997
  0.001637
 -0.065514
  0.066717
  0.037554
  0.186930
  0.035857
  0.098951
 -0.080775
 -0.011567
  0.068075
 -0.142120
 -0.090796
  0.075966
  0.259004
 -0.066878
 -0.158809
 -0.339186
  0.017811
  0.201466
  0.086045
  0.013679
  0.117673
  0.030011
  0.157422
  0.084579
  0.116441
 -0.017336
 -0.016278
 -0.253774
 -0.028915
 -0.051042
 -0.016062
  0.044758
 -0.084239
  0.007070
  0.182050
  0.056988
  0.008120
  0.138847
 -0.179063
  0.028815
 -0.030582
  0.098489
 -0.115708
  0.019684
 -0.186893
  0.140156
  0.035135
 -0.056519
 -0.089588
  0.000440
  0.197526
 -0.108444
 -0.122129
  0.000948
  0.040717
  0.027899
  0.250163
  0.092261
  0.234566
 -0.238576
 -0.080855
  0.104258
 -0.155497
  0.125077
  0.118411
 -0.041280
  0.071244
 -0.030874
 -0.028597
 -0.081915
 -0.087950
  0.118703
  0.096149
  0.334688
  0.076421
  0.290102
 -0.242260
  0.044264
  0.001267
 -0.083167
 -0.097323
 -0.093279
 -0.026180
  0.096007
 -0.138231
 -0.266500
  0.035111
 -0.010453
  0.041080
  0.033868
 -0.139810
 -0.135376
 -0.062535
  0.011235
 -0.100603
 -0.155235
 -0.108891
 -0.103437
  0.245062
 -0.015137
  0.268451
  0.035069
 -0.035310
 -0.169584
 -0.142524
  0.073277
 -0.321072
 -0.023839
 -0.085511
  0.201569
  0.063666
 -0.001102
 -0.286199
  0.115641
 -0.003337
  0.060606
 -0.040161
 -0.145134
  0.325412
 -0.061161
  0.026528
  0.128013
 -0.085353
 -0.084996
 -0.139158
  0.158740
 -0.006741
  0.100687
  0.278606
  0.114287
 -0.204052
  0.093542
  0.155637
 -0.082884
  0.108125
 -0.055081
 -0.015493
  0.013153
  0.126721
 -0.107326
  0.100630
 -0.131631
  0.088629
  0.040783
 -0.070990
  0.167624
  0.072021
 -0.209063
  0.226261
  0.041432
 -0.152435
  0.231906
  0.063939
  0.107698
 -0.153604
  0.106843
 -0.141336
  0.231997
  0.018868
 -0.091408
  0.152723
  0.243365
 -0.104631
  0.081154
 -0.088722
 -0.059320
  0.284870
 -0.123975
 -0.021912
 -0.130039
 -0.044283
  0.134865
  0.043930
  0.193087
 -0.156668
  0.008527
 -0.181563
  0.035327
  0.098554
 -0.053520
  0.152741
  0.112270
 -0.115399
  0.094203
  0.083461
 -0.209265
 -0.111655
 -0.005328
 -0.078982
  0.049730
 -0.009767
  0.285860
 -0.118064
  0.114536
  0.013430
  0.000818
  0.021751
  0.047051
  0.240573
  0.201441
  0.164998
  0.313152
 -0.030847
 -0.219008
  0.101201
 -0.125268
 -0.106977
  0.041758
  0.054299
  0.092238
 -0.105358
 -0.093217
  0.064128
 -0.179873
 -0.199211
 -0.168777
 -0.008746
  0.224307
  0.249231
  0.236671
 -0.238499
  0.213698
 -0.188027
 -0.057831
 -0.110640
 -0.038790
 -0.132557
  0.112181
 -0.075853
  0.134192
  0.020494
 -0.134046
  0.091910
 -0.045342
  0.062285
  0.177284
 -0.036211
  0.104203
 -0.275810
  0.145345
 -0.062216
  0.046585
  0.073947
  0.100318
  0.154875
 -0.149254
 -0.072826
 -0.102333
 -0.015077
 -0.117560
 -0.032847
 -0.073071
 -0.271344
 -0.030183
  0.084007
  0.050933
  0.017964
  0.093665
  0.075158
 -0.068073
 -0.023864
 -0.011516
  0.062084
 -0.125285
 -0.136617
  0.050454
 -0.082159
  0.040367
  0.322912
  0.089495
  0.049887
  0.220691
  0.079409
  0.058096
 -0.004282
 -0.167431
 -0.120925
  0.138248
 -0.161727
  0.126881
  0.128274
  0.144812
 -0.060088
  0.026916
 -0.095497
 -0.102142
  0.011307
  0.016508
 -0.029609
  0.046569
  0.144068
 -0.083214
 -0.051110
 -0.046993
 -0.137750
  0.104337
 -0.015417
 -0.170520
  0.136741
  0.129390
  0.191373
 -0.045059
  0.013230
  0.151970
 -0.071369
 -0.072711
 -0.167923
  0.071186
 -0.107866
 -0.208161
  0.114189
  0.015867
 -0.117487
 -0.131230
 -0.075743
  0.084964
 -0.073751
 -0.122998
  0.239255
 -0.091882
  0.136403
 -0.105593
 -0.161714
 -0.164289
 -0.104835
  0.086131
 -0.063305
  0.125211
 -0.244786
 -0.185138
 -0.150542
 -0.110376
  0.139195
 -0.027683
  0.229280
 -0.013838
  0.081202
  0.275778
 -0.025100
 -0.085486
 -0.024305
  0.137262
 -0.108863
  0.107970
 -0.028961
 -0.228738
  0.326811
 -0.052405
 -0.125353
 -0.004070
  0.082147
  0.132137
  0.107842
 -0.030976
  0.013509
 -0.178772
 -0.091803
 -0.011794
 -0.114193
  0.193351
  0.016724
  0.015206
  0.122505
  0.135753
 -0.121076
 -0.124649
 -0.264530
  0.134287
 -0.115021
  0.174172
  0.214201
 -0.126869
 -0.224442
 -0.139113
 -0.016207
  0.385812
 -0.049169
 -0.139882
  0.141808
 -0.048802
  0.020329
 -0.082549
 -0.013614
 -0.053953
 -0.126413
  0.337997
  0.133505
  0.077020
  0.063546
 -0.211607
 -0.086604
  0.110287
  0.145851
  0.045094
 -0.158212
 -0.085486
 -0.065746
 -0.044509
 -0.065179
  0.134321
  0.113165
 -0.109663
  0.089284
 -0.134211
 -0.174830
 -0.180249
 -0.000832
  0.011460
  0.083608
  0.075699
 -0.013917
  0.069617
  0.148477
 -0.304089
 -0.121813
 -0.026548
  0.133549
  0.134494
 -0.014817
 -0.067774
  0.170800
  0.129788
 -0.006576
 -0.317046
 -0.068461
 -0.173944
 -0.091299
 -0.130779
 -0.076509
 -0.051896
  0.096052
  0.083234
 -0.009983
 -0.225848
  0.144403
  0.122243
  0.013898
  0.044369
 -0.098651
 -0.089275
 -0.102842
 -0.241216
 -0.079928
  0.005117
 -0.065858
 -0.020390
  0.058407
  0.187170
  0.131302
  0.214641
 -0.001701
 -0.142021
  0.258237
  0.023043
  0.338566
 -0.041340
 -0.249644
 -0.147211
 -0.031196
 -0.142217
 -0.247538
 -0.051777
 -0.183567
  0.050199
 -0.031314
 -0.056174
  0.043940
  0.011823
 -0.175462
  0.074817
  0.070818
 -0.082680
 -0.237313
 -0.011487
  0.046645
 -0.031742
 -0.020490
  0.071405
  0.422111
  0.033713
 -0.040165
 -0.107271
 -0.083336
 -0.036472
 -0.053021
 -0.140022
 -0.116102
  0.048399
 -0.298771
 -0.042132
 -0.054705
 -0.135414
  0.178268
 -0.029333
  0.172170
  0.102163
 -0.246810
 -0.001875
  0.015051
  0.077246
  0.021382
 -0.175176
 -0.224370
 -0.117967
  0.147755
  0.017093
 -0.124103
 -0.227620
 -0.095899
 -0.076940
  0.007055
 -0.237554
  0.076281
  0.014158
 -0.162513
 -0.130140
 -0.419782
 -0.205313
  0.125121
 -0.154363
  0.010263
 -0.049087
  0.293552
 -0.138466
  0.010592
 -0.032065
 -0.156906
  0.178732
 -0.024687
  0.049213
  0.106166
  0.020644
 -0.058560
 -0.084097
 -0.090164
 -0.145856
 -0.058682
  0.094155
 -0.078944
 -0.049956
  0.030341
 -0.152911
  0.117798
 -0.115588
  0.133591
  0.060660
 -0.002251
  0.205128
  0.071571
  0.020884
  0.036412
 -0.015402
  0.218139
  0.210591
 -0.044154
  0.066994
  0.023501
  0.090091
  0.080924
  0.197515
  0.416576
  0.014676
 -0.113830
 -0.008623
 -0.170913
 -0.056816
  0.102738
  0.043325
 -0.132365
  0.117412
 -0.092408
  0.115966
  0.039137
  0.306626
 -0.023604
  0.053694
  0.240777
  0.081006
  0.009768
 -0.193564
 -0.002503
 -0.102206
 -0.124474
 -0.008071
  0.002554
 -0.164465
  0.235684
 -0.045181
 -0.065958
 -0.151542
 -0.140542
  0.128299
  0.083202
  0.192916
 -0.073184
  0.134801
 -0.079453
  0.052049
  0.124310
  0.042406
  0.119364
  0.020133
 -0.030879
  0.113191
  0.365893
  0.037006
  0.081098
 -0.266279
 -0.019270
  0.072425
 -0.116344
  0.053359
  0.099186
 -0.199953
 -0.233938
  0.143166
 -0.109023
  0.134332
  0.113877
 -0.115675
  0.098026
  0.089529
 -0.019270
  0.203729
 -0.039874
  0.070317
  0.152316
 -0.111359
  0.068009
  0.014579
  0.230820
  0.058129
 -0.093393
  0.119639
 -0.024386
 -0.142735
 -0.218789
 -0.009693
 -0.073923
  0.011666
 -0.026272
  0.065100
 -0.088735
 -0.013913
  0.069657
  0.261306
 -0.114300
 -0.042389
  0.129147
  0.073319
 -0.133405
 -0.108280
 -0.135336
 -0.056304
 -0.053486
  0.034584
  0.189565
 -0.104053
 -0.041673
 -0.046765
  0.053203
 -0.027585
  0.180948
  0.026347
 -0.153287
  0.088024
 -0.034296
 -0.000814
  0.012870
 -0.021074
 -0.034033
  0.183101
 -0.059225
  0.042367
 -0.032172
  0.071816
  0.009605
 -0.094228
 -0.175729
  0.111977
 -0.043217
 -0.290001
 -0.093374
  0.044680
 -0.133322
  0.040153
  0.159845
 -0.015164
  0.133673
  0.074780
  0.036327
 -0.216584
  0.054246
 -0.172929
 -0.226191
  0.196044
  0.063324
  0.140571
  0.153026
  0.081975
 -0.191795
 -0.177128
 -0.085546
 -0.031510
  0.039092
  0.066539
  0.044060
 -0.137579
  0.014524
  0.172294
 -0.013445
 -0.226984
 -0.036984
  0.056972
  0.165235
 -0.060105
 -0.081012
 -0.260379
 -0.011289
 -0.053329
 -0.213595
 -0.134913
  0.091129
  0.064539
  0.068476
  0.051740
  0.108469
 -0.015468
 -0.202586
  0.238346
 -0.058132
 -0.072169
 -0.214430
  0.078333
  0.089863
 -0.077349
 -0.039254
 -0.016328
  0.143540
 -0.113812
 -0.267135
 -0.021019
 -0.284600
  0.172311
 -0.145726
  0.139904
  0.023359
  0.211310
 -0.019906
 -0.161244
 -0.002422
  0.160001
  0.027969
  0.057362
 -0.003063
  0.132110
 -0.150977
  0.071173
 -0.175444
 -0.064952
 -0.045173
  0.038796
 -0.039133
  0.118336
  0.092481
  0.087824
 -0.110738
 -0.013131
  0.065590
  0.078994
  0.165376
 -0.115238
  0.163472
 -0.027736
  0.057848
  0.245900
  0.031011
 -0.160432
 -0.025567
 -0.104977
 -0.123522
 -0.026685
 -0.058625
  0.139381
 -0.052531
  0.033181
  0.013215
  0.023276
 -0.142859
  0.138866
 -0.034031
  0.022145
  0.069167
  0.156918
  0.203803
  0.042444
  0.006698
  0.107105
  0.108783
 -0.081806
  0.140016
  0.001230
  0.184281
 -0.102301
  0.018233
  0.067598
 -0.292424
  0.100649
  0.051885
  0.150081
 -0.192452
  0.018066
  0.139060
  0.118585
  0.003897
 -0.042934
 -0.029108
  0.291582
 -0.068475
  0.062253
 -0.026708
 -0.150596
 -0.146986
 -0.046431
  0.225878
  0.104678
 -0.065280
  0.148344
 -0.076084
 -0.195491
  0.074888
 -0.030341
  0.103655
  0.099276
 -0.107848
 -0.132798
  0.157507
 -0.093558
 -0.058180
 -0.302002
 -0.226927
  0.111659
  0.098591
 -0.132525
 -0.114429
  0.076930
  0.133668
 -0.020370
 -0.136719
  0.021345
  0.069832
  0.181904
  0.158138
 -0.057237
 -0.123947
 -0.149149
 -0.204550
 -0.137409
 -0.037758
  0.203374
 -0.002401
  0.143284
  0.196444
 -0.034190
 -0.005244
  0.314548
 -0.079837
  0.059304
  0.107442
  0.170199
  0.123204
 -0.051095
 -0.044730
  0.112014
 -0.216124
 -0.094510
 -0.017096
 -0.128776
 -0.106086
 -0.032525
  0.174910
  0.106855
 -0.041689
  0.008960
 -0.023696
  0.408812
 -0.320281
 -0.302348
  0.116253
 -0.293813
  0.100927
 -0.019261
  0.214053
 -0.003602
  0.138599
  0.070694
  0.228896
 -0.128021
  0.132761
 -0.288435
  0.020174
 -0.036353
 -0.053184
 -0.059935
  0.207095
 -0.084937
 -0.091003
 -0.268498
 -0.085946
  0.154506
  0.053608
 -0.104736
 -0.076957
 -0.072738
 -0.058679
 -0.182859
 -0.127157
 -0.107897
  0.308533
 -0.115136
  0.064939
 -0.026935
 -0.075028
 -0.006558
 -0.148387
  0.013516
  0.032407
 -0.152962
 -0.039683
 -0.126623
  0.224180
  0.127689
  0.138783
 -0.087371
 -0.007612
  0.185378
 -0.088465
 -0.023158
  0.267311
 -0.197070
  0.068592
  0.049868
  0.158185
  0.037818
 -0.127726
 -0.116881
  0.139614
 -0.061500
 -0.055053
  0.221948
 -0.097602
  0.158200
 -0.127291
  0.069357
  0.040598
 -0.008544
  0.120934
  0.016440
  0.105560
 -0.029630
  0.151127
 -0.287560
 -0.226208
  0.017235
 -0.238178
 -0.089160
  0.239162
 -0.064223
  0.222980
 -0.054306
 -0.336724
  0.016200
 -0.094603
  0.142285
  0.084127
  0.243950
  0.301260
 -0.253782
 -0.022862
 -0.309617
 -0.070989
  0.116882
  0.031497
 -0.026027
  0.113123
 -0.045446
  0.040776
  0.144973
 -0.248905
  0.000516
  0.125534
  0.213890
 -0.153640
  0.031138
 -0.002175
  0.049865
  0.034171
 -0.019396
  0.137681
  0.047415
 -0.076986
  0.094045
 -0.009935
 -0.024021
 -0.074681
 -0.012467
  0.114784
  0.204061
  0.073342
 -0.058458
  0.213307
  0.008563
 -0.083599
 -0.258711
  0.122587
 -0.002085
 -0.084021
 -0.119096
 -0.010169
  0.014836
 -0.216803
 -0.005602
  0.135655
  0.065315
  0.070240
 -0.206925
  0.035827
 -0.168108
  0.106935
 -0.095826
 -0.078877
  0.034322
 -0.159855
  0.157552
 -0.072052
 -0.044756
 -0.023936
 -0.066831
  0.180507
 -0.019586
  0.275248
  0.070434
 -0.101813
 -0.098015
 -0.086926
 -0.000454
 -0.106559
 -0.203017
 -0.139546
 -0.075334
 -0.097923
 -0.061673
  0.055609
  0.116590
  0.103647
  0.101168
  0.239551
 -0.194172
  0.013266
 -0.044779
 -0.211289
  0.223523
 -0.005769
 -0.065270
  0.145066
 -0.130000
  0.213538
 -0.231707
  0.193964
 -0.262081
 -0.049551
  0.044689
  0.011559
 -0.132046
  0.115956
 -0.065922
  0.011486
 -0.094088
  0.083675
 -0.065425
  0.343059
  0.229836
 -0.301421
 -0.041936
 -0.153978
  0.411559
 -0.157950
  0.042341
  0.149753
  0.026416
 -0.153334
 -0.214823
  0.146976
 -0.031581
  0.024733
  0.041381
 -0.086186
 -0.094104
  0.033275
 -0.068613
 -0.211344
  0.172570
  0.043135
  0.137343
  0.161239
 -0.134310
  0.248958
 -0.062831
 -0.186718
 -0.172207
 -0.158821
 -0.118046
 -0.019222
 -0.020084
  0.141415
 -0.077196
 -0.272755
 -0.364082
 -0.135485
 -0.121453
  0.186794
 -0.182983
 -0.083084
 -0.164902
  0.089804
  0.175567
 -0.030068
  0.029212
  0.190653
  0.132737
 -0.092878
  0.207740
  0.039865
 -0.031396
  0.044178
  0.021652
 -0.007721
 -0.041671
  0.066181
 -0.130378
 -0.356046
 -0.047965
  0.013720
  0.017284
  0.012205
 -0.315129
 -0.103286
 -0.204311
 -0.022070
  0.257202
 -0.232569
 -0.029079
 -0.028556
 -0.199306
 -0.052090
  0.050363
 -0.099500
 -0.041201
 -0.148882
 -0.006153
 -0.218015
  0.050852
  0.055955
 -0.067318
 -0.296288
 -0.021688
  0.070259
 -0.100373
 -0.083301
  0.068983
 -0.017143
 -0.099406
 -0.085902
 -0.207928
 -0.103689
  0.015772
 -0.025103
 -0.120978
  0.000678
 -0.212016
 -0.031738
 -0.077038
 -0.148594
 -0.088119
 -0.020308
 -0.127606
  0.143816
  0.154735
 -0.050025
  0.141548
 -0.271122
 -0.306330
 -0.157768
  0.281124
 -0.368161
 -0.222944
 -0.310416
 -0.115658
  0.076186
  0.007104
  0.029840
 -0.083146
  0.009088
 -0.156530
 -0.250802
 -0.208258
 -0.264777
 -0.347824
 -0.149605
 -0.138701
 -0.204048
 -0.179565
 -0.349772
  0.163066
 -0.118552
  0.020546
  0.032352
 -0.064968
  0.041944
 -0.189546
  0.104143
 -0.154255
 -0.093388
 -0.083046
 -0.219101
 -0.111644
  0.116673
  0.023277
 -0.130912
  0.039624
 -0.188026
  0.018086
 -0.070675
 -0.066579
 -0.174485
 -0.168588
 -0.090357
 -0.083982
 -0.152524
 -0.121080
 -0.102492
 -0.213631
 -0.222441
 -0.006149
 -0.126858
 -0.116804
 -0.229512
 -0.106319
 -0.007447
 -0.024051
 -0.164070
 -0.278787
 -0.172987
 -0.006113
 -0.309994
 -0.049095
 -0.053097
 -0.028381
 -0.016935
 -0.256873
 -0.155906
 -0.220992
  0.294509
  0.026487
  0.119085
 -0.224041
 -0.444157
 -0.067471
 -0.348328
 -0.303372
 -0.236982
 -0.104594
 -0.249287
 -0.309898
 -0.143024
 -0.020064
  0.112842
 -0.017849
 -0.009589
 -0.047020
 -0.022348
 -0.108019
 -0.109888
 -0.107518
 -0.075534
 -0.015553
 -0.056770
  0.055292
  0.052262
  0.164371
  0.064498
  0.147485
 -0.073337
 -0.122090
 -0.171049
 -0.213109
  0.022441
  0.097743
  0.002985
 -0.252738
  0.054765
 -0.073195
 -0.155861
  0.076054
 -0.175842
 -0.191944
 -0.035689
 -0.102236
  0.030504
 -0.070925
 -0.082648
 -0.010948
 -0.182508
 -0.240581
  0.041229
 -0.098148
 -0.280763
  0.037475
  0.017849
 -0.126793
  0.066945
  0.002914
  0.159211
 -0.111202
 -0.213724
 -0.045832
 -0.032425
  0.079587
  0.238242
 -0.345163
  0.114034
 -0.057753
 -0.237525
  0.050152
 -0.078177
 -0.065917
 -0.180822
 -0.154820
  0.004480
 -0.032840
 -0.110245
 -0.113585
  0.003744
  0.235966
  0.045494
 -0.169076
 -0.039678
  0.025516
 -0.068765
 -0.247852
  0.091201
  0.061131
 -0.170136
  0.048072
  0.165863
 -0.137780
 -0.177711
  0.003323
 -0.104764
 -0.125096
  0.138525
  0.208134
 -0.235291
  0.111797
  0.139709
 -0.006905
  0.126654
 -0.048490
 -0.075099
  0.008191
 -0.002406
  0.090813
  0.120610
 -0.094930
  0.229844
  0.065233
 -0.082377
 -0.056342
 -0.099612
  0.039497
  0.209323
 -0.119963
 -0.003257
 -0.140205
  0.083096
  0.047406
 -0.181601
 -0.020988
 -0.077990
 -0.107677
  0.045878
 -0.111216
 -0.243849
 -0.150869
  0.043934
  0.080499
 -0.108697
  0.022639
 -0.003294
  0.088597
  0.011331
 -0.132173
  0.059865
 -0.050148
  0.001466
 -0.063006
  0.109633
 -0.018803
  0.095501
  0.140139
  0.208122
  0.025819
 -0.207248
  0.008960
  0.044013
  0.252612
  0.156472
  0.034087
  0.057591
  0.049377
  0.061768
 -0.093445
 -0.083565
  0.100911
  0.276426
 -0.190269
  0.029554
  0.114269
  0.184096
  0.035156
  0.255858
 -0.071519
  0.316862
 -0.011920
 -0.107546
 -0.127009
 -0.123446
 -0.042746
 -0.208134
 -0.185257
 -0.106323
  0.064780
 -0.046823
 -0.038484
 -0.009139
  0.100264
 -0.104517
  0.112803
 -0.117817
  0.018186
 -0.072859
 -0.132099
 -0.018076
 -0.127119
 -0.281452
  0.208992
  0.116508
 -0.062632
 -0.150376
 -0.075652
 -0.051548
  0.006186
 -0.130916
 -0.208333
 -0.003254
 -0.101268
 -0.049329
  0.029195
  0.016721
  0.081890
 -0.102150
 -0.074778
  0.187646
 -0.033388
 -0.086590
  0.026241
 -0.096001
  0.139849
  0.084563
  0.015092
  0.132410
 -0.061457
  0.188741
 -0.407501
 -0.067634
 -0.073114
 -0.206885
  0.027168
 -0.027219
  0.031434
  0.206863
 -0.105360
 -0.018182
 -0.098565
 -0.026638
  0.156322
 -0.070102
  0.075230
 -0.047450
  0.345476
 -0.089421
  0.004152
  0.125470
  0.236575
 -0.043643
  0.232630
  0.160114
 -0.109729
  0.026525
 -0.444059
 -0.018499
 -0.033474
 -0.022841
 -0.020163
 -0.355308
 -0.030749
 -0.024091
  0.167438
 -0.182119
  0.043864
 -0.147396
  0.013891
  0.169834
 -0.146279
 -0.143654
  0.253500
 -0.105911
 -0.051690
 -0.045074
  0.153245
  0.085481
 -0.063268
  0.162311
 -0.019701
 -0.056825
 -0.025480
  0.131747
 -0.167355
  0.068143
 -0.083526
 -0.179684
 -0.112440
  0.065857
 -0.222797
 -0.068547
  0.062329
  0.201957
  0.127200
  0.196563
 -0.113354
  0.306122
 -0.055332
  0.056996
 -0.238624
 -0.034725
 -0.010264
  0.131990
  0.136717
 -0.065799
 -0.089998
 -0.077468
  0.188520
  0.059638
 -0.155978
  0.050682
  0.059606
 -0.009518
  0.200012
 -0.126338
  0.195785
 -0.017308
 -0.104258
 -0.011337
  0.114864
 -0.111416
 -0.167245
 -0.181607
  0.281668
  0.201693
 -0.073737
  0.118081
  0.155014
  0.004503
 -0.000802
 -0.050722
  0.139135
 -0.284401
  0.018017
  0.001025
  0.099120
 -0.018417
 -0.074435
 -0.186517
 -0.049417
 -0.113488
 -0.035424
 -0.026429
  0.127827
 -0.173419
  0.220710
  0.106808
  0.168936
 -0.005062
 -0.097858
 -0.046961
 -0.215272
 -0.058024
  0.020264
  0.022520
  0.008717
 -0.100709
 -0.115130
  0.029807
  0.072126
 -0.107760
 -0.180450
  0.212079
  0.181179
 -0.157346
  0.220020
  0.078836
  0.246646
  0.128320
 -0.060375
  0.085553
 -0.255085
 -0.030680
  0.190201
 -0.020705
 -0.000267
  0.139341
 -0.141693
 -0.105936
  0.207212
  0.083186
  0.239493
  0.059223
 -0.009619
  0.124390
  0.035346
  0.160462
  0.082926
  0.334932
 -0.057577
  0.186418
  0.128970
  0.259145
 -0.043071
 -0.089306
 -0.015188
  0.144326
 -0.103324
 -0.006052
  0.058416
  0.084376
 -0.177542
  0.044213
 -0.395667
 -0.091448
 -0.048111
  0.041444
 -0.100646
  0.212868
 -0.198532
  0.165780
 -0.042300
  0.052584
 -0.279574
  0.109106
  0.087786
  0.009644
  0.060344
 -0.034834
  0.081297
  0.065691
  0.120803
  0.151535
 -0.220048
 -0.027209
 -0.103975
  0.085431
 -0.014716
 -0.098425
 -0.091319
  0.127142
 -0.099842
 -0.297118
  0.039356
  0.057058
  0.035876
 -0.162202
  0.259565
  0.014119
  0.237137
 -0.037267
 -0.009200
  0.012255
 -0.250513
 -0.070771
 -0.065716
  0.026519
 -0.027298
  0.137891
  0.194392
 -0.069582
 -0.086540
  0.120580
 -0.062076
  0.097524
  0.147066
  0.023698
 -0.181564
  0.111257
  0.059000
  0.281271
 -0.092111
  0.312968
 -0.111697
 -0.065818
 -0.145237
 -0.022244
 -0.031909
  0.084971
 -0.184210
 -0.010835
 -0.035538
 -0.183411
  0.110410
  0.032658
  0.057435
  0.024289
  0.128366
 -0.055005
 -0.007200
  0.006510
 -0.029224
 -0.207120
  0.209543
 -0.015256
 -0.217930
 -0.263715
 -0.018566
  0.043860
  0.130623
 -0.029444
 -0.151660
 -0.193681
 -0.026777
  0.286817
 -0.223965
 -0.155310
 -0.133991
 -0.085386
 -0.047039
 -0.054669
 -0.011603
 -0.079213
  0.157079
  0.006847
  0.162533
  0.152140
  0.170584
 -0.304995
 -0.053465
  0.156237
  0.119999
  0.052689
  0.147103
 -0.270949
  0.243375
 -0.047932
  0.298046
 -0.120914
 -0.168151
  0.083997
  0.014872
  0.080252
  0.041318
 -0.085768
 -0.146871
 -0.000034
 -0.029900
  0.024653
 -0.214035
 -0.018055
  0.044002
 -0.036845
 -0.032637
 -0.043375
 -0.133573
  0.073562
 -0.022762
 -0.160741
 -0.012363
  0.120496
 -0.204424
 -0.093506
  0.147399
  0.024422
 -0.016033
 -0.002394
  0.048068
  0.027498
 -0.056503
  0.233182
  0.005465
  0.000339
  0.057197
 -0.330775
  0.070190
 -0.027125
 -0.138651
  0.025375
  0.175055
  0.287901
  0.058515
  0.239094
  0.190964
 -0.096130
 -0.173102
  0.062289
  0.083022
 -0.084029
 -0.001872
  0.051923
  0.090060
  0.016748
 -0.121478
  0.027381
  0.056053
  0.142267
  0.099824
 -0.065505
  0.112985
 -0.022417
  0.058035
  0.095514
  0.209712
  0.270751
  0.003901
 -0.172266
  0.147496
 -0.062238
  0.082101
  0.063966
 -0.055677
  0.239741
  0.036638
  0.005037
 -0.218518
 -0.214092
 -0.098583
  0.202795
 -0.106216
 -0.084647
  0.002246
  0.055828
 -0.102152
 -0.141193
  0.034346
  0.024832
  0.021811
  0.142371
 -0.097597
  0.035702
 -0.127486
  0.078918
  0.007083
  0.055408
  0.008633
  0.023725
  0.049161
  0.004206
 -0.007560
 -0.115531
  0.187355
 -0.212126
  0.207715
  0.040031
 -0.021191
  0.001091
 -0.004062
  0.073472
  0.141872
 -0.110677
  0.119707
  0.179033
 -0.004438
 -0.194251
 -0.005801
  0.159798
  0.017882
  0.115292
 -0.121109
  0.046864
 -0.174664
  0.041076
 -0.248186
  0.129283
 -0.030492
 -0.081775
 -0.117326
 -0.092430
  0.029478
 -0.022612
 -0.253051
 -0.199352
  0.064800
 -0.109431
 -0.025877
 -0.103292
 -0.037694
 -0.176784
  0.110366
 -0.089378
 -0.141313
  0.112606
  0.182375
 -0.081096
  0.134658
 -0.037994
  0.060108
 -0.087221
  0.043782
 -0.067583
  0.012854
 -0.384594
 -0.101360
  0.081531
  0.128978
  0.056558
  0.039809
  0.243618
  0.201681
 -0.128152
 -0.163899
  0.000601
 -0.037527
  0.177926
  0.185621
  0.092697
  0.000740
 -0.122167
  0.036721
  0.054709
  0.239684
 -0.001288
 -0.075573
  0.060599
 -0.020058
  0.095847
  0.051000
  0.073407
 -0.036661
 -0.085281
 -0.049581
 -0.171450
  0.045882
  0.025438
  0.139199
  0.148556
  0.042736
 -0.176853
  0.193556
 -0.201130
 -0.068961
  0.082516
 -0.034142
  0.256973
  0.014195
  0.049002
  0.100415
  0.083810
 -0.165138
  0.122881
  0.008277
  0.157413
  0.071674
  0.095143
 -0.241937
 -0.071673
  0.122076
 -0.128768
 -0.037655
 -0.315283
  0.035527
 -0.022145
 -0.117576
 -0.141565
 -0.197136
 -0.139966
  0.083257
 -0.129748
 -0.224229
 -0.195220
  0.085180
  0.076738
  0.038642
  0.154223
 -0.062372
 -0.103072
  0.114176
  0.025726
  0.088526
 -0.018241
  0.057795
 -0.159973
 -0.164225
 -0.227650
 -0.052134
 -0.081037
 -0.087767
 -0.123056
  0.000985
 -0.189957
  0.071958
 -0.176133
 -0.349808
  0.178994
  0.115619
 -0.007899
  0.028729
 -0.081534
  0.313623
 -0.003854
  0.223111
  0.023666
  0.149651
  0.269447
  0.002895
 -0.006307
 -0.018667
  0.149103
 -0.229131
  0.162751
  0.070151
  0.089360
 -0.346155
 -0.177673
  0.093314
 -0.040976
  0.212666
  0.044477
 -0.215111
 -0.100625
 -0.176076
  0.036848
  0.072488
 -0.156556
  0.093106
  0.125108
  0.114878
  0.011997
  0.027843
  0.022833
 -0.117994
 -0.227544
 -0.003023
 -0.048751
  0.204678
 -0.323927
  0.028493
 -0.033839
 -0.096297
  0.106561
 -0.023330
 -0.050693
  0.134054
  0.031058
  0.021259
 -0.153338
 -0.011627
  0.106664
  0.018009
 -0.035516
  0.057818
  0.191921
 -0.106459
  0.161907
 -0.172741
  0.006219
  0.023022
  0.277849
 -0.133918
 -0.106879
  0.034028
  0.035308
 -0.153026
  0.029390
 -0.044863
 -0.099351
 -0.066863
  0.077212
 -0.249193
  0.133191
  0.153084
  0.026493
 -0.102565
 -0.145884
 -0.004977
 -0.096506
 -0.214937
 -0.223499
 -0.032449
 -0.036719
 -0.072237
  0.186881
 -0.106863
  0.369350
  0.155749
  0.022449
  0.084424
 -0.185017
  0.061191
  0.072168
 -0.092406
  0.186224
  0.093272
 -0.197836
  0.095153
 -0.071025
  0.004876
 -0.131257
 -0.047150
  0.139045
  0.021888
  0.174778
 -0.082432
 -0.305931
  0.152828
  0.117151
 -0.075225
  0.187841
  0.025017
 -0.163022
  0.029310
 -0.035291
  0.095510
  0.163378
  0.133766
 -0.122595
  0.026256
 -0.167207
 -0.040383
  0.042908
 -0.050144
  0.143313
  0.064684
 -0.062867
  0.242162
 -0.039193
  0.088063
  0.058474
  0.068701
 -0.114970
 -0.108830
  0.051275
 -0.123567
  0.003337
 -0.170406
 -0.194955
 -0.017797
 -0.398618
 -0.174593
  0.043266
 -0.089589
  0.011363
  0.031263
  0.098154
  0.092486
 -0.039662
 -0.177665
 -0.144192
  0.086810
  0.151114
  0.016017
 -0.025169
 -0.063570
 -0.110492
 -0.129748
  0.068055
  0.200109
  0.016167
  0.022496
  0.099539
  0.039641
  0.090165
  0.096494
  0.085837
  0.127416
 -0.095288
 -0.027593
 -0.365694
  0.152086
 -0.077751
 -0.030409
 -0.017053
 -0.295627
 -0.006767
 -0.066491
 -0.168075
  0.111549
  0.102191
 -0.135823
 -0.021193
 -0.034235
 -0.171140
 -0.001094
 -0.099583
  0.072897
 -0.006818
  0.115531
  0.124930
 -0.115328
 -0.026636
 -0.047402
  0.137701
 -0.088068
 -0.232061
  0.042025
  0.098063
  0.033448
 -0.040194
  0.098660
 -0.009249
 -0.171823
 -0.213284
 -0.081295
  0.044174
  0.107203
  0.083253
  0.069096
 -0.044981
 -0.063501
 -0.199538
  0.113333
  0.005335
  0.353465
  0.320095
 -0.235402
 -0.040596
 -0.192172
  0.302519
 -0.070338
 -0.032002
  0.128925
 -0.194859
  0.070554
  0.197873
 -0.003520
  0.038170
 -0.072199
  0.167031
  0.011601
  0.292801
 -0.086083
 -0.004041
 -0.131579
 -0.139364
  0.147729
 -0.114023
 -0.272318
  0.242023
  0.094046
 -0.068730
 -0.011260
 -0.055291
 -0.254696
 -0.184967
  0.395772
 -0.014898
  0.111513
 -0.041579
  0.062488
 -0.213089
 -0.022132
 -0.069905
 -0.083825
  0.104712
 -0.035948
 -0.020215
 -0.062702
 -0.072434
  0.017957
 -0.333421
  0.155399
 -0.146804
  0.079070
  0.074462
  0.073667
 -0.127921
 -0.046719
 -0.018907
 -0.040554
  0.067884
 -0.066148
 -0.087057
  0.127876
  0.064641
  0.047706
 -0.049005
 -0.035178
  0.109949
  0.055658
 -0.184198
 -0.000621
  0.230338
  0.009987
  0.195490
 -0.071058
 -0.117920
  0.001464
  0.035618
  0.036724
  0.032435
  0.047499
 -0.019252
 -0.110946
  0.177421
 -0.154643
 -0.122192
 -0.104796
 -0.147790
 -0.083832
 -0.042702
  0.082576
  0.165589
 -0.002873
  0.081943
 -0.021544
  0.105952
  0.010518
  0.070850
  0.045874
 -0.051148
 -0.146275
 -0.096813
  0.258215
 -0.131871
  0.287661
  0.104999
 -0.138894
  0.292828
  0.035019
 -0.025721
 -0.168849
 -0.027179
 -0.194722
 -0.027024
  0.112990
  0.025578
  0.064605
  0.100211
 -0.197294
 -0.027386
 -0.000039
  0.079679
 -0.025772
  0.163704
 -0.299470
  0.072136
  0.088609
  0.162437
 -0.133050
  0.070202
  0.366509
  0.040392
 -0.005218
 -0.132766
 -0.092221
 -0.140176
 -0.037102
  0.015752
  0.027636
 -0.114486
  0.260433
 -0.096218
 -0.036889
  0.228330
  0.096432
 -0.024259
 -0.146472
  0.132073
 -0.025622
  0.015690
  0.096891
  0.130939
 -0.115598
 -0.026865
 -0.040907
 -0.089659
 -0.024201
  0.176395
 -0.167301
  0.203195
 -0.073235
 -0.046595
 -0.004158
  0.170321
 -0.139741
 -0.074236
  0.035843
 -0.140119
  0.064900
 -0.136209
 -0.156472
 -0.026862
 -0.094813
  0.029091
  0.039847
  0.225369
 -0.066002
 -0.142586
  0.331561
  0.085074
 -0.051762
  0.236292
 -0.088568
  0.153609
 -0.052802
  0.121152
  0.084520
  0.037365
  0.039570
  0.028288
 -0.109800
 -0.012737
 -0.059201
 -0.099867
  0.060218
 -0.049233
  0.118429
 -0.251529
 -0.023508
  0.278739
 -0.259399
  0.049317
 -0.179346
 -0.009306
 -0.015196
 -0.116967
 -0.115852
  0.128835
 -0.201128
  0.126622
  0.106072
 -0.128487
  0.070143
 -0.066468
 -0.101783
 -0.260330
 -0.179328
 -0.160926
  0.029055
  0.142269
  0.277435
 -0.017968
  0.092306
  0.157828
 -0.036766
 -0.052054
 -0.015847
 -0.147847
 -0.152880
 -0.173253
 -0.048786
 -0.018704
 -0.055007
  0.169450
  0.130914
 -0.046073
 -0.138607
 -0.051555
 -0.138408
  0.052697
  0.123816
  0.124044
 -0.053145
 -0.154411
  0.005351
  0.159328
  0.065342
  0.016038
  0.207938
  0.206342
 -0.080788
  0.069307
  0.015829
  0.065553
  0.034585
 -0.077340
  0.038947
  0.142160
 -0.154567
  0.091980
 -0.083282
  0.174462
 -0.016137
 -0.081717
  0.222334
 -0.043114
  0.035901
  0.104713
 -0.034127
 -0.081074
  0.073347
 -0.013606
  0.291533
 -0.022074
  0.176844
  0.210795
  0.045322
  0.135591
  0.099717
 -0.213787
 -0.023171
  0.159343
  0.114984
 -0.138929
  0.226033
 -0.060789
 -0.225201
  0.042719
  0.021743
  0.094647
  0.199616
  0.044512
 -0.085865
  0.155569
 -0.197716
 -0.007811
 -0.290425
  0.121591
 -0.057510
 -0.119669
  0.124557
 -0.004855
 -0.062561
  0.183780
 -0.039042
 -0.017110
  0.060564
  0.078613
 -0.083463
  0.201369
  0.113110
 -0.026628
  0.071653
 -0.297980
 -0.099094
 -0.229064
 -0.110911
  0.088689
  0.046716
  0.077432
  0.088697
 -0.125098
  0.068072
 -0.219912
  0.024711
  0.069920
  0.024981
  0.344446
  0.004183
  0.292886
  0.002252
 -0.054941
 -0.050297
  0.066143
  0.022853
 -0.027683
 -0.106264
 -0.060547
 -0.141995
  0.107909
 -0.163885
  0.091429
 -0.093653
  0.002092
 -0.259610
 -0.039982
  0.057049
  0.087811
  0.186353
  0.047076
  0.048819
  0.224654
 -0.011103
  0.011897
  0.232998
 -0.081651
  0.162972
  0.036702
  0.032159
  0.005052
  0.062839
 -0.079744
  0.139110
  0.077980
 -0.058847
 -0.074219
 -0.050679
  0.229611
  0.016674
 -0.098489
  0.004375
 -0.213651
  0.108777
  0.010466
  0.189377
  0.235773
 -0.003570
 -0.026408
  0.101137
  0.125984
  0.059010
 -0.271202
 -0.028702
  0.087134
  0.018628
 -0.084060
 -0.182521
  0.131939
 -0.117911
  0.043260
 -0.150498
 -0.010667
 -0.128041
  0.031562
  0.000239
  0.049725
  0.073385
  0.009679
  0.185439
  0.369677
 -0.234000
 -0.075208
 -0.118144
 -0.013338
  0.087261
  0.026365
  0.034764
 -0.090048
 -0.021862
  0.137000
  0.022288
  0.018096
  0.048409
 -0.052222
 -0.132485
 -0.178721
  0.189547
 -0.110299
 -0.134717
  0.161916
  0.041149
 -0.050030
 -0.028572
  0.060927
  0.159776
  0.036783
  0.052316
  0.156917
  0.048882
  0.074813
  0.063153
  0.132867
 -0.005336
 -0.181109
 -0.065544
  0.084124
 -0.261779
  0.032087
 -0.130258
 -0.020239
 -0.069283
 -0.056692
 -0.132878
 -0.131097
  0.038152
  0.053332
 -0.016488
  0.058055
 -0.048302
  0.173767
  0.053501
  0.093640
 -0.073199
 -0.139365
  0.035153
 -0.297249
  0.150703
  0.040765
  0.015901
 -0.138892
 -0.099388
 -0.119255
  0.148471
  0.039816
  0.275630
  0.049748
 -0.030479
  0.109918
 -0.267072
  0.079969
  0.175377
  0.150876
 -0.024115
 -0.028478
 -0.042286
 -0.178030
  0.087559
 -0.209171
  0.064383
 -0.180962
  0.165773
  0.107814
  0.054010
 -0.114346
 -0.186841
  0.154561
 -0.088996
  0.285734
 -0.058465
  0.004401
  0.138555
 -0.123175
 -0.198836
  0.155507
 -0.103111
 -0.065413
 -0.269204
 -0.246286
 -0.073653
 -0.012344
 -0.008142
  0.208483
 -0.187052
 -0.132754
  0.060007
  0.034284
  0.012945
  0.099770
 -0.074252
 -0.038373
  0.010420
  0.187119
 -0.142895
  0.106753
  0.201850
  0.093467
 -0.165674
 -0.268880
  0.018659
 -0.154012
 -0.101991
 -0.016409
  0.108447
  0.085362
 -0.035063
  0.142250
  0.002285
 -0.010527
 -0.055043
 -0.148868
 -0.021845
 -0.155253
 -0.169293
 -0.090657
  0.001874
 -0.042704
 -0.126441
  0.024021
 -0.150203
 -0.035302
  0.107723
  0.013812
  0.024156
  0.009477
  0.063542
  0.047689
  0.010379
 -0.103041
  0.099736
 -0.106598
  0.162236
 -0.050849
  0.070221
  0.038410
 -0.138226
  0.135312
 -0.035338
  0.009062
  0.170054
 -0.066968
  0.202608
 -0.086422
  0.049534
 -0.143325
  0.035050
  0.103068
  0.134782
  0.181601
  0.168369
  0.065065
 -0.023569
 -0.057677
 -0.220521
  0.021612
  0.125665
  0.103754
 -0.119752
  0.106371
  0.043836
 -0.190861
 -0.022744
 -0.172421
 -0.018212
 -0.131413
 -0.235950
  0.254039
 -0.111336
  0.105106
 -0.084695
  0.072097
 -0.162532
 -0.048034
  0.189263
 -0.027098
 -0.052546
  0.240122
 -0.132271
  0.157462
 -0.319097
  0.047742
 -0.309618
 -0.075963
 -0.157831
  0.039009
  0.167252
 -0.154718
 -0.085628
  0.012174
 -0.038692
  0.066234
 -0.136481
 -0.147895
 -0.055259
 -0.010146
 -0.014801
  0.082992
 -0.241026
  0.103760
  0.009010
 -0.066382
 -0.143355
  0.403630
 -0.177782
 -0.243524
  0.199835
 -0.224046
  0.194115
 -0.001612
 -0.020349
 -0.138970
  0.195459
  0.162469
 -0.114521
 -0.156144
  0.161795
 -0.080490
 -0.071676
  0.089273
 -0.123709
  0.125328
 -0.127084
 -0.038119
  0.172005
  0.111111
 -0.091009
 -0.148844
  0.173080
 -0.068754
  0.053979
  0.034732
 -0.166227
  0.107512
  0.329283
  0.032450
 -0.176040
  0.202370
  0.098525
 -0.068926
  0.025674
  0.099179
 -0.119145
 -0.121597
 -0.066435
  0.233430
 -0.208073
  0.031817
 -0.149246
 -0.089617
  0.180488
 -0.069700
  0.005897
 -0.139197
 -0.095902
 -0.208075
 -0.243103
  0.110564
 -0.121948
 -0.009308
  0.052288
  0.035407
 -0.059803
  0.109145
  0.102255
  0.131281
 -0.020303
 -0.105122
 -0.044686
  0.195914
 -0.002623
 -0.160623
  0.090550
  0.173040
  0.235817
 -0.272941
  0.190496
  0.204969
  0.250901
  0.191987
 -0.331483
  0.078451
  0.250372
 -0.250816
 -0.457013
  0.169951
 -0.286714
  0.073110
  0.108582
  0.211774
  0.034861
  0.048321
 -0.035397
 -0.207178
 -0.095305
  0.139828
  0.302652
 -0.142630
 -0.017146
  0.116865
  0.227612
 -0.023497
 -0.291812
  0.046879
  0.190599
 -0.046933
 -0.179608
 -0.074413
 -0.224185
 -0.074707
  0.060552
 -0.014574
  0.233383
  0.111537
  0.123750
 -0.097108
  0.124698
  0.010595
  0.241919
 -0.108622
  0.014983
 -0.033251
 -0.011520
  0.016460
 -0.007302
  0.087790
  0.017100
 -0.205822
  0.050519
  0.010466
 -0.057242
 -0.227613
 -0.066070
  0.135830
 -0.039217
 -0.228738
  0.014524
 -0.015083
 -0.051389
  0.158504
 -0.075040
  0.041210
 -0.174834
 -0.020698
 -0.099627
  0.089911
 -0.012526
  0.041209
 -0.049350
  0.204108
  0.013454
 -0.117701
  0.046849
  0.183585
  0.009407
 -0.027320
 -0.095712
 -0.076646
 -0.184693
  0.174641
  0.228700
 -0.009242
  0.028018
 -0.115910
 -0.068112
  0.036785
 -0.016588
 -0.119087
  0.079751
  0.164881
  0.118007
 -0.176349
 -0.008052
 -0.187416
 -0.081215
 -0.199178
  0.113261
  0.040387
 -0.028907
 -0.186767
  0.055665
 -0.102559
 -0.370682
 -0.105143
 -0.031155
  0.189089
  0.060771
 -0.253090
  0.149955
  0.128544
  0.033398
 -0.084534
  0.060079
  0.048604
  0.341806
  0.098766
  0.343591
  0.223763
 -0.110642
  0.030732
  0.292942
 -0.036719
  0.103854
  0.009850
  0.008142
  0.270667
 -0.009053
  0.194853
  0.112315
  0.181651
  0.040495
 -0.069706
  0.347805
  0.171557
  0.267191
  0.191208
  0.008043
  0.104907
  0.348434
 -0.042028
  0.126225
  0.162143
 -0.046617
  0.069697
  0.442110
  0.177296
  0.510497
  0.250211
  0.525019
  0.368219
  0.585434
  0.486460
  0.397088
  0.284159
  0.453403
  0.110884
  0.393716
  0.542131
  0.570038
  0.382194
  0.367795
  0.459775
  0.756267
  0.355725
  0.660341
  0.585165
  1.000000
  0.535913
  0.651578
  0.777246
  0.998933
  0.957930
  0.620404
  0.791027
  0.776585
  0.911311
  0.774324
  0.876805
  0.623645
  0.940323
  0.910554
  0.868761
  0.903716
  0.878644
  0.817386
  0.510122
  0.898643
  0.696935
  0.629339
  0.698482
  0.540836
  0.633667
  0.521293
  0.566733
  0.422041
  0.299461
  0.302691
  0.265901
  0.075288
 -0.030757
 -0.000336
  0.107906
 -0.116303
 -0.043103
  0.049340
  0.090894
 -0.012278
  0.179085
 -0.050945
  0.120661
  0.273494
  0.154535
 -0.028318
  0.103986
  0.150182
 -0.173994
  0.192139
 -0.022733
 -0.010622
  0.173317
  0.104268
  0.032538
 -0.003887
 -0.081271
 -0.164258
 -0.233298
  0.267575
 -0.096094
  0.025397
 -0.087223
  0.030239
 -0.166037
 -0.082184
 -0.016926
  0.231385
  0.054608
  0.055136
 -0.110862
 -0.120494
 -0.072237
 -0.144717
  0.114734
  0.084122
  0.241444
  0.228679
 -0.288274
  0.193205
 -0.062833
 -0.177745
  0.024274
  0.039830
 -0.021640
  0.082900
 -0.239840
  0.014005
  0.022037
  0.121526
  0.248503
 -0.005509
 -0.180936
 -0.047634
  0.240906
 -0.348916
  0.126563
  0.089599
  0.033565
  0.073624
  0.164025
 -0.172455
  0.037267
 -0.106566
  0.051143
 -0.076710
 -0.137967
 -0.199520
 -0.210615
 -0.177675
  0.116499
  0.071555
 -0.049427
  0.191322
  0.102385
 -0.090864
  0.043211
 -0.200978
  0.073314
 -0.103418
  0.251298
 -0.109249
 -0.061410
  0.102442
 -0.092047
 -0.020570
 -0.075814
  0.146476
 -0.253508
  0.356469
  0.146575
 -0.246222
 -0.250554
 -0.009145
  0.360424
 -0.063357
  0.120978
  0.227010
 -0.016207
 -0.173193
  0.167579
 -0.070307
 -0.036997
  0.038016
  0.169284
  0.213415
  0.204989
 -0.009658
 -0.111058
  0.057270
 -0.106933
 -0.001776
 -0.059908
 -0.082403
  0.146686
 -0.254439
  0.179690
 -0.025314
  0.218837
 -0.117267
 -0.108751
 -0.201876
 -0.176971
  0.263975
  0.084404
  0.011657
 -0.048338
 -0.113756
 -0.111466
  0.055637
  0.533781
 -0.068582
 -0.180225
  0.006904
  0.016490
  0.089808
 -0.100949
 -0.211218
  0.111046
 -0.072057
  0.031762
  0.013790
 -0.011924
  0.057551
  0.205233
  0.086416
  0.103408
 -0.118925
  0.071722
  0.004496
  0.046808
  0.072138
 -0.076485
  0.087527
 -0.050856
 -0.011645
  0.019306
 -0.112451
 -0.024973
  0.092374
 -0.123543
  0.242450
  0.004876
  0.049951
  0.068720
 -0.029209
  0.114453
  0.055347
  0.003845
 -0.122462
 -0.013826
 -0.065844
 -0.286876
 -0.126751
 -0.169216
  0.257743
  0.002836
  0.196454
  0.095412
  0.077214
 -0.236096
  0.001508
  0.045748
  0.016645
  0.126957
  0.000908
  0.015681
 -0.240321
 -0.172311
  0.036940
  0.116882
 -0.128054
 -0.053704
  0.028236
 -0.147603
 -0.048966
 -0.055427
  0.223961
 -0.172332
  0.114068
 -0.232779
  0.066754
 -0.124574
 -0.023408
  0.092513
  0.301129
  0.258552
  0.252248
  0.117542
  0.202232
  0.033233
 -0.153183
 -0.109989
  0.245201
  0.102832
  0.052074
 -0.021362
  0.026669
 -0.217215
  0.035601
 -0.217940
 -0.141224
  0.192325
 -0.021444
 -0.073528
  0.000235
 -0.157286
 -0.023179
  0.097893
  0.038803
 -0.131851
  0.040951
 -0.145205
  0.033057
  0.165330
  0.066136
  0.076158
 -0.101735
 -0.039942
 -0.186121
  0.273959
  0.147805
 -0.146931
 -0.096599
 -0.313230
  0.062940
 -0.012834
  0.069911
  0.102826
  0.035855
  0.186991
  0.101283
  0.057448
  0.209577
  0.160206
  0.038491
 -0.046621
 -0.069303
  0.016732
  0.067302
  0.231650
 -0.139571
 -0.087411
 -0.015409
 -0.172633
  0.065792
  0.092062
 -0.169494
 -0.085536
 -0.347253
 -0.237920
 -0.063329
  0.044038
 -0.003762
 -0.064402
 -0.131418
  0.200232
 -0.279473
 -0.022571
 -0.088998
 -0.027040
  0.046048
 -0.291689
  0.016559
  0.203211
 -0.130454
  0.219311
  0.073480
  0.093932
  0.097061
  0.030945
  0.041616
  0.006220
  0.042646
  0.239142
  0.147659
 -0.118211
  0.178909
  0.096466
 -0.105678
 -0.074312
 -0.089238
 -0.063706
 -0.279566
  0.036502
 -0.127188
 -0.164683
 -0.130328
 -0.026122
  0.134281
  0.043255
  0.070901
  0.056248
 -0.037830
  0.080178
  0.244176
 -0.196767
 -0.142041
 -0.023047
  0.200330
  0.207037
 -0.009123
  0.136141
  0.141750
  0.039441
  0.073760
 -0.010058
 -0.161130
  0.297684
 -0.109197
 -0.027729
 -0.113576
  0.031526
 -0.016307
  0.027835
  0.205514
  0.147309
 -0.213283
 -0.213552
  0.014143
 -0.094306
  0.040910
 -0.071150
 -0.007836
  0.201781
 -0.198836
  0.042037
 -0.032771
 -0.011870
  0.274610
  0.046281
 -0.040338
 -0.040337
 -0.107925
 -0.033966
 -0.000154
 -0.068556
  0.061132
 -0.108034
 -0.068565
 -0.081874
  0.188217
  0.053043
  0.016856
  0.144436
 -0.083661
  0.005342
 -0.047624
 -0.137287
 -0.135426
  0.049698
  0.195115
  0.271345
  0.221104
  0.127492
  0.160483
 -0.122898
  0.037356
  0.003496
 -0.037765
 -0.095763
 -0.095979
 -0.209918
 -0.329759
 -0.246987
  0.060972
 -0.163683
 -0.345604
  0.087571
  0.181496
  0.276503
  0.173679
 -0.134069
 -0.045788
 -0.057845
 -0.047109
  0.171138
 -0.062860
 -0.201900
 -0.250108
 -0.225784
 -0.163312
  0.057896
 -0.010582
  0.055713
 -0.229509
  0.002328
 -0.088796
 -0.104032
 -0.164593
 -0.136471
  0.078450
  0.097582
 -0.295124
  0.108728
 -0.150358
 -0.133319
 -0.030625
  0.054238
  0.156015
  0.070905
  0.109758
  0.077890
  0.034577
  0.115788
 -0.134247
  0.273325
 -0.172998
 -0.103649
  0.079518
 -0.263568
 -0.133801
  0.090887
 -0.001086
 -0.084985
  0.049547
 -0.000384
  0.044014
  0.183845
 -0.182759
 -0.270677
  0.062778
 -0.183601
  0.034562
  0.071075
  0.177159
  0.066714
  0.028955
  0.209621
  0.115801
  0.135969
 -0.117786
 -0.036344
 -0.151260
 -0.018762
 -0.060755
  0.054229
  0.011718
 -0.140075
  0.137300
  0.195761
  0.033571
 -0.155501
 -0.111881
 -0.267745
 -0.100839
  0.058001
 -0.008114
 -0.155349
 -0.010757
  0.055791
  0.228706
 -0.079784
 -0.104411
 -0.100130
  0.190079
  0.137924
 -0.111096
 -0.082769
  0.028051
 -0.012061
  0.055690
  0.115814
 -0.054240
  0.201132
 -0.122973
  0.068344
 -0.045126
  0.032297
  0.021788
 -0.032652
 -0.160734
 -0.072343
  0.065468
  0.011110
  0.198059
  0.062549
  0.027596
 -0.111417
  0.042765
  0.038376
  0.186965
  0.035672
  0.096725
  0.019346
 -0.019633
  0.137290
  0.272877
 -0.065581
 -0.149012
  0.051442
 -0.263627
 -0.033312
 -0.097330
 -0.059055
  0.141478
  0.096693
  0.007974
 -0.127790
 -0.073650
 -0.122178
  0.015831
  0.020847
 -0.080690
 -0.240581
  0.012630
 -0.114669
 -0.037920
 -0.150714
  0.128711
 -0.113327
 -0.123485
  0.129049
 -0.101529
  0.094662
  0.079612
 -0.072170
 -0.072942
  0.016495
 -0.055848
 -0.035779
 -0.140301
 -0.182773
  0.029366
  0.205540
  0.172603
 -0.074128
  0.184184
  0.259114
  0.228423
  0.040760
  0.108878
 -0.011715
  0.202772
 -0.179048
 -0.076824
  0.039707
 -0.119846
 -0.139384
  0.140565
  0.093536
 -0.046141
 -0.055240
 -0.065871
  0.015717
 -0.045358
  0.153983
  0.018870
  0.111535
  0.232903
 -0.120917
 -0.116261
  0.051988
  0.054210
 -0.326963
 -0.268548
  0.301601
 -0.134563
 -0.152273
 -0.033602
  0.061306
  0.043865
 -0.011130
 -0.198996
  0.030366
  0.124059
 -0.017489
  0.265313
 -0.050516
 -0.166084
  0.064310
  0.199057
  0.209752
  0.225102
 -0.084184
 -0.032183
 -0.000187
 -0.146392
  0.093924
  0.085037
 -0.017505
  0.095190
 -0.210524
  0.047062
 -0.112751
 -0.072606
 -0.022038
 -0.016100
  0.144346
  0.094650
 -0.356001
  0.136433
 -0.147376
 -0.105346
 -0.053134
  0.025059
  0.110955
 -0.160005
 -0.045322
  0.072907
 -0.023668
 -0.243789
 -0.038380
 -0.086196
 -0.057857
  0.150954
  0.101480
  0.043684
  0.023634
 -0.134737
 -0.256970
 -0.283417
 -0.141480
 -0.188315
  0.128625
  0.241275
 -0.093351
 -0.090133
 -0.325735
 -0.015555
 -0.167130
  0.085295
 -0.124280
 -0.043596
 -0.121734
  0.000342
  0.255854
  0.159202
 -0.020223
  0.029997
  0.281980
 -0.128288
 -0.139292
 -0.157107
  0.059617
  0.133456
 -0.261549
  0.096881
 -0.054377
  0.068582
  0.207280
  0.113473
  0.003949
 -0.111143
  0.142830
  0.195032
  0.082907
  0.091343
 -0.146435
 -0.111293
  0.091939
  0.070666
 -0.234314
  0.012002
  0.065281
 -0.020013
  0.144745
  0.036163
  0.250633
  0.138259
  0.243046
 -0.143257
 -0.105111
  0.067383
  0.028960
 -0.067656
 -0.100478
 -0.126258
  0.129216
 -0.080643
  0.117114
 -0.007736
 -0.001282
  0.170678
  0.186789
  0.013222
 -0.009527
  0.060679
 -0.159136
 -0.051278
 -0.086118
 -0.108745
 -0.110025
  0.091941
 -0.032612
 -0.157626
  0.036716
 -0.083595
  0.159581
 -0.031831
 -0.122776
  0.201579
 -0.051090
  0.176731
  0.154919
 -0.009462
  0.196399
  0.322794
 -0.111949
  0.162681
 -0.113941
  0.046606
  0.140338
 -0.012531
  0.095686
  0.071264
 -0.178610
 -0.148013
  0.023771
 -0.065969
  0.034836
  0.088164
  0.256171
 -0.056982
  0.119321
  0.039458
  0.190225
 -0.137129
 -0.030794
  0.170892
 -0.001553
  0.100501
 -0.007662
  0.265662
  0.175885
 -0.209251
 -0.058598
 -0.006170
 -0.113775
 -0.205209
 -0.009873
  0.039073
 -0.021119
 -0.253803
 -0.018646
  0.060512
 -0.153386
  0.154776
  0.118257
  0.178366
  0.150790
 -0.066028
  0.095022
  0.041083
 -0.154220
 -0.066492
 -0.287967
 -0.144683
 -0.052546
  0.009201
  0.027387
  0.170094
 -0.025746
  0.181625
  0.054548
 -0.029785
 -0.249581
 -0.269063
  0.097399
 -0.026421
 -0.089954
  0.153532
 -0.117155
 -0.123821
  0.072390
 -0.032161
  0.131413
  0.025565
 -0.147189
 -0.049137
  0.033408
  0.000288
  0.304215
 -0.106567
  0.186949
 -0.038061
 -0.033805
 -0.123035
  0.061856
 -0.095163
  0.075923
  0.031419
 -0.071554
 -0.064082
  0.130380
  0.141499
  0.103379
  0.029624
 -0.145490
 -0.066893
 -0.104251
  0.023804
  0.025355
  0.103801
 -0.015668
  0.156221
  0.127040
  0.038485
  0.148056
  0.163265
 -0.003943
 -0.002541
  0.099515
  0.172053
 -0.388094
 -0.034837
  0.017940
 -0.070980
  0.174757
  0.041813
 -0.028124
  0.077824
  0.049831
  0.095649
 -0.007562
  0.233277
  0.067217
 -0.231976
 -0.151616
 -0.232051
 -0.033715
 -0.056184
 -0.082990
  0.263482
 -0.303860
  0.304457
 -0.150942
 -0.297355
  0.009931
 -0.243122
 -0.021807
  0.217245
  0.069697
  0.034380
  0.055021
  0.100092
  0.034120
 -0.039901
  0.238511
 -0.121552
  0.135568
 -0.333763
  0.156313
 -0.050729
 -0.096548
  0.017370
 -0.203231
 -0.130046
 -0.093480
 -0.039352
 -0.184058
 -0.043974
  0.136259
  0.308747
  0.068453
  0.035050
  0.004076
 -0.162691
 -0.288232
 -0.137680
  0.122575
  0.094076
  0.086034
  0.039976
  0.125128
 -0.153576
 -0.026072
  0.041069
 -0.102545
  0.161515
  0.161917
  0.010706
 -0.191196
 -0.192964
  0.041845
  0.049180
 -0.012008
 -0.048706
 -0.006103
 -0.001241
  0.167927
  0.310770
  0.045316
  0.253632
 -0.024109
 -0.029693
 -0.345667
  0.040151
 -0.107539
 -0.018440
 -0.056824
 -0.014907
  0.093741
  0.024305
  0.073249
 -0.133787
  0.141011
  0.046110
  0.055455
  0.104616
  0.119349
  0.175615
 -0.044506
  0.051469
  0.245979
  0.115913
  0.088866
  0.100982
 -0.085668
 -0.086035
 -0.068520
 -0.085628
 -0.066875
 -0.292585
  0.093554
 -0.023631
  0.093588
  0.087387
 -0.217450
 -0.195942
  0.155231
 -0.107062
  0.090139
 -0.058775
  0.098882
 -0.047343
 -0.010279
 -0.093215
  0.026243
 -0.209789
 -0.088240
 -0.049615
  0.142325
 -0.013045
  0.286306
  0.212234
 -0.197254
 -0.307835
  0.141757
 -0.086676
  0.130472
 -0.211182
 -0.067478
 -0.042019
 -0.012031
 -0.012841
 -0.078407
  0.040424
  0.103470
 -0.034440
 -0.039210
 -0.059515
 -0.222410
  0.134487
 -0.083864
  0.032153
 -0.083157
  0.028972
  0.275746
  0.103624
 -0.066524
  0.045408
 -0.108272
  0.020890
  0.045881
 -0.012809
  0.109517
  0.292214
 -0.015639
  0.037425
 -0.082406
  0.008404
  0.077789
  0.036506
  0.021834
  0.128479
 -0.296754
 -0.241601
  0.143809
 -0.024015
 -0.105902
 -0.007577
 -0.177088
 -0.068500
  0.075416
  0.077465
  0.154823
 -0.148115
  0.020806
 -0.077896
 -0.322613
 -0.270831
 -0.057994
  0.137826
  0.161111
  0.193977
  0.005698
 -0.011509
 -0.107943
 -0.281951
 -0.043719
  0.001680
  0.064191
 -0.047615
 -0.159048
 -0.199272
  0.144299
  0.247280
 -0.022442
  0.132982
 -0.060623
  0.035708
  0.184553
  0.021723
 -0.122444
 -0.115234
 -0.036040
 -0.113628
  0.236372
 -0.094471
 -0.047135
  0.113743
  0.042916
  0.039447
  0.203951
 -0.231679
  0.160386
 -0.140714
 -0.063513
  0.157119
  0.047174
 -0.062012
 -0.171724
 -0.234789
 -0.057228
 -0.004793
 -0.123659
 -0.011636
  0.044017
  0.072799
  0.128309
 -0.192394
  0.132013
 -0.024662
 -0.036003
  0.105452
 -0.076450
  0.089236
 -0.041063
  0.100995
 -0.232075
 -0.102631
 -0.076332
  0.235961
  0.068677
  0.000529
 -0.037495
 -0.033288
  0.074628
 -0.040278
  0.012874
 -0.253693
 -0.223878
 -0.017265
  0.168817
 -0.034171
  0.066255
 -0.061026
  0.085449
  0.343252
 -0.030217
  0.049881
  0.291441
 -0.141579
  0.162297
 -0.015637
 -0.096113
  0.034120
  0.000218
 -0.083419
  0.060111
 -0.001938
  0.006238
 -0.171899
 -0.038674
  0.064947
  0.022144
  0.062108
 -0.180698
  0.062558
 -0.008075
 -0.181759
 -0.087107
  0.277644
 -0.130931
 -0.217374
 -0.033286
  0.078253
 -0.148702
 -0.070380
  0.194718
 -0.055511
  0.045011
  0.353867
 -0.064531
 -0.177029
 -0.009063
  0.138550
 -0.095858
  0.000680
  0.225042
 -0.248572
  0.011369
  0.135238
  0.407322
 -0.089472
  0.101106
 -0.047121
 -0.010222
 -0.210845
  0.111566
  0.085605
 -0.253466
 -0.057457
 -0.205823
 -0.135098
 -0.084369
 -0.161666
 -0.153562
  0.366240
 -0.051031
 -0.236595
 -0.074983
  0.230069
  0.224086
  0.128520
  0.089178
 -0.116620
  0.060008
 -0.239167
 -0.184193
 -0.063136
 -0.010785
 -0.154973
 -0.053308
  0.036007
 -0.067013
  0.199101
  0.107400
 -0.077059
  0.225493
  0.038903
 -0.149787
 -0.099701
  0.161969
 -0.149590
 -0.019222
  0.233871
  0.017824
  0.014390
  0.208028
 -0.067523
 -0.159440
  0.159007
  0.065508
 -0.165172
  0.161689
 -0.097672
 -0.035182
 -0.044602
  0.090695
 -0.076006
 -0.014040
 -0.051302
 -0.011681
 -0.056412
  0.347040
 -0.083622
  0.054714
  0.100317
 -0.132394
 -0.145470
 -0.044945
  0.397212
  0.056730
  0.126942
 -0.003412
  0.033330
  0.173448
 -0.051806
  0.035585
 -0.093910
 -0.042914
 -0.176246
 -0.209663
 -0.142699
 -0.070122
  0.103095
 -0.150828
  0.019289
  0.293286
  0.056245
  0.162308
  0.068265
  0.084525
 -0.065992
 -0.103515
  0.125127
 -0.113937
 -0.051597
  0.000534
  0.050547
  0.096110
 -0.066515
 -0.164218
 -0.048573
  0.164185
 -0.007489
  0.199093
 -0.080571
  0.072316
 -0.120320
 -0.165516
 -0.158678
  0.077693
  0.125524
 -0.117576
  0.048634
  0.071450
  0.155260
 -0.029003
  0.088868
 -0.153951
 -0.135064
  0.016169
  0.142157
  0.067756
 -0.102201
 -0.056655
  0.053219
 -0.067070
  0.209892
  0.097606
 -0.065084
 -0.077111
 -0.041450
 -0.037899
 -0.052348
  0.236015
 -0.126549
  0.098342
 -0.043607
  0.140635
 -0.072973
 -0.288469
  0.148379
 -0.096991
 -0.110574
 -0.354946
 -0.098302
  0.113382
  0.179685
  0.101605
  0.137882
  0.064750
 -0.076224
  0.034448
  0.136748
 -0.051123
 -0.081369
  0.053614
 -0.022491
  0.018868
  0.097778
  0.037183
  0.009586
 -0.039283
  0.039585
 -0.195797
  0.076705
  0.065843
 -0.032372
 -0.201434
 -0.130809
  0.055821
 -0.091228
 -0.368655
  0.069893
  0.063311
  0.108475
 -0.017739
  0.100833
  0.046591
  0.185862
 -0.199560
  0.202668
  0.087652
 -0.096761
 -0.104703
  0.073900
  0.015329
 -0.010020
 -0.009138
  0.086889
 -0.028788
 -0.057027
  0.070675
  0.160038
  0.061199
  0.014855
  0.216813
  0.119667
  0.108817
  0.075392
 -0.229014
  0.072964
 -0.158067
 -0.046642
  0.113759
 -0.087816
  0.034997
  0.109244
 -0.036693
 -0.209738
 -0.060477
 -0.142597
  0.069680
 -0.122997
  0.004737
  0.281800
  0.089513
 -0.019598
  0.128263
 -0.222127
 -0.141043
 -0.087508
  0.021165
  0.127155
  0.235662
 -0.060986
  0.085793
 -0.049103
  0.080763
 -0.096322
 -0.104796
  0.006497
  0.274463
 -0.111580
  0.092481
 -0.057838
  0.252396
  0.012552
  0.068868
 -0.012774
 -0.160770
  0.065303
 -0.029406
 -0.027531
  0.160666
  0.178264
  0.098388
 -0.000985
  0.020283
  0.114773
 -0.009425
 -0.042018
 -0.130371
  0.090110
  0.010638
 -0.244781
  0.071881
 -0.085561
 -0.097844
  0.150262
  0.060438
  0.010131
  0.356245
  0.103041
 -0.077490
 -0.060044
 -0.262097
 -0.119166
  0.176438
  0.026055
 -0.103224
  0.030580
  0.224421
  0.048072
 -0.107404
  0.008903
 -0.020467
  0.070134
  0.025600
  0.161905
 -0.112520
  0.196584
 -0.136414
 -0.064866
 -0.148953
  0.373302
  0.101974
 -0.122655
 -0.187102
  0.045158
  0.059461
 -0.083495
  0.144445
 -0.005204
 -0.013523
 -0.195785
 -0.115018
  0.113277
 -0.031744
  0.042588
 -0.023358
 -0.183223
  0.100429
  0.186859
 -0.135682
  0.178683
 -0.067794
 -0.058801
  0.024679
  0.195716
  0.209229
 -0.234242
 -0.188997
 -0.003155
 -0.067435
  0.166152
 -0.139785
  0.036944
 -0.015804
 -0.007374
  0.115032
  0.243574
  0.105475
 -0.236855
 -0.072250
 -0.029840
  0.031492
  0.020282
  0.077089
 -0.021586
 -0.062335
 -0.035496
  0.097179
  0.248601
 -0.158934
 -0.029625
  0.095071
  0.256455
  0.165276
  0.003934
  0.063090
 -0.122880
  0.158138
  0.118366
  0.067153
 -0.093891
  0.242676
 -0.137801
 -0.087683
  0.167135
 -0.099846
  0.092139
 -0.043449
  0.105294
 -0.098340
  0.182928
  0.258242
 -0.108156
 -0.078594
  0.136755
 -0.129423
 -0.029775
  0.166836
 -0.228095
 -0.301452
 -0.124303
  0.102200
 -0.279625
 -0.058208
 -0.095991
  0.030187
  0.035055
 -0.175678
 -0.084490
 -0.116735
 -0.069506
 -0.102721
  0.013491
  0.053099
 -0.142877
 -0.059265
 -0.136939
  0.237794
  0.050014
  0.187727
 -0.046046
 -0.201918
 -0.219108
 -0.116475
 -0.025031
 -0.112730
  0.157771
 -0.002613
  0.143675
 -0.145989
 -0.150983
  0.019777
 -0.051680
 -0.079108
  0.179059
 -0.042747
 -0.102193
 -0.029232
  0.007841
 -0.153797
  0.222910
  0.078779
 -0.076552
 -0.002345
 -0.202662
  0.165682
 -0.113830
 -0.055617
 -0.111603
  0.173241
 -0.179083
 -0.037686
  0.132155
  0.129605
  0.252063
 -0.073198
 -0.151063
 -0.155868
 -0.141598
  0.131447
  0.008053
 -0.247624
 -0.006203
 -0.017096
 -0.150557
 -0.067701
 -0.107425
  0.075933
 -0.293882
  0.221913
  0.059393
 -0.089257
  0.125122
  0.098311
  0.061176
  0.117972
  0.164215
  0.020956
 -0.048122
 -0.013971
 -0.149415
 -0.074253
 -0.024654
  0.048897
 -0.018255
  0.043372
  0.099105
 -0.059159
 -0.102832
  0.115337
 -0.075466
  0.089891
  0.043535
 -0.081672
 -0.032024
  0.067574
  0.166348
 -0.169755
 -0.028083
  0.087398
 -0.037269
 -0.094183
  0.143692
 -0.092198
  0.035729
  0.011718
  0.144012
  0.056554
  0.046867
 -0.031376
 -0.094004
  0.137955
  0.062511
  0.222719
  0.080134
 -0.004807
  0.138468
 -0.010008
 -0.035625
 -0.123203
 -0.046061
  0.087436
 -0.035069
  0.160418
 -0.084977
  0.105850
  0.013779
  0.027964
  0.002288
 -0.155751
 -0.045583
  0.168869
 -0.038875
 -0.026133
  0.085646
  0.011469
 -0.124203
  0.083837
 -0.183364
 -0.111869
  0.079176
 -0.148908
  0.030392
  0.164358
 -0.146745
  0.010402
  0.051870
 -0.008706
 -0.232449
  0.089615
 -0.019957
 -0.117915
  0.208940
  0.255204
 -0.103112
 -0.054214
 -0.165802
  0.094281
  0.059554
 -0.126273
  0.359432
 -0.258120
  0.327214
 -0.080886
  0.024938
 -0.104134
 -0.105215
  0.030578
  0.069706
 -0.014695
  0.071565
 -0.045961
 -0.173143
 -0.069714
  0.272771
  0.204476
 -0.155529
 -0.019685
  0.022075
  0.047067
 -0.320220
  0.141203
 -0.233897
  0.013844
  0.201719
 -0.239227
 -0.028861
 -0.269822
 -0.149303
  0.000190
  0.029246
 -0.020670
  0.007987
 -0.087255
  0.083934
 -0.039634
  0.097213
  0.129760
 -0.020067
 -0.165056
 -0.084193
 -0.080275
  0.159948
  0.201594
  0.033882
 -0.019884
 -0.020077
  0.114693
  0.139902
  0.115382
 -0.247920
  0.064423
  0.054229
  0.016002
 -0.217419
 -0.090841
 -0.248029
  0.018449
  0.037176
  0.037415
 -0.041310
 -0.206312
 -0.076823
  0.053115
 -0.285864
 -0.007885
 -0.104762
  0.015059
 -0.068579
 -0.103963
  0.252197
 -0.011432
  0.116158
  0.169435
 -0.195471
 -0.250397
 -0.066509
  0.005095
  0.135267
  0.026158
 -0.086842
 -0.069232
  0.263377
 -0.032794
  0.332065
 -0.121219
  0.023178
  0.137553
 -0.211303
  0.091982
  0.153245
 -0.041060
 -0.110055
  0.040414
 -0.236241
 -0.113707
  0.178449
  0.084248
 -0.129333
  0.046979
  0.015349
  0.078453
  0.359307
  0.184748
 -0.246376
 -0.157246
 -0.121515
 -0.015167
  0.056785
  0.063864
 -0.188720
 -0.153498
  0.036783
  0.135851
  0.260828
 -0.125671
 -0.027294
  0.086857
  0.093275
  0.033721
  0.084209
  0.051428
 -0.033454
  0.106673
  0.101569
 -0.120870
  0.063353
 -0.102590
 -0.251462
 -0.192584
 -0.040930
  0.012288
 -0.014418
 -0.220265
  0.284504
  0.124163
 -0.090564
 -0.332702
  0.112210
  0.139917
 -0.098995
 -0.088403
 -0.220749
 -0.084760
  0.052244
  0.239541
  0.045188
 -0.077008
 -0.131178
 -0.096459
  0.122010
 -0.103037
 -0.194696
  0.017947
  0.074938
 -0.087651
 -0.062567
 -0.039777
 -0.114374
  0.098273
  0.129440
 -0.094587
  0.003877
  0.061062
  0.190515
  0.170734
  0.000173
 -0.040578
  0.048406
  0.170229
 -0.083372
  0.225632
  0.000171
  0.439357
  0.129431
 -0.105833
  0.003469
 -0.008269
 -0.001538
 -0.167524
  0.127922
 -0.016138
  0.242876
  0.035647
  0.045972
  0.194580
  0.161153
 -0.117286
 -0.200301
  0.091712
  0.127884
 -0.070270
  0.281764
  0.084518
 -0.227508
 -0.084679
  0.022114
 -0.054141
 -0.195288
  0.184295
 -0.150642
 -0.197806
  0.004988
 -0.023954
  0.056202
  0.008011
  0.050976
  0.019443
 -0.123973
  0.187084
 -0.143970
  0.139680
  0.220821
 -0.222117
 -0.232620
 -0.152928
 -0.058802
 -0.221682
  0.041683
 -0.194041
  0.021790
 -0.020665
  0.239466
  0.038133
 -0.251860
 -0.198884
  0.024944
  0.065636
 -0.112646
 -0.057859
 -0.095690
  0.082097
 -0.142063
  0.133975
  0.254971
 -0.122695
  0.099153
 -0.137897
  0.136822
  0.078733
 -0.032479
  0.004038
 -0.035323
 -0.235235
 -0.160080
  0.291487
 -0.034872
  0.124974
  0.002290
  0.048100
  0.003826
  0.004387
  0.117305
 -0.147052
 -0.151570
 -0.127063
  0.141526
  0.101505
 -0.010079
  0.166656
 -0.031331
  0.141069
  0.052982
  0.191877
  0.047576
  0.319233
 -0.002403
 -0.046822
 -0.319165
 -0.213765
  0.036580
 -0.060693
  0.282982
 -0.034945
  0.264431
 -0.070320
 -0.210436
 -0.009911
 -0.107911
  0.221706
  0.269563
 -0.029303
  0.168450
 -0.008873
  0.134815
 -0.160637
 -0.053442
  0.213850
 -0.098666
  0.130021
  0.118189
  0.161738
 -0.034720
  0.080880
 -0.063392
  0.149826
  0.085263
  0.073992
 -0.096563
  0.004553
 -0.013880
  0.063257
  0.008871
  0.025256
 -0.045090
 -0.000972
  0.040332
  0.005358
 -0.159312
  0.073674
  0.051650
  0.000656
  0.068338
 -0.076271
 -0.061899
  0.090227
 -0.094760
 -0.029257
  0.258265
 -0.175008
  0.023906
 -0.087932
  0.043973
  0.060914
  0.166540
  0.020177
 -0.234980
  0.033006
  0.319191
 -0.150618
 -0.034536
  0.053519
 -0.119753
  0.074464
 -0.093023
  0.173385
 -0.230155
  0.031754
  0.140507
  0.166087
 -0.142156
  0.174465
  0.077711
  0.087411
 -0.057124
  0.010748
 -0.124886
 -0.096841
  0.218149
  0.229324
 -0.053159
  0.043535
 -0.186907
  0.242203
  0.145765
  0.007824
  0.113414
 -0.027609
  0.162337
 -0.221373
 -0.063163
  0.056489
 -0.052558
  0.038261
  0.000899
 -0.014009
 -0.278461
  0.161820
  0.059349
 -0.007254
 -0.099774
 -0.116567
  0.033096
 -0.301569
 -0.132213
 -0.041359
 -0.196413
 -0.015979
  0.012003
  0.068175
  0.120591
 -0.110335
 -0.018811
  0.276965
  0.183809
 -0.055873
 -0.078772
 -0.073252
  0.128668
  0.150499
 -0.184925
  0.003359
  0.029187
  0.005784
  0.115697
 -0.037239
  0.136300
 -0.042363
 -0.035578
 -0.145558
 -0.030458
 -0.199645
  0.046522
 -0.186933
  0.140824
 -0.243924
 -0.113054
 -0.102146
 -0.098971
 -0.172648
  0.288057
 -0.218731
 -0.052666
  0.166650
  0.080400
 -0.107869
  0.122310
 -0.276120
 -0.046826
  0.015471
 -0.228973
 -0.380330
 -0.164480
  0.097170
 -0.171050
  0.129990
 -0.159425
  0.205681
 -0.071435
 -0.209574
 -0.096702
 -0.048109
  0.191677
  0.038190
  0.365234
 -0.180549
 -0.185890
 -0.164159
 -0.001288
 -0.071888
  0.006399
  0.107376
 -0.046035
  0.190312
 -0.295090
 -0.032268
 -0.011263
  0.097412
  0.025268
  0.077560
  0.013557
 -0.038413
  0.170892
  0.145705
 -0.055671
 -0.167079
  0.107029
 -0.112363
  0.240179
  0.071257
 -0.021417
 -0.097010
 -0.283171
  0.005448
 -0.138358
  0.051129
 -0.149794
 -0.218644
  0.211565
 -0.059434
 -0.033517
  0.236473
 -0.108627
  0.237990
  0.001482
  0.193561
 -0.271319
 -0.195133
 -0.075858
 -0.022487
  0.028269
  0.011332
 -0.115470
 -0.074901
 -0.027828
  0.051547
 -0.041877
  0.210249
  0.086883
  0.084594
  0.081649
 -0.099232
  0.057224
 -0.152552
 -0.251136
 -0.174167
 -0.146429
 -0.099921
 -0.037036
  0.158799
 -0.045016
 -0.054489
 -0.200909
  0.195406
  0.113309
  0.034090
  0.095911
 -0.059512
 -0.176753
  0.033220
  0.045237
  0.042359
 -0.144778
 -0.121871
  0.140247
  0.100523
 -0.000022
 -0.013894
  0.123184
 -0.141334
 -0.076493
 -0.061384
 -0.082716
 -0.061735
  0.273996
 -0.019568
  0.102695
 -0.091496
  0.028405
  0.024324
 -0.034791
  0.120669
  0.138160
  0.217369
  0.100403
  0.079955
  0.019692
  0.079292
  0.067463
 -0.091460
  0.110246
 -0.118724
 -0.177709
 -0.024859
 -0.235441
 -0.143141
 -0.250317
  0.028628
 -0.169115
  0.092604
  0.091203
  0.027407
  0.052281
  0.103227
  0.034400
 -0.157569
 -0.401114
 -0.276207
 -0.178078
  0.175956
 -0.001819
  0.060153
 -0.040603
 -0.097172
  0.015169
 -0.160420
 -0.079530
 -0.075057
****
