PROJECT: W75X_2013Aug27
NCH:     4096
BW:   2.50000e+07
VELOCITY:       0.00000
PV:      0.480000
FREQ:    2.2235080e+09
DATE:     2013       8      27
TIME:       21       4      49
POSITION:       309.704      42.6272
INTEGRATION TIMES:       30.0000      30.0000
MAX VALUE:      0.026424840
  0.014790
 -0.119856
 -0.097381
  0.019720
 -0.182163
 -0.042853
  0.042016
  0.063163
  0.136951
  0.065086
 -0.009795
  0.073941
  0.119436
 -0.139179
 -0.146000
  0.103914
 -0.107878
 -0.209018
  0.074620
 -0.072337
 -0.034689
 -0.200687
 -0.030722
  0.077567
  0.110001
 -0.128642
 -0.087184
  0.141523
 -0.162103
 -0.108003
  0.031283
  0.149028
 -0.156220
  0.113869
 -0.143068
 -0.083068
  0.242958
  0.005126
  0.009126
 -0.055602
  0.036336
 -0.053795
 -0.044544
 -0.036343
  0.056520
  0.000255
  0.082484
 -0.105747
 -0.110420
  0.031692
 -0.116309
 -0.089822
  0.047500
  0.127673
 -0.078566
 -0.034767
 -0.141058
  0.069316
  0.077228
  0.064947
 -0.004557
 -0.035962
  0.096326
 -0.019758
 -0.007271
  0.050949
  0.023539
  0.210343
  0.137808
  0.007715
  0.003401
  0.066852
 -0.022647
  0.061595
  0.032884
 -0.051930
  0.053205
  0.188827
 -0.050354
 -0.075654
 -0.194098
 -0.026959
 -0.064262
 -0.083313
 -0.114615
 -0.241638
 -0.049679
 -0.114387
 -0.055763
 -0.002352
  0.089193
 -0.059703
 -0.062995
 -0.044337
 -0.118561
  0.116185
 -0.124817
  0.059439
  0.170675
  0.185249
  0.124744
 -0.148592
  0.114034
  0.104913
  0.042649
 -0.053171
  0.058088
  0.019749
  0.006324
 -0.032202
  0.048741
 -0.147001
 -0.034733
 -0.007677
  0.003713
  0.092998
  0.156759
  0.003070
  0.011144
 -0.008400
 -0.047710
 -0.002468
  0.039962
 -0.074514
 -0.095873
 -0.061990
  0.036532
  0.017234
  0.072366
  0.035979
 -0.095423
  0.050660
  0.066276
 -0.072605
  0.080976
 -0.153503
  0.113598
  0.131766
  0.108185
 -0.276388
  0.094900
 -0.006390
 -0.203594
  0.039042
  0.089490
  0.135805
 -0.029274
  0.032273
  0.013709
 -0.007951
 -0.102150
 -0.053829
 -0.102387
 -0.017587
 -0.031660
 -0.027332
 -0.005681
 -0.009923
 -0.020627
 -0.012107
  0.042923
 -0.054576
  0.089470
 -0.043250
  0.020505
  0.058743
 -0.181558
 -0.073666
  0.024652
 -0.065966
  0.086421
  0.135025
  0.020323
 -0.003466
  0.060582
  0.138433
  0.007258
 -0.188697
  0.055427
 -0.023149
  0.098631
 -0.102492
 -0.085549
  0.086788
  0.011648
 -0.066820
  0.026473
  0.149121
 -0.135648
 -0.008561
 -0.057593
  0.001114
  0.009268
  0.116982
 -0.136413
  0.052698
 -0.282865
 -0.093555
  0.029587
 -0.118665
 -0.082789
  0.061607
 -0.026238
 -0.074190
 -0.085255
 -0.020701
  0.009792
 -0.070348
 -0.255356
 -0.001809
  0.082479
 -0.035457
 -0.040938
  0.247189
  0.122973
 -0.037266
 -0.014956
  0.233623
  0.176904
 -0.137102
 -0.032965
  0.092953
  0.016387
 -0.020764
 -0.045217
 -0.303333
 -0.084055
 -0.068164
 -0.023165
 -0.003901
  0.021661
  0.056853
  0.044834
  0.007031
 -0.131522
  0.366390
  0.035507
 -0.009990
 -0.143083
  0.105503
  0.017022
 -0.158468
  0.112950
 -0.006083
  0.105442
 -0.005363
  0.026267
 -0.107483
 -0.055841
  0.116990
  0.091684
  0.139577
  0.068665
  0.073486
  0.021393
 -0.117619
 -0.031282
 -0.149537
 -0.000541
  0.165103
  0.008910
  0.107269
 -0.024872
  0.103374
 -0.070815
  0.016811
 -0.005715
  0.040596
 -0.112144
  0.053666
 -0.027826
 -0.001271
  0.154154
 -0.021800
 -0.006838
 -0.137438
 -0.038819
 -0.029892
 -0.116910
 -0.136616
  0.091497
  0.084119
  0.106757
 -0.070529
 -0.075261
  0.039497
 -0.151842
 -0.058296
  0.020196
  0.132366
 -0.101286
  0.110850
  0.005388
  0.027887
 -0.019247
  0.079658
  0.024540
  0.108763
 -0.060609
 -0.038851
  0.243764
 -0.238345
  0.032898
  0.043608
  0.028743
  0.065178
  0.077351
 -0.085342
  0.027903
  0.031134
  0.072205
  0.116988
  0.120829
  0.062466
  0.006773
 -0.062981
 -0.132273
  0.068238
 -0.019084
  0.135113
  0.008184
 -0.049983
  0.036725
 -0.051684
  0.127861
 -0.022100
  0.053017
  0.129248
  0.047599
  0.129250
 -0.232267
  0.157778
 -0.064625
  0.002108
  0.007119
 -0.039647
 -0.093262
 -0.184686
 -0.093132
 -0.061056
  0.056730
  0.052284
  0.050232
 -0.169413
  0.024191
 -0.303875
  0.124419
 -0.196032
 -0.121649
 -0.022823
 -0.004635
 -0.122658
 -0.014070
  0.009519
  0.081105
  0.041846
  0.110098
 -0.029049
  0.039153
 -0.034867
 -0.049465
  0.002883
 -0.083146
  0.083915
  0.131035
  0.037883
  0.028523
 -0.137006
  0.055948
 -0.052835
  0.106675
 -0.081787
  0.011001
  0.065582
 -0.026187
  0.103739
  0.048380
  0.001529
  0.188915
  0.056045
  0.169501
  0.029279
 -0.038444
 -0.041271
 -0.065471
 -0.124287
 -0.103013
  0.015699
  0.121197
 -0.110178
  0.189783
 -0.039347
 -0.062112
  0.130403
  0.060515
 -0.052930
  0.080581
  0.128098
 -0.078647
 -0.050652
  0.135234
 -0.050877
 -0.104775
 -0.021198
 -0.033497
 -0.050240
  0.023052
  0.111476
 -0.010761
  0.069994
 -0.018210
 -0.037288
  0.076867
 -0.234243
 -0.018650
  0.009601
 -0.157956
  0.003862
  0.035617
 -0.093361
 -0.009491
 -0.008892
  0.097899
 -0.018340
 -0.004916
  0.099553
  0.153356
  0.034184
  0.146268
  0.061457
  0.086929
  0.029307
  0.123309
 -0.079484
 -0.093800
  0.027623
 -0.070546
  0.112769
 -0.014239
  0.118756
 -0.177655
 -0.040049
 -0.111119
 -0.053432
  0.072611
  0.004560
  0.035597
 -0.102476
 -0.140401
  0.163804
 -0.002995
  0.047687
 -0.091516
 -0.066860
  0.002072
  0.106131
 -0.007829
  0.144817
 -0.070464
 -0.010500
 -0.092665
  0.137940
 -0.046232
 -0.032232
 -0.038021
  0.155724
  0.058791
 -0.249705
  0.027239
 -0.170954
  0.132159
 -0.100676
  0.030495
 -0.110558
 -0.008438
  0.074973
 -0.026076
 -0.039935
 -0.090918
  0.114243
  0.053248
  0.161010
  0.191630
 -0.004709
  0.001583
 -0.055221
  0.031057
 -0.004314
 -0.024646
 -0.153116
  0.039437
  0.046311
 -0.068646
  0.098819
 -0.087033
  0.041430
  0.045259
 -0.018621
  0.132407
 -0.009602
  0.066131
 -0.020145
 -0.016982
 -0.058587
  0.132577
 -0.178841
 -0.050259
 -0.152379
  0.065921
 -0.147761
 -0.033806
 -0.011169
  0.134162
 -0.045358
 -0.159331
 -0.121238
 -0.021085
  0.077444
  0.086987
 -0.069649
 -0.043972
 -0.074243
  0.107416
 -0.080374
  0.131863
  0.061524
 -0.007230
 -0.047223
 -0.142419
  0.007866
 -0.115391
 -0.106384
 -0.284007
 -0.073937
 -0.063397
  0.083063
  0.167383
  0.114316
 -0.010785
  0.011820
  0.003291
  0.181155
  0.098139
  0.117752
 -0.024047
  0.083778
  0.156664
 -0.077055
  0.037927
  0.007038
 -0.102264
 -0.099247
 -0.233652
 -0.112534
  0.005248
  0.119442
 -0.055712
 -0.113199
 -0.220328
  0.147990
 -0.143495
  0.002453
  0.001184
 -0.263616
 -0.126006
  0.259165
 -0.059244
 -0.065747
 -0.066749
  0.073722
 -0.132363
  0.064871
 -0.153816
 -0.004163
 -0.097726
  0.047076
 -0.090576
 -0.058411
  0.104330
  0.066986
  0.106199
 -0.026133
  0.009104
  0.068095
  0.031572
  0.035881
  0.119454
  0.149831
  0.023228
  0.017700
 -0.061622
  0.168543
 -0.147082
  0.004053
  0.086051
 -0.006771
 -0.032114
  0.110910
 -0.033428
 -0.027845
  0.130285
 -0.027756
 -0.065294
  0.082138
  0.099438
 -0.067102
  0.134453
  0.164605
  0.003409
  0.028750
  0.002234
  0.004796
 -0.025792
  0.169019
  0.013448
  0.012839
 -0.104462
 -0.105843
 -0.094515
 -0.105145
  0.092455
 -0.106009
 -0.021553
  0.047466
 -0.062789
  0.022736
  0.126314
 -0.047867
 -0.099741
  0.057216
  0.087296
  0.136113
 -0.130949
  0.025956
 -0.066054
  0.006045
 -0.012684
 -0.061787
  0.098404
 -0.040318
 -0.194628
 -0.057121
 -0.141207
  0.083860
  0.015743
  0.019778
 -0.115768
  0.188052
 -0.163690
  0.090738
 -0.026787
  0.018832
  0.048873
  0.099828
 -0.179681
  0.019439
  0.003206
  0.048791
 -0.032334
  0.085053
  0.159357
 -0.002589
 -0.025377
  0.013260
 -0.129235
  0.056851
 -0.040537
 -0.002763
 -0.010119
  0.040576
  0.062141
  0.109056
  0.024249
  0.109009
  0.063825
  0.001588
 -0.092848
 -0.011243
  0.034767
 -0.087420
 -0.016111
  0.005636
  0.059038
  0.129698
  0.032010
 -0.123309
  0.026160
  0.249688
 -0.018729
 -0.023713
  0.066855
 -0.024607
  0.163352
  0.069932
  0.149923
  0.005062
 -0.018954
  0.036718
 -0.181216
 -0.081131
 -0.036454
  0.046167
 -0.185026
 -0.144153
 -0.105971
 -0.058384
 -0.210040
 -0.163645
 -0.051314
  0.049426
  0.019620
  0.062896
  0.041289
  0.006587
  0.019094
 -0.005520
 -0.002938
  0.074807
  0.101955
 -0.055512
  0.046328
 -0.127503
 -0.177061
  0.041970
  0.061794
 -0.052441
 -0.092465
  0.110935
  0.121101
 -0.163269
  0.088179
  0.060593
  0.013259
 -0.135285
 -0.014803
 -0.240292
  0.008206
  0.017243
 -0.089779
 -0.088294
 -0.016874
  0.039190
 -0.104774
 -0.017800
 -0.137089
  0.050540
 -0.178517
 -0.024030
 -0.112008
  0.065115
 -0.087999
  0.048290
  0.213382
  0.055712
 -0.024572
  0.211459
  0.120409
  0.165305
 -0.041403
  0.095016
  0.063759
 -0.050283
  0.137424
 -0.091424
 -0.035255
  0.066118
  0.109759
 -0.016128
 -0.025680
  0.014911
 -0.076959
 -0.131297
  0.022554
 -0.164953
 -0.003451
 -0.099513
 -0.080768
  0.077034
  0.091213
 -0.027457
 -0.058669
 -0.094033
  0.003727
  0.028221
 -0.065499
  0.101738
  0.003830
  0.007063
 -0.088680
  0.078435
  0.017882
  0.011186
  0.101864
  0.151639
  0.062517
 -0.119809
 -0.055946
 -0.089722
 -0.006427
 -0.236107
  0.152168
  0.174163
 -0.019591
 -0.193348
 -0.048314
  0.005695
  0.114370
  0.078210
 -0.115205
  0.030711
  0.099629
 -0.035706
  0.113686
  0.033610
 -0.049038
  0.130584
 -0.002226
 -0.016768
 -0.078065
 -0.196729
  0.140977
 -0.005454
  0.112139
  0.075163
 -0.109414
 -0.029567
  0.024147
 -0.085474
 -0.109370
  0.158204
 -0.077536
  0.133053
 -0.046888
 -0.052948
  0.007331
  0.026569
 -0.166673
  0.156246
  0.074313
 -0.042433
 -0.053508
 -0.052177
  0.046704
  0.018184
 -0.030608
 -0.088374
  0.016361
 -0.109776
  0.014716
  0.209203
  0.005968
  0.061998
  0.083040
  0.029776
  0.087019
  0.056887
  0.110304
 -0.022244
  0.078157
  0.077406
  0.019433
 -0.044172
 -0.093490
  0.155550
  0.058370
 -0.030181
  0.095178
 -0.092705
 -0.152176
  0.049153
 -0.029748
 -0.071173
  0.046151
 -0.095544
 -0.072294
 -0.032856
 -0.078263
  0.158470
 -0.153337
  0.079009
 -0.022359
 -0.011725
  0.009135
  0.086152
 -0.035596
 -0.151292
 -0.003391
 -0.097002
  0.089849
 -0.123074
  0.050880
 -0.037022
 -0.060769
  0.189958
  0.098596
 -0.010768
 -0.148287
 -0.043530
 -0.034973
 -0.076024
 -0.123448
 -0.107099
  0.208116
  0.103832
  0.010618
 -0.120924
 -0.060046
  0.080643
  0.010558
  0.140115
  0.196281
  0.102721
  0.004473
  0.106199
 -0.232715
  0.042583
 -0.100114
 -0.080377
 -0.041735
 -0.194878
 -0.037668
 -0.119656
 -0.099742
  0.071968
  0.002579
 -0.062806
 -0.149908
 -0.223114
 -0.001612
  0.095687
 -0.078101
  0.079117
 -0.203384
  0.026471
  0.004506
 -0.129790
  0.132103
  0.000367
 -0.038027
  0.070802
 -0.063099
  0.028535
  0.002391
 -0.019486
  0.131294
 -0.053734
 -0.071070
  0.025714
  0.051145
 -0.075786
  0.087640
 -0.185372
  0.099336
 -0.346477
  0.085133
  0.138478
  0.074889
 -0.024456
  0.204068
  0.083339
 -0.231349
  0.043230
  0.049957
 -0.045994
  0.062427
 -0.132070
 -0.085330
 -0.087772
 -0.028565
  0.055079
 -0.052990
 -0.103809
 -0.061706
 -0.088464
 -0.000873
 -0.010178
  0.048786
 -0.032615
 -0.088039
  0.018396
  0.096889
  0.034578
 -0.009147
  0.034258
 -0.091208
  0.148622
  0.044767
 -0.044777
  0.049168
 -0.060950
 -0.029678
 -0.000698
  0.162320
  0.035824
  0.018086
  0.048783
 -0.044063
 -0.209648
 -0.190011
  0.027527
  0.103011
  0.198520
  0.077834
  0.051708
 -0.107861
 -0.002027
  0.084838
  0.044090
  0.140669
 -0.049822
 -0.217899
  0.078487
  0.009115
 -0.051179
  0.020335
 -0.175933
 -0.006708
  0.044759
  0.092377
  0.017562
  0.138475
  0.097970
  0.050823
 -0.018182
 -0.115463
 -0.090910
  0.029295
  0.088376
 -0.062009
 -0.007832
  0.129877
 -0.008799
 -0.074194
 -0.088248
  0.152456
 -0.206438
 -0.132591
  0.015107
 -0.010844
  0.144019
 -0.124256
 -0.040553
  0.132293
  0.040750
  0.083144
  0.036784
  0.128376
 -0.008430
 -0.022012
 -0.200691
 -0.120967
  0.161538
 -0.161018
  0.320476
  0.136580
  0.146573
 -0.149994
  0.049781
 -0.027400
 -0.118075
 -0.010432
 -0.106766
 -0.034771
 -0.188477
  0.085807
  0.157908
  0.001632
  0.243779
  0.099290
 -0.136602
  0.103243
 -0.054244
 -0.123236
  0.190968
  0.068325
 -0.005707
 -0.025440
  0.106058
  0.085224
  0.215273
  0.017396
  0.004123
 -0.008099
 -0.256168
  0.033027
  0.133799
  0.022842
  0.060048
 -0.001764
  0.059488
  0.002485
 -0.177531
  0.027375
  0.187886
 -0.024463
 -0.109559
 -0.113724
 -0.083259
 -0.133979
  0.151109
 -0.132171
  0.087363
  0.025747
 -0.028383
  0.070608
 -0.019029
  0.310703
  0.026454
 -0.015046
 -0.046548
  0.066080
  0.065797
  0.095129
 -0.012517
  0.085080
  0.060765
 -0.084005
  0.001081
 -0.120274
  0.051454
  0.015895
  0.087348
 -0.020605
 -0.066898
  0.189901
 -0.128836
 -0.114230
  0.043708
  0.014540
  0.160707
 -0.094598
 -0.174162
  0.093269
 -0.019236
 -0.022740
  0.066354
 -0.016766
 -0.005552
  0.072606
 -0.064649
  0.172322
  0.020046
 -0.138599
 -0.003344
  0.022708
 -0.113960
  0.163597
 -0.049452
  0.067202
 -0.110239
  0.018575
  0.135027
  0.036344
  0.016215
 -0.128792
 -0.101417
  0.132989
  0.080265
  0.071108
  0.012311
  0.073394
  0.048198
  0.128278
  0.054255
 -0.160402
  0.090334
 -0.058903
  0.144532
  0.065619
 -0.008765
  0.000852
 -0.018622
  0.064253
 -0.201856
  0.022980
 -0.091802
 -0.036819
 -0.226811
  0.086587
  0.127363
  0.010755
 -0.074924
  0.013693
  0.182822
 -0.141755
  0.110102
 -0.019060
  0.072210
  0.144915
 -0.026338
  0.235056
 -0.112560
  0.114602
  0.162642
 -0.114992
  0.132881
  0.016071
  0.018677
  0.255987
 -0.022269
 -0.040794
 -0.014566
  0.143226
 -0.025884
  0.218482
 -0.131170
  0.221481
 -0.051107
 -0.076101
 -0.089212
 -0.048692
 -0.012014
  0.032667
 -0.100845
 -0.060532
  0.071503
 -0.021226
  0.050477
 -0.225401
 -0.052726
  0.235526
 -0.128738
  0.057768
 -0.037729
  0.087257
 -0.111466
 -0.224875
 -0.084073
  0.119007
  0.076409
 -0.013508
 -0.090846
  0.075898
  0.045377
  0.061452
  0.064402
 -0.024774
 -0.010492
  0.179352
  0.110151
  0.019448
  0.136589
 -0.172921
 -0.093796
 -0.029756
 -0.055427
 -0.055066
  0.053002
  0.191424
  0.148816
  0.012551
  0.152237
  0.061811
  0.074642
 -0.012037
  0.185030
  0.008446
 -0.123080
  0.044517
  0.067619
  0.173213
 -0.009978
  0.134028
 -0.095879
  0.097033
  0.123541
  0.036427
 -0.032221
 -0.003580
  0.126947
  0.067528
 -0.100733
 -0.076627
 -0.057827
 -0.101428
 -0.049118
  0.035140
 -0.070468
 -0.079852
 -0.093644
 -0.006140
  0.146071
  0.082818
  0.059806
  0.011513
  0.066598
  0.040672
  0.007208
 -0.014454
 -0.182718
 -0.030600
 -0.063983
  0.042596
  0.082153
 -0.003023
 -0.094309
  0.038150
  0.016124
  0.063714
  0.069411
 -0.129348
  0.019825
  0.003243
 -0.045825
 -0.020442
 -0.014501
  0.000867
 -0.134183
 -0.027511
 -0.078204
 -0.010604
  0.067636
  0.076952
  0.009861
  0.082103
 -0.021879
  0.091532
  0.095503
  0.019768
  0.158889
  0.109888
  0.127787
  0.103060
 -0.064721
 -0.082364
  0.006735
  0.056344
  0.022911
 -0.069954
 -0.037369
 -0.063524
 -0.053356
  0.088257
  0.121771
  0.018507
 -0.049065
  0.047097
  0.100936
  0.140937
 -0.066063
  0.052943
  0.018191
 -0.001033
 -0.130695
 -0.119061
  0.036786
 -0.053620
 -0.048632
 -0.073856
  0.048736
 -0.102432
 -0.018862
 -0.127472
 -0.089423
 -0.057128
 -0.003264
  0.218704
 -0.150357
  0.020479
 -0.014264
  0.070945
 -0.053004
  0.115919
 -0.074506
  0.066811
 -0.039924
 -0.069076
 -0.005346
 -0.020237
  0.007336
 -0.254673
 -0.011238
 -0.043543
  0.064965
 -0.100950
 -0.009738
 -0.153668
 -0.106737
  0.067060
  0.023294
  0.000805
  0.153808
  0.020169
  0.096393
  0.030703
 -0.059567
 -0.112055
 -0.074959
  0.090670
 -0.014795
 -0.164893
  0.007458
 -0.033178
  0.107646
 -0.084584
  0.001424
 -0.099577
  0.052066
 -0.049660
 -0.041974
 -0.013823
  0.135934
 -0.021060
  0.044246
 -0.191101
 -0.183839
  0.063901
 -0.118781
 -0.113883
  0.076963
 -0.102456
 -0.117670
  0.103478
 -0.006808
 -0.033952
  0.016934
  0.086944
 -0.010597
 -0.218766
  0.071693
 -0.088922
 -0.051139
 -0.079966
 -0.078016
 -0.002061
 -0.020781
  0.106468
  0.073886
  0.012939
  0.140002
  0.119280
  0.086334
  0.051573
  0.005901
 -0.249804
 -0.093333
 -0.020836
  0.006826
 -0.108762
  0.089815
 -0.048710
 -0.083423
 -0.113429
  0.040920
  0.046230
  0.083562
  0.118752
  0.029183
 -0.033026
 -0.153789
 -0.060809
 -0.063992
  0.062493
 -0.080331
  0.043826
 -0.139245
 -0.065186
 -0.075573
 -0.122318
  0.011857
 -0.096902
  0.005548
 -0.115723
  0.031880
 -0.116257
 -0.155698
 -0.033187
  0.138867
 -0.108079
  0.267145
 -0.122802
  0.147205
  0.106723
 -0.111552
 -0.061477
  0.096562
 -0.083742
 -0.132725
  0.034046
 -0.077161
 -0.222579
  0.158670
 -0.040123
 -0.012857
 -0.198338
  0.241225
  0.114017
 -0.129757
  0.196499
  0.043093
 -0.150020
 -0.022089
  0.062703
 -0.066250
  0.137493
 -0.018094
 -0.154100
  0.041710
  0.025949
  0.010457
 -0.001586
  0.101024
 -0.138161
 -0.014178
 -0.021314
 -0.049860
 -0.054670
 -0.142280
  0.102099
  0.117679
 -0.061882
  0.067053
  0.139487
 -0.014178
 -0.035968
 -0.162872
  0.150687
  0.009284
 -0.043784
 -0.053256
 -0.061466
 -0.091128
  0.045997
  0.019912
 -0.045619
 -0.158013
  0.089385
 -0.042527
 -0.033487
  0.079613
 -0.056729
 -0.093181
  0.122124
  0.033427
  0.119030
 -0.080826
 -0.044055
 -0.020422
  0.199732
 -0.137463
  0.112414
 -0.125363
  0.016248
  0.050051
  0.088062
 -0.030152
 -0.078492
 -0.082886
 -0.068977
 -0.019220
  0.046637
 -0.116706
 -0.061687
  0.016431
 -0.002603
  0.132017
  0.068432
  0.067303
 -0.123550
 -0.016390
 -0.209209
  0.010974
  0.111067
  0.077670
 -0.066550
 -0.015108
  0.084490
  0.073345
 -0.125445
 -0.121786
  0.024787
  0.019146
  0.124291
  0.143897
 -0.038679
 -0.065060
  0.064433
  0.111726
  0.005251
  0.018788
 -0.017981
  0.026816
  0.031102
  0.099449
 -0.103290
 -0.004854
 -0.071353
  0.047846
  0.019600
  0.034335
  0.110188
 -0.080074
  0.075293
 -0.052322
  0.020097
  0.220199
 -0.066351
 -0.027236
 -0.100111
 -0.058929
  0.026183
  0.081363
 -0.091070
 -0.005217
 -0.046428
 -0.246544
  0.053243
  0.141011
  0.037771
 -0.132050
 -0.058079
  0.002246
 -0.038888
 -0.261127
  0.208485
  0.049586
  0.010741
  0.027257
 -0.030462
 -0.163574
 -0.057648
  0.083387
  0.129886
 -0.083436
 -0.019956
  0.096936
  0.017034
 -0.093833
  0.087192
 -0.007106
 -0.009916
 -0.047385
  0.026182
  0.108300
  0.037205
 -0.013385
 -0.049788
  0.081453
 -0.103316
  0.005548
 -0.135497
  0.047920
 -0.232695
  0.190316
  0.220602
  0.135539
  0.151974
 -0.103399
 -0.142114
  0.114837
 -0.077872
 -0.026061
  0.022175
  0.131918
  0.118563
 -0.085938
  0.010140
  0.029198
 -0.137472
 -0.002941
  0.078663
 -0.095512
  0.138217
 -0.066544
  0.129988
 -0.024661
 -0.054674
  0.048734
 -0.038725
 -0.113438
 -0.056273
 -0.080552
 -0.175299
 -0.066790
 -0.028638
  0.075412
 -0.005615
 -0.055732
  0.041044
 -0.145689
  0.152141
 -0.007885
 -0.071324
  0.028906
  0.091636
 -0.081273
 -0.067287
 -0.086478
  0.037510
 -0.087086
  0.132334
 -0.091423
 -0.092280
 -0.173334
  0.012057
  0.013898
  0.027116
 -0.009312
 -0.140219
  0.034788
 -0.143554
 -0.123404
 -0.041634
 -0.038559
  0.090299
 -0.028829
  0.088691
  0.123557
  0.040810
  0.109834
 -0.016428
 -0.003983
  0.130311
 -0.127578
  0.034038
 -0.109223
 -0.109069
 -0.253453
 -0.143888
  0.010853
 -0.013409
 -0.166044
  0.039406
  0.034735
  0.092070
 -0.033713
 -0.241006
  0.019881
  0.020045
  0.183525
 -0.097268
  0.010315
  0.003839
 -0.069491
  0.040026
  0.006360
  0.047061
 -0.000257
  0.069043
 -0.020713
  0.036431
 -0.104083
 -0.114132
 -0.029425
 -0.100989
  0.001806
  0.054250
  0.096538
  0.049711
 -0.039229
 -0.024280
  0.054180
 -0.014477
 -0.024967
 -0.104120
  0.001414
 -0.015610
  0.231267
 -0.035242
  0.028308
 -0.126788
  0.187194
  0.213364
  0.003117
 -0.021768
  0.155311
  0.179046
  0.162294
 -0.015662
  0.103570
  0.120014
  0.090747
 -0.021880
  0.157917
  0.175325
  0.143259
 -0.087611
  0.320910
  0.208613
  0.117968
  0.377210
  0.064984
  0.004390
 -0.011534
 -0.185647
 -0.001813
  0.055781
  0.220808
 -0.001276
 -0.095130
 -0.111410
 -0.028456
  0.046204
  0.010899
 -0.031053
 -0.084945
  0.040388
  0.081950
 -0.054708
  0.004143
 -0.014192
  0.244470
 -0.237366
 -0.017349
  0.140807
 -0.016258
  0.062365
 -0.130580
  0.179875
 -0.000915
  0.106703
  0.259443
  0.021919
  0.092221
  0.229307
  0.347180
  0.272375
  0.406261
  0.435619
  0.329340
  0.641847
  0.585776
  0.291185
  0.531715
  0.385858
  0.434660
  0.561719
  0.486016
  0.902864
  0.731104
  0.661370
  0.672756
  0.653347
  0.530703
  0.544693
  0.478158
  0.523644
  0.362462
  0.607716
  0.513912
  0.186073
  0.245780
  0.263410
  0.141937
  0.029669
  0.127774
 -0.051909
  0.116899
 -0.112086
  0.113729
  0.017450
  0.047170
  0.026356
 -0.025105
  0.082137
 -0.114232
  0.121388
  0.076468
  0.060974
  0.107412
 -0.200518
  0.040567
 -0.085779
 -0.029391
  0.099596
  0.141305
 -0.065355
 -0.085610
  0.162096
  0.233817
  0.033024
  0.123335
 -0.009711
  0.115343
  0.006088
  0.060369
 -0.042708
 -0.113903
  0.223564
 -0.116464
 -0.105698
 -0.039446
 -0.024882
  0.124943
  0.032309
  0.047124
  0.005981
 -0.014720
 -0.026515
  0.160015
 -0.029782
  0.056492
  0.089809
  0.022294
 -0.131894
 -0.023806
 -0.132772
  0.044813
 -0.007834
  0.020191
 -0.090443
 -0.130360
 -0.020447
 -0.152289
  0.091366
  0.026795
 -0.161015
  0.138932
 -0.095943
  0.061653
  0.078598
 -0.048726
 -0.081583
 -0.099485
  0.009037
  0.077081
  0.005730
  0.147663
  0.004140
  0.102222
  0.098715
  0.044944
 -0.057141
 -0.074281
 -0.163548
 -0.050823
  0.048964
 -0.010871
  0.056396
  0.048924
  0.023853
 -0.135312
  0.013611
  0.106921
 -0.006204
  0.312726
  0.076126
 -0.084587
  0.111045
 -0.177447
 -0.017290
  0.094374
 -0.021965
  0.046221
 -0.136038
  0.057245
  0.007268
 -0.140236
  0.076723
  0.133028
  0.022776
  0.194825
  0.114102
 -0.027605
 -0.187057
  0.060604
 -0.006162
 -0.045982
  0.053259
  0.096808
 -0.093651
 -0.050686
 -0.064154
  0.068451
  0.085929
 -0.103631
 -0.192901
  0.061875
  0.145747
  0.011706
 -0.152474
  0.015719
  0.102374
  0.011625
  0.089854
  0.071526
  0.027935
 -0.095922
 -0.084611
 -0.031096
 -0.089300
 -0.190291
  0.021275
 -0.124505
  0.034983
 -0.124260
  0.128496
  0.060105
  0.154731
 -0.083543
  0.151971
  0.049366
 -0.145985
 -0.135793
 -0.096365
 -0.259538
 -0.097946
 -0.163183
 -0.043245
  0.124806
  0.154255
  0.006037
 -0.003994
  0.108026
  0.015199
  0.056957
  0.062622
 -0.020531
  0.179251
  0.063736
 -0.259049
 -0.026119
  0.026743
 -0.114463
  0.094909
  0.158969
  0.045249
  0.042148
  0.057741
 -0.096894
 -0.059746
 -0.035898
  0.020592
 -0.046028
  0.036484
  0.116986
  0.024893
  0.153913
 -0.049811
  0.070414
  0.047099
  0.091225
  0.019414
  0.214087
  0.054244
  0.099039
  0.045087
 -0.084677
 -0.226029
  0.089634
  0.001478
  0.101104
  0.008634
 -0.156159
 -0.010132
 -0.021526
 -0.015013
  0.040092
  0.058603
  0.078740
 -0.081213
 -0.002034
  0.112271
 -0.171147
 -0.123451
  0.095565
 -0.099820
 -0.104559
 -0.208123
  0.047256
 -0.015141
  0.000036
  0.188674
 -0.102119
  0.005991
 -0.036218
  0.079833
 -0.075009
 -0.110545
  0.013372
  0.200672
 -0.058954
 -0.086945
 -0.080188
 -0.021929
 -0.155450
 -0.055129
  0.047884
  0.006870
  0.069113
 -0.167435
  0.227869
 -0.112241
  0.071551
 -0.024521
 -0.133045
  0.041953
 -0.014105
 -0.041838
  0.147883
  0.139568
  0.061007
  0.014778
  0.096428
 -0.143600
  0.122290
  0.016807
  0.024347
 -0.108003
  0.109632
  0.121910
 -0.026903
  0.071014
  0.133810
  0.090465
 -0.010418
  0.104663
 -0.036885
 -0.171454
 -0.028485
  0.075452
  0.126961
  0.085097
  0.032574
 -0.122506
 -0.037857
  0.049107
 -0.181720
  0.121416
  0.006833
  0.085164
 -0.014470
 -0.056574
 -0.018927
  0.020711
  0.072937
 -0.042522
  0.015983
 -0.023532
  0.071380
  0.072827
 -0.073334
 -0.060505
 -0.057011
  0.219429
  0.031809
 -0.124619
  0.085720
  0.026822
  0.221710
 -0.030602
  0.068946
 -0.046337
  0.110019
  0.037622
  0.094413
  0.356007
  0.084629
  0.003813
  0.045065
  0.021688
  0.058832
 -0.005990
  0.218564
  0.066154
 -0.059493
 -0.028869
  0.056968
  0.126714
  0.001007
 -0.111539
  0.104659
 -0.114982
  0.057359
 -0.152292
  0.121443
 -0.080563
 -0.254745
  0.002596
  0.008972
  0.053476
 -0.011732
 -0.050951
 -0.013555
 -0.085799
 -0.230857
 -0.096907
 -0.099124
 -0.069011
 -0.025704
 -0.026802
 -0.072614
 -0.001277
  0.047637
  0.008220
  0.197286
 -0.061385
 -0.037554
 -0.048192
  0.021550
  0.138615
 -0.005987
 -0.118002
 -0.075773
  0.095335
  0.096500
 -0.071147
 -0.177205
  0.200147
  0.126285
 -0.053778
 -0.070833
  0.097485
 -0.104795
 -0.173521
  0.239547
  0.035975
  0.136963
 -0.116679
 -0.047239
  0.023560
  0.166074
  0.077056
 -0.072551
  0.055477
 -0.007301
 -0.157337
 -0.005498
  0.034708
 -0.049972
  0.047553
  0.184465
 -0.035219
 -0.009201
 -0.134540
 -0.016544
 -0.082534
  0.005411
 -0.082235
 -0.052897
  0.080892
 -0.207347
  0.089775
 -0.077034
 -0.007856
 -0.235927
  0.021422
 -0.117081
 -0.001581
 -0.139187
  0.010634
  0.190153
 -0.009767
  0.058292
  0.003575
 -0.097564
  0.089031
 -0.034027
  0.015883
  0.076473
  0.224132
 -0.159965
  0.006343
  0.057929
  0.087125
 -0.117073
 -0.058582
 -0.063703
  0.101510
  0.040322
 -0.142069
  0.090872
  0.057653
 -0.043823
 -0.012942
  0.154527
  0.123018
  0.000871
  0.005365
 -0.052316
 -0.075947
 -0.054398
  0.091856
 -0.042804
  0.000131
 -0.015184
  0.098058
  0.107185
 -0.003633
 -0.059213
  0.042269
  0.172881
 -0.133044
  0.089249
  0.053709
  0.138013
 -0.083631
  0.029310
  0.194982
  0.010662
 -0.022133
 -0.170371
  0.034768
 -0.060107
 -0.048914
  0.032942
  0.024815
 -0.056141
 -0.112779
 -0.020064
  0.061834
  0.159397
 -0.004231
 -0.144337
 -0.054929
  0.009655
  0.079831
  0.183584
  0.187138
  0.071702
 -0.076464
  0.000210
  0.071452
 -0.012666
  0.020632
  0.036141
  0.136450
 -0.065252
 -0.070537
  0.102672
 -0.070848
  0.042258
  0.064576
  0.016021
 -0.139711
  0.013569
 -0.011877
 -0.037973
 -0.088508
  0.096006
 -0.004599
  0.161834
  0.020781
  0.086460
  0.128266
 -0.072902
  0.082234
 -0.005236
 -0.004443
 -0.244881
  0.090564
  0.022455
 -0.016135
  0.097945
  0.089539
 -0.108939
  0.016583
 -0.056606
  0.091569
  0.048290
 -0.019043
 -0.012408
  0.135933
 -0.116743
 -0.041465
  0.221007
  0.037042
  0.198920
  0.110111
 -0.133374
 -0.193821
  0.077089
  0.078123
 -0.176422
 -0.007931
 -0.069807
 -0.236009
  0.112316
  0.039180
  0.022213
  0.123888
  0.118165
  0.011243
 -0.027498
  0.095069
  0.082114
 -0.072229
 -0.035936
  0.247022
 -0.093965
 -0.144049
  0.054590
 -0.070514
  0.072492
  0.002095
 -0.101761
 -0.098599
 -0.037397
 -0.020462
  0.065459
  0.113771
 -0.173329
  0.044337
 -0.141877
  0.071853
  0.128422
  0.202093
  0.024581
 -0.059948
 -0.059428
 -0.023222
 -0.196472
 -0.024045
 -0.016311
 -0.186238
 -0.075441
 -0.118446
 -0.034564
 -0.144339
  0.073642
 -0.100849
  0.074537
 -0.002092
 -0.181050
 -0.048302
  0.010072
 -0.157791
 -0.161061
  0.202256
 -0.104845
 -0.037025
  0.036106
  0.049557
  0.047429
 -0.066623
  0.145097
  0.026642
 -0.120687
 -0.001687
  0.092271
  0.024967
 -0.050063
  0.121100
 -0.106501
 -0.032849
  0.072317
 -0.063677
 -0.122779
 -0.016703
 -0.019662
  0.045615
  0.240629
 -0.025617
  0.034617
  0.040461
  0.038004
 -0.107943
  0.075861
 -0.096660
  0.218418
 -0.088414
 -0.146417
 -0.149995
 -0.020964
 -0.113699
  0.061558
 -0.006299
  0.073235
 -0.050886
  0.173189
 -0.075310
 -0.036851
  0.054376
  0.197393
  0.143209
 -0.108168
  0.005153
 -0.140896
 -0.079773
  0.008121
  0.018165
 -0.048928
  0.011710
 -0.024417
 -0.080503
 -0.101484
 -0.053266
 -0.105483
 -0.108759
  0.004755
 -0.100069
 -0.095047
  0.026863
  0.078484
 -0.009304
 -0.143384
 -0.106082
  0.085742
 -0.124840
 -0.073010
 -0.074350
  0.071513
  0.024876
 -0.084682
  0.066253
  0.087010
 -0.246181
 -0.084423
 -0.168575
  0.185407
  0.129392
  0.041245
  0.078300
  0.173864
 -0.010624
 -0.185258
 -0.119116
 -0.163318
  0.071849
 -0.148938
  0.010705
  0.003512
  0.040623
  0.043778
 -0.085486
  0.014645
 -0.050810
  0.050592
 -0.033009
 -0.037254
 -0.030258
  0.076129
  0.071636
  0.042717
  0.101509
 -0.004090
 -0.225118
  0.109965
 -0.057121
 -0.042599
  0.014279
  0.062534
 -0.054777
 -0.112593
  0.053834
  0.013960
 -0.160245
 -0.035999
  0.007884
  0.012524
  0.106465
  0.058479
  0.027149
  0.005519
 -0.077867
 -0.058914
 -0.110798
 -0.064161
  0.038599
 -0.204959
 -0.183270
  0.035974
  0.025007
  0.010791
  0.022864
  0.081403
  0.019960
  0.137473
 -0.143854
 -0.036080
  0.046853
 -0.092128
 -0.008857
 -0.083600
  0.107575
  0.033863
 -0.235320
  0.080404
 -0.114318
  0.112018
  0.139991
 -0.101541
 -0.187307
 -0.031875
 -0.090693
 -0.021213
 -0.037427
 -0.020533
  0.106239
 -0.054758
  0.000034
  0.027881
  0.124868
  0.055556
 -0.119331
  0.006505
 -0.020608
  0.064278
  0.100489
  0.019311
  0.069285
  0.037530
  0.175263
  0.131630
 -0.109658
 -0.067601
  0.008699
 -0.107499
 -0.035557
  0.049080
 -0.018823
 -0.069870
  0.032905
  0.003615
 -0.024352
 -0.052910
 -0.093471
 -0.064507
  0.105099
  0.062903
  0.030024
 -0.092004
  0.038138
  0.033397
  0.046625
 -0.051270
 -0.179948
 -0.090163
 -0.046585
  0.141628
 -0.213395
 -0.000847
  0.052623
  0.053777
 -0.080053
  0.049537
 -0.010142
  0.135516
 -0.082288
  0.040067
 -0.063547
  0.024467
  0.095720
  0.036350
  0.030246
  0.057357
  0.074140
  0.079911
  0.027449
  0.075056
  0.096296
  0.060352
  0.000654
  0.136426
  0.104819
 -0.071493
 -0.061214
 -0.034627
 -0.069780
 -0.052233
 -0.005585
 -0.107894
  0.077113
 -0.043127
  0.040141
 -0.014978
  0.071534
  0.060630
  0.058510
  0.118644
  0.093439
 -0.040719
  0.108250
 -0.015303
  0.044605
 -0.202916
  0.134551
  0.047276
 -0.016444
  0.142168
 -0.113948
  0.001787
 -0.057171
  0.130972
 -0.005952
  0.030117
  0.176653
  0.067779
 -0.077172
 -0.040478
 -0.058932
  0.179761
  0.187699
  0.112317
  0.239506
 -0.016711
 -0.203942
  0.012869
 -0.133955
  0.122236
  0.078700
  0.061708
 -0.063466
  0.079600
 -0.065516
  0.104345
  0.115326
  0.090901
  0.083126
 -0.000618
 -0.120722
 -0.086166
 -0.035812
  0.032900
  0.121876
 -0.061662
  0.019365
  0.080342
 -0.127891
 -0.054205
 -0.151744
 -0.063922
 -0.065591
  0.086019
  0.070107
  0.075214
 -0.199209
  0.023914
  0.118584
  0.075022
 -0.031312
 -0.132029
  0.120344
 -0.083447
 -0.047045
 -0.064891
  0.119909
  0.162979
 -0.100922
  0.076240
 -0.009676
 -0.005672
  0.101713
 -0.069938
 -0.069641
  0.050022
 -0.157102
  0.022831
 -0.046311
 -0.063121
 -0.059868
  0.114494
 -0.005963
  0.154059
  0.047694
  0.087735
 -0.129564
  0.064798
 -0.015003
 -0.034869
  0.070741
  0.035858
 -0.127724
 -0.077419
  0.121182
  0.105195
  0.086686
 -0.022873
 -0.117025
 -0.077451
 -0.024364
 -0.012256
 -0.098834
  0.184665
  0.140967
  0.123814
  0.058179
  0.126207
  0.014205
  0.013930
 -0.086077
  0.074327
  0.224803
 -0.041623
  0.015247
 -0.021280
 -0.099311
  0.137596
 -0.052036
 -0.041752
  0.093182
  0.208184
  0.002398
  0.008083
  0.019406
 -0.093731
  0.028905
 -0.067669
 -0.124846
  0.214386
 -0.054629
  0.191963
 -0.074513
 -0.000402
 -0.071096
  0.069683
 -0.212701
  0.035740
  0.125771
  0.050867
  0.150393
 -0.006581
 -0.190725
 -0.069599
  0.049611
  0.231113
  0.062752
  0.012859
  0.146049
 -0.047513
  0.062452
 -0.130630
 -0.139567
  0.125134
 -0.062915
 -0.060075
 -0.064176
 -0.102415
 -0.110556
 -0.001506
 -0.044900
  0.110832
  0.089840
 -0.024535
  0.141266
  0.114512
  0.003465
 -0.040711
  0.100215
  0.003464
 -0.062695
  0.089654
 -0.167416
  0.054758
 -0.149830
  0.018448
 -0.056980
 -0.081716
  0.044597
 -0.021741
 -0.100476
 -0.088511
  0.111458
  0.001873
  0.106414
  0.034470
 -0.039982
 -0.193240
 -0.050386
 -0.123114
  0.157900
 -0.025960
 -0.019234
 -0.014192
  0.054291
 -0.119462
  0.053951
  0.120811
 -0.064726
 -0.081348
  0.026684
 -0.066033
 -0.171018
  0.063248
 -0.133990
  0.139557
 -0.054866
 -0.043463
 -0.001445
  0.075965
 -0.110747
 -0.100710
  0.165805
 -0.090234
 -0.075799
  0.005459
 -0.073529
 -0.249759
 -0.021703
  0.082546
  0.118317
 -0.116502
  0.123148
  0.025553
 -0.089666
 -0.040814
  0.007100
 -0.134053
  0.013879
 -0.049351
  0.130472
  0.096870
  0.045270
 -0.090124
 -0.078727
  0.084823
  0.097641
 -0.011557
  0.059515
  0.035912
  0.075469
  0.136321
  0.049131
 -0.300097
  0.124773
  0.190791
 -0.154685
  0.088936
  0.169036
  0.115165
  0.013371
  0.074075
 -0.173081
 -0.218353
  0.036226
  0.081851
  0.126642
  0.033995
 -0.186810
  0.023549
  0.139353
  0.006769
 -0.079658
 -0.058625
  0.024559
  0.034817
 -0.165303
 -0.016204
  0.182464
  0.010426
 -0.144131
 -0.260741
  0.018263
  0.119586
  0.050858
  0.030439
 -0.008390
  0.162376
  0.021103
 -0.022641
 -0.002622
 -0.078568
  0.165461
  0.026737
 -0.130741
 -0.045832
  0.079244
 -0.043978
  0.005792
  0.001509
 -0.033718
  0.000761
 -0.141634
 -0.147371
 -0.116248
 -0.106362
  0.118687
 -0.013376
  0.038457
  0.037464
  0.044289
 -0.150845
 -0.079696
  0.052978
 -0.039600
  0.120960
  0.080702
  0.007576
  0.151981
 -0.018260
 -0.008347
  0.255139
 -0.011421
 -0.163010
 -0.146546
  0.008491
 -0.095440
 -0.117472
  0.078769
 -0.075689
  0.058171
 -0.189287
  0.048130
 -0.136435
 -0.012450
  0.040035
 -0.031259
  0.035242
 -0.003416
  0.117970
 -0.212809
 -0.089580
  0.101628
  0.094093
  0.302001
  0.197509
  0.013552
 -0.007911
 -0.075807
  0.090012
  0.105110
  0.001772
 -0.023767
 -0.041419
  0.002119
  0.002277
 -0.002566
 -0.086161
 -0.197728
 -0.053248
  0.007760
 -0.150335
 -0.144274
  0.012572
 -0.201744
 -0.097639
 -0.076765
  0.043863
  0.000209
 -0.045619
 -0.139432
  0.070856
 -0.129669
  0.121267
 -0.023236
 -0.179263
  0.063950
 -0.117257
  0.051136
  0.024891
  0.071813
 -0.069848
 -0.025410
  0.030763
  0.040107
  0.076899
  0.007897
 -0.028800
 -0.222429
  0.065385
  0.066878
 -0.205065
 -0.043287
 -0.132999
  0.111457
  0.049852
 -0.026037
  0.065089
 -0.144630
 -0.219544
  0.170294
 -0.022603
  0.145565
  0.022307
  0.084074
  0.002264
 -0.061026
  0.072096
  0.029041
  0.047183
  0.033595
 -0.050122
 -0.102552
  0.129526
 -0.014633
 -0.077906
  0.011197
  0.069656
  0.028210
  0.091245
 -0.011073
  0.173391
 -0.189790
 -0.105267
  0.051716
  0.139715
 -0.051430
 -0.093540
  0.266649
 -0.023697
  0.052084
  0.032182
  0.024351
 -0.131381
 -0.053090
  0.079166
 -0.001402
 -0.061415
  0.113884
  0.033448
  0.013719
 -0.091217
 -0.023902
 -0.002126
 -0.031468
  0.026994
  0.031664
  0.189605
 -0.033588
 -0.117121
 -0.018660
 -0.071915
 -0.137937
 -0.081875
 -0.010821
  0.011301
 -0.100779
  0.012400
  0.086740
 -0.016359
  0.087910
  0.003839
  0.070304
  0.139678
  0.090669
 -0.206845
 -0.017960
 -0.012507
  0.081656
  0.103190
 -0.062234
  0.060076
 -0.109642
 -0.129787
  0.048044
 -0.054309
 -0.306064
  0.038694
  0.116311
  0.097574
  0.014105
  0.082159
 -0.096852
 -0.101231
 -0.100901
 -0.064002
 -0.121913
  0.053010
 -0.045720
 -0.097140
 -0.171374
  0.015145
 -0.025834
 -0.010370
  0.061695
  0.048837
 -0.044208
  0.065036
 -0.050795
  0.139680
 -0.157399
 -0.057506
  0.295579
 -0.025800
  0.048041
 -0.064100
 -0.055941
  0.073861
  0.255196
 -0.035510
  0.102039
  0.170178
 -0.105628
  0.030003
 -0.021814
 -0.234064
 -0.292296
  0.050013
  0.129065
  0.000295
 -0.138743
  0.173891
 -0.046930
  0.039759
 -0.054839
 -0.085645
 -0.054310
  0.181442
 -0.058105
  0.105490
  0.063893
  0.107126
 -0.070792
  0.070359
 -0.004339
  0.082196
  0.003236
 -0.063583
  0.031945
  0.014765
  0.256253
  0.037695
  0.057326
 -0.029337
 -0.012644
  0.036727
  0.108972
 -0.228104
 -0.202086
  0.006494
 -0.070457
  0.101946
 -0.140061
  0.136791
  0.043433
  0.091427
  0.183313
 -0.088760
 -0.120294
 -0.086715
  0.072312
 -0.113086
 -0.094059
 -0.078611
  0.002626
 -0.011551
  0.124185
 -0.017031
 -0.051992
  0.097507
  0.121495
  0.067135
  0.005600
 -0.108981
 -0.024411
 -0.052749
  0.026930
 -0.176748
 -0.201986
 -0.114564
  0.059683
 -0.034317
 -0.048375
 -0.079693
 -0.089209
 -0.109117
 -0.055457
 -0.179263
 -0.115893
  0.030610
 -0.053172
  0.031125
 -0.075235
  0.146414
  0.074723
  0.084978
  0.005232
 -0.002784
  0.230361
  0.132450
 -0.065517
  0.049701
 -0.024524
  0.097390
 -0.008277
 -0.009758
 -0.145892
  0.000534
 -0.030857
 -0.054796
 -0.048438
  0.035928
 -0.025628
 -0.091468
  0.001980
 -0.027199
 -0.134089
 -0.040097
 -0.180245
  0.021940
  0.078051
 -0.142182
  0.008349
 -0.057685
  0.001685
 -0.097336
  0.070413
 -0.097073
  0.000118
  0.055413
 -0.071186
  0.018560
  0.157690
  0.139719
 -0.011761
 -0.242315
  0.087132
  0.136369
  0.072787
 -0.171236
  0.096636
  0.200622
  0.116806
  0.219485
 -0.059459
  0.025454
  0.130412
  0.043707
  0.024817
  0.026028
 -0.027592
 -0.185325
  0.160861
 -0.078819
  0.196397
 -0.009004
  0.164476
  0.063909
 -0.015590
 -0.050533
  0.127707
  0.039890
 -0.081980
  0.050002
 -0.052235
  0.080641
  0.112622
 -0.033392
  0.035246
  0.103529
  0.095772
  0.019408
  0.067842
 -0.156080
 -0.150704
 -0.217163
  0.243006
  0.050172
 -0.058275
 -0.067488
 -0.106068
  0.127451
  0.171097
  0.069141
  0.046487
 -0.013213
  0.205150
 -0.044550
  0.135238
 -0.106645
  0.180463
 -0.068837
  0.052089
  0.036438
 -0.114602
 -0.032520
 -0.045910
  0.094083
 -0.041542
  0.003331
 -0.069167
 -0.153638
 -0.171038
  0.124308
  0.219090
  0.106188
 -0.055777
  0.246970
 -0.003357
 -0.075047
  0.086920
 -0.053005
 -0.071626
  0.013475
 -0.027912
  0.113436
 -0.073414
 -0.047851
  0.149604
 -0.145142
  0.029279
 -0.099149
 -0.109483
  0.042094
 -0.027750
 -0.188024
  0.055829
 -0.185086
  0.082215
  0.053704
  0.040224
 -0.055216
  0.135918
 -0.008324
  0.074825
 -0.020427
  0.054461
  0.029388
 -0.172912
  0.074483
 -0.031057
 -0.047479
  0.129783
 -0.033005
 -0.015106
 -0.088406
 -0.025915
 -0.170693
 -0.021530
 -0.017232
 -0.006059
  0.060628
 -0.183857
  0.136235
  0.144399
  0.150803
 -0.040386
  0.038058
 -0.185982
 -0.018684
  0.017599
 -0.089402
 -0.087913
 -0.005046
  0.135617
 -0.004657
 -0.132870
 -0.037585
 -0.111065
 -0.069002
 -0.129224
  0.006278
  0.003775
 -0.022988
 -0.068277
 -0.015412
 -0.091237
  0.176627
 -0.120474
 -0.044717
  0.070362
  0.079694
  0.061488
  0.039133
  0.179411
  0.106721
 -0.071702
 -0.118940
 -0.050401
  0.119718
  0.210738
  0.060147
  0.069509
 -0.073517
  0.043238
 -0.001666
 -0.028877
  0.077836
  0.149634
 -0.142254
  0.084423
  0.113957
 -0.103733
  0.002975
  0.041549
  0.143594
 -0.004087
 -0.009245
  0.282660
  0.102622
  0.010372
  0.027421
 -0.100497
  0.073535
  0.102521
  0.030088
 -0.131480
 -0.066575
  0.277481
  0.143716
  0.055405
 -0.061140
  0.091521
  0.073250
  0.016669
 -0.116404
  0.121645
 -0.075725
 -0.179331
 -0.041988
 -0.006513
 -0.043015
  0.019720
  0.012162
 -0.060960
 -0.033753
  0.049094
  0.078323
  0.019732
  0.037256
 -0.040255
 -0.124387
  0.197513
 -0.130824
 -0.093395
  0.118787
  0.026871
  0.029907
 -0.059973
  0.042158
  0.049785
 -0.049240
  0.026533
  0.098873
 -0.007509
  0.070878
 -0.204798
 -0.020773
 -0.048343
 -0.123847
 -0.027512
  0.034217
 -0.095411
  0.072150
 -0.061360
  0.063281
 -0.078092
  0.184783
 -0.021983
  0.201184
 -0.144150
  0.040866
 -0.142099
  0.016879
 -0.094851
 -0.160600
  0.067598
 -0.042911
  0.258088
  0.057677
  0.073727
  0.064797
 -0.037424
 -0.024156
 -0.016954
 -0.063411
  0.012880
 -0.141391
 -0.020175
 -0.006121
  0.084417
 -0.178405
 -0.028750
  0.054527
 -0.041255
  0.094132
  0.172514
 -0.011583
 -0.091214
 -0.137168
 -0.249952
 -0.044086
 -0.118276
 -0.114774
  0.089254
  0.091758
 -0.127564
  0.067494
 -0.183135
 -0.022268
 -0.075248
  0.013530
  0.028304
  0.010819
  0.067265
 -0.108959
 -0.183045
  0.032702
 -0.033092
  0.006922
  0.086574
  0.104148
  0.153794
 -0.135263
 -0.028891
 -0.004079
 -0.050480
 -0.099285
  0.016925
  0.010939
  0.047092
  0.036399
 -0.051256
 -0.103131
 -0.091958
  0.047448
 -0.111113
 -0.075824
  0.061130
  0.195934
 -0.024196
  0.005615
 -0.003012
 -0.126272
 -0.090904
  0.026216
 -0.059197
  0.042705
  0.220117
  0.023855
 -0.139344
  0.081065
 -0.086566
  0.090465
  0.026170
 -0.018870
  0.014339
  0.016072
 -0.019706
  0.031022
  0.133876
  0.319011
  0.000321
 -0.117964
  0.033347
 -0.137625
 -0.039387
 -0.084762
  0.091099
  0.058199
  0.078627
 -0.023021
  0.063673
 -0.016475
  0.087942
 -0.131867
 -0.228570
 -0.073425
 -0.029447
 -0.001874
 -0.086402
 -0.014643
 -0.110923
 -0.026284
 -0.119090
  0.085797
  0.013418
  0.057064
  0.132418
  0.000863
 -0.250221
 -0.028767
  0.047702
  0.067490
 -0.052798
 -0.009223
 -0.012471
  0.094053
  0.056854
 -0.030673
 -0.098434
 -0.078608
 -0.190925
  0.108569
  0.003461
 -0.036743
  0.151898
 -0.194452
 -0.136889
  0.150103
  0.063718
  0.010827
 -0.072019
  0.196556
  0.119754
  0.123830
  0.208679
  0.127445
 -0.090575
  0.081205
  0.029531
  0.073306
 -0.028801
 -0.039562
 -0.047099
 -0.097176
 -0.048400
  0.093150
  0.090094
 -0.079265
  0.025198
 -0.066744
  0.106283
 -0.019992
  0.122287
 -0.040555
 -0.020760
  0.035437
 -0.000122
  0.080925
 -0.144691
  0.088192
  0.011632
 -0.145387
  0.062275
  0.123570
  0.020635
 -0.062955
  0.041507
  0.076690
  0.145478
  0.023469
 -0.128372
  0.038797
  0.038762
 -0.005609
  0.036938
 -0.028075
 -0.177833
 -0.053403
 -0.144657
  0.046770
 -0.057342
 -0.119292
 -0.120117
 -0.053307
  0.129124
  0.094688
 -0.007998
 -0.108164
  0.254792
 -0.028040
  0.016777
  0.054306
  0.057032
  0.002360
  0.077115
  0.164089
  0.060977
 -0.030490
  0.192019
 -0.037707
 -0.097779
 -0.011544
  0.040317
 -0.045869
 -0.011236
 -0.007243
  0.032655
  0.059208
 -0.115918
  0.000146
  0.078820
  0.045240
  0.163176
  0.111862
 -0.016814
  0.039315
 -0.032766
  0.021359
 -0.061809
  0.219719
 -0.054065
 -0.144644
  0.029057
 -0.058121
 -0.068816
 -0.155622
 -0.159835
 -0.061236
  0.144502
 -0.002180
 -0.168785
  0.077809
  0.040655
 -0.137406
 -0.035063
  0.018797
 -0.055311
 -0.053376
 -0.014011
 -0.108352
  0.002707
 -0.067896
  0.280154
 -0.068332
  0.009985
 -0.108626
 -0.159883
  0.129339
  0.002555
  0.051724
  0.034445
 -0.007268
 -0.050574
 -0.008749
  0.047407
 -0.243181
  0.185677
  0.057503
 -0.014552
  0.088504
  0.073067
 -0.070693
  0.076050
 -0.096696
 -0.010823
  0.085122
 -0.017718
 -0.002174
 -0.178708
  0.021457
 -0.216867
  0.003328
 -0.048976
 -0.000432
  0.000984
 -0.163101
  0.074782
 -0.043317
  0.090014
 -0.172491
 -0.017858
 -0.207583
 -0.233631
  0.064126
 -0.018712
 -0.121592
 -0.084013
 -0.084642
 -0.108295
 -0.057461
  0.027135
  0.009578
 -0.052862
  0.122765
 -0.153873
 -0.150686
 -0.137006
  0.004338
  0.119522
 -0.007065
 -0.014769
  0.100811
  0.029519
 -0.018532
 -0.161140
  0.061211
  0.040583
 -0.063065
  0.009790
 -0.084503
 -0.005460
 -0.069946
  0.001799
  0.083658
 -0.022865
 -0.081142
 -0.129968
 -0.021296
 -0.016702
  0.017092
  0.040744
 -0.140273
 -0.159578
  0.021999
 -0.199747
  0.017937
 -0.156654
  0.147066
 -0.116768
 -0.014576
  0.026516
  0.021911
 -0.030543
  0.087629
 -0.238356
 -0.070032
  0.071320
  0.089224
 -0.029064
 -0.074444
  0.001367
  0.058999
  0.085456
  0.137143
 -0.091539
  0.041099
 -0.141689
  0.014582
 -0.190685
 -0.008713
 -0.025200
 -0.218051
 -0.109016
 -0.065937
  0.023601
 -0.030232
 -0.007090
 -0.074633
  0.075445
  0.051030
 -0.097275
 -0.024405
 -0.038549
  0.020954
 -0.089426
  0.012981
 -0.132574
  0.159690
 -0.108043
  0.059589
 -0.029454
 -0.075781
  0.038360
 -0.026932
  0.056841
 -0.065895
 -0.182105
  0.044197
 -0.066907
  0.009831
  0.110443
 -0.029160
 -0.204945
 -0.112347
  0.020197
 -0.050720
 -0.165499
 -0.172696
 -0.154424
 -0.103089
 -0.117149
 -0.189743
 -0.010752
 -0.118894
 -0.201948
  0.068582
  0.110753
 -0.130854
 -0.292310
 -0.035610
 -0.210019
 -0.038747
 -0.131905
  0.020162
 -0.084204
 -0.221453
 -0.065777
 -0.052555
 -0.215421
 -0.047894
  0.020672
 -0.085279
 -0.095731
 -0.020179
 -0.121638
 -0.219013
 -0.115077
 -0.108521
 -0.120438
 -0.012434
 -0.001011
 -0.124370
  0.014904
 -0.045358
 -0.092844
 -0.025865
 -0.044788
 -0.075350
 -0.082650
  0.143124
 -0.178677
  0.000864
 -0.088175
 -0.093261
 -0.001290
 -0.149716
  0.037408
 -0.287866
  0.034227
 -0.007704
 -0.025361
 -0.311393
 -0.011924
 -0.066768
 -0.089324
  0.072778
 -0.059079
 -0.161372
  0.007305
  0.034373
  0.100512
 -0.072475
 -0.049341
 -0.154586
 -0.075492
  0.010941
 -0.023694
 -0.113185
 -0.043008
 -0.158142
 -0.126434
 -0.017918
 -0.072588
 -0.265316
 -0.038317
 -0.234493
 -0.099738
 -0.086581
  0.006797
 -0.099214
 -0.218312
 -0.031188
 -0.204795
  0.065937
  0.084507
 -0.133653
 -0.002738
 -0.005742
  0.068243
 -0.078587
 -0.125629
 -0.078133
 -0.084891
 -0.017471
 -0.015267
 -0.085517
 -0.065067
 -0.022075
 -0.032438
  0.023172
 -0.266854
  0.073752
 -0.169529
 -0.128280
 -0.017039
 -0.120173
 -0.095134
 -0.249833
 -0.014543
 -0.314603
 -0.064647
 -0.080592
 -0.178974
 -0.072909
 -0.222033
 -0.274082
 -0.281565
 -0.081439
 -0.111981
 -0.083603
 -0.027350
  0.200065
  0.025747
 -0.203647
 -0.191435
 -0.152428
 -0.206788
 -0.005111
 -0.043193
 -0.086296
  0.096851
 -0.021210
 -0.128886
 -0.083427
 -0.127748
 -0.249941
 -0.163971
 -0.219173
 -0.015996
 -0.101686
 -0.117014
  0.055905
 -0.166485
 -0.105705
 -0.053798
  0.019800
  0.011765
 -0.067771
 -0.033412
 -0.002434
 -0.145712
 -0.153044
 -0.205190
 -0.347756
 -0.218575
 -0.173989
 -0.092421
 -0.028123
 -0.034250
 -0.236093
 -0.067434
 -0.100230
 -0.328204
 -0.152283
 -0.348220
 -0.035312
 -0.238988
 -0.259851
 -0.201117
 -0.322032
 -0.173045
 -0.139189
 -0.212094
 -0.223356
  0.273931
  0.068777
  0.157590
  0.145570
  0.070050
 -0.091965
  0.074273
  0.082805
 -0.051620
  0.124401
  0.014350
 -0.033192
 -0.033987
 -0.172321
  0.194619
  0.163870
  0.157960
 -0.083420
  0.012971
  0.070588
 -0.019586
 -0.020724
  0.054005
  0.090379
 -0.022819
  0.088665
 -0.083474
 -0.048671
 -0.025990
 -0.095802
  0.012496
  0.012471
  0.003760
 -0.113786
 -0.015943
  0.234099
 -0.142637
 -0.016450
  0.109569
  0.119218
  0.008146
 -0.086359
 -0.063255
 -0.208154
 -0.107316
  0.116809
 -0.100330
 -0.130046
  0.115234
  0.063448
  0.007088
 -0.070955
  0.115567
 -0.206650
 -0.028219
  0.094790
  0.041153
  0.169309
 -0.173027
  0.018634
 -0.120022
 -0.036902
 -0.060557
 -0.037137
  0.125979
 -0.087444
  0.081249
 -0.082213
 -0.112510
  0.033939
 -0.091565
  0.136886
 -0.166741
 -0.161403
  0.061124
  0.233145
  0.049970
  0.051384
  0.066031
  0.012852
 -0.215450
  0.067716
 -0.038129
  0.183227
  0.059964
  0.015824
  0.049915
  0.112999
  0.265335
  0.006419
 -0.214832
 -0.062601
 -0.110189
 -0.059449
  0.014169
 -0.147477
 -0.035018
 -0.047897
 -0.107305
  0.013167
  0.145901
 -0.092960
  0.072850
  0.032443
 -0.020353
 -0.148782
  0.071073
  0.045758
 -0.137084
  0.184587
  0.207502
  0.096645
 -0.103066
 -0.146855
  0.150180
  0.081246
 -0.027445
  0.113065
 -0.025685
 -0.142441
 -0.075681
  0.002900
  0.071541
 -0.060481
 -0.078377
 -0.018136
 -0.002371
 -0.066201
  0.082801
 -0.081323
 -0.036012
 -0.031523
 -0.017255
 -0.196464
 -0.129731
 -0.189643
 -0.103697
 -0.059016
 -0.106264
 -0.027272
 -0.145674
  0.019013
 -0.008784
  0.068113
 -0.109477
  0.121185
  0.074342
  0.157373
  0.033022
 -0.030287
  0.005797
 -0.065899
 -0.126380
 -0.141963
 -0.035621
  0.021696
  0.076730
 -0.139997
  0.043538
  0.044389
  0.022043
  0.108010
  0.014267
  0.162363
  0.050624
 -0.139743
  0.114890
 -0.058399
 -0.076914
  0.031663
 -0.136900
 -0.088159
  0.031936
  0.251858
 -0.031839
  0.059054
  0.012487
 -0.057461
  0.096422
  0.152997
  0.234763
 -0.009682
 -0.213938
  0.034306
 -0.020179
  0.041563
 -0.035738
  0.055034
  0.039510
  0.019223
  0.104366
 -0.031577
  0.121603
 -0.028045
 -0.123107
  0.118188
  0.000122
  0.054967
 -0.000925
 -0.018059
 -0.102553
 -0.217694
 -0.093765
  0.185367
 -0.027994
 -0.148057
  0.038345
 -0.103052
  0.059006
 -0.059497
 -0.042196
  0.058307
 -0.221100
  0.018076
  0.100559
  0.078967
  0.025588
  0.126713
  0.059123
  0.028959
  0.068266
 -0.081578
 -0.023847
 -0.075082
  0.189377
 -0.004838
  0.193231
 -0.008986
  0.021329
  0.013548
  0.011418
 -0.101148
  0.060630
 -0.027326
  0.015846
  0.000526
 -0.240332
 -0.008494
  0.213727
  0.075364
 -0.219620
  0.007945
  0.073280
  0.063996
 -0.055743
 -0.081091
 -0.174951
 -0.076848
  0.001631
 -0.039256
  0.042736
  0.132505
  0.134689
  0.006287
 -0.066642
 -0.024931
  0.057113
  0.000878
  0.139773
 -0.093867
 -0.026466
  0.115026
 -0.004404
 -0.039237
 -0.084981
  0.090268
  0.024281
 -0.053443
  0.000204
 -0.037663
  0.060240
  0.028722
  0.028038
  0.076959
  0.100025
  0.018831
  0.017660
  0.212489
  0.005099
 -0.130573
 -0.018987
  0.102577
  0.082410
 -0.107131
  0.014311
 -0.016835
 -0.096397
  0.015110
  0.094458
  0.191507
  0.083911
 -0.075776
 -0.009470
 -0.011363
  0.052570
 -0.033529
 -0.174982
 -0.058622
  0.071667
 -0.049941
 -0.051048
  0.116339
 -0.175070
 -0.044580
  0.011772
  0.086868
 -0.061016
  0.126528
 -0.135413
  0.115806
  0.078599
  0.010801
  0.155564
  0.057997
 -0.145801
 -0.092003
 -0.037284
 -0.076270
  0.018309
  0.128230
 -0.103049
  0.010321
 -0.110962
 -0.036520
 -0.073528
  0.120111
 -0.032785
  0.001184
  0.019494
 -0.158409
  0.157992
 -0.155297
 -0.182170
 -0.069066
  0.201990
  0.038804
  0.036978
 -0.022773
  0.039797
 -0.022553
 -0.059202
 -0.030751
  0.195727
 -0.073551
  0.184849
 -0.125346
 -0.061082
  0.125216
 -0.001436
  0.133786
 -0.126724
  0.082285
  0.149686
 -0.019489
 -0.069685
  0.003503
  0.004083
  0.083464
 -0.015003
  0.105054
 -0.182423
  0.063710
 -0.060438
 -0.005821
 -0.099340
 -0.022197
  0.044570
  0.080882
 -0.037064
  0.091022
 -0.156546
 -0.008451
  0.112027
 -0.026862
 -0.027843
  0.041357
 -0.021790
  0.121441
  0.186154
 -0.155953
  0.159283
  0.139083
  0.058163
 -0.268324
  0.034016
 -0.096980
  0.029124
 -0.013252
  0.072589
 -0.062946
 -0.099434
 -0.011856
  0.075155
  0.019003
 -0.031407
 -0.035277
 -0.141796
 -0.086110
  0.087802
  0.020194
 -0.046279
 -0.144147
  0.139532
 -0.080738
  0.045504
  0.092368
  0.046666
  0.056482
 -0.165225
  0.037863
 -0.035054
  0.032432
 -0.268421
 -0.042496
  0.027822
 -0.133071
  0.102368
 -0.087116
  0.173180
 -0.189411
  0.028727
 -0.053064
 -0.133396
  0.020879
  0.126187
 -0.001052
  0.041275
  0.115306
  0.108981
 -0.138914
 -0.003258
  0.029233
 -0.011318
  0.025600
  0.006279
 -0.001769
  0.047645
 -0.055279
 -0.037752
  0.117212
 -0.125008
  0.074831
  0.162657
  0.029384
 -0.059545
 -0.036987
  0.114806
  0.050529
 -0.223516
  0.113371
 -0.084493
 -0.059248
  0.021251
 -0.147234
  0.280675
  0.125581
  0.179455
 -0.012690
  0.060521
  0.047060
 -0.103037
 -0.072896
  0.192733
  0.006610
  0.098014
 -0.175713
  0.015003
  0.069421
  0.039785
 -0.211154
  0.010294
  0.127096
  0.037375
 -0.112861
 -0.046172
  0.014126
 -0.071204
  0.067660
 -0.072291
 -0.028291
 -0.180369
  0.062759
  0.203332
  0.216409
  0.022670
 -0.028463
  0.027812
  0.037703
  0.119276
 -0.087109
 -0.053833
  0.048131
 -0.021921
 -0.032268
  0.218085
 -0.016430
 -0.021601
  0.062226
  0.076940
  0.106714
  0.077196
 -0.114784
 -0.078005
 -0.051292
 -0.126699
 -0.039523
 -0.011948
  0.067242
 -0.021595
 -0.004879
 -0.054405
 -0.043415
 -0.159414
  0.151570
  0.082916
 -0.065497
  0.000811
  0.013033
  0.073911
 -0.108406
  0.088910
 -0.033858
  0.012998
 -0.042398
 -0.112558
  0.172236
  0.081364
 -0.137989
 -0.078874
  0.004857
 -0.184151
  0.054114
 -0.205301
 -0.014573
  0.077277
  0.070653
  0.131550
  0.000514
 -0.013243
  0.037704
 -0.115895
  0.030473
 -0.187852
  0.061796
  0.173364
  0.008052
 -0.098561
  0.069852
 -0.075429
  0.135713
 -0.052390
  0.138074
  0.040685
 -0.035593
 -0.033244
 -0.057224
  0.070953
 -0.238528
  0.026940
  0.050751
 -0.171387
 -0.187172
  0.057550
 -0.001289
  0.085870
 -0.066541
 -0.025530
  0.087923
  0.165617
 -0.162607
 -0.019595
 -0.133439
  0.115761
  0.138707
 -0.085980
  0.005581
  0.005252
 -0.039687
 -0.048263
 -0.005843
  0.146009
 -0.193531
  0.136941
 -0.100690
  0.021743
  0.038581
 -0.001759
  0.116862
  0.013664
 -0.091096
 -0.007955
  0.058334
  0.123486
 -0.065823
  0.047314
  0.083075
  0.053239
  0.184855
 -0.007519
  0.050988
  0.081858
  0.063710
  0.113464
  0.036383
 -0.055887
  0.082217
 -0.037585
 -0.116192
  0.067797
 -0.070139
 -0.065665
 -0.042438
  0.035616
  0.016096
  0.055663
  0.059006
  0.172867
  0.149810
 -0.058297
 -0.015139
  0.064561
 -0.128725
 -0.269306
 -0.004827
 -0.001045
 -0.175383
 -0.137371
 -0.147902
  0.112629
 -0.147723
  0.089200
  0.209791
  0.017503
 -0.135136
 -0.181988
 -0.003212
  0.169824
 -0.010028
 -0.086653
  0.049969
 -0.003652
  0.250933
 -0.049312
 -0.044459
  0.093211
 -0.052911
 -0.040471
  0.131707
  0.132817
 -0.076135
  0.092976
 -0.077171
  0.136627
 -0.250401
 -0.104633
 -0.029593
 -0.190995
  0.088620
 -0.157558
  0.017810
 -0.018115
  0.149718
 -0.070917
  0.026233
 -0.324631
 -0.132686
  0.069796
 -0.005460
 -0.036089
 -0.022495
  0.070139
 -0.091202
 -0.007672
 -0.017077
 -0.037670
 -0.148460
 -0.090873
 -0.135470
  0.030147
  0.157098
 -0.023590
 -0.096006
 -0.019162
  0.060187
  0.050925
  0.040644
 -0.149000
  0.007161
 -0.141581
  0.098487
 -0.129620
 -0.162980
  0.141568
  0.028972
 -0.130708
  0.058687
  0.001875
  0.056431
 -0.020582
  0.084480
  0.153055
  0.069306
  0.025593
  0.027160
 -0.067677
 -0.058682
 -0.162651
 -0.054864
  0.032157
  0.040421
  0.076866
  0.023808
 -0.214439
 -0.081139
 -0.018430
  0.066067
  0.075787
 -0.053029
 -0.088449
  0.119580
  0.048946
  0.100961
 -0.053010
 -0.202437
 -0.039126
 -0.003999
  0.034770
 -0.169211
 -0.095423
 -0.085991
  0.172201
 -0.171689
 -0.207010
 -0.118414
 -0.022783
 -0.145481
  0.025074
 -0.136287
  0.259864
  0.179576
 -0.040915
 -0.004151
 -0.117260
  0.084852
 -0.142369
 -0.001352
  0.047037
  0.009309
  0.131293
 -0.049850
  0.127557
  0.078707
  0.053774
 -0.138719
 -0.150280
  0.048336
  0.007299
  0.001116
 -0.111445
 -0.129428
  0.135085
 -0.018884
 -0.024292
  0.092131
 -0.198771
  0.045123
  0.153082
 -0.239393
  0.125136
 -0.074891
 -0.048671
  0.017732
 -0.135102
  0.030533
  0.030544
  0.056367
  0.078530
  0.083668
  0.202123
 -0.144436
  0.044552
 -0.093461
 -0.054887
  0.093573
 -0.071179
 -0.080471
 -0.015215
 -0.049543
  0.085333
 -0.034175
 -0.055705
 -0.123619
 -0.089561
  0.099296
 -0.045764
  0.108266
 -0.085485
  0.087479
  0.091113
  0.004806
 -0.162884
  0.086977
 -0.045724
 -0.063623
  0.015831
  0.102827
 -0.098716
  0.138423
 -0.115558
  0.024490
  0.060143
  0.136115
  0.224118
  0.129701
  0.075956
 -0.012030
  0.030499
  0.164105
 -0.161251
  0.063136
  0.102631
 -0.018073
  0.002434
 -0.112888
 -0.126664
  0.044143
 -0.021911
  0.004761
 -0.133126
  0.093342
 -0.024400
  0.061214
 -0.021329
  0.048494
  0.082847
 -0.129687
  0.031605
  0.310558
  0.070652
 -0.011843
  0.123381
 -0.093522
  0.022037
 -0.085456
 -0.017588
  0.000963
 -0.103895
 -0.028124
 -0.063493
  0.049691
  0.122199
  0.086225
 -0.019725
  0.025625
  0.143656
  0.024613
 -0.167832
  0.111603
 -0.059258
  0.115286
  0.141101
 -0.210679
 -0.113934
  0.000013
  0.167524
  0.018175
  0.066118
 -0.010248
 -0.072211
 -0.044981
  0.196730
  0.018458
  0.032958
 -0.269197
 -0.025156
 -0.098023
  0.162525
 -0.034140
 -0.019712
  0.142450
 -0.103218
 -0.076502
 -0.173481
  0.004890
  0.028239
  0.124271
 -0.010000
 -0.069868
  0.157437
 -0.214304
  0.020632
 -0.031816
 -0.058955
 -0.059209
 -0.069262
 -0.128787
  0.137453
 -0.115820
 -0.023766
  0.103050
  0.009625
  0.044400
  0.082342
  0.127626
 -0.174026
  0.042687
  0.003509
 -0.132144
  0.169981
 -0.010349
  0.055829
 -0.201600
 -0.003898
  0.013808
 -0.210124
  0.112235
 -0.121006
  0.307651
 -0.086359
 -0.004006
 -0.239980
 -0.134609
  0.051760
 -0.002528
 -0.093897
 -0.129181
  0.060953
 -0.004054
  0.034822
 -0.016087
 -0.093868
  0.074549
  0.039264
 -0.097756
  0.089134
  0.005838
  0.147683
  0.192983
 -0.048624
 -0.063724
  0.066009
 -0.142793
  0.124833
 -0.092338
  0.116692
 -0.084842
  0.017723
 -0.016059
  0.042670
  0.218306
 -0.073515
  0.035231
 -0.067464
  0.105541
  0.116270
 -0.107674
  0.021433
  0.157645
 -0.007097
 -0.083399
  0.100613
 -0.188667
 -0.013156
 -0.071973
  0.233732
 -0.159685
 -0.043857
  0.092641
  0.008147
  0.102901
  0.053939
  0.091439
  0.111354
  0.113472
 -0.026541
 -0.009536
 -0.138913
  0.030994
  0.131153
 -0.044908
  0.011711
 -0.015911
 -0.163206
  0.038878
 -0.190164
  0.152816
  0.020474
  0.054737
 -0.056626
 -0.117932
 -0.105607
  0.088235
 -0.111518
 -0.073616
 -0.003368
  0.064703
  0.210201
  0.037676
 -0.067184
  0.057158
  0.093201
  0.167423
  0.113092
  0.152087
  0.131471
 -0.071800
 -0.074869
  0.065537
  0.120371
 -0.026413
 -0.004466
 -0.003147
  0.053839
 -0.089862
  0.106248
  0.175055
 -0.056766
  0.039421
 -0.007404
 -0.089804
  0.101189
 -0.017347
  0.033324
 -0.150885
 -0.005495
  0.001217
 -0.043649
  0.024587
 -0.004531
 -0.026738
  0.064606
 -0.129119
 -0.004504
  0.046017
 -0.119003
  0.030151
 -0.090842
  0.086045
 -0.048997
  0.080040
  0.023494
  0.149414
 -0.079108
 -0.028479
 -0.054574
 -0.070497
  0.063699
 -0.252435
  0.083593
 -0.004635
 -0.047788
  0.092171
 -0.007434
  0.171968
 -0.089726
 -0.015981
 -0.103834
  0.173877
 -0.161875
 -0.118834
 -0.108279
  0.101903
 -0.125375
 -0.032425
  0.016202
  0.049286
  0.039845
 -0.106682
 -0.134427
  0.008401
  0.062687
 -0.012896
 -0.000679
 -0.100767
  0.040475
  0.064826
 -0.052840
 -0.022954
  0.155882
  0.072272
  0.178625
 -0.023639
 -0.134902
 -0.216497
  0.218649
  0.080013
 -0.127917
  0.011046
  0.191910
 -0.214389
  0.023306
  0.089987
  0.114944
  0.085678
  0.044657
 -0.113469
  0.001445
  0.166690
  0.065073
  0.098594
  0.121849
  0.091749
  0.159527
  0.065684
  0.062371
  0.008488
 -0.081198
 -0.206397
 -0.147084
  0.174172
  0.062920
  0.089842
 -0.043546
 -0.116274
 -0.001029
  0.001659
 -0.080990
  0.161932
 -0.092683
  0.066191
  0.034846
  0.097144
  0.002260
  0.009437
  0.024456
  0.139798
 -0.097485
  0.143420
 -0.029263
 -0.030699
  0.072824
  0.042924
  0.105977
 -0.080630
 -0.118157
  0.182501
  0.201497
 -0.037295
  0.043327
 -0.068259
 -0.119209
  0.038827
 -0.033721
 -0.010029
  0.036926
 -0.087735
  0.072028
 -0.018175
 -0.124082
 -0.094744
  0.031464
 -0.005650
  0.007628
 -0.351813
 -0.040145
 -0.051358
  0.026431
  0.085844
 -0.089976
  0.111637
 -0.115745
 -0.301808
  0.040144
 -0.089201
  0.119486
  0.117296
  0.161795
 -0.045814
 -0.090854
 -0.075208
 -0.152266
  0.003386
  0.014905
 -0.123492
  0.099956
  0.014477
 -0.227147
  0.058036
  0.018028
 -0.020479
  0.023361
 -0.017457
  0.152099
  0.074929
  0.132168
  0.017550
  0.091439
  0.187101
 -0.138145
  0.067582
 -0.096570
  0.030844
 -0.092928
 -0.031015
 -0.080362
  0.093225
 -0.045276
 -0.103067
  0.105986
  0.000058
 -0.191063
  0.187498
  0.090479
 -0.026940
  0.025425
  0.030695
  0.047444
  0.097450
  0.055725
  0.036298
  0.110646
  0.050288
  0.166198
  0.077728
  0.096351
  0.150319
 -0.003578
 -0.007591
 -0.130816
  0.134748
  0.067797
 -0.001312
  0.094633
  0.016678
 -0.073354
  0.073626
  0.053898
 -0.056652
 -0.097434
 -0.043921
 -0.064475
 -0.136654
 -0.006619
  0.049961
  0.010986
 -0.056330
 -0.046465
  0.027897
  0.190618
  0.048557
  0.098887
 -0.035792
  0.127915
  0.040274
  0.001397
 -0.061257
  0.050683
 -0.009106
  0.095997
  0.168879
 -0.054887
 -0.085708
 -0.039436
  0.027278
  0.051497
 -0.090019
  0.035037
  0.032077
 -0.016821
  0.034786
 -0.008946
 -0.154892
  0.002435
 -0.151338
  0.062519
  0.149932
  0.072216
  0.019693
  0.012631
  0.052787
  0.112748
 -0.041188
 -0.145787
 -0.086346
 -0.080717
 -0.010119
  0.090504
  0.128679
 -0.028182
  0.040703
 -0.012225
 -0.088481
  0.009096
  0.106593
 -0.057289
 -0.276075
 -0.136465
 -0.026811
 -0.022750
 -0.136958
  0.058449
 -0.101206
 -0.209462
 -0.084510
  0.102586
  0.103589
 -0.117794
 -0.055987
 -0.029180
 -0.010115
  0.020290
  0.071814
  0.060540
 -0.103365
 -0.136323
 -0.064129
 -0.195574
 -0.057643
  0.066102
 -0.066619
 -0.126813
 -0.013903
  0.032995
 -0.039245
  0.132688
  0.167550
  0.030768
 -0.082273
 -0.190564
 -0.143332
  0.115155
 -0.049513
 -0.028414
 -0.095537
  0.061779
  0.008552
  0.061725
 -0.031742
  0.044041
 -0.046539
  0.039116
 -0.122504
  0.031129
  0.000470
  0.194066
 -0.120922
 -0.038830
 -0.045116
  0.049050
  0.166785
 -0.059262
 -0.070633
 -0.040983
 -0.157782
 -0.164222
 -0.014951
  0.117804
 -0.082093
 -0.036574
 -0.036530
 -0.013687
  0.044922
 -0.042523
 -0.078629
 -0.030133
 -0.041253
 -0.218798
 -0.115731
 -0.031961
 -0.038616
 -0.059587
  0.074026
 -0.153820
 -0.106426
 -0.014780
 -0.054420
  0.081200
  0.046150
  0.117803
  0.005200
  0.037398
  0.003254
  0.043814
  0.008807
 -0.117035
 -0.009142
 -0.013146
  0.132541
 -0.005137
  0.000186
  0.074953
 -0.046038
 -0.003165
 -0.015046
  0.018272
  0.130330
  0.047810
 -0.013236
 -0.010116
  0.011651
 -0.017951
  0.068353
 -0.087508
  0.133263
  0.061464
 -0.010354
  0.140528
  0.148587
  0.176980
  0.053547
 -0.065196
  0.026786
  0.042175
 -0.083601
 -0.085084
 -0.044343
 -0.104799
 -0.148646
 -0.037745
  0.112676
  0.028618
  0.012155
 -0.120816
 -0.037810
 -0.052049
  0.119837
  0.058040
  0.081948
 -0.044273
  0.018278
  0.087050
 -0.201487
 -0.134250
 -0.068722
 -0.137461
 -0.191671
 -0.061893
  0.190492
 -0.051380
 -0.021949
 -0.104704
  0.002396
  0.010439
  0.057433
 -0.038934
  0.094440
 -0.028450
  0.052820
  0.137353
 -0.014802
  0.028431
 -0.071729
  0.062125
  0.016045
 -0.179116
  0.036630
 -0.172382
 -0.039781
  0.094196
  0.008608
 -0.107081
 -0.013810
 -0.025899
 -0.024645
  0.012845
  0.020262
 -0.105451
 -0.010178
 -0.107703
  0.057217
  0.002084
 -0.091670
 -0.028507
  0.105441
 -0.011402
 -0.162995
  0.039807
 -0.161922
  0.013977
  0.063161
  0.071014
 -0.028923
  0.047579
 -0.047422
  0.177482
 -0.047914
 -0.004848
  0.058722
  0.063638
 -0.054186
 -0.126170
  0.062446
  0.080014
 -0.086145
 -0.055029
  0.039982
  0.075600
 -0.019263
  0.037927
  0.138192
 -0.029501
  0.083624
  0.025173
  0.109704
  0.027691
 -0.057945
  0.052125
 -0.028836
  0.097835
 -0.062498
 -0.069038
  0.091880
  0.054285
 -0.049142
  0.140905
  0.090777
  0.052425
 -0.021108
 -0.019835
 -0.105571
 -0.096253
 -0.142022
  0.092373
 -0.101512
 -0.019609
 -0.153107
  0.094183
  0.045053
 -0.077455
  0.129943
  0.092107
 -0.056611
 -0.038822
  0.147864
  0.114467
 -0.029840
  0.071393
  0.262676
  0.091485
  0.091329
  0.104283
 -0.110610
  0.078112
  0.066794
 -0.141045
 -0.114352
 -0.149625
  0.053356
  0.239540
  0.230271
  0.098541
  0.068764
 -0.003648
  0.060174
  0.158767
  0.041740
 -0.009331
 -0.015615
 -0.086530
  0.049650
  0.010179
  0.025468
  0.139717
 -0.126308
  0.054901
 -0.083859
 -0.217207
  0.146185
 -0.139513
  0.072709
 -0.088454
 -0.134924
 -0.022702
  0.074278
  0.045922
 -0.054016
  0.050061
  0.248259
  0.081986
 -0.100851
  0.114874
  0.132618
 -0.095578
 -0.071583
 -0.025625
  0.170451
  0.220885
 -0.066634
  0.035009
  0.071567
  0.014700
 -0.061160
  0.042963
 -0.054796
 -0.010097
 -0.033385
  0.163099
 -0.002100
 -0.100071
 -0.059117
 -0.177082
 -0.143739
  0.016641
 -0.058353
 -0.080775
 -0.069596
 -0.014436
 -0.018748
  0.090785
 -0.090259
 -0.150578
  0.196449
  0.160508
  0.163152
  0.154120
  0.016080
  0.151551
  0.115573
  0.063384
 -0.038764
 -0.056824
 -0.083278
 -0.034479
  0.071732
 -0.068012
 -0.053721
 -0.010273
 -0.199632
 -0.159461
  0.182769
  0.087456
 -0.054401
  0.065343
  0.011585
  0.064219
  0.060711
 -0.023676
 -0.065240
  0.181768
 -0.129771
 -0.022856
  0.046600
 -0.108478
 -0.007271
  0.161890
 -0.051900
 -0.232158
  0.068515
 -0.213846
 -0.078211
  0.185447
 -0.017009
  0.222880
 -0.012847
 -0.049776
 -0.128936
  0.129788
 -0.142952
  0.121512
  0.096395
 -0.007452
 -0.127468
 -0.004040
  0.063086
 -0.058407
 -0.160781
 -0.110374
 -0.080370
  0.174467
 -0.136543
 -0.065504
  0.064924
 -0.169667
 -0.054605
 -0.212482
 -0.034428
  0.157773
  0.081320
 -0.055300
 -0.030924
 -0.155820
 -0.053587
 -0.031482
 -0.110997
  0.022607
 -0.299356
  0.109626
 -0.052099
  0.031590
 -0.097167
 -0.138460
  0.059924
 -0.134148
 -0.045416
  0.182551
  0.004106
  0.092604
 -0.132884
 -0.132258
 -0.198226
  0.021289
  0.150136
 -0.135276
  0.261007
  0.195283
  0.071818
  0.065563
  0.038812
  0.072245
 -0.041879
  0.053239
 -0.139288
  0.002172
 -0.073021
  0.024160
  0.084240
  0.045240
  0.017833
 -0.083611
  0.065362
 -0.049002
 -0.047160
  0.178704
 -0.031837
  0.055994
 -0.074392
 -0.036864
 -0.076624
 -0.051265
  0.016969
 -0.030878
  0.068615
  0.061270
 -0.047719
  0.044387
 -0.011776
 -0.019171
  0.091568
 -0.084509
  0.038462
 -0.239076
 -0.144253
 -0.112926
  0.137866
  0.051681
 -0.155406
  0.214147
  0.042652
 -0.021176
  0.013378
 -0.040595
  0.062653
  0.222182
 -0.156303
  0.019726
 -0.001510
 -0.017575
  0.077378
 -0.159052
  0.098574
 -0.076118
 -0.197887
  0.061757
 -0.098682
 -0.072756
  0.045125
  0.015663
  0.057202
 -0.100412
  0.047918
 -0.100658
  0.112794
  0.117587
  0.017499
 -0.049398
  0.119488
 -0.129395
  0.078574
  0.015476
  0.026436
  0.138135
  0.284132
  0.213754
  0.241260
  0.262470
  0.256312
  0.074115
  0.173852
  0.221892
  0.167855
  0.150525
 -0.002571
  0.207031
  0.049067
  0.031854
  0.238366
  0.028515
  0.247251
  0.171470
  0.116254
  0.114508
 -0.160594
 -0.019165
  0.049591
  0.136900
  0.016255
  0.110135
  0.113947
 -0.062942
 -0.193780
 -0.246340
  0.042061
 -0.056396
  0.116458
  0.138200
  0.157271
  0.175316
  0.061948
  0.144204
  0.059932
  0.033491
  0.342084
  0.179542
  0.252047
  0.310523
  0.363821
  0.397018
  0.442431
  0.554523
  0.338314
  0.417941
  0.492614
  0.593572
  0.547921
  0.667427
  0.627114
  0.814944
  1.000000
  0.858598
  0.954300
  0.860028
  0.864340
  0.921345
  0.810610
  0.831641
  0.763413
  0.767229
  0.793276
  0.539118
  0.423998
  0.409685
  0.180672
  0.401797
  0.221417
  0.370782
  0.184821
  0.144141
  0.072663
  0.035142
 -0.090810
  0.052173
  0.112275
  0.114084
  0.122598
 -0.010306
 -0.016701
  0.039422
 -0.137569
 -0.095336
  0.096116
  0.078958
  0.075795
  0.026858
  0.085164
 -0.111249
  0.060827
 -0.063675
 -0.293407
  0.005977
 -0.068539
 -0.087382
 -0.079540
 -0.304663
 -0.022500
  0.035774
  0.001694
 -0.050314
 -0.022026
  0.057698
 -0.030312
 -0.052620
  0.148261
  0.050453
 -0.095541
 -0.263936
 -0.117536
  0.031538
 -0.069008
  0.022994
  0.043070
  0.194425
 -0.001048
  0.041517
  0.137816
  0.011421
 -0.129174
 -0.183674
 -0.029801
  0.005878
  0.075183
  0.041570
  0.047521
  0.143666
  0.072865
 -0.102437
 -0.013587
 -0.068492
  0.064550
 -0.079200
 -0.037252
  0.108631
  0.021103
 -0.005872
  0.105110
  0.217298
 -0.002637
  0.026764
  0.082300
  0.137751
  0.036731
  0.066967
  0.067013
  0.083037
  0.021287
  0.014393
  0.041297
  0.087618
 -0.102690
 -0.096813
  0.090433
 -0.153418
  0.024618
  0.018930
  0.156760
  0.105736
  0.013119
 -0.046802
 -0.040669
  0.168443
 -0.028590
 -0.088070
 -0.205283
  0.051700
  0.036035
  0.044157
 -0.068268
 -0.090370
  0.031434
 -0.070326
 -0.033395
  0.162154
  0.053269
  0.023573
 -0.135649
 -0.086356
  0.030203
  0.030763
  0.175401
 -0.078869
 -0.140701
 -0.144128
 -0.055526
 -0.009886
 -0.091354
 -0.066015
 -0.037095
  0.001123
  0.018219
 -0.012156
  0.007988
 -0.094811
  0.018394
 -0.049839
 -0.093026
 -0.013519
 -0.067643
 -0.112822
  0.012072
  0.038353
 -0.037165
 -0.119181
  0.068887
  0.093918
  0.076626
  0.009693
 -0.093494
  0.054286
  0.153963
 -0.237510
  0.093980
  0.159441
 -0.195601
  0.014664
  0.000157
  0.083428
  0.139722
  0.258141
 -0.041266
  0.080175
 -0.011242
 -0.099769
  0.071172
 -0.134028
 -0.144642
  0.059169
 -0.013565
 -0.131268
  0.059627
  0.020607
  0.049167
  0.065630
 -0.044997
  0.048408
  0.010128
 -0.026261
 -0.133764
  0.011437
 -0.048841
 -0.060518
 -0.021873
 -0.114928
 -0.051700
 -0.188229
 -0.238095
 -0.164268
  0.133047
  0.031428
 -0.120678
  0.002204
  0.086625
  0.113443
 -0.017109
  0.010445
 -0.020114
 -0.116595
  0.084437
 -0.143608
 -0.059675
 -0.172451
 -0.011557
  0.126231
 -0.141954
 -0.025050
 -0.120284
  0.155758
 -0.047200
 -0.006752
 -0.189225
  0.163024
 -0.018144
  0.026799
  0.079175
  0.175053
  0.047046
 -0.135008
 -0.284725
  0.087516
  0.072307
 -0.149380
 -0.043843
  0.007174
  0.040682
  0.044705
 -0.097564
 -0.151828
  0.080753
 -0.039616
 -0.252057
 -0.073310
  0.100509
  0.104351
 -0.214836
 -0.041620
 -0.114598
  0.130649
 -0.015161
  0.064345
 -0.187094
 -0.114825
  0.032397
 -0.148474
  0.068274
  0.024518
 -0.043256
 -0.055183
  0.157504
  0.032577
  0.006130
  0.318833
  0.086020
  0.117667
 -0.034198
 -0.106230
  0.055173
  0.068715
  0.046778
  0.100646
 -0.017631
  0.020106
 -0.054838
 -0.172385
 -0.009695
 -0.022578
  0.040322
  0.035186
 -0.001387
 -0.190206
  0.132139
  0.082137
  0.142793
 -0.106717
 -0.039639
  0.169554
 -0.205681
  0.064425
 -0.071296
 -0.107407
 -0.081258
  0.100045
 -0.079066
  0.129577
 -0.125919
 -0.010821
  0.054767
  0.014128
  0.048427
  0.059007
 -0.056858
 -0.039976
 -0.076723
  0.014960
 -0.004591
 -0.004712
 -0.091468
  0.004749
  0.038780
 -0.004114
 -0.015631
 -0.030092
  0.115938
 -0.006469
  0.032904
 -0.124423
  0.121048
  0.239843
 -0.054816
 -0.086019
 -0.018636
 -0.032843
  0.143079
 -0.017826
  0.144842
  0.145591
 -0.248310
 -0.234738
  0.064144
 -0.007687
 -0.042510
  0.083016
  0.181374
 -0.068894
 -0.008355
 -0.210129
  0.180744
 -0.172619
  0.040604
  0.038986
  0.020182
  0.066559
  0.134831
  0.054011
 -0.034221
  0.052374
  0.100217
 -0.031564
  0.043889
  0.090252
  0.094089
 -0.046952
  0.008687
 -0.056751
  0.077163
  0.224265
  0.091405
 -0.057030
  0.085258
  0.064177
  0.191882
 -0.041145
 -0.034450
 -0.158003
  0.022118
  0.086506
  0.015602
  0.068709
 -0.015306
 -0.056605
  0.065794
 -0.031796
  0.250009
  0.119337
  0.020742
 -0.082857
 -0.065056
  0.180453
  0.065886
 -0.037357
 -0.113302
  0.004092
 -0.093099
 -0.089151
  0.037946
 -0.045640
  0.079108
 -0.080385
 -0.003482
 -0.095942
 -0.020509
 -0.017443
  0.137319
 -0.038467
 -0.156607
  0.020036
 -0.140733
  0.115736
  0.024612
  0.098785
  0.039950
  0.097700
 -0.022864
  0.025315
  0.000927
  0.020298
 -0.045837
 -0.077666
 -0.026811
 -0.119669
 -0.018558
  0.159405
  0.045475
  0.128385
  0.204019
  0.040728
 -0.069405
 -0.060124
 -0.005245
  0.089230
  0.082246
  0.118415
  0.227441
  0.095755
 -0.203798
  0.031477
  0.039365
  0.118404
  0.082694
 -0.146538
 -0.013507
  0.097158
  0.037124
 -0.046260
 -0.007518
  0.031785
  0.018421
  0.009214
  0.206612
  0.000155
  0.106676
 -0.020469
 -0.008151
 -0.084149
 -0.014861
 -0.003947
  0.055774
  0.084883
  0.145413
 -0.037204
 -0.014237
 -0.073806
  0.063006
 -0.124188
  0.068112
  0.133684
 -0.170551
  0.080345
 -0.022244
 -0.044728
 -0.171368
  0.024796
  0.087550
  0.025954
 -0.015587
 -0.134701
 -0.018429
 -0.019252
 -0.037511
 -0.048494
 -0.092244
  0.112779
  0.028011
  0.121878
  0.096897
 -0.006566
 -0.053241
 -0.148339
  0.091024
  0.210713
 -0.067478
  0.064789
 -0.177575
  0.108192
 -0.028482
  0.051418
 -0.031865
  0.187594
 -0.079791
 -0.078418
 -0.022806
  0.195481
 -0.059465
 -0.035061
 -0.079604
 -0.110733
 -0.021513
 -0.045135
  0.068829
 -0.054528
 -0.082649
 -0.160027
 -0.087947
  0.018462
  0.099593
  0.184226
 -0.078757
  0.138050
 -0.027716
  0.187623
 -0.128251
  0.178941
  0.057675
 -0.101671
 -0.007922
 -0.148200
  0.055050
  0.013511
  0.031127
  0.051217
 -0.066886
  0.045906
 -0.102547
  0.071506
 -0.054442
 -0.216634
 -0.091742
  0.131871
  0.088967
  0.050865
  0.110744
 -0.046295
  0.001237
  0.020521
 -0.105360
  0.088799
 -0.038771
 -0.013003
 -0.114692
 -0.137433
 -0.017428
  0.039790
  0.064199
 -0.110778
 -0.003213
 -0.019256
 -0.100338
  0.218280
  0.073867
 -0.160113
  0.075720
 -0.030978
  0.030661
 -0.127182
  0.060549
 -0.283596
 -0.011597
  0.135841
 -0.077281
 -0.072024
  0.110944
 -0.185262
 -0.084716
 -0.115153
  0.039727
 -0.071498
 -0.026997
 -0.184755
 -0.080121
  0.004899
 -0.021839
 -0.028498
  0.113664
 -0.069646
  0.042662
  0.007132
  0.126908
 -0.013943
  0.188322
 -0.167467
 -0.018631
  0.183928
 -0.113186
 -0.098507
 -0.093338
  0.168745
  0.046229
  0.152794
  0.085968
 -0.012805
 -0.059222
 -0.051431
 -0.087559
 -0.070206
 -0.010563
 -0.010872
  0.117493
 -0.001910
  0.005367
  0.045783
 -0.051883
 -0.238643
 -0.034250
 -0.063734
  0.049138
  0.002842
  0.017964
 -0.026758
  0.062801
 -0.176515
  0.169272
 -0.090711
 -0.072296
  0.170521
 -0.022582
 -0.032448
 -0.058624
 -0.156627
  0.065305
  0.056371
  0.054504
 -0.230769
  0.047514
  0.074343
  0.078885
  0.008048
 -0.130264
 -0.022937
 -0.001124
  0.096257
  0.209417
 -0.056535
 -0.139680
  0.132329
 -0.157218
  0.013915
 -0.040586
 -0.140728
  0.130728
  0.152877
  0.150085
  0.165503
 -0.090370
  0.044910
  0.110847
  0.072272
 -0.014260
 -0.112354
  0.174870
  0.014501
 -0.235892
  0.106609
 -0.080175
 -0.066870
  0.128520
 -0.100598
  0.024077
 -0.044566
  0.062130
 -0.021876
 -0.114313
  0.036342
  0.083150
  0.045246
  0.045186
  0.025416
 -0.264545
 -0.146602
  0.145839
  0.023987
 -0.033371
  0.176186
 -0.040019
 -0.093133
 -0.079164
 -0.047744
 -0.058339
 -0.030438
  0.086302
 -0.148033
  0.020809
 -0.016269
 -0.121725
 -0.117487
 -0.076804
 -0.062542
  0.051861
 -0.018305
  0.146551
 -0.029542
  0.005033
 -0.032500
 -0.053030
 -0.009180
  0.087050
 -0.012176
  0.081427
 -0.077487
 -0.057131
 -0.084775
  0.103757
  0.052637
  0.107438
 -0.183770
  0.001220
  0.133731
  0.086788
  0.054798
  0.038888
  0.124277
  0.105871
  0.136832
  0.024028
  0.061667
 -0.068835
  0.118026
 -0.175364
 -0.136298
  0.007123
  0.027397
 -0.026077
 -0.058791
 -0.031971
  0.220037
  0.004502
 -0.060408
 -0.021179
 -0.025226
  0.047807
 -0.041985
 -0.033723
 -0.008782
  0.010434
 -0.145844
 -0.014065
  0.022666
  0.123626
 -0.134331
  0.006021
  0.046622
 -0.029242
 -0.005864
 -0.146531
 -0.042981
  0.123682
  0.098291
 -0.075345
  0.113391
  0.005007
  0.074076
  0.015220
 -0.019488
 -0.059974
 -0.078706
  0.094413
 -0.132559
 -0.058870
 -0.007409
  0.163361
  0.056824
 -0.141849
  0.100790
 -0.031557
 -0.006884
  0.185020
  0.130745
 -0.036093
  0.174342
 -0.001720
 -0.054740
  0.115907
 -0.137272
 -0.117909
  0.095028
  0.216672
 -0.054396
  0.016312
  0.052868
  0.007883
  0.017582
  0.028615
  0.042529
  0.012391
 -0.082321
  0.163513
 -0.051324
  0.011681
  0.161547
 -0.046725
 -0.061975
 -0.010528
 -0.108254
 -0.215697
 -0.127304
  0.024617
  0.002595
  0.011845
 -0.218432
 -0.086189
 -0.036996
  0.092790
 -0.028382
  0.077358
 -0.102076
 -0.019389
  0.004513
  0.025676
 -0.183360
  0.019109
 -0.125350
  0.007336
 -0.047920
  0.076011
  0.066332
 -0.001557
  0.004783
  0.054758
  0.175562
 -0.041476
 -0.126984
  0.180278
 -0.069262
  0.007135
 -0.016193
  0.016383
  0.067273
  0.145847
 -0.070192
  0.061460
 -0.085596
 -0.178450
  0.105452
  0.054284
 -0.006427
  0.049367
  0.003313
  0.180746
 -0.141976
 -0.138465
  0.150306
  0.101359
 -0.100803
 -0.044158
 -0.198880
  0.117713
 -0.028143
 -0.014182
  0.080180
 -0.046271
  0.138804
  0.096584
 -0.086561
 -0.026068
 -0.224646
 -0.069561
 -0.066083
  0.018110
  0.044671
  0.004300
 -0.083334
  0.077885
  0.165175
 -0.090139
  0.056082
 -0.131421
  0.008512
  0.039459
 -0.140712
  0.070838
 -0.145080
 -0.034634
  0.047026
  0.048807
  0.044988
 -0.028924
  0.038817
  0.142469
 -0.049743
  0.001384
 -0.165232
 -0.019602
  0.036080
  0.029647
  0.022606
  0.028993
  0.024518
  0.007133
  0.048104
  0.013662
  0.035366
 -0.163915
 -0.029991
 -0.007296
  0.061235
 -0.017088
  0.023923
 -0.086793
  0.025583
  0.036589
  0.065294
  0.161194
 -0.029042
 -0.150541
  0.012220
 -0.027437
  0.088941
  0.046230
 -0.092391
 -0.050002
 -0.127490
 -0.082575
 -0.215833
 -0.022301
 -0.015232
 -0.138728
  0.060321
  0.103224
 -0.029649
  0.135363
  0.211304
  0.102246
  0.111942
  0.020766
 -0.034212
 -0.135635
 -0.059802
 -0.060746
 -0.014191
 -0.005874
  0.097805
 -0.006471
  0.116452
 -0.055130
  0.176308
  0.065434
  0.028891
  0.158444
  0.031527
 -0.033935
 -0.008191
  0.085524
 -0.017274
 -0.033063
 -0.056782
  0.045026
  0.006326
 -0.029779
 -0.094400
 -0.020173
 -0.092168
 -0.068522
 -0.002024
 -0.027342
  0.030098
 -0.003892
  0.063077
  0.114311
  0.217417
 -0.126083
  0.168823
 -0.017016
  0.128896
  0.002887
 -0.058036
 -0.023603
  0.023901
 -0.056209
 -0.052545
 -0.191066
  0.029266
 -0.212027
  0.095954
  0.036309
  0.067571
 -0.036208
 -0.063958
  0.101345
  0.026643
 -0.014947
 -0.036299
  0.046305
 -0.058543
 -0.002808
  0.165187
  0.069415
 -0.085059
 -0.020276
 -0.117259
 -0.195762
 -0.072998
 -0.093320
  0.095414
  0.054241
  0.080906
 -0.054168
 -0.068401
  0.103004
 -0.080824
 -0.110915
 -0.024144
 -0.067108
 -0.195448
  0.086218
 -0.013548
  0.085492
  0.051879
  0.009611
 -0.218412
 -0.094776
 -0.021374
  0.085178
  0.106573
  0.074619
  0.034487
 -0.089733
  0.018141
  0.025311
  0.044735
  0.021296
  0.166439
  0.047195
 -0.066600
  0.025514
  0.003811
 -0.202843
 -0.090710
  0.119624
  0.113418
 -0.109021
  0.000653
  0.147174
 -0.087459
  0.122048
  0.013613
 -0.078356
 -0.040364
 -0.057363
 -0.062090
 -0.112402
 -0.004602
  0.135867
  0.086563
 -0.129692
  0.199452
  0.218160
 -0.069946
  0.034577
  0.128588
  0.159265
 -0.036674
  0.099606
  0.044667
  0.069753
  0.069267
 -0.153032
 -0.011242
 -0.055209
  0.149599
 -0.034547
  0.093479
  0.140374
  0.197275
  0.039792
 -0.084665
 -0.113883
 -0.033409
 -0.019766
 -0.001949
 -0.132549
 -0.012647
  0.215067
  0.022787
 -0.049767
 -0.055162
 -0.110436
  0.065436
  0.052884
  0.089742
 -0.137910
 -0.176023
  0.047740
  0.084197
  0.030884
  0.085827
  0.011877
  0.042961
  0.074858
 -0.021968
  0.053468
  0.168932
  0.032498
 -0.193980
  0.046441
  0.037313
  0.068204
  0.058778
 -0.046780
 -0.136370
  0.041655
 -0.044520
 -0.085419
 -0.014032
  0.061024
  0.046138
 -0.012349
 -0.119996
  0.086037
 -0.186072
 -0.064890
 -0.127600
 -0.020180
  0.003420
 -0.239110
  0.006745
  0.053402
 -0.070794
 -0.033629
  0.076201
  0.109295
  0.056814
 -0.037372
 -0.014942
 -0.250661
 -0.074776
  0.193985
  0.101463
 -0.093397
  0.135271
  0.025011
 -0.184852
 -0.034701
 -0.007226
  0.066974
 -0.130965
 -0.039177
  0.081070
  0.133292
 -0.060687
 -0.092301
 -0.040389
  0.057370
  0.001847
 -0.167427
 -0.108699
  0.107101
 -0.100127
  0.188180
 -0.151745
 -0.044177
 -0.046456
  0.121838
  0.054090
 -0.237758
 -0.023127
  0.100289
  0.069209
 -0.163179
  0.098221
 -0.142703
 -0.073397
 -0.134864
  0.023934
  0.108276
  0.072060
  0.025415
 -0.021088
 -0.036212
 -0.092621
  0.058433
 -0.141012
  0.149698
 -0.029628
  0.118156
 -0.097520
 -0.103194
  0.173036
 -0.008323
  0.063407
 -0.169962
 -0.062840
 -0.063964
 -0.055996
  0.023693
  0.033831
 -0.172488
 -0.030801
  0.038198
 -0.167788
 -0.092702
  0.050168
  0.082241
  0.036144
 -0.163288
 -0.215320
  0.135520
  0.045837
  0.161201
 -0.205500
  0.005786
 -0.093344
  0.090416
 -0.082547
 -0.075204
 -0.029599
  0.032940
  0.014953
 -0.086196
 -0.042280
  0.030189
  0.009681
  0.256643
 -0.017587
  0.072720
 -0.186701
  0.025020
  0.007995
  0.133512
 -0.077897
  0.172195
 -0.088352
 -0.060607
  0.192833
 -0.030383
 -0.040481
 -0.004835
  0.045746
  0.046545
  0.243281
  0.080770
  0.037479
 -0.048229
  0.046521
  0.030420
 -0.005915
 -0.003022
  0.129017
 -0.096964
  0.074707
 -0.023275
 -0.118549
  0.015447
 -0.109060
 -0.029966
 -0.027925
 -0.095144
 -0.051997
  0.161810
  0.116075
 -0.043846
  0.119771
  0.089079
  0.078022
  0.071180
  0.276969
 -0.121876
 -0.127439
 -0.088124
 -0.034833
  0.042282
  0.135214
 -0.137878
  0.161750
  0.050863
  0.201395
 -0.029461
  0.124446
 -0.147844
  0.055330
 -0.079978
  0.071821
 -0.069459
  0.065829
  0.107704
 -0.078264
  0.136285
  0.057599
 -0.072954
  0.162677
 -0.073106
 -0.073759
 -0.003724
 -0.058469
 -0.026077
 -0.121136
 -0.100755
 -0.002895
  0.009847
  0.040840
 -0.109331
 -0.045896
  0.131883
  0.012573
  0.124321
  0.004366
 -0.004294
 -0.146060
 -0.039012
 -0.044189
  0.152153
 -0.063044
  0.043548
  0.078334
  0.029611
 -0.089900
 -0.009621
 -0.143541
 -0.029228
  0.007080
 -0.105831
 -0.051680
 -0.064053
 -0.102304
 -0.046776
 -0.076275
 -0.054607
  0.005058
 -0.005166
  0.019231
  0.063597
 -0.078512
  0.116398
 -0.096125
  0.058342
  0.160435
  0.087432
 -0.110196
 -0.104081
 -0.108405
 -0.043456
  0.275956
  0.114571
  0.094890
 -0.105928
  0.042441
 -0.043479
 -0.067645
  0.153572
 -0.084218
  0.107896
  0.122354
  0.043826
 -0.050529
  0.044443
  0.114883
 -0.115068
  0.060237
 -0.040146
  0.126567
  0.253289
 -0.027057
  0.101183
 -0.010217
 -0.030664
  0.075348
  0.016119
  0.027806
  0.005944
 -0.027717
 -0.105605
 -0.080575
  0.031173
 -0.049445
  0.001615
  0.117930
  0.043385
 -0.224088
 -0.066320
 -0.041996
 -0.001619
 -0.052802
  0.132932
  0.049042
 -0.115004
 -0.090867
  0.136666
 -0.005829
 -0.135775
  0.054090
 -0.017787
 -0.019565
  0.010319
 -0.096542
  0.135152
 -0.086645
 -0.087603
  0.033049
 -0.285284
 -0.074922
  0.007588
 -0.166792
 -0.123562
 -0.034017
  0.018255
  0.058352
  0.122677
  0.029366
  0.000645
  0.085059
 -0.025500
 -0.113935
 -0.181127
  0.087542
  0.026161
 -0.080164
 -0.025164
 -0.189915
  0.239272
 -0.083414
  0.072083
 -0.045775
 -0.148571
 -0.087107
 -0.108064
 -0.029917
  0.005403
 -0.016857
  0.101420
 -0.040556
 -0.058846
 -0.056623
  0.030033
 -0.086840
 -0.032071
  0.056527
 -0.002037
 -0.145524
  0.043045
 -0.079302
  0.036642
  0.084883
  0.038451
  0.042182
 -0.026886
  0.002403
 -0.044406
 -0.036965
 -0.026888
  0.022294
  0.003403
  0.085661
  0.030251
  0.248699
 -0.017041
 -0.095042
  0.053971
  0.033467
 -0.097628
  0.067514
  0.001381
  0.106832
 -0.130876
 -0.146951
 -0.055580
 -0.356514
 -0.023595
 -0.173131
 -0.055551
  0.013735
  0.110062
  0.091203
  0.012539
  0.013599
  0.001513
  0.152305
  0.042392
  0.103199
  0.073468
  0.047281
  0.070243
  0.094348
 -0.113887
  0.088276
  0.015553
  0.106972
  0.065469
 -0.081950
  0.190110
  0.059583
  0.226317
  0.058008
 -0.034294
  0.055605
 -0.119041
  0.040830
  0.082838
 -0.139081
  0.030588
 -0.017780
 -0.042387
  0.077445
  0.000686
  0.172664
 -0.059719
  0.121333
 -0.052598
 -0.013404
 -0.195985
 -0.090441
  0.061925
 -0.025495
 -0.153775
 -0.042769
 -0.026796
  0.042205
  0.056824
  0.077250
 -0.199806
  0.043350
 -0.128967
  0.143091
  0.023630
  0.024752
  0.160999
  0.091533
  0.068689
  0.183673
  0.087211
  0.013140
  0.030112
 -0.035069
 -0.092206
 -0.007345
  0.058605
 -0.025739
  0.079089
  0.005917
 -0.038525
  0.013283
  0.249316
  0.139069
  0.002748
  0.067448
  0.071634
 -0.136444
 -0.069261
  0.120279
  0.004378
  0.017953
  0.077682
 -0.020724
  0.115962
  0.031281
  0.187634
 -0.095190
 -0.186215
 -0.135062
  0.057989
 -0.028697
  0.024252
  0.044889
  0.046881
  0.018655
 -0.038257
  0.011180
  0.012131
 -0.045790
 -0.183501
  0.179615
 -0.068927
 -0.000012
  0.154655
 -0.076077
 -0.178959
 -0.100971
  0.065818
  0.072636
  0.056172
 -0.024892
  0.125563
  0.012334
  0.037305
 -0.014424
 -0.023162
 -0.075333
  0.051985
 -0.192410
 -0.039945
 -0.015842
  0.054511
  0.079454
 -0.118057
 -0.080188
 -0.117964
 -0.014018
  0.105530
 -0.024238
  0.078793
  0.038226
 -0.002149
 -0.179890
  0.167530
 -0.106837
  0.076758
 -0.041627
  0.136770
 -0.050478
 -0.157037
 -0.130923
  0.143447
  0.131692
  0.203177
 -0.150870
  0.025823
 -0.169278
 -0.099672
  0.183772
  0.096889
  0.141416
 -0.047416
  0.164856
 -0.021842
 -0.075280
 -0.109304
 -0.149915
  0.023317
  0.094592
 -0.147959
  0.122752
 -0.094630
  0.013236
 -0.094165
  0.128133
 -0.017984
  0.044253
 -0.074943
 -0.025584
  0.114839
  0.043678
  0.035915
 -0.062825
 -0.075632
 -0.098858
 -0.036049
 -0.058968
 -0.185806
  0.127095
  0.100606
  0.055518
 -0.002965
  0.046525
  0.003630
 -0.093433
 -0.020751
  0.155856
 -0.043415
 -0.003086
  0.208658
 -0.144588
 -0.081374
  0.109995
 -0.028128
 -0.140732
 -0.084119
  0.084133
  0.125668
 -0.000266
  0.069173
  0.036250
  0.013391
 -0.147395
 -0.143953
  0.061709
 -0.108098
 -0.159668
  0.133397
  0.128389
  0.013998
  0.083400
 -0.195284
  0.037531
  0.048634
 -0.041868
 -0.084024
  0.125910
  0.008087
  0.113717
 -0.080325
  0.073624
  0.024993
 -0.063392
  0.001832
  0.124890
  0.001554
 -0.157521
  0.203928
  0.027664
 -0.103188
 -0.018991
  0.064921
  0.135930
 -0.066301
  0.005610
  0.101587
  0.022654
 -0.182716
  0.142639
  0.001419
 -0.155470
 -0.092339
 -0.015085
  0.108371
  0.107687
  0.132493
  0.057400
  0.075815
 -0.221376
  0.126154
  0.020158
 -0.234153
  0.031906
  0.153932
  0.018080
  0.055835
  0.132668
  0.106536
 -0.046182
 -0.056739
  0.083169
 -0.042876
  0.066416
 -0.024489
 -0.079308
  0.049856
  0.046126
 -0.016935
  0.061527
  0.098922
  0.065933
  0.015032
  0.039760
 -0.063842
  0.233182
  0.019631
 -0.056737
  0.037670
 -0.153248
  0.000455
 -0.007269
 -0.090721
 -0.004768
 -0.034628
  0.029194
  0.012489
 -0.126973
 -0.047127
 -0.036197
 -0.055771
 -0.009046
 -0.126324
  0.098607
 -0.094692
  0.171391
 -0.054725
  0.149515
 -0.099337
 -0.038727
  0.057959
 -0.001457
  0.154904
 -0.042954
 -0.043511
  0.085278
  0.030802
  0.030389
 -0.054053
 -0.071919
 -0.140267
  0.052780
 -0.143849
 -0.079715
 -0.126837
 -0.068813
 -0.007654
 -0.075574
  0.009454
 -0.083086
 -0.019669
  0.054962
 -0.011993
 -0.049310
 -0.068960
  0.011099
 -0.011336
  0.013612
  0.016219
 -0.070351
  0.044083
  0.038885
  0.162858
 -0.089897
  0.099267
 -0.017774
 -0.205772
  0.002708
  0.036318
 -0.031114
 -0.058239
 -0.118530
 -0.070673
  0.012227
  0.076646
 -0.144946
 -0.070341
 -0.053881
  0.059507
  0.004789
 -0.128563
  0.004492
  0.058770
 -0.056243
  0.040346
  0.135624
 -0.016729
 -0.021458
 -0.158520
 -0.058161
  0.022172
 -0.127784
 -0.054600
 -0.215043
 -0.015589
  0.089104
  0.102406
 -0.043907
 -0.230317
  0.106324
  0.072249
  0.100559
  0.105483
 -0.025239
 -0.000234
  0.015390
 -0.074958
  0.013006
 -0.031082
  0.090483
  0.038651
  0.029087
  0.099209
 -0.006007
 -0.026890
  0.066987
 -0.078403
  0.064300
 -0.055886
 -0.096317
  0.118670
 -0.022401
  0.082574
  0.020571
  0.062488
 -0.026097
 -0.020122
  0.050738
 -0.072530
 -0.155599
 -0.027370
  0.135751
  0.078185
 -0.092661
  0.095214
 -0.207223
  0.063553
 -0.014663
  0.227500
 -0.132122
  0.003736
 -0.126916
  0.014106
  0.101221
 -0.065290
  0.084514
  0.062843
  0.047540
  0.004982
 -0.035997
 -0.037466
 -0.027295
 -0.073278
  0.045246
  0.002765
 -0.001639
 -0.177323
 -0.020137
  0.059378
  0.018519
 -0.063873
 -0.127190
  0.131008
 -0.107955
  0.168557
 -0.068878
 -0.032504
 -0.163651
 -0.053668
  0.068719
 -0.300238
  0.040512
  0.217793
  0.153889
  0.213675
 -0.102725
 -0.084615
  0.029155
 -0.113181
  0.007351
  0.071365
 -0.105036
  0.045694
 -0.194305
  0.205126
  0.095747
  0.036308
  0.009843
 -0.001850
  0.006651
 -0.068736
 -0.268339
 -0.016938
 -0.032189
  0.055048
 -0.065598
 -0.020108
 -0.033562
  0.002286
  0.027266
 -0.024892
  0.005089
 -0.018016
 -0.013029
  0.178781
 -0.126148
  0.101040
 -0.031190
  0.173879
  0.116105
 -0.130941
  0.040853
  0.197413
  0.044816
 -0.133938
  0.110175
  0.049010
  0.151298
  0.156992
  0.025773
 -0.158487
  0.120705
 -0.270515
 -0.023299
 -0.047259
 -0.075763
 -0.105078
  0.022151
 -0.078704
  0.014745
 -0.058018
 -0.009501
  0.137043
 -0.075123
 -0.020168
  0.078240
 -0.009052
 -0.087921
 -0.044505
  0.164981
 -0.043014
  0.205872
  0.061116
  0.058449
 -0.102956
  0.059936
  0.011822
  0.115972
 -0.002244
 -0.107768
  0.168073
  0.091686
  0.096286
  0.093289
  0.089760
  0.076535
  0.097027
 -0.023566
 -0.095515
  0.039567
  0.238022
  0.175045
  0.159163
 -0.092500
  0.023428
  0.035539
  0.035854
 -0.088026
 -0.165067
 -0.131292
  0.143316
  0.142279
  0.005932
  0.082578
 -0.091273
  0.045006
 -0.100321
  0.198278
  0.131298
  0.011111
 -0.002076
 -0.044717
 -0.136389
 -0.076381
  0.030175
  0.085738
 -0.047770
 -0.125199
  0.110182
  0.032118
 -0.050504
  0.111956
  0.116556
 -0.024877
  0.104923
 -0.062912
  0.083934
  0.026149
 -0.048201
 -0.033073
 -0.034082
 -0.159532
  0.090191
 -0.062590
  0.142993
  0.037338
  0.054826
  0.000850
  0.116556
 -0.170003
  0.158074
  0.039226
  0.035669
 -0.017036
 -0.016840
 -0.122714
  0.085550
 -0.051110
  0.046912
 -0.030960
 -0.053502
  0.036041
 -0.073945
  0.023090
 -0.065260
 -0.147288
  0.159467
  0.051918
  0.137383
  0.062622
 -0.017102
  0.117449
 -0.054476
 -0.062465
  0.110552
  0.174614
  0.036151
  0.101908
 -0.060852
 -0.059741
 -0.067634
  0.056035
  0.182464
 -0.113080
  0.183008
 -0.010105
  0.056382
 -0.010040
  0.097830
  0.058978
  0.049395
 -0.086660
  0.119525
 -0.130620
  0.034591
  0.050530
 -0.024905
  0.077461
  0.014084
 -0.108220
 -0.037338
 -0.057971
  0.023291
 -0.055744
 -0.145398
 -0.170602
 -0.146389
 -0.019853
 -0.041152
 -0.191001
  0.105884
 -0.016756
 -0.048516
  0.182809
 -0.086735
  0.083015
  0.284348
  0.122985
 -0.068655
  0.141380
  0.081512
  0.009042
 -0.148303
  0.151644
 -0.125802
  0.015501
  0.061863
 -0.115863
  0.144085
  0.105318
 -0.021734
  0.142312
 -0.078407
  0.214755
  0.126560
 -0.125946
 -0.025647
  0.025659
 -0.069836
  0.063953
  0.030101
 -0.155228
 -0.110221
  0.164687
 -0.174690
 -0.001743
  0.130426
 -0.038999
 -0.068241
 -0.121781
  0.009889
 -0.000381
  0.029534
 -0.087083
  0.149593
  0.116101
 -0.075467
 -0.025526
  0.192637
  0.103022
  0.036654
 -0.165977
  0.205475
 -0.006511
  0.217963
  0.160491
 -0.032749
  0.034896
 -0.096565
  0.007119
  0.025380
 -0.271628
  0.008422
 -0.015579
  0.056630
 -0.071024
 -0.171220
  0.027959
 -0.011462
  0.034870
 -0.118845
 -0.273407
  0.078231
 -0.069564
  0.075964
 -0.216949
  0.006776
 -0.151914
 -0.006821
 -0.089529
  0.141396
 -0.063765
 -0.215707
 -0.055780
  0.040664
 -0.044009
 -0.002417
  0.045752
  0.139217
  0.224991
  0.040214
 -0.007784
  0.038594
  0.003628
  0.048527
  0.008485
  0.088829
 -0.011812
  0.089857
 -0.104561
  0.164664
 -0.038532
  0.126818
 -0.071422
  0.138078
  0.013634
  0.085491
 -0.076393
 -0.109543
  0.069248
 -0.054144
 -0.170203
 -0.058695
  0.296961
 -0.075914
 -0.174132
  0.007860
 -0.172409
  0.023231
  0.009751
  0.063826
 -0.092671
  0.122112
 -0.038200
  0.052827
  0.076289
 -0.130767
 -0.211630
 -0.045985
  0.143315
  0.034349
 -0.073228
  0.215326
 -0.065582
 -0.027658
 -0.133908
  0.013581
  0.080718
  0.136231
 -0.085447
 -0.081310
 -0.104621
  0.235224
 -0.032354
 -0.146572
  0.020289
  0.017560
  0.094915
  0.032794
 -0.022626
  0.186473
 -0.245463
  0.023873
 -0.131135
  0.117324
 -0.093174
  0.026008
 -0.054190
  0.040128
 -0.111095
 -0.189123
 -0.111893
  0.022307
 -0.129278
  0.005157
 -0.064256
 -0.018832
 -0.017720
  0.005532
 -0.027778
 -0.080136
  0.142953
 -0.042858
****
