PROJECT: W75X_2013Aug27
NCH:     4096
BW:   2.50000e+07
VELOCITY:       0.00000
PV:      0.480000
FREQ:    2.2235080e+09
DATE:     2013       8      27
TIME:       21      15      20
POSITION:       309.704      42.6272
INTEGRATION TIMES:       30.0000      30.0000
MAX VALUE:      0.027564770
  0.136824
  0.131876
  0.080577
  0.059427
  0.040816
  0.041775
  0.139115
 -0.088163
 -0.042463
  0.020903
 -0.142221
  0.002642
  0.211098
 -0.152711
 -0.137985
  0.188149
  0.038276
  0.107540
  0.016872
 -0.178496
  0.014844
 -0.075958
  0.179109
 -0.003100
 -0.050501
 -0.060271
 -0.011559
  0.045960
  0.066756
 -0.093654
 -0.035031
  0.158561
  0.028028
 -0.008975
  0.015075
  0.162439
  0.051824
  0.004727
  0.010128
  0.081570
 -0.023830
 -0.056256
  0.054711
 -0.126890
  0.045271
  0.062246
 -0.014638
 -0.022724
 -0.019635
 -0.113495
  0.082599
  0.136827
 -0.012548
  0.081266
 -0.039559
  0.035920
  0.083470
 -0.016669
  0.035547
  0.026183
  0.021669
  0.100394
 -0.144435
  0.029098
  0.049140
  0.114409
  0.065623
  0.054791
 -0.049352
  0.176386
  0.029946
  0.049547
  0.073357
  0.046427
 -0.061236
 -0.090852
  0.182549
 -0.019319
  0.059192
  0.012390
 -0.085119
 -0.092378
  0.058271
 -0.080762
  0.067092
 -0.211783
 -0.082677
  0.076845
  0.102423
  0.206831
  0.156048
 -0.061606
  0.019139
  0.132784
 -0.066132
 -0.024546
 -0.040828
 -0.055404
  0.081285
 -0.176552
 -0.105520
 -0.015629
 -0.128769
 -0.155459
  0.003417
 -0.017367
  0.000672
  0.001846
  0.167160
  0.013308
 -0.040824
  0.190114
 -0.078066
  0.062096
 -0.124789
 -0.032445
 -0.214389
 -0.103598
  0.145772
  0.075068
 -0.049784
 -0.006506
  0.029675
  0.217968
 -0.018382
  0.073099
  0.082934
  0.084670
 -0.074904
 -0.080550
  0.052120
 -0.054349
 -0.036363
  0.133142
  0.014082
  0.019890
  0.161723
 -0.009732
 -0.141110
  0.042955
  0.188354
  0.023919
  0.117749
 -0.164068
  0.134545
 -0.096417
 -0.008392
 -0.069226
 -0.100593
 -0.044997
 -0.188444
  0.097434
  0.026893
 -0.025680
 -0.150323
  0.034104
  0.030480
  0.154765
  0.015983
 -0.140885
 -0.018034
 -0.131302
  0.132029
  0.182337
 -0.118752
 -0.360478
  0.077384
 -0.211437
  0.164349
 -0.139114
 -0.037534
 -0.062727
  0.073848
 -0.001457
  0.065628
 -0.069142
  0.002954
  0.054531
  0.012585
 -0.059038
  0.111545
 -0.092135
  0.118136
  0.118227
 -0.137579
  0.059096
 -0.117295
  0.092238
  0.030189
  0.130831
 -0.025997
 -0.264204
  0.116255
  0.005206
 -0.049979
  0.186778
  0.106409
 -0.182294
 -0.095177
 -0.160474
  0.029991
  0.001228
 -0.130508
 -0.259742
  0.104486
 -0.221017
  0.141574
 -0.085801
 -0.060307
  0.304581
 -0.135622
 -0.206921
  0.112362
  0.011365
 -0.193272
 -0.060401
  0.082027
 -0.032744
 -0.018105
  0.104875
  0.147810
  0.134893
  0.107858
 -0.131179
 -0.045821
 -0.145816
  0.073176
  0.034180
 -0.003605
 -0.007837
 -0.033796
  0.133368
 -0.106475
  0.031559
  0.091056
 -0.037727
 -0.072023
 -0.035376
 -0.061634
 -0.090831
 -0.107894
  0.002719
 -0.036461
  0.261256
  0.013837
  0.003205
  0.111293
  0.039013
 -0.115283
  0.093734
  0.051341
  0.149034
 -0.121237
  0.117759
 -0.032429
 -0.092615
  0.037213
 -0.101021
  0.125293
 -0.269445
 -0.003409
  0.002387
  0.049733
 -0.051107
  0.101364
 -0.006177
  0.155979
 -0.092938
  0.035974
 -0.015271
  0.048923
  0.003391
 -0.076194
  0.041366
 -0.052195
  0.051365
 -0.055109
 -0.030232
 -0.041965
  0.003289
 -0.010249
  0.022883
  0.003820
  0.092728
 -0.027238
  0.004472
 -0.165809
  0.125093
  0.260779
 -0.099551
  0.066163
 -0.050511
  0.222513
  0.163010
  0.041871
 -0.014025
 -0.068898
 -0.014391
 -0.096954
  0.066626
 -0.042392
  0.017809
  0.071713
  0.076741
  0.083257
  0.179251
  0.083337
  0.005756
 -0.036352
  0.055527
  0.008877
  0.168305
  0.068991
  0.025857
  0.020721
 -0.143570
  0.080707
  0.034277
  0.037247
  0.125814
  0.056999
  0.011593
 -0.146135
 -0.135514
 -0.107746
  0.126515
 -0.101600
  0.113869
 -0.068020
  0.035256
  0.061486
 -0.189362
 -0.088023
 -0.105147
 -0.171664
 -0.011016
  0.107831
  0.145154
 -0.000037
 -0.043346
 -0.188538
 -0.057163
  0.011492
  0.013611
  0.096673
 -0.025088
 -0.033732
 -0.015818
 -0.048572
  0.004272
  0.003839
 -0.104046
  0.025854
 -0.072054
  0.226328
 -0.038363
 -0.113552
 -0.043819
 -0.032373
  0.122000
  0.015290
  0.003396
  0.005916
 -0.016596
 -0.026136
 -0.060290
  0.036528
  0.199209
  0.015671
 -0.007762
 -0.028691
 -0.090797
  0.101825
  0.032301
  0.082656
  0.005944
  0.130589
  0.129073
 -0.003193
  0.095692
  0.074455
  0.097240
 -0.016390
  0.072234
  0.000316
 -0.206314
 -0.067256
  0.004585
 -0.064277
  0.015655
 -0.076280
  0.011305
  0.059865
  0.112652
 -0.022455
 -0.079268
  0.136793
  0.199193
  0.012241
 -0.074983
 -0.236063
  0.028126
  0.012195
 -0.129117
  0.060350
  0.017509
 -0.000835
  0.046062
 -0.140162
 -0.186388
 -0.149678
 -0.037650
 -0.066369
 -0.021436
  0.140142
  0.112140
  0.028899
 -0.174446
  0.008036
  0.195534
  0.147393
  0.050389
  0.133400
 -0.068965
 -0.053583
  0.005786
  0.042195
  0.040668
  0.141238
  0.054642
  0.013439
  0.113429
  0.119522
 -0.000678
 -0.111658
 -0.078747
  0.256605
  0.200867
  0.026802
  0.185167
 -0.038543
 -0.027182
 -0.078480
 -0.048099
  0.229952
  0.024920
  0.040987
 -0.148073
 -0.173964
  0.039200
  0.023229
 -0.029220
  0.125554
 -0.123753
 -0.126665
 -0.003935
  0.033404
 -0.011716
 -0.063408
  0.038650
 -0.043409
  0.048262
  0.061694
 -0.016834
 -0.029914
 -0.008056
 -0.119400
  0.099402
 -0.043517
  0.068486
  0.031979
  0.029795
  0.059232
 -0.140574
  0.192330
  0.054870
 -0.005122
  0.036433
  0.040522
 -0.062838
 -0.021762
 -0.094421
  0.048006
 -0.051700
  0.011407
  0.060046
 -0.033267
  0.081932
 -0.180933
 -0.072103
  0.170197
 -0.079359
  0.086552
 -0.053371
 -0.120391
  0.105749
 -0.109977
 -0.016004
 -0.018209
 -0.153330
 -0.075753
  0.196830
 -0.051652
 -0.002537
  0.000484
 -0.066675
 -0.099417
 -0.024540
 -0.014532
 -0.043564
 -0.046877
  0.136086
 -0.037060
 -0.040322
 -0.187069
  0.036056
  0.092328
  0.068430
  0.067449
 -0.073858
 -0.008565
 -0.234163
  0.134734
  0.057169
  0.081266
  0.068763
  0.040293
 -0.050296
 -0.089021
 -0.014563
  0.130936
 -0.010251
 -0.155702
  0.062638
  0.008427
 -0.043950
 -0.061756
  0.062584
  0.260723
 -0.026269
 -0.008908
 -0.171284
 -0.013259
  0.124666
  0.082508
  0.056950
  0.106668
  0.044172
 -0.042449
  0.038492
  0.033054
  0.084408
  0.038355
 -0.033641
  0.078448
  0.004979
  0.022382
 -0.088638
 -0.067483
 -0.055800
  0.124933
 -0.001020
  0.007227
  0.028634
  0.029316
 -0.062120
 -0.036502
  0.156585
 -0.129107
  0.049167
 -0.092765
 -0.166248
 -0.165257
  0.088478
 -0.130560
 -0.075078
  0.010061
 -0.071996
  0.012225
 -0.091435
  0.018284
  0.162277
  0.051989
 -0.117946
  0.062904
 -0.059048
  0.038336
 -0.008652
 -0.076482
  0.103516
  0.176173
  0.026441
 -0.052640
  0.113774
 -0.026388
 -0.188319
  0.105352
 -0.005859
 -0.095863
 -0.028167
 -0.062432
  0.080195
  0.055862
  0.104525
  0.064603
 -0.093786
 -0.205227
  0.134264
  0.014745
  0.174854
 -0.096940
 -0.192440
  0.042723
  0.018781
  0.051138
  0.052639
  0.029439
  0.124030
  0.076528
 -0.024171
  0.032858
 -0.112265
  0.053497
  0.157304
 -0.048815
 -0.016408
 -0.012832
  0.068014
 -0.051334
 -0.028937
  0.135743
  0.133376
  0.039430
 -0.068821
 -0.108864
  0.114121
  0.087534
 -0.065527
 -0.028469
 -0.017894
  0.025221
 -0.057248
  0.035750
  0.011289
  0.152932
  0.051557
 -0.048862
 -0.082379
  0.248674
 -0.032537
  0.089581
 -0.008418
  0.024254
 -0.028299
  0.035680
  0.064231
  0.102381
  0.008033
 -0.039717
 -0.124475
 -0.066464
 -0.032034
  0.256934
  0.007348
  0.117426
 -0.011804
  0.020132
 -0.030478
  0.117492
  0.099982
 -0.122659
  0.102224
 -0.039245
  0.047625
 -0.246134
 -0.301623
 -0.162608
 -0.075166
  0.082407
  0.051260
  0.063472
 -0.020344
 -0.087453
 -0.070324
 -0.042723
 -0.077190
  0.029557
 -0.044852
  0.013562
  0.118696
 -0.096844
  0.037599
 -0.002557
 -0.094692
 -0.162474
  0.026572
  0.054154
  0.150610
 -0.149423
 -0.093326
  0.128066
 -0.039563
 -0.019112
  0.007352
  0.071048
 -0.057179
  0.008462
 -0.171073
  0.085599
 -0.079880
 -0.174680
 -0.018001
  0.162752
 -0.062178
 -0.047867
  0.066093
  0.201625
 -0.126338
 -0.010081
  0.006435
 -0.112746
  0.110112
 -0.000898
 -0.085263
 -0.013350
  0.021446
 -0.042198
  0.056707
 -0.042004
  0.019938
 -0.053687
 -0.022965
  0.018831
 -0.151208
 -0.129240
  0.157534
 -0.018128
 -0.101723
  0.138982
 -0.216358
  0.055435
  0.194882
  0.175794
 -0.073752
 -0.061492
 -0.092493
 -0.062881
 -0.110730
 -0.034094
  0.038251
 -0.104926
 -0.033643
 -0.013134
 -0.146044
 -0.024543
  0.003953
  0.142555
 -0.061534
 -0.052363
  0.027089
  0.019971
  0.041372
  0.075987
 -0.070409
  0.021983
  0.117466
 -0.188156
  0.003611
  0.133364
  0.022328
  0.016911
 -0.091901
 -0.109726
 -0.014159
 -0.019420
  0.157641
 -0.024329
 -0.055788
 -0.004768
 -0.132804
 -0.036123
  0.015725
 -0.022045
  0.006253
 -0.097482
  0.024062
 -0.186499
  0.110094
 -0.168331
  0.038772
  0.047276
 -0.101515
 -0.058562
 -0.109926
  0.036391
 -0.075164
 -0.135590
  0.001747
  0.048463
 -0.094686
 -0.225316
  0.132301
  0.009938
  0.168096
 -0.106871
 -0.076220
  0.020108
  0.029737
 -0.176748
  0.052161
  0.072295
  0.187664
 -0.054757
 -0.134216
 -0.019413
  0.005779
  0.009696
 -0.154857
 -0.082108
 -0.170894
 -0.223288
  0.187306
  0.067012
  0.083594
 -0.068488
  0.100862
 -0.114640
 -0.110270
 -0.033290
  0.075424
  0.044052
 -0.123292
 -0.134174
  0.126026
  0.083161
  0.165382
 -0.035924
 -0.065783
  0.041819
  0.135883
 -0.126322
 -0.103499
  0.021349
 -0.007379
 -0.130554
  0.008644
  0.147453
 -0.032200
 -0.052402
  0.058543
  0.110207
  0.073172
 -0.043207
 -0.046295
  0.094555
  0.118470
  0.042576
  0.025190
  0.089166
  0.076724
 -0.066157
 -0.002856
 -0.089889
 -0.155226
  0.117492
 -0.072111
  0.017267
  0.115665
 -0.075683
 -0.055875
  0.071792
  0.092096
 -0.062900
  0.044676
 -0.030366
 -0.059862
  0.051102
  0.069219
  0.069668
 -0.054982
 -0.167053
 -0.090516
  0.005161
  0.148413
  0.003151
 -0.091284
 -0.128103
  0.110535
  0.051115
  0.160413
  0.066288
 -0.101128
 -0.058675
  0.043252
 -0.116967
  0.115853
 -0.112929
 -0.063581
  0.056373
 -0.060350
 -0.142289
 -0.035896
 -0.068131
 -0.130959
  0.052937
  0.058073
  0.101645
  0.078338
  0.041404
  0.017584
  0.068548
 -0.059726
  0.200167
  0.036199
 -0.057394
 -0.209290
  0.048147
 -0.023040
 -0.070754
  0.029342
  0.095577
 -0.104967
 -0.077767
  0.034179
  0.083007
 -0.093139
  0.088954
  0.070787
 -0.017834
  0.102847
 -0.037060
  0.044300
 -0.058587
  0.063742
 -0.140494
  0.141161
  0.080004
 -0.009415
 -0.003275
  0.105819
 -0.144055
 -0.115375
  0.072373
  0.004045
 -0.083455
 -0.145614
  0.050612
 -0.119549
 -0.056413
 -0.053437
 -0.029251
  0.119521
  0.130755
  0.071596
  0.135028
 -0.048648
 -0.125447
 -0.121253
  0.139635
  0.119481
 -0.162881
  0.085184
 -0.023008
 -0.004951
  0.122277
 -0.089804
 -0.182491
  0.029334
  0.038275
  0.060679
  0.062994
 -0.017134
  0.082935
  0.070207
  0.126303
  0.066822
  0.136206
  0.073009
  0.013682
 -0.101180
 -0.150217
 -0.020620
 -0.071306
  0.051273
  0.018428
 -0.078330
 -0.025019
 -0.148776
  0.047540
 -0.036782
 -0.079349
 -0.147463
 -0.055919
 -0.114450
  0.024716
 -0.000003
  0.097950
  0.006879
  0.017805
 -0.107894
 -0.162361
  0.128962
  0.104649
 -0.134141
  0.040741
 -0.117206
  0.047751
  0.055448
  0.027403
 -0.045975
 -0.036278
 -0.135594
 -0.074153
 -0.018317
 -0.173275
 -0.115295
  0.162385
  0.039343
  0.019332
  0.051749
  0.000720
 -0.044833
  0.013336
  0.082094
 -0.143408
 -0.093682
  0.032754
 -0.118411
 -0.016426
 -0.071695
 -0.065372
 -0.016267
  0.176231
 -0.021097
 -0.089472
  0.076021
 -0.066006
 -0.058489
  0.029420
 -0.118719
 -0.047524
 -0.004300
  0.021897
  0.139933
 -0.025744
 -0.006795
  0.012091
  0.123839
 -0.137713
 -0.076546
  0.054753
  0.009074
 -0.139845
  0.050373
 -0.081998
 -0.057972
  0.014120
  0.055208
 -0.039821
  0.208494
  0.023448
  0.057103
  0.037935
 -0.077503
  0.011063
  0.141080
 -0.020536
  0.090855
 -0.127993
 -0.131865
  0.037637
 -0.038937
 -0.021740
 -0.025706
  0.227290
 -0.043459
  0.006932
  0.065768
 -0.086642
  0.056627
 -0.088342
 -0.032526
  0.015007
 -0.087176
 -0.123428
  0.004932
 -0.036623
  0.064256
  0.106959
  0.084612
 -0.090861
 -0.077837
 -0.005115
 -0.138328
  0.106547
  0.167151
 -0.099465
  0.064670
 -0.007146
  0.098899
  0.221575
  0.000110
  0.183110
 -0.029298
  0.000204
  0.016612
 -0.032022
  0.150126
  0.038720
 -0.097783
  0.050077
  0.063069
 -0.026180
 -0.104933
 -0.285497
 -0.077894
  0.153009
  0.128377
  0.006696
  0.066595
 -0.043180
 -0.101945
 -0.070433
  0.033360
  0.022382
  0.232232
 -0.146758
  0.057491
  0.025918
  0.063976
  0.059502
  0.070275
 -0.020114
  0.046653
 -0.084948
 -0.076248
  0.045567
 -0.068744
  0.023024
 -0.096961
 -0.041588
  0.096248
  0.031539
 -0.091647
  0.055388
 -0.087464
 -0.048581
  0.011583
 -0.040227
  0.034654
  0.147049
 -0.172796
  0.014313
  0.063296
  0.155810
  0.039298
 -0.145373
  0.025573
  0.009981
 -0.122765
 -0.007484
  0.130033
  0.057092
  0.061865
 -0.001671
 -0.082458
  0.032556
  0.064104
 -0.048618
  0.136873
 -0.014307
 -0.076037
  0.059452
 -0.099892
 -0.126290
  0.104308
  0.080530
 -0.155170
 -0.049188
 -0.020657
 -0.039486
  0.016939
  0.103934
 -0.211934
  0.084160
 -0.071545
  0.129726
 -0.018979
  0.055864
 -0.081174
  0.111316
  0.173917
 -0.105129
 -0.013448
  0.082572
 -0.082949
  0.102285
 -0.006866
 -0.038015
  0.132468
 -0.097762
 -0.058208
 -0.127692
 -0.053006
  0.192116
  0.084386
  0.037003
  0.142669
  0.104335
  0.089448
 -0.101067
 -0.087466
  0.160384
 -0.046284
  0.034286
  0.151186
  0.182331
 -0.062550
 -0.185284
  0.033540
  0.093161
  0.100745
 -0.008347
  0.021106
 -0.096618
 -0.120740
 -0.003928
 -0.039355
 -0.006825
  0.085929
  0.040219
  0.013392
 -0.035922
 -0.054044
  0.026319
  0.069231
  0.055727
 -0.031953
 -0.007152
  0.053682
 -0.070578
  0.003282
 -0.067970
 -0.178767
 -0.149784
 -0.103517
  0.016957
 -0.021747
  0.179911
  0.147262
 -0.023513
  0.005091
 -0.020451
  0.086008
  0.033254
 -0.015769
  0.111128
 -0.167795
  0.120561
 -0.193799
 -0.017077
  0.039541
 -0.116949
 -0.061333
  0.065390
 -0.078179
  0.056501
 -0.010208
 -0.090332
 -0.000149
 -0.064675
  0.000098
  0.075389
 -0.013593
 -0.201817
  0.008607
 -0.019880
 -0.057714
  0.132381
  0.036561
 -0.230644
  0.021973
 -0.111977
  0.025283
 -0.003616
  0.115384
  0.041886
  0.108555
  0.040130
 -0.154848
  0.053747
  0.084190
 -0.081592
 -0.011734
 -0.046518
 -0.000701
  0.050795
  0.053519
 -0.034060
  0.100046
  0.046224
 -0.144308
  0.059123
 -0.133669
  0.099773
 -0.012465
  0.016631
  0.033499
 -0.003682
 -0.009542
  0.017171
  0.133165
 -0.017972
  0.015161
  0.075677
  0.046964
  0.011829
  0.179691
 -0.118530
  0.045596
  0.105393
  0.129491
 -0.155076
 -0.123807
  0.169335
 -0.049721
 -0.155597
  0.087131
  0.034542
  0.046362
 -0.198365
 -0.094356
 -0.023092
  0.024540
 -0.063369
  0.114419
  0.023390
 -0.109310
  0.031659
  0.182212
  0.084894
  0.091213
  0.268288
  0.001065
  0.004444
 -0.020752
 -0.001265
 -0.084841
  0.002362
  0.139560
  0.062355
 -0.072411
 -0.121699
 -0.073324
  0.087817
  0.063772
  0.027443
  0.251078
 -0.036558
  0.061502
 -0.004448
  0.018562
  0.019591
  0.258762
  0.040812
  0.027967
 -0.083282
 -0.108327
 -0.010829
  0.105547
  0.083130
 -0.160013
 -0.081941
 -0.105548
  0.014214
  0.017774
  0.140643
  0.189989
 -0.058458
 -0.054317
  0.193280
 -0.100521
  0.032736
  0.065439
  0.059087
 -0.069189
 -0.168470
  0.118903
  0.020765
 -0.001684
  0.013832
  0.133403
  0.091700
  0.008237
 -0.120538
 -0.126224
  0.079238
 -0.064505
 -0.031669
 -0.087089
  0.067099
  0.075830
 -0.001587
  0.060622
  0.021657
  0.020810
 -0.090168
 -0.009883
 -0.209336
  0.022845
 -0.073539
 -0.080142
  0.045297
 -0.089922
 -0.005175
  0.051902
 -0.071191
 -0.032444
  0.025846
  0.092726
 -0.036858
 -0.071135
 -0.194144
  0.065628
  0.099887
 -0.139277
  0.161581
  0.015495
  0.097907
  0.015502
 -0.177890
 -0.084166
 -0.008200
  0.013822
  0.105612
 -0.018184
 -0.096871
 -0.077758
 -0.048960
  0.205493
  0.015898
  0.066852
 -0.062063
  0.009312
  0.080389
  0.095525
  0.025842
 -0.097139
  0.040744
  0.088674
 -0.127495
  0.056376
 -0.111536
  0.054068
 -0.094212
  0.126200
  0.118774
  0.077553
  0.150589
  0.021052
  0.092444
 -0.072813
 -0.073942
  0.096121
  0.002295
 -0.041293
  0.063389
  0.001602
  0.063272
 -0.015170
  0.089582
 -0.066312
  0.015338
  0.107454
 -0.107187
  0.173217
 -0.170739
  0.069455
  0.037645
 -0.052447
  0.107500
 -0.019533
  0.022983
  0.088829
  0.010163
  0.126340
  0.012586
 -0.086840
 -0.078854
  0.048558
 -0.028799
  0.024589
  0.042869
  0.017477
  0.025932
  0.181869
  0.071786
  0.083657
  0.067987
 -0.004326
  0.083773
  0.081233
 -0.006002
 -0.088819
 -0.202508
  0.149018
 -0.096190
  0.038428
 -0.012138
  0.029937
 -0.029581
  0.055491
  0.007122
 -0.116304
  0.108837
  0.084671
 -0.004223
 -0.050886
 -0.091487
 -0.070972
 -0.016609
  0.057612
 -0.041503
  0.106963
 -0.008497
  0.010073
  0.086637
 -0.045601
  0.061388
  0.049037
  0.119181
 -0.051763
  0.058124
  0.027833
 -0.033898
  0.055949
 -0.050022
  0.024936
  0.018178
  0.005661
 -0.086911
 -0.073984
  0.110292
  0.073380
  0.014472
  0.007607
 -0.140420
 -0.271726
  0.034423
 -0.016464
 -0.117704
 -0.030673
 -0.067553
  0.128851
  0.071939
  0.036935
 -0.017536
  0.050215
  0.058813
  0.057946
 -0.063639
  0.062666
  0.043781
 -0.253204
  0.038448
  0.089193
 -0.081692
 -0.025192
  0.007884
  0.052695
 -0.150846
  0.226047
 -0.023014
 -0.066548
 -0.044400
 -0.040387
  0.053248
 -0.178510
 -0.164537
  0.040868
  0.018562
  0.100303
  0.033804
  0.002655
  0.030984
 -0.030113
  0.042812
 -0.062484
  0.130934
  0.094970
 -0.067985
  0.055418
  0.054210
 -0.009033
 -0.012018
 -0.243973
 -0.137575
 -0.150753
  0.115780
  0.021092
  0.013081
 -0.029593
  0.063423
 -0.054826
  0.002134
  0.095411
 -0.125911
 -0.070839
 -0.052854
 -0.031159
 -0.051953
  0.008939
  0.016042
  0.021810
  0.061269
 -0.027493
  0.157141
 -0.002363
  0.015844
  0.145372
  0.071260
  0.070380
  0.065819
  0.015419
 -0.084805
  0.067403
 -0.210746
  0.070616
 -0.000421
 -0.092592
  0.007384
 -0.119404
 -0.104052
 -0.032408
  0.101484
  0.121115
  0.040857
  0.005959
  0.065689
 -0.041172
 -0.130646
  0.210465
 -0.036573
 -0.060536
  0.000183
 -0.148820
 -0.014712
 -0.183680
 -0.031998
 -0.111037
  0.057351
 -0.036524
 -0.021051
 -0.012028
  0.142942
  0.087466
 -0.031421
  0.029124
 -0.049464
  0.048945
  0.139247
 -0.012125
 -0.079337
 -0.325597
 -0.090634
 -0.090215
  0.123308
  0.076470
  0.230360
  0.022099
  0.059257
 -0.031283
  0.034147
 -0.016749
 -0.049302
 -0.108404
  0.010307
 -0.141008
  0.043221
 -0.001652
  0.023845
 -0.086074
  0.145128
  0.003775
 -0.124638
  0.029562
 -0.146036
  0.057176
  0.078525
  0.001932
  0.045284
  0.003663
 -0.055634
  0.010659
  0.053415
 -0.067408
 -0.122378
  0.025476
  0.069813
 -0.022365
  0.042095
  0.082305
 -0.026679
  0.112089
  0.129136
  0.033059
 -0.028707
 -0.141497
 -0.050834
  0.051027
  0.020338
  0.035709
  0.011616
  0.079920
  0.037822
  0.018942
 -0.168290
  0.033785
 -0.042322
 -0.037525
  0.042140
  0.016775
 -0.028875
  0.079786
  0.025768
 -0.097062
  0.117245
  0.051410
  0.043292
 -0.000619
 -0.018312
 -0.077333
 -0.236798
 -0.030278
  0.050256
  0.024624
  0.022711
  0.121486
  0.099110
  0.004713
  0.016066
  0.174454
 -0.033734
 -0.040451
 -0.049705
  0.030815
 -0.003635
 -0.116613
 -0.065236
  0.130372
  0.112939
  0.170394
 -0.142219
  0.093870
  0.095969
 -0.037880
  0.109892
 -0.051024
  0.080133
  0.021232
  0.180877
 -0.024682
  0.105857
  0.223151
 -0.239005
  0.038415
 -0.062120
  0.218294
  0.143038
 -0.017496
 -0.008693
  0.073095
  0.130983
  0.141469
  0.181538
  0.187760
  0.098945
  0.051711
  0.111323
  0.154567
  0.047301
  0.122223
  0.116246
  0.154690
  0.035741
  0.030829
  0.065499
  0.067614
  0.031136
 -0.096461
  0.201801
  0.171936
  0.099706
  0.099758
 -0.006255
 -0.011031
  0.071224
  0.082322
  0.066553
 -0.098144
 -0.050142
  0.102556
  0.003773
  0.233800
  0.049765
  0.046739
  0.143762
  0.151066
  0.049137
  0.128453
  0.123412
  0.343085
  0.084635
  0.169604
  0.203534
  0.368219
  0.358114
  0.316457
  0.351901
  0.330697
  0.523951
  0.559916
  0.389245
  0.316018
  0.612132
  0.652054
  0.717823
  0.689401
  0.755137
  0.727158
  0.685715
  0.687925
  0.656932
  0.768836
  0.741012
  0.541402
  0.758768
  0.508822
  0.387912
  0.407230
  0.240853
  0.145557
  0.204702
  0.119898
  0.018452
  0.094740
  0.048110
  0.107161
  0.131790
  0.005368
  0.099593
  0.047663
 -0.098695
  0.124463
  0.192647
 -0.007917
 -0.083328
 -0.034774
 -0.014238
 -0.035670
 -0.001630
 -0.160325
  0.125798
 -0.119331
 -0.186774
  0.108423
 -0.136168
 -0.038264
  0.053147
 -0.065044
 -0.070283
  0.101565
  0.069814
  0.067592
 -0.013073
  0.083855
  0.088296
 -0.079973
  0.006980
  0.039048
  0.038437
  0.116595
 -0.108413
 -0.079360
  0.071652
 -0.097626
  0.117643
  0.176906
  0.116633
 -0.194015
  0.057055
 -0.002874
 -0.045149
  0.020864
 -0.019794
 -0.048282
  0.067538
 -0.042035
 -0.101245
 -0.046901
  0.007194
  0.016659
 -0.115922
  0.047469
 -0.060786
 -0.003425
  0.030417
  0.021115
  0.018853
 -0.097737
 -0.081962
  0.015249
 -0.066301
  0.051080
 -0.066744
 -0.088965
  0.034397
  0.085810
  0.069259
 -0.142068
 -0.040643
  0.040203
  0.026526
  0.039366
  0.050659
 -0.113728
  0.078857
  0.087576
  0.020738
  0.389441
 -0.131609
  0.031940
 -0.018448
 -0.101544
  0.003243
  0.074091
 -0.000184
 -0.027477
  0.134248
 -0.082724
 -0.135786
  0.037032
 -0.073126
 -0.000527
  0.007178
 -0.013601
  0.035068
  0.120106
  0.090710
  0.030982
  0.021500
 -0.082804
 -0.207658
  0.064520
 -0.161428
 -0.031201
 -0.012441
  0.082660
  0.052023
 -0.135294
  0.080701
 -0.025267
  0.074695
  0.041887
 -0.146658
  0.030512
  0.188739
 -0.032506
 -0.041048
  0.057103
  0.092842
 -0.003108
 -0.177201
  0.051814
 -0.093006
 -0.001896
 -0.032142
 -0.081688
 -0.073385
  0.014754
 -0.049441
 -0.077325
 -0.041740
 -0.026571
  0.102464
  0.049217
 -0.066331
  0.066118
  0.089408
 -0.060133
  0.081298
 -0.008863
 -0.055494
 -0.046808
 -0.072573
  0.015978
  0.037352
 -0.007377
 -0.041945
 -0.162982
  0.129326
 -0.072198
  0.163713
  0.102109
 -0.105916
 -0.073028
 -0.049677
 -0.009364
 -0.073249
  0.002730
 -0.045555
 -0.074470
 -0.028825
 -0.101193
 -0.148233
 -0.120982
 -0.073190
  0.006202
  0.002230
 -0.194807
  0.005787
 -0.048546
  0.126731
 -0.255441
 -0.005953
 -0.048167
  0.018315
 -0.141114
 -0.044705
 -0.075735
  0.071961
 -0.138357
  0.013960
 -0.090873
 -0.111918
  0.113128
  0.044511
 -0.011626
 -0.230728
 -0.036142
 -0.129108
  0.106499
 -0.140462
 -0.147697
  0.111153
 -0.087663
  0.074116
  0.093461
  0.195512
 -0.022736
  0.174929
  0.056061
 -0.136142
  0.003081
  0.053360
 -0.013428
 -0.040369
 -0.046565
  0.070266
  0.146427
  0.143526
  0.102817
 -0.034333
  0.153353
  0.151148
  0.070080
  0.020504
  0.081822
  0.216916
 -0.095943
  0.010007
  0.026331
 -0.072281
 -0.010344
  0.074762
  0.157833
 -0.058750
  0.050915
 -0.189682
 -0.025245
  0.005053
  0.030690
 -0.005942
  0.203416
  0.050229
  0.273128
  0.291950
  0.116175
  0.199460
  0.080617
  0.012261
  0.121641
 -0.007083
  0.037614
  0.026267
  0.013094
  0.045403
  0.009998
  0.043534
  0.060337
 -0.026603
 -0.154529
 -0.029797
  0.200512
 -0.083049
 -0.104294
 -0.013568
  0.008107
  0.084173
  0.002068
  0.010079
  0.099531
 -0.003998
 -0.101211
  0.030624
  0.106028
 -0.056937
  0.025315
  0.039229
  0.026779
 -0.006491
  0.142789
  0.021476
  0.011811
 -0.085537
 -0.195097
 -0.108009
  0.195150
 -0.000187
  0.026131
  0.049087
 -0.216364
 -0.123922
 -0.080605
 -0.047121
 -0.115934
 -0.100468
  0.007557
  0.064454
  0.067068
  0.173111
  0.008936
 -0.024494
 -0.227718
  0.123035
  0.074571
 -0.194224
  0.109521
  0.002415
  0.211607
  0.021697
  0.103623
  0.011443
  0.047849
 -0.129531
 -0.094341
 -0.119974
 -0.031062
 -0.061835
  0.049173
 -0.087240
  0.007775
  0.050481
 -0.094166
  0.028121
 -0.045638
  0.020319
  0.140560
  0.026737
  0.000967
  0.055049
  0.008858
  0.049733
 -0.164021
 -0.026765
  0.113612
  0.047760
 -0.109569
  0.000620
  0.143632
 -0.127310
 -0.066022
  0.083340
  0.157040
 -0.093428
 -0.102996
  0.021219
 -0.176987
  0.012314
 -0.036614
  0.146807
  0.007384
 -0.144529
  0.091991
 -0.281582
 -0.116529
  0.018444
  0.042114
 -0.145167
 -0.057715
  0.191897
  0.099980
 -0.079790
  0.056522
  0.102167
  0.008818
  0.070757
 -0.017899
  0.113195
  0.010143
 -0.124535
 -0.128276
 -0.074856
 -0.033500
 -0.002533
 -0.061491
  0.131063
 -0.201558
 -0.111698
 -0.087633
 -0.107984
 -0.068914
 -0.105023
  0.024118
  0.079479
  0.008115
  0.064715
 -0.074445
  0.079066
  0.047793
 -0.061263
  0.011548
 -0.057977
  0.075875
  0.087958
 -0.005563
  0.104069
  0.151813
  0.030325
  0.039179
  0.000340
  0.013723
 -0.012268
  0.052689
  0.070946
  0.083229
 -0.033069
 -0.073443
 -0.122988
 -0.126051
 -0.254042
 -0.077474
 -0.039608
  0.146240
  0.036309
 -0.053267
 -0.104587
 -0.085026
  0.104733
  0.018848
  0.035082
 -0.042859
  0.011143
  0.072466
 -0.091920
 -0.003557
 -0.144816
 -0.073457
 -0.118713
 -0.176886
 -0.000727
 -0.058134
 -0.073075
 -0.086151
  0.164586
 -0.036061
  0.010072
 -0.137423
 -0.001131
  0.035271
  0.131344
 -0.070022
 -0.030351
 -0.004503
 -0.124912
  0.018295
 -0.091096
 -0.075378
  0.060800
 -0.033976
  0.029186
  0.001656
  0.000864
 -0.054869
  0.077204
 -0.107915
  0.056184
  0.045704
  0.017074
 -0.054974
  0.063056
 -0.245544
 -0.084550
 -0.191901
 -0.093579
 -0.017124
 -0.049389
 -0.002452
 -0.014409
 -0.065100
 -0.235833
  0.121594
 -0.145885
 -0.012205
 -0.047424
  0.123686
 -0.062908
  0.062243
  0.066790
 -0.018424
  0.056646
 -0.166183
  0.193711
  0.012781
 -0.099194
  0.225239
 -0.121404
 -0.002692
  0.109799
  0.071592
  0.065117
  0.036242
  0.008132
  0.000001
  0.011591
  0.005184
 -0.074680
  0.106116
  0.016994
  0.048529
  0.075877
  0.003757
  0.076593
 -0.005716
  0.248012
  0.152209
 -0.002702
 -0.079700
  0.102834
 -0.087675
 -0.019087
 -0.009828
 -0.098571
 -0.028934
  0.068195
 -0.150056
 -0.020495
  0.086414
 -0.033639
  0.171066
  0.058175
 -0.037552
 -0.083145
  0.031645
  0.020859
  0.123655
  0.035059
  0.154719
 -0.030692
 -0.075303
 -0.035610
  0.143338
 -0.035954
 -0.022778
 -0.118029
 -0.007591
  0.004412
  0.050385
 -0.011985
  0.072592
 -0.064942
 -0.036380
  0.041974
 -0.064210
 -0.128129
  0.087285
  0.077697
  0.255460
  0.016469
  0.253896
 -0.044936
 -0.139950
 -0.195714
 -0.096166
 -0.001472
  0.005574
  0.081645
  0.025457
 -0.073751
 -0.067942
  0.080380
 -0.038611
  0.036088
 -0.068201
  0.043694
 -0.008686
 -0.067189
  0.158326
  0.085446
  0.066287
  0.089194
  0.063351
  0.015927
 -0.014685
 -0.007468
  0.113158
  0.074759
  0.059150
 -0.209590
 -0.035144
 -0.003311
  0.067163
 -0.213001
 -0.077249
 -0.160268
 -0.186786
  0.154827
  0.097387
  0.034192
  0.019014
  0.049474
 -0.035028
 -0.163648
 -0.071063
  0.014964
  0.018082
  0.065059
  0.005245
  0.141519
 -0.119546
 -0.126081
 -0.017892
 -0.125828
 -0.099227
  0.096036
  0.030301
 -0.058527
  0.003921
 -0.082209
  0.055490
  0.092392
  0.024391
 -0.047934
  0.143089
 -0.026042
  0.119077
  0.016549
 -0.062021
  0.075462
 -0.202044
 -0.076154
  0.070362
 -0.073335
  0.072791
 -0.011589
 -0.106043
 -0.038800
 -0.135654
  0.000917
  0.047497
  0.047684
 -0.096157
 -0.054234
  0.046512
  0.069595
  0.188428
  0.153245
 -0.107300
  0.043981
 -0.076078
 -0.023391
  0.019283
 -0.051441
  0.060239
  0.020425
  0.059711
 -0.060159
 -0.081548
 -0.057959
  0.098111
  0.014634
 -0.078597
  0.030226
 -0.036093
 -0.020883
  0.023800
 -0.002667
  0.012217
  0.183076
  0.039197
  0.046145
 -0.114108
 -0.039245
  0.133332
  0.078531
  0.061635
  0.013655
  0.004408
 -0.006032
 -0.042240
 -0.041806
 -0.066043
 -0.085759
  0.136359
 -0.066973
 -0.018217
 -0.184232
  0.095058
  0.037275
 -0.000253
  0.016688
 -0.163120
 -0.140144
  0.002289
  0.247232
  0.036568
  0.016642
 -0.119811
 -0.022222
  0.113730
  0.181120
  0.017454
  0.099205
  0.162951
 -0.002165
  0.001843
  0.075829
 -0.082976
  0.031437
  0.159283
 -0.042113
  0.041799
 -0.118068
  0.033108
 -0.100665
  0.029215
 -0.023308
  0.177167
  0.003892
 -0.066978
 -0.006974
 -0.141040
 -0.053617
 -0.016178
  0.055605
  0.103998
  0.052553
  0.067026
  0.185337
 -0.059572
 -0.062692
 -0.042479
 -0.080642
  0.094561
 -0.050458
  0.020647
 -0.051130
 -0.124523
 -0.144678
 -0.040222
  0.039660
 -0.042867
  0.090918
 -0.033028
 -0.124447
  0.049900
  0.028984
  0.056184
  0.049043
 -0.109712
 -0.241036
  0.034265
 -0.121401
 -0.009029
  0.095991
  0.068266
  0.001494
  0.046914
 -0.014008
  0.046633
  0.031805
  0.264503
  0.223218
 -0.103125
  0.211436
 -0.017765
 -0.052961
 -0.156275
  0.013202
 -0.150899
  0.037723
 -0.003432
  0.009484
 -0.065705
  0.182698
 -0.056705
 -0.203830
 -0.037198
  0.063730
  0.073104
  0.004238
  0.158502
 -0.194826
 -0.143114
  0.093332
  0.083413
  0.112667
  0.147937
 -0.081592
  0.142436
  0.072325
  0.115631
 -0.075916
  0.009592
  0.174283
  0.066164
  0.195405
 -0.068231
  0.011437
 -0.121962
  0.068881
  0.009523
 -0.087779
 -0.028289
 -0.198033
 -0.115168
 -0.162149
  0.137038
  0.040103
  0.112293
 -0.094875
 -0.033414
 -0.030244
  0.025687
 -0.258650
 -0.056057
 -0.026156
  0.035510
 -0.015753
  0.068061
 -0.163636
  0.045055
  0.023975
  0.032384
 -0.059493
 -0.071238
  0.016976
 -0.080521
 -0.098381
  0.120250
  0.140013
 -0.017921
  0.134927
  0.114051
 -0.119482
 -0.124443
  0.059247
  0.097003
  0.048256
  0.068745
  0.109844
 -0.024090
  0.098976
 -0.052860
  0.126529
  0.096854
 -0.033229
  0.030818
  0.166548
  0.081193
 -0.318177
 -0.064343
 -0.119212
  0.026801
 -0.085878
  0.066624
 -0.191163
 -0.022697
 -0.048488
 -0.027776
 -0.127375
 -0.045444
  0.125880
 -0.208325
  0.072894
  0.047921
  0.167672
 -0.069065
 -0.107128
 -0.200352
 -0.036749
  0.057797
  0.034039
  0.198429
 -0.105539
 -0.030934
 -0.018408
  0.145135
 -0.113052
  0.245266
  0.038884
  0.103810
  0.025950
 -0.101900
  0.079416
  0.113095
  0.037180
  0.015612
 -0.013729
 -0.063981
  0.115502
 -0.059806
  0.072759
  0.239575
 -0.036443
  0.062143
  0.054828
 -0.153892
 -0.191497
 -0.088183
  0.162259
 -0.046768
 -0.063038
 -0.156065
 -0.086285
  0.120207
  0.101289
  0.025231
  0.125794
 -0.122899
 -0.029776
  0.010279
  0.048424
 -0.098622
  0.022720
  0.001517
  0.093070
 -0.049278
  0.095291
  0.043431
 -0.053511
  0.072949
 -0.044379
 -0.065359
 -0.091232
 -0.123636
 -0.091606
 -0.051836
  0.044849
  0.000762
 -0.155047
  0.059575
  0.007224
 -0.086175
 -0.050572
  0.031673
 -0.024456
 -0.184990
 -0.040113
  0.011123
  0.012495
 -0.040446
  0.018335
  0.065853
  0.103605
 -0.092289
 -0.038455
 -0.196621
  0.103678
  0.176595
 -0.122630
  0.087215
  0.022925
 -0.007018
 -0.073001
  0.068408
 -0.043858
  0.100030
 -0.014855
 -0.083111
  0.052950
  0.039814
  0.135801
 -0.115178
  0.058710
 -0.018042
  0.000835
  0.048568
  0.214895
 -0.104508
  0.139048
 -0.193536
  0.162962
  0.044967
 -0.095499
  0.145055
 -0.108522
 -0.027539
 -0.009857
  0.053144
  0.000074
  0.341365
 -0.097218
 -0.049158
 -0.217885
  0.002492
 -0.077642
 -0.024572
 -0.040947
  0.012657
 -0.000219
 -0.092771
  0.055342
  0.039741
 -0.028261
 -0.143170
  0.046790
  0.136038
 -0.004564
  0.036555
  0.154916
 -0.012197
 -0.102121
  0.049243
 -0.111699
 -0.112426
  0.185195
 -0.022513
  0.100042
  0.113015
 -0.151805
  0.075548
 -0.131515
  0.133561
 -0.098272
 -0.002263
 -0.179302
 -0.025618
  0.092311
 -0.180680
  0.046221
  0.034343
  0.008421
  0.139994
 -0.156460
 -0.001578
  0.087040
 -0.079188
  0.079467
  0.135517
  0.011440
 -0.044597
  0.009609
  0.067047
 -0.057980
 -0.093177
  0.024401
  0.012616
 -0.051489
  0.251244
  0.018613
 -0.122402
  0.004760
  0.030340
 -0.123743
 -0.127604
 -0.000106
 -0.061200
  0.128094
  0.156781
 -0.069812
  0.101301
  0.059621
 -0.000585
  0.001110
  0.087339
 -0.049838
 -0.138971
  0.084427
  0.108628
  0.118909
  0.016132
  0.153092
  0.101283
 -0.090498
 -0.095009
 -0.010347
 -0.078644
  0.110982
  0.048059
  0.035966
 -0.052293
 -0.046242
  0.033817
 -0.050613
  0.051643
 -0.202138
 -0.030438
 -0.059490
 -0.241297
  0.099815
 -0.012479
  0.063529
  0.189406
 -0.062898
  0.012839
 -0.022962
 -0.224755
  0.061366
  0.196404
 -0.104427
 -0.189856
 -0.007689
 -0.034987
 -0.072967
  0.094298
 -0.018049
  0.060218
  0.038003
 -0.097647
  0.027105
  0.174512
 -0.065583
  0.089180
  0.033855
  0.011205
  0.008277
  0.123696
 -0.185760
  0.012599
  0.071794
 -0.202008
  0.006794
 -0.022774
  0.141532
 -0.080138
  0.112217
 -0.155033
 -0.005936
 -0.004308
 -0.131196
 -0.084693
  0.068421
  0.082697
  0.009261
  0.069470
  0.179889
  0.003338
 -0.052772
 -0.074243
  0.080351
  0.134171
  0.046142
 -0.043835
 -0.187375
  0.041475
 -0.137246
  0.058387
 -0.093325
 -0.045267
  0.017103
 -0.022519
  0.009126
 -0.026141
  0.166714
 -0.002103
 -0.161024
  0.012182
 -0.020885
  0.090716
 -0.056294
 -0.031337
  0.081655
 -0.086059
 -0.062641
 -0.211022
  0.102838
  0.053165
 -0.003560
 -0.071322
 -0.082091
 -0.016557
  0.098692
 -0.065813
  0.008796
 -0.108575
 -0.047717
  0.125748
  0.028347
 -0.091194
  0.067159
 -0.084969
  0.166894
 -0.059803
 -0.074199
 -0.012546
  0.028191
  0.091492
 -0.000154
  0.203948
 -0.038580
  0.200186
 -0.038172
 -0.036599
  0.139442
  0.033943
  0.221727
  0.047097
 -0.039761
  0.158654
  0.063538
  0.015379
  0.308109
 -0.017275
 -0.054050
  0.000597
  0.027780
 -0.057072
  0.116161
 -0.053181
  0.090576
  0.004185
  0.047655
  0.077155
 -0.238337
 -0.107432
 -0.100777
  0.059011
 -0.092417
 -0.094200
 -0.135673
  0.052336
  0.140476
 -0.019986
 -0.041465
 -0.119464
  0.039267
  0.138949
 -0.302214
  0.008643
 -0.058480
 -0.226869
  0.061198
  0.086346
  0.033515
  0.030450
  0.016543
 -0.018891
  0.134788
 -0.057006
 -0.202854
  0.189338
  0.014758
 -0.098782
 -0.106764
  0.071264
 -0.013158
 -0.140121
 -0.199698
 -0.115823
 -0.015904
 -0.040057
 -0.023223
 -0.031231
  0.129022
 -0.073137
 -0.124150
  0.095402
  0.114314
  0.006677
  0.081763
 -0.060023
  0.032616
 -0.153919
 -0.001245
  0.103492
  0.011896
  0.020272
  0.175337
  0.024880
  0.070304
 -0.030768
  0.090440
 -0.058230
 -0.143241
  0.037644
 -0.065179
  0.023690
 -0.100630
 -0.058746
  0.000135
  0.023194
 -0.005946
 -0.013957
  0.000188
 -0.019999
 -0.041807
 -0.088345
  0.013578
  0.030512
  0.131940
  0.071544
  0.130556
 -0.058427
  0.019959
  0.013285
 -0.093558
 -0.105395
  0.082194
  0.002705
 -0.040397
  0.155442
 -0.084559
  0.068501
  0.070384
 -0.042381
 -0.024077
 -0.142076
  0.096975
  0.024445
  0.073170
 -0.078300
  0.122052
  0.100398
  0.055396
  0.170522
 -0.110497
 -0.095507
 -0.009779
  0.002257
  0.136326
  0.049714
 -0.050902
  0.134571
 -0.016523
  0.095121
  0.121377
  0.049861
 -0.154499
 -0.013332
 -0.000897
  0.021282
 -0.051302
 -0.041185
  0.026793
  0.036096
 -0.163893
 -0.052864
  0.064725
  0.061463
  0.087588
 -0.110460
 -0.206829
  0.015827
  0.080472
  0.006733
  0.058609
  0.120620
 -0.161734
  0.313474
  0.075291
  0.055102
  0.049637
  0.094449
 -0.000798
 -0.006308
 -0.093930
 -0.202904
  0.133314
  0.090084
 -0.058503
  0.096754
  0.170777
 -0.111828
 -0.034683
  0.080141
  0.068736
  0.046297
  0.072959
 -0.096070
 -0.023642
 -0.189214
  0.102578
 -0.059436
 -0.037547
  0.033809
 -0.071143
 -0.056953
 -0.163252
 -0.136150
  0.007879
  0.082868
  0.208842
 -0.066120
  0.153670
  0.068696
 -0.046865
 -0.117081
 -0.092036
 -0.034998
 -0.109597
 -0.107435
 -0.076660
  0.076813
  0.142093
  0.058857
 -0.006205
 -0.057141
  0.103245
 -0.042691
  0.007154
 -0.051791
 -0.077089
  0.071775
  0.000565
 -0.072128
 -0.015116
  0.060940
  0.050905
  0.019140
  0.023771
 -0.126339
 -0.010247
  0.233451
  0.017257
 -0.161582
  0.064416
 -0.084591
 -0.020609
  0.021873
 -0.115729
  0.012315
  0.127476
  0.124365
 -0.014163
 -0.027144
  0.093581
  0.024637
 -0.107585
  0.033349
  0.016081
 -0.107290
  0.033664
  0.182890
  0.020725
  0.062687
  0.050248
 -0.099264
 -0.171611
 -0.155675
  0.059810
 -0.130596
  0.110529
 -0.010178
 -0.141531
 -0.054775
  0.093436
  0.019287
  0.141484
  0.193685
  0.065225
  0.020601
  0.100185
  0.007471
  0.050886
 -0.053937
 -0.095917
  0.053828
 -0.003396
  0.003262
 -0.155963
 -0.110929
  0.028384
  0.011693
 -0.096370
  0.140319
  0.042411
 -0.015846
 -0.191642
  0.082460
  0.047714
 -0.033227
 -0.170035
  0.156072
  0.051327
  0.048060
  0.178764
 -0.070432
 -0.043154
 -0.107588
 -0.198997
 -0.015314
 -0.124264
 -0.086682
 -0.022240
 -0.218289
  0.059470
  0.004707
  0.246861
  0.084547
  0.065850
  0.024568
 -0.043839
 -0.063617
  0.201031
  0.020895
 -0.042695
  0.076045
 -0.107314
  0.113031
  0.049214
  0.058799
  0.050643
 -0.064730
  0.054936
 -0.097447
 -0.022927
 -0.045163
 -0.012765
  0.033398
 -0.061312
  0.012840
 -0.101424
  0.062429
  0.099007
 -0.053535
 -0.130954
  0.123759
  0.076523
  0.070072
 -0.055862
 -0.144222
 -0.086196
  0.175980
  0.030528
  0.051648
  0.150390
 -0.093199
  0.019019
 -0.019754
 -0.046072
 -0.100285
  0.159297
  0.212060
 -0.018696
  0.113916
  0.150691
  0.139648
 -0.031527
  0.221636
 -0.097020
  0.016768
 -0.029869
 -0.097587
 -0.176277
 -0.003206
 -0.133395
 -0.008051
  0.068410
 -0.015688
 -0.060089
  0.167990
  0.114183
 -0.106289
  0.081372
 -0.164410
 -0.056284
 -0.011771
  0.101657
 -0.058916
 -0.028332
  0.045325
  0.055572
  0.053053
  0.000096
 -0.188430
 -0.157300
 -0.070680
  0.134776
 -0.145407
  0.063816
  0.128094
  0.096399
 -0.104883
  0.111023
 -0.098112
 -0.038163
 -0.220629
  0.138370
 -0.010762
  0.085102
  0.019971
 -0.029025
 -0.030551
  0.019949
 -0.035120
 -0.056962
 -0.091845
  0.011057
 -0.155276
  0.010908
 -0.151458
  0.015528
 -0.164370
 -0.035150
  0.043027
  0.002684
  0.075388
 -0.016125
  0.068967
  0.022120
 -0.096071
  0.139482
 -0.047847
 -0.055947
 -0.003255
  0.086495
 -0.097331
 -0.078837
  0.126619
  0.225325
 -0.019627
  0.012678
  0.127216
  0.087228
 -0.168596
 -0.133493
  0.055134
  0.036994
  0.019001
 -0.099423
  0.002541
  0.000180
 -0.014324
 -0.016782
 -0.146878
 -0.017079
 -0.024296
 -0.087154
 -0.099720
  0.078809
  0.109712
 -0.096499
  0.075464
  0.075357
 -0.043785
 -0.088521
  0.059530
  0.010157
  0.015711
  0.007964
  0.041210
 -0.046070
  0.124675
 -0.133758
 -0.040423
 -0.059031
 -0.074601
 -0.004401
  0.071129
  0.069565
 -0.078579
  0.065578
  0.064736
 -0.056255
 -0.058262
 -0.030929
  0.042317
 -0.027046
 -0.037770
  0.070456
  0.046290
  0.129181
  0.164781
  0.152014
 -0.018911
 -0.061005
  0.048625
  0.107362
 -0.078058
 -0.018506
 -0.001654
  0.067058
  0.060703
  0.109865
 -0.172883
  0.116577
  0.021963
 -0.000053
 -0.186974
 -0.033590
 -0.054115
 -0.207341
  0.006989
  0.016107
  0.025261
 -0.113920
 -0.043584
 -0.087272
 -0.196150
 -0.120618
 -0.006792
 -0.031061
 -0.116986
  0.021727
  0.019557
 -0.082537
  0.064049
  0.059474
  0.086442
  0.112247
  0.056198
 -0.043155
 -0.161184
  0.077117
  0.016854
 -0.080193
 -0.076702
 -0.102965
 -0.094605
  0.064384
 -0.233592
  0.044234
 -0.103082
 -0.120972
  0.074913
 -0.080257
 -0.092886
  0.031399
  0.226838
 -0.019247
 -0.052888
 -0.164952
  0.076804
  0.056013
 -0.099885
 -0.038732
  0.050175
 -0.050398
  0.094038
  0.121028
  0.000931
 -0.146541
  0.083112
  0.076477
  0.002019
 -0.076470
  0.149316
  0.086198
  0.031994
  0.079780
  0.166154
 -0.011774
  0.089061
 -0.177869
 -0.017064
  0.089881
 -0.059116
  0.057867
  0.258072
 -0.097285
 -0.017239
  0.064079
 -0.113026
  0.031453
 -0.089299
  0.025736
  0.130082
  0.014346
  0.017636
 -0.178644
 -0.110566
  0.042271
 -0.173004
  0.077300
 -0.030180
  0.117579
 -0.016195
 -0.064071
  0.092139
 -0.027507
  0.008252
 -0.096750
  0.101974
 -0.099279
  0.047918
 -0.231336
  0.156440
  0.044305
 -0.215188
  0.026701
 -0.018562
  0.002255
  0.048100
 -0.084654
 -0.107291
  0.141487
  0.043371
  0.001349
 -0.091890
 -0.046220
 -0.142896
 -0.091749
 -0.117115
  0.126425
  0.164172
 -0.168695
 -0.013988
  0.063601
  0.020427
  0.165138
  0.181281
  0.046973
  0.004667
  0.012290
 -0.012866
  0.085841
  0.139556
 -0.013284
 -0.081509
  0.044863
 -0.153168
  0.016119
  0.060100
 -0.026147
 -0.022337
  0.089959
  0.008879
  0.180922
  0.002985
 -0.004414
 -0.146117
  0.086533
  0.116355
 -0.115166
 -0.086041
  0.033447
 -0.118748
 -0.064588
 -0.020347
  0.047627
 -0.027376
  0.042850
  0.138233
 -0.006346
 -0.108512
  0.140496
 -0.016005
 -0.147664
 -0.016138
 -0.102063
  0.123751
 -0.026358
  0.069281
 -0.059362
  0.040174
 -0.171168
 -0.091356
  0.051373
 -0.041115
 -0.022598
  0.018709
 -0.066443
  0.104363
 -0.006443
 -0.018883
  0.102899
  0.087795
 -0.075357
 -0.058025
 -0.003132
  0.131985
  0.160257
 -0.006587
  0.076041
  0.002754
  0.028716
 -0.085339
 -0.176206
  0.041074
 -0.021803
  0.105202
 -0.040811
  0.000912
 -0.150360
 -0.202929
 -0.072771
 -0.122163
  0.099649
  0.002564
 -0.020296
 -0.101802
  0.022777
 -0.045644
  0.002560
  0.094489
  0.013471
  0.049238
  0.094597
  0.001212
 -0.037184
  0.068143
  0.013825
  0.120342
 -0.060519
 -0.128934
 -0.003277
 -0.128852
  0.079351
 -0.328410
 -0.050977
  0.035698
  0.300177
 -0.134162
  0.076827
 -0.053711
  0.153551
  0.180946
  0.041038
 -0.003162
 -0.114074
  0.022535
  0.104766
  0.067899
  0.069192
  0.081641
  0.098810
  0.080973
  0.191069
 -0.025676
 -0.001708
 -0.023948
 -0.001223
 -0.022253
 -0.080159
  0.177707
  0.085617
  0.090921
 -0.078231
  0.043998
 -0.060026
 -0.094994
  0.072604
 -0.060982
  0.017131
  0.173568
 -0.118718
  0.003142
  0.029223
  0.097107
 -0.206584
  0.008431
  0.133834
 -0.085402
 -0.030912
  0.010678
  0.112722
 -0.046910
  0.073144
  0.070319
  0.004823
 -0.102600
  0.004500
  0.022147
 -0.057052
  0.069734
  0.029278
 -0.041860
  0.032198
  0.060912
 -0.133982
  0.090230
 -0.092284
 -0.096436
  0.225105
 -0.089976
  0.024595
  0.022905
 -0.087627
 -0.051776
  0.061329
 -0.077709
  0.039967
  0.124448
 -0.086537
 -0.037680
  0.046609
 -0.105657
 -0.106880
 -0.126151
  0.035991
  0.209910
  0.195694
 -0.007938
  0.098236
 -0.006657
  0.011807
  0.113456
 -0.175138
  0.056328
  0.001450
  0.047045
 -0.076068
 -0.080841
 -0.141722
  0.037233
  0.066510
  0.110473
 -0.032252
 -0.171744
 -0.021325
  0.045953
 -0.028750
 -0.060572
  0.007417
 -0.024131
 -0.045168
  0.108551
  0.001959
 -0.004383
  0.079138
  0.029711
 -0.027624
  0.132528
  0.054331
  0.127976
 -0.027922
  0.022895
  0.045943
 -0.096677
  0.060588
 -0.088065
  0.055245
 -0.091514
 -0.051124
  0.102114
 -0.088469
  0.001939
 -0.047642
  0.042223
  0.131036
 -0.016703
  0.069509
  0.053621
  0.065448
  0.075982
 -0.061228
 -0.079484
  0.063071
 -0.075207
  0.067632
  0.127123
  0.064479
  0.089410
  0.011623
  0.069160
  0.090223
 -0.067423
  0.012597
 -0.007495
  0.019643
 -0.069089
 -0.079132
  0.031539
  0.175680
  0.006762
  0.075815
  0.201372
  0.154441
  0.209203
 -0.066182
  0.267403
  0.182005
 -0.129975
 -0.182536
 -0.071872
  0.053013
 -0.045905
 -0.077757
  0.098038
  0.044589
  0.001730
  0.129283
  0.221183
  0.019350
  0.163659
  0.088314
  0.000361
 -0.056349
  0.091158
  0.119597
 -0.053227
  0.139363
  0.050599
 -0.032234
 -0.001642
  0.061869
 -0.096584
 -0.064315
  0.137868
 -0.082578
  0.077777
  0.007657
  0.021675
  0.163986
  0.143195
 -0.006299
 -0.131148
  0.041221
  0.230286
 -0.082971
 -0.011386
  0.077343
 -0.271952
  0.291427
 -0.204477
  0.032207
  0.174175
  0.149386
  0.066501
 -0.178770
 -0.056886
 -0.085702
 -0.027463
  0.043772
  0.047682
 -0.193870
 -0.122467
 -0.021902
 -0.009417
  0.091202
  0.074366
  0.016005
 -0.084252
  0.195761
 -0.019956
 -0.003498
 -0.013570
  0.184608
 -0.129803
  0.140999
  0.047606
  0.047108
  0.130842
  0.015896
  0.107128
 -0.113208
  0.069114
  0.141010
  0.052427
  0.040712
  0.003575
  0.098557
 -0.080939
  0.039425
 -0.130554
  0.187920
  0.047893
  0.012931
  0.011381
 -0.077494
  0.022616
 -0.018327
  0.069411
  0.013654
 -0.073751
  0.132696
 -0.064961
  0.118904
 -0.016691
 -0.138947
 -0.007587
  0.011464
 -0.028604
 -0.031404
 -0.015676
 -0.133692
 -0.119216
 -0.135967
  0.234275
  0.002178
 -0.087902
 -0.039042
  0.176786
 -0.091572
 -0.011481
  0.067967
 -0.106840
  0.282853
  0.040741
 -0.069963
  0.017074
 -0.010219
  0.257520
  0.029614
 -0.029944
  0.107960
 -0.078510
  0.076406
 -0.082283
 -0.020396
 -0.011157
 -0.050386
  0.093745
 -0.118003
  0.085676
  0.004589
  0.190288
 -0.090725
 -0.000303
  0.052166
  0.066026
  0.095372
 -0.047716
  0.178386
  0.041263
  0.094377
 -0.046318
 -0.113955
 -0.183923
  0.001271
  0.044473
 -0.060088
  0.119009
 -0.057996
  0.043135
  0.203229
  0.230962
  0.190708
  0.107314
 -0.009989
 -0.098418
 -0.038447
  0.046460
 -0.059323
  0.049345
  0.099001
  0.122417
  0.096305
  0.222585
  0.077689
  0.132781
  0.043415
 -0.033778
  0.057972
  0.002006
 -0.056104
  0.014705
  0.006496
  0.183483
  0.173464
  0.129250
  0.104344
  0.083515
  0.072374
  0.156474
  0.162634
 -0.200117
 -0.108671
  0.035615
  0.101648
  0.174639
 -0.073836
  0.035122
  0.065374
  0.035647
  0.037019
  0.124491
  0.013482
  0.118328
  0.173646
  0.050545
  0.058168
  0.043753
  0.228626
  0.174529
 -0.010131
  0.072369
  0.231533
  0.118187
  0.110610
  0.077019
 -0.006508
  0.023992
  0.028402
  0.064067
  0.146144
 -0.023012
 -0.279261
 -0.059671
  0.034716
  0.039200
 -0.123594
  0.068217
 -0.024069
 -0.003101
  0.004817
  0.137531
 -0.020307
  0.074014
 -0.108367
 -0.154224
 -0.125586
 -0.024587
  0.010099
  0.035209
 -0.077320
 -0.097225
 -0.004673
  0.089210
 -0.118761
  0.128000
  0.056535
 -0.100688
  0.060740
  0.116348
 -0.011680
 -0.030721
  0.049634
  0.137623
  0.171591
  0.172630
 -0.057873
  0.037812
  0.011089
  0.017242
  0.044927
  0.140241
 -0.101827
 -0.054142
  0.036281
 -0.044594
 -0.143151
 -0.138950
 -0.146416
 -0.155657
 -0.049495
 -0.236376
  0.091313
  0.065399
 -0.078879
 -0.043428
  0.088908
  0.154448
 -0.035650
  0.045602
 -0.070966
 -0.130669
  0.123298
 -0.022360
  0.009658
  0.091100
  0.009229
  0.046575
  0.030081
 -0.024919
  0.012649
 -0.141059
  0.121248
 -0.030494
  0.091596
 -0.081484
 -0.072389
 -0.036747
 -0.085098
  0.037339
 -0.106291
  0.015953
 -0.234260
  0.037816
 -0.013911
  0.109913
 -0.031553
  0.113708
  0.007935
  0.002875
  0.000923
 -0.104676
 -0.117405
 -0.083509
 -0.045839
  0.010446
  0.025742
  0.064227
  0.060671
  0.034834
 -0.028868
 -0.021871
  0.093656
  0.052399
  0.111429
  0.208067
 -0.034908
  0.057965
 -0.014431
  0.105063
 -0.071670
  0.105268
 -0.159310
 -0.008614
 -0.141922
 -0.095795
 -0.046833
 -0.182711
  0.064602
 -0.015286
 -0.204154
  0.061524
  0.005213
 -0.103333
  0.127933
 -0.022124
  0.068517
  0.006282
  0.025104
  0.033909
 -0.084337
  0.014294
 -0.105942
 -0.110961
 -0.131519
 -0.035631
 -0.009644
 -0.097703
  0.092259
 -0.199280
  0.127419
  0.064729
 -0.087326
  0.057843
  0.096063
 -0.062778
  0.051198
  0.010816
 -0.000584
 -0.152639
  0.058220
 -0.047448
 -0.058046
 -0.115560
 -0.014935
 -0.082928
 -0.124181
 -0.081264
  0.115946
 -0.005623
  0.130961
  0.206283
 -0.057715
  0.036793
  0.074470
  0.047682
 -0.047981
 -0.008669
  0.100774
 -0.063442
 -0.033149
 -0.008749
  0.189946
 -0.069116
  0.119486
  0.006058
  0.040238
  0.112033
 -0.085638
 -0.016571
  0.000402
 -0.017014
 -0.041975
 -0.033906
 -0.061118
  0.002983
  0.029058
 -0.110537
  0.062832
  0.011291
 -0.174101
 -0.010543
  0.063022
  0.021939
 -0.056254
  0.053398
 -0.039889
 -0.107557
  0.183053
  0.044412
  0.033766
 -0.196181
  0.078579
  0.087248
  0.127757
  0.155922
  0.007092
  0.050353
  0.035094
 -0.282599
 -0.239282
 -0.022685
  0.060925
  0.008454
 -0.062466
  0.131066
  0.084625
  0.008403
  0.022389
  0.098273
 -0.078445
  0.083722
  0.065148
  0.040232
 -0.013760
 -0.021945
 -0.051581
 -0.132992
 -0.059971
  0.052528
 -0.114931
  0.019903
 -0.075612
  0.023572
  0.026131
 -0.044406
 -0.014407
 -0.067761
  0.098994
 -0.035695
  0.135482
  0.023971
  0.045857
 -0.088587
  0.080534
  0.052534
 -0.032228
  0.030952
  0.213493
 -0.177613
 -0.024488
  0.038030
 -0.165462
 -0.270951
  0.099986
 -0.132987
 -0.210149
  0.071863
  0.041354
  0.004689
 -0.040889
 -0.044374
  0.091459
  0.149923
 -0.009807
  0.081241
  0.222651
 -0.016166
  0.030008
  0.020254
  0.055230
 -0.036383
  0.121677
  0.114708
  0.053557
 -0.016740
 -0.025911
 -0.026764
 -0.092752
 -0.030063
  0.114777
  0.054236
  0.058191
 -0.055994
  0.159322
 -0.040138
  0.026953
 -0.292844
  0.027643
  0.066445
  0.053342
 -0.021100
 -0.082186
 -0.088456
  0.005107
 -0.252681
 -0.201018
 -0.112945
  0.183524
  0.127712
  0.118183
 -0.038571
  0.147843
 -0.178276
  0.195808
 -0.112339
  0.097619
 -0.179373
 -0.156746
  0.329975
 -0.051500
 -0.023913
 -0.049512
  0.024221
 -0.085595
  0.031319
 -0.124881
 -0.093228
  0.020121
  0.196815
  0.245586
  0.025452
  0.039557
 -0.028787
 -0.156196
 -0.029771
 -0.000359
 -0.002096
  0.151106
 -0.048462
  0.061863
 -0.123324
  0.087323
  0.056606
  0.046420
 -0.092747
  0.028064
  0.243638
 -0.119397
  0.018061
 -0.045906
  0.003126
  0.193513
  0.123320
  0.114024
  0.038175
  0.027215
  0.144714
 -0.076652
 -0.018838
 -0.021171
  0.038998
 -0.007206
  0.048259
 -0.037773
  0.040464
 -0.080406
 -0.098327
 -0.027329
 -0.027929
  0.130988
  0.080475
  0.028401
  0.067771
  0.009802
  0.084419
  0.098725
  0.073903
  0.028963
  0.047610
 -0.146374
  0.150786
  0.040112
 -0.090523
  0.172746
 -0.139444
 -0.091097
 -0.071556
 -0.065390
 -0.082774
 -0.020883
  0.042171
 -0.000592
  0.130458
  0.110069
 -0.067294
  0.003310
  0.007326
  0.018308
  0.040997
 -0.043073
  0.023790
  0.147345
  0.202829
  0.091812
  0.056826
 -0.024968
  0.125803
 -0.240524
 -0.015463
 -0.102557
  0.056320
  0.124732
 -0.043049
  0.068333
  0.037250
  0.078292
 -0.136596
  0.041302
 -0.056837
  0.072479
  0.004110
  0.084582
  0.164244
 -0.016014
 -0.071685
 -0.081471
 -0.114181
  0.041450
  0.240336
 -0.053910
 -0.052789
 -0.070733
 -0.040758
 -0.145370
  0.101330
  0.157701
 -0.001425
 -0.106807
  0.071700
  0.061215
  0.006100
  0.063318
 -0.108718
  0.048850
 -0.023452
  0.103637
  0.114383
 -0.043394
  0.019097
  0.109988
  0.048752
 -0.071914
 -0.045404
 -0.096138
 -0.101962
  0.047867
  0.082395
  0.000344
  0.016857
 -0.068221
 -0.054784
 -0.027177
  0.025060
  0.123078
  0.168590
  0.078132
 -0.053740
 -0.150490
 -0.085618
 -0.021145
 -0.032548
  0.027491
  0.140879
 -0.025915
  0.083003
 -0.015516
  0.021340
 -0.035286
 -0.064514
 -0.068074
 -0.220578
 -0.115241
 -0.094698
  0.104459
  0.039335
  0.069234
 -0.071380
  0.131490
 -0.011494
 -0.046236
  0.002696
  0.013526
 -0.002937
 -0.045189
  0.153449
 -0.038989
  0.016694
 -0.051899
  0.102395
 -0.006217
 -0.063765
 -0.043642
 -0.064527
  0.158714
  0.156613
 -0.020484
 -0.010751
 -0.046745
 -0.042539
  0.129248
 -0.107192
  0.009986
 -0.045816
  0.140873
 -0.207675
  0.014807
  0.018370
 -0.169285
  0.046507
 -0.131460
  0.111052
 -0.015412
 -0.078960
 -0.138853
  0.020816
  0.133295
 -0.031925
  0.053268
 -0.058805
 -0.042833
 -0.013749
  0.030342
  0.070296
 -0.049679
 -0.011342
  0.008649
  0.022907
 -0.129556
 -0.224552
 -0.073008
 -0.049482
 -0.227249
 -0.099773
  0.071579
  0.000385
  0.032204
 -0.162795
 -0.030645
 -0.069277
 -0.004427
 -0.137924
 -0.035934
 -0.073714
  0.065861
 -0.144020
 -0.101494
 -0.051470
  0.117331
 -0.090954
  0.004953
 -0.031230
 -0.126538
 -0.129250
 -0.006924
 -0.106024
 -0.073576
  0.017052
  0.152912
 -0.155956
 -0.081738
  0.108111
 -0.076486
  0.042459
 -0.146027
  0.128446
  0.060800
 -0.006480
  0.047910
  0.246982
 -0.008015
  0.020933
 -0.073141
 -0.066820
  0.066442
  0.163945
 -0.001637
  0.120192
 -0.230798
  0.021050
  0.027927
 -0.040424
  0.015872
  0.077919
  0.182258
  0.005605
 -0.028661
  0.006411
 -0.088529
  0.131482
 -0.098464
  0.037004
  0.049729
  0.097822
  0.108702
 -0.026926
 -0.063148
 -0.105680
 -0.047969
  0.044643
  0.035541
 -0.102545
  0.006628
  0.088011
 -0.056771
  0.154470
 -0.062188
 -0.005719
 -0.026248
  0.074375
 -0.140824
 -0.028042
 -0.103330
  0.015775
  0.001110
 -0.094892
  0.032843
 -0.111463
 -0.074062
  0.115012
  0.033591
 -0.260062
 -0.067198
  0.073779
 -0.039106
 -0.285434
 -0.125611
  0.009516
 -0.179659
  0.079252
  0.098931
 -0.024984
  0.054904
 -0.074685
  0.138050
  0.023169
  0.009840
 -0.038644
  0.177117
 -0.035797
  0.099026
  0.010051
  0.155350
 -0.016038
  0.057770
 -0.036214
  0.122993
  0.169205
  0.043510
  0.055633
  0.170310
  0.038063
 -0.071562
 -0.060341
  0.215917
 -0.239125
 -0.103364
  0.018108
 -0.098305
  0.023788
 -0.108781
  0.104128
  0.009478
  0.012917
 -0.030269
 -0.053463
 -0.016108
 -0.162330
  0.059356
 -0.003864
  0.028147
 -0.030995
  0.010994
 -0.127127
  0.125130
 -0.218171
 -0.084790
 -0.128139
  0.009880
  0.131866
  0.056410
  0.055141
 -0.066652
  0.052397
 -0.049558
 -0.015634
 -0.087721
 -0.025553
 -0.059603
 -0.075724
 -0.031016
  0.006554
  0.056309
  0.107101
 -0.000737
 -0.026429
  0.096643
  0.011838
  0.085867
  0.076079
 -0.003626
 -0.083160
 -0.021697
 -0.010510
  0.043894
  0.023804
 -0.050910
 -0.125332
  0.045676
 -0.002176
  0.019631
  0.085970
  0.051205
  0.007242
  0.108665
  0.013647
 -0.024550
  0.157588
 -0.118875
  0.156191
  0.122611
 -0.106776
 -0.077144
 -0.152897
  0.123551
 -0.213200
 -0.181822
 -0.040667
  0.038590
  0.188901
  0.155142
  0.093738
 -0.026075
  0.000572
  0.062850
 -0.019326
 -0.060984
  0.074684
 -0.084550
  0.134141
 -0.089150
 -0.014140
 -0.097080
 -0.157405
  0.033394
  0.091132
 -0.166173
 -0.128004
 -0.069078
  0.138404
 -0.275251
 -0.021446
  0.064961
 -0.014352
 -0.104115
 -0.092590
  0.198282
 -0.026579
  0.169126
  0.040107
  0.109504
 -0.062692
 -0.110005
 -0.186274
  0.083649
 -0.231779
 -0.041035
 -0.064984
  0.003128
  0.085471
  0.147779
 -0.116312
 -0.006001
 -0.032746
 -0.047512
 -0.085031
  0.038974
  0.083705
  0.102254
  0.067138
 -0.159782
  0.211116
  0.020650
  0.094763
 -0.045452
  0.008833
  0.024256
  0.084872
  0.127352
  0.029907
  0.177970
 -0.014933
 -0.087349
 -0.037417
 -0.170540
  0.176993
 -0.008339
 -0.093565
 -0.097461
 -0.104267
  0.208175
 -0.013135
  0.083302
 -0.159480
  0.068665
 -0.165170
  0.098116
 -0.027082
  0.023787
  0.098520
 -0.080674
  0.204090
  0.211884
 -0.111263
 -0.068600
 -0.106876
 -0.062781
 -0.053041
 -0.110564
 -0.087752
 -0.010628
 -0.051563
  0.066322
  0.001917
 -0.145100
  0.191652
 -0.094770
 -0.009703
  0.075649
 -0.005228
  0.042945
 -0.058912
  0.047584
 -0.000118
  0.044911
 -0.083065
  0.140941
  0.009836
 -0.072295
 -0.094553
 -0.106015
 -0.021281
  0.025401
 -0.150737
  0.038923
  0.010723
 -0.056364
 -0.198498
 -0.050458
 -0.045964
 -0.034446
 -0.049878
  0.084660
 -0.025192
 -0.045880
 -0.069511
 -0.004517
 -0.168787
  0.091388
 -0.098007
  0.055949
 -0.060645
 -0.006090
 -0.030685
  0.069221
 -0.071711
 -0.081949
 -0.053451
 -0.081082
 -0.081175
  0.037665
 -0.040432
  0.282773
  0.138238
  0.046324
  0.012479
  0.171645
 -0.024771
  0.188323
  0.056780
 -0.062986
 -0.174442
 -0.099171
 -0.220294
  0.136708
 -0.059326
 -0.000043
  0.099094
  0.070164
  0.100108
  0.049437
 -0.122955
 -0.050203
  0.134501
  0.111196
 -0.020911
  0.130668
  0.032184
  0.104147
 -0.192987
  0.189064
  0.067323
  0.007176
 -0.051701
 -0.012501
 -0.073032
 -0.053421
  0.067153
  0.134957
 -0.131894
  0.068555
 -0.063544
 -0.017888
  0.119423
  0.036658
  0.053753
 -0.074219
  0.057872
 -0.060039
  0.031799
 -0.172887
 -0.076345
  0.017353
 -0.065428
  0.042126
  0.022981
 -0.074968
  0.198713
 -0.095147
  0.037334
 -0.104985
  0.015016
 -0.218134
  0.184002
  0.039551
 -0.229402
 -0.007529
 -0.046659
 -0.033638
  0.081539
 -0.109795
  0.057678
 -0.026491
 -0.138883
 -0.126132
  0.014927
 -0.066504
  0.248786
  0.013754
  0.099267
  0.026423
  0.066559
 -0.018562
  0.046204
  0.099713
  0.003897
 -0.072530
 -0.103584
  0.001892
  0.043764
 -0.048990
 -0.012282
  0.082321
 -0.162486
 -0.087803
 -0.145820
  0.035652
  0.058776
  0.155408
 -0.029877
  0.102356
  0.009760
 -0.013307
  0.001265
  0.079873
 -0.132455
 -0.012147
 -0.153799
  0.251569
 -0.015867
 -0.010606
  0.045583
 -0.052243
 -0.024935
  0.031815
  0.019072
  0.224045
 -0.245101
 -0.033895
 -0.130902
  0.137996
  0.182814
 -0.019150
  0.032247
 -0.053245
  0.192757
 -0.056875
  0.089504
 -0.101360
 -0.022302
 -0.033538
  0.111331
  0.198823
  0.056752
  0.031156
 -0.102628
 -0.166316
 -0.053574
  0.144094
  0.009908
  0.024120
  0.107741
 -0.118142
  0.199656
  0.162707
  0.069779
 -0.040925
 -0.173601
 -0.051835
 -0.083189
  0.080147
  0.037272
  0.128206
 -0.062668
  0.120785
 -0.059665
  0.019076
 -0.006025
  0.093582
  0.039432
 -0.038945
 -0.002305
  0.070485
 -0.066916
  0.106586
 -0.006278
 -0.077138
 -0.299267
 -0.016667
  0.054142
  0.132264
  0.066039
 -0.154540
  0.041548
 -0.075562
  0.048357
  0.004825
 -0.105220
 -0.017435
  0.045968
 -0.063304
  0.019961
 -0.072334
  0.314066
  0.128294
 -0.010580
  0.020541
 -0.013395
 -0.101533
 -0.093508
 -0.037641
  0.056824
 -0.126828
  0.023430
  0.036715
 -0.003825
 -0.187537
 -0.133239
 -0.080447
  0.055006
  0.070960
  0.016079
  0.202653
 -0.011155
  0.168270
  0.069217
 -0.015625
 -0.001460
  0.033784
 -0.045264
  0.034811
 -0.027258
 -0.022400
 -0.004709
 -0.073627
 -0.062881
 -0.012474
  0.061713
 -0.155937
  0.113104
 -0.102237
 -0.067961
  0.093534
  0.015901
 -0.110877
 -0.003533
 -0.048221
 -0.155273
  0.025242
  0.171745
  0.012840
  0.081515
  0.273281
 -0.147336
 -0.117046
 -0.000392
 -0.026347
 -0.032424
  0.105482
  0.016729
 -0.043031
  0.114555
  0.104121
 -0.075503
  0.163324
  0.169270
  0.116497
  0.042567
  0.023482
  0.060030
  0.058149
 -0.161273
  0.024631
  0.016232
 -0.180306
 -0.029144
 -0.079460
 -0.058152
  0.201211
 -0.020639
  0.064704
  0.056769
  0.111041
  0.117245
  0.184379
  0.124343
 -0.150978
  0.091246
  0.144524
 -0.185214
 -0.054811
  0.030392
 -0.083139
  0.031511
  0.056251
  0.097968
  0.254097
  0.168634
  0.191192
  0.044652
 -0.107008
 -0.001287
  0.043654
  0.046429
  0.035480
  0.072200
  0.013255
  0.029176
 -0.153507
 -0.081021
  0.129248
  0.008548
  0.119340
  0.184837
  0.048786
 -0.026722
 -0.081024
 -0.055155
 -0.065737
 -0.099187
  0.099221
  0.332585
  0.025016
  0.012255
  0.038203
 -0.144354
  0.013401
  0.039412
  0.128912
  0.045603
 -0.036031
  0.015818
  0.115521
 -0.075833
 -0.052695
 -0.002358
 -0.137778
 -0.093756
  0.030822
  0.116853
 -0.055069
 -0.020719
  0.041429
  0.025422
 -0.031882
 -0.043202
 -0.134973
  0.070719
 -0.145860
 -0.028674
 -0.123322
 -0.000815
  0.166568
  0.092784
 -0.037037
  0.064609
 -0.003624
  0.203483
  0.101723
 -0.002597
  0.087860
 -0.050476
  0.124854
 -0.049226
 -0.042267
  0.176336
 -0.073099
 -0.247896
  0.128344
 -0.038843
 -0.036862
 -0.027990
 -0.006514
 -0.127664
  0.053452
 -0.057813
 -0.283559
 -0.092428
  0.023723
 -0.024447
 -0.102147
 -0.023933
  0.057420
 -0.130999
  0.053186
 -0.036061
 -0.052327
 -0.070075
  0.030768
  0.047467
  0.007109
  0.031039
  0.088377
  0.124288
 -0.059382
  0.156494
  0.111113
  0.127864
  0.015700
 -0.095808
  0.038778
 -0.081194
  0.034235
 -0.162464
  0.117608
 -0.098910
 -0.049369
 -0.087482
  0.056239
 -0.073102
 -0.079266
 -0.155367
 -0.031712
  0.120281
 -0.013271
 -0.029751
 -0.116140
 -0.117827
  0.052017
  0.000938
  0.041961
  0.146928
  0.147430
 -0.019957
  0.023695
 -0.027279
 -0.024276
  0.033765
  0.030564
  0.044892
 -0.066949
  0.050911
 -0.016257
  0.043377
  0.012434
  0.041492
 -0.181847
  0.143690
  0.043893
  0.041216
  0.197150
 -0.059854
 -0.033742
 -0.066133
 -0.183621
 -0.004174
 -0.018769
 -0.055129
  0.099910
 -0.145298
  0.112038
 -0.073992
 -0.087884
 -0.083094
  0.006412
 -0.013599
 -0.030449
 -0.159240
  0.031382
  0.213522
  0.020637
  0.037972
  0.065812
 -0.016003
 -0.096524
  0.001632
  0.073477
 -0.163127
  0.012291
 -0.024745
 -0.033090
 -0.079133
  0.042493
 -0.019355
 -0.076456
 -0.043356
  0.112870
 -0.003080
 -0.149203
 -0.096445
  0.088906
  0.016925
 -0.069446
 -0.227459
  0.091551
  0.186936
 -0.033960
  0.031523
 -0.070909
 -0.000162
  0.164821
 -0.098231
 -0.032606
  0.048891
 -0.101005
  0.110827
 -0.008851
  0.098188
 -0.186057
  0.059610
  0.041925
  0.105260
  0.004586
 -0.182284
  0.271125
  0.022394
 -0.043822
  0.004682
  0.130622
 -0.005342
 -0.197521
  0.050325
  0.014733
  0.129689
 -0.072046
 -0.158217
 -0.089962
  0.129432
 -0.107067
 -0.032854
  0.019890
  0.008644
 -0.110578
  0.146221
  0.044683
  0.142966
  0.136459
  0.042611
  0.070680
  0.102279
  0.010777
 -0.058106
  0.113543
  0.054572
 -0.166105
  0.080486
 -0.028902
  0.044884
  0.000290
 -0.038239
  0.059614
  0.064821
 -0.026034
  0.147607
  0.229762
  0.057989
  0.166142
  0.139208
 -0.054862
  0.074934
  0.028135
 -0.007848
 -0.075045
 -0.021629
 -0.070287
 -0.003311
  0.011031
 -0.128031
 -0.093800
 -0.052578
 -0.062559
 -0.051133
 -0.048224
 -0.083996
 -0.008914
  0.144543
 -0.105305
  0.067924
 -0.058648
  0.059377
  0.092232
 -0.008252
 -0.129324
  0.029577
 -0.081319
 -0.024506
 -0.038250
  0.221901
 -0.028667
 -0.110656
 -0.092024
  0.015982
 -0.046466
  0.031938
  0.090971
  0.054896
  0.045370
  0.021627
  0.035911
  0.018551
  0.006587
 -0.024564
  0.082022
  0.019263
 -0.092169
  0.016839
 -0.157514
 -0.042931
 -0.028534
 -0.160847
 -0.010037
  0.117836
  0.041047
 -0.048036
 -0.166440
  0.156561
  0.037901
  0.059419
 -0.140992
 -0.086866
 -0.045014
 -0.243410
  0.040254
 -0.024306
  0.079651
  0.012253
  0.088432
  0.064091
  0.040331
 -0.070705
 -0.227948
 -0.072158
  0.156100
  0.133713
 -0.075945
  0.083106
  0.024677
 -0.002988
  0.064964
  0.127992
  0.086032
  0.024636
  0.031323
 -0.063811
 -0.082382
 -0.019971
 -0.088817
 -0.072122
 -0.109163
 -0.077522
  0.146804
 -0.012654
  0.029743
  0.016758
 -0.071084
  0.208260
 -0.254813
  0.084937
 -0.059706
 -0.021945
 -0.080857
  0.101869
 -0.047630
 -0.013387
  0.083176
  0.003475
 -0.016523
  0.070812
  0.045781
 -0.042385
 -0.045029
 -0.045598
  0.005928
 -0.133762
 -0.003828
 -0.045797
 -0.038614
 -0.135994
  0.104592
  0.005738
  0.108009
  0.048984
 -0.047040
  0.070201
  0.144847
 -0.044480
 -0.012954
  0.062030
 -0.025871
  0.142636
 -0.012436
  0.093871
  0.077364
 -0.132853
 -0.016940
  0.015887
 -0.048972
  0.078683
 -0.070984
 -0.012299
 -0.060335
  0.073265
  0.198982
  0.015826
 -0.075114
 -0.077741
 -0.097928
 -0.011624
 -0.104278
 -0.068018
 -0.071540
 -0.007899
  0.120714
 -0.001150
  0.002754
  0.026142
 -0.029180
 -0.052433
 -0.019733
 -0.120756
 -0.145948
 -0.082321
 -0.079888
 -0.118661
 -0.177101
  0.050906
 -0.032973
  0.082390
  0.026969
  0.062469
  0.230541
  0.076874
  0.032052
 -0.216964
 -0.048070
 -0.046285
 -0.044157
 -0.129846
 -0.090558
  0.145869
 -0.108176
  0.058874
 -0.136155
 -0.001584
 -0.039292
 -0.113587
  0.042816
  0.065168
  0.075690
 -0.179547
 -0.040490
 -0.236729
  0.085879
  0.095470
 -0.056620
  0.154534
  0.020463
 -0.091796
 -0.086526
  0.000957
  0.034923
  0.022129
 -0.047259
  0.032914
  0.011314
  0.087945
  0.017918
  0.038737
  0.038987
  0.035614
 -0.042043
  0.142499
 -0.054647
 -0.027296
 -0.073349
  0.060664
  0.022674
 -0.109583
 -0.044931
 -0.049540
  0.012666
 -0.134688
 -0.026173
 -0.089358
 -0.022600
  0.096844
  0.040638
  0.087844
 -0.033086
  0.070690
 -0.325385
  0.062838
  0.079867
 -0.159040
 -0.079743
 -0.024537
 -0.113281
 -0.029248
  0.046026
 -0.006328
 -0.130389
  0.044994
 -0.064106
  0.087831
 -0.139483
  0.049864
 -0.145560
 -0.105890
  0.034358
 -0.083729
  0.058926
 -0.099535
  0.056649
 -0.021339
 -0.147219
 -0.059395
 -0.041131
  0.112027
  0.055229
  0.064687
  0.055251
  0.120443
  0.064396
  0.027935
  0.121987
 -0.192408
  0.050425
  0.088753
  0.019632
 -0.047811
 -0.113266
 -0.019417
 -0.009743
  0.095058
 -0.009816
 -0.140412
 -0.152497
  0.119235
 -0.096837
  0.081924
 -0.080388
  0.168347
  0.113910
 -0.035946
 -0.107140
  0.021617
 -0.052634
  0.059691
 -0.077003
  0.028326
 -0.008598
  0.013377
  0.194814
  0.071479
 -0.023889
 -0.115858
 -0.114764
  0.073751
  0.133011
 -0.139466
 -0.024156
  0.096637
  0.106383
 -0.164737
 -0.031438
 -0.133920
  0.257487
  0.020986
 -0.193370
 -0.037676
  0.076142
  0.094638
  0.037820
  0.246630
 -0.017587
  0.029017
  0.116034
 -0.123272
 -0.144047
 -0.059805
 -0.169845
 -0.002437
  0.208797
  0.062709
 -0.013395
 -0.016700
  0.099192
  0.144682
  0.062010
  0.101534
  0.048566
  0.159795
 -0.005570
  0.042223
  0.006812
  0.044321
  0.139762
 -0.064664
 -0.098249
 -0.119585
  0.026103
 -0.123699
 -0.032037
 -0.102013
 -0.023281
  0.152412
  0.126623
  0.029404
  0.115621
 -0.090351
 -0.028055
  0.022998
  0.094644
  0.019054
 -0.029935
 -0.033104
 -0.024697
  0.146176
 -0.005865
  0.030108
 -0.043327
  0.033684
 -0.097257
 -0.017007
  0.046109
  0.174825
  0.149866
  0.107511
 -0.088736
  0.053748
  0.225257
  0.114426
  0.246749
  0.169710
  0.293330
  0.209855
  0.106185
  0.212932
 -0.001395
  0.141620
  0.209355
  0.099504
  0.217913
  0.214087
 -0.061126
 -0.074017
  0.005384
 -0.048729
 -0.145337
 -0.088459
  0.103097
  0.023148
  0.082429
  0.035614
 -0.041429
  0.242299
 -0.012138
  0.104885
  0.033290
 -0.037538
 -0.102230
 -0.075924
  0.091829
 -0.026408
  0.032618
  0.049111
 -0.063739
  0.087160
  0.154697
  0.029353
  0.274462
  0.304992
  0.282738
  0.237901
  0.230802
  0.236031
  0.422101
  0.555584
  0.398171
  0.477251
  0.490503
  0.425729
  0.597173
  0.574055
  0.653017
  0.657070
  0.758596
  0.799388
  0.845772
  1.000000
  0.856394
  0.800945
  0.844037
  0.792911
  0.675103
  0.638358
  0.675111
  0.565567
  0.510817
  0.512447
  0.439640
  0.336438
  0.351582
  0.213603
  0.143407
  0.083705
  0.044948
 -0.001000
  0.119003
  0.021486
  0.043114
  0.000405
  0.138171
  0.026511
  0.219895
 -0.024966
 -0.015670
  0.168972
  0.236325
  0.114356
 -0.016256
  0.047521
 -0.009062
  0.072359
  0.151887
  0.009253
 -0.088967
  0.010071
  0.075579
 -0.153973
 -0.065909
 -0.019208
 -0.089523
  0.031702
 -0.069125
 -0.094745
  0.049876
 -0.096989
 -0.103917
  0.125131
  0.016270
  0.072083
  0.085199
  0.063856
 -0.139107
  0.082006
 -0.138944
  0.018101
 -0.080518
  0.101277
  0.154878
  0.067903
 -0.009286
 -0.045984
  0.071773
  0.063401
 -0.042131
  0.028880
  0.125410
  0.057645
  0.050675
 -0.046661
  0.030991
 -0.011749
 -0.043896
 -0.017413
 -0.021614
 -0.080041
  0.009585
  0.074043
 -0.038112
  0.004714
 -0.070719
 -0.061681
 -0.040325
 -0.101981
 -0.164263
 -0.032493
 -0.077693
  0.146378
  0.052966
 -0.016092
  0.074207
  0.058645
 -0.073987
 -0.031298
 -0.079052
 -0.075868
 -0.030888
 -0.115549
 -0.060594
  0.189999
 -0.006269
  0.181404
 -0.033289
  0.092205
  0.017519
  0.228963
 -0.118008
 -0.070860
  0.036705
 -0.061979
  0.029507
 -0.015420
  0.038335
 -0.063508
 -0.193718
  0.138508
  0.092690
  0.029363
 -0.109209
  0.066086
  0.032583
  0.094598
 -0.000141
  0.068302
  0.009137
 -0.087933
 -0.074048
  0.162477
  0.049547
  0.147601
  0.060369
 -0.153232
 -0.017214
  0.038471
 -0.029214
 -0.241562
  0.068283
  0.199953
  0.061132
  0.176634
 -0.110276
 -0.105134
  0.178317
  0.054089
 -0.122844
  0.003853
  0.144512
 -0.117277
  0.129747
 -0.101507
 -0.205136
  0.123481
 -0.001233
  0.046353
 -0.204987
 -0.033602
 -0.114733
  0.031621
 -0.020434
 -0.073848
 -0.077984
  0.067292
 -0.061721
 -0.077039
  0.141162
  0.119808
  0.154547
  0.058500
 -0.023506
  0.162260
 -0.026597
  0.130061
 -0.091228
 -0.056652
 -0.081362
  0.061798
  0.062847
 -0.037814
 -0.012443
 -0.021380
 -0.128153
 -0.181443
 -0.079087
 -0.068109
  0.017324
  0.008848
 -0.066778
  0.088978
  0.011387
  0.041251
 -0.061081
 -0.000564
  0.039935
 -0.193353
 -0.001029
 -0.048975
 -0.008941
  0.112562
  0.007839
 -0.066481
  0.150953
  0.103411
 -0.024758
 -0.007580
 -0.048391
  0.038744
  0.079038
 -0.071448
 -0.018571
  0.176524
 -0.045319
 -0.147393
 -0.066961
  0.004628
 -0.011553
  0.100169
  0.127129
 -0.039611
 -0.064547
 -0.075033
  0.169700
 -0.067222
 -0.115570
 -0.109236
 -0.040101
  0.057327
  0.196934
  0.001256
  0.117134
 -0.019244
  0.100805
 -0.001758
 -0.024291
  0.125056
 -0.294849
 -0.211959
 -0.101606
 -0.023926
 -0.131605
  0.104722
  0.004246
 -0.069258
  0.048450
  0.109054
  0.142467
 -0.052724
  0.047977
 -0.189856
  0.101532
  0.155588
  0.094322
  0.191176
  0.232883
  0.272482
  0.076877
  0.107427
  0.142415
 -0.017809
  0.054359
  0.013525
  0.085554
  0.253449
  0.116569
  0.103976
  0.210768
 -0.008915
 -0.021487
  0.022115
  0.136915
  0.040913
  0.136425
 -0.044086
  0.235710
 -0.111991
  0.055130
 -0.067667
 -0.138595
  0.187986
  0.023972
 -0.053530
  0.021555
  0.114433
  0.088276
  0.012305
 -0.207850
  0.068578
 -0.029858
  0.102539
  0.102887
 -0.048004
 -0.068616
  0.055487
 -0.179224
  0.101658
 -0.022605
 -0.108391
  0.148675
 -0.079281
  0.068012
  0.097729
 -0.100217
 -0.022759
 -0.053084
 -0.135907
  0.148194
 -0.024997
  0.071578
 -0.055356
 -0.044995
  0.072765
 -0.098721
 -0.097567
  0.029071
  0.092735
  0.094919
  0.085489
 -0.058664
  0.059182
 -0.084551
 -0.135962
  0.000150
  0.123027
 -0.088803
 -0.045442
  0.059430
  0.075586
  0.040389
  0.146898
  0.173531
  0.049386
  0.127241
  0.048458
 -0.138991
 -0.024981
 -0.126290
 -0.008597
  0.136551
  0.062992
  0.020139
 -0.054740
 -0.145014
 -0.049162
 -0.117464
  0.010531
  0.006197
 -0.193691
  0.002075
 -0.114599
  0.114823
 -0.115432
 -0.005251
 -0.170315
 -0.069754
 -0.089251
 -0.017641
  0.003003
  0.085265
  0.058154
  0.017665
 -0.006037
 -0.003249
  0.061619
  0.024764
 -0.069920
  0.014894
 -0.038537
  0.056842
 -0.123512
  0.012506
  0.005881
 -0.207003
  0.086673
  0.073592
 -0.051024
  0.078722
 -0.072186
  0.078901
  0.233770
  0.062076
 -0.100011
 -0.010585
  0.069683
  0.027638
 -0.076793
 -0.054667
 -0.030041
  0.115262
  0.013848
 -0.049487
  0.099200
  0.003901
  0.105500
  0.021034
 -0.065193
  0.121548
  0.191499
  0.023391
 -0.173390
  0.286321
 -0.048118
 -0.033929
 -0.020873
  0.107730
  0.011379
 -0.028768
 -0.116847
 -0.106627
  0.050089
  0.024127
 -0.023958
 -0.070294
 -0.001879
 -0.017505
  0.007930
  0.112706
  0.013398
  0.007489
  0.086440
  0.068291
  0.003919
  0.003655
  0.012729
 -0.032179
  0.022448
  0.187477
 -0.004464
 -0.107076
  0.014094
  0.025264
 -0.042942
 -0.050219
 -0.101540
 -0.165510
  0.106147
 -0.036236
 -0.072722
  0.056357
 -0.076448
  0.091245
  0.113578
  0.108582
 -0.011737
  0.025920
  0.077221
  0.150526
  0.021646
  0.131934
 -0.088526
 -0.170060
  0.006582
  0.042388
  0.071794
  0.067387
 -0.106151
 -0.059284
  0.114130
 -0.039560
  0.008318
  0.021796
 -0.184757
  0.049684
 -0.041777
  0.028928
  0.192471
 -0.138145
  0.109223
  0.112239
  0.044270
 -0.131002
  0.091285
 -0.095332
 -0.038499
 -0.254258
  0.108076
 -0.288852
  0.000956
  0.022276
 -0.049224
 -0.121066
  0.023947
  0.022064
 -0.019469
 -0.166770
 -0.057360
 -0.042170
 -0.006397
 -0.202123
 -0.029624
 -0.087971
  0.039839
 -0.132588
  0.057226
 -0.060391
 -0.101053
  0.017742
  0.064308
 -0.160029
 -0.124122
 -0.033979
  0.101461
 -0.111561
 -0.142074
 -0.034895
 -0.087045
 -0.066063
  0.077357
 -0.011813
 -0.076277
 -0.082416
  0.171744
 -0.069570
 -0.115720
  0.002068
 -0.048713
 -0.132836
  0.073467
 -0.043596
  0.115982
 -0.164669
  0.125307
 -0.060583
  0.022470
  0.058919
 -0.187596
 -0.122660
 -0.021347
 -0.004773
  0.114427
 -0.069064
 -0.012532
 -0.047465
  0.041920
 -0.126521
 -0.164143
  0.058476
 -0.050688
 -0.025841
 -0.039592
 -0.168856
 -0.032950
  0.090173
  0.158302
 -0.073709
  0.036650
 -0.081699
  0.070615
 -0.095874
  0.117495
  0.026992
  0.027272
 -0.026495
  0.128420
 -0.136076
 -0.127927
  0.072116
 -0.079590
  0.074388
  0.195708
  0.038793
 -0.184605
 -0.074394
  0.047113
  0.032415
  0.182864
 -0.161517
 -0.006374
  0.039891
 -0.108482
 -0.028688
  0.086873
  0.051804
  0.013102
 -0.081778
  0.005364
  0.148583
 -0.016068
  0.105549
 -0.030854
  0.197481
  0.036536
  0.014474
  0.111462
 -0.101140
  0.137251
  0.229550
  0.012384
 -0.109906
 -0.135019
  0.047112
  0.094476
  0.120384
 -0.105543
 -0.109743
  0.036904
  0.048763
  0.072061
  0.104893
  0.187456
 -0.110382
  0.135414
 -0.050528
 -0.193411
  0.041080
  0.155569
 -0.059192
  0.005634
 -0.126267
 -0.036285
  0.099224
  0.208897
 -0.157160
 -0.038377
  0.093538
 -0.065955
  0.003706
  0.052588
 -0.010205
 -0.026601
  0.023408
 -0.151392
  0.119487
 -0.059959
 -0.057133
 -0.145241
  0.028780
  0.089504
 -0.102676
  0.157345
 -0.045624
 -0.098935
  0.012822
  0.042366
 -0.018336
 -0.116393
 -0.110099
 -0.124168
  0.014192
 -0.131943
  0.036014
  0.044692
 -0.058830
  0.097829
 -0.077299
  0.069344
 -0.160125
 -0.001573
 -0.045657
 -0.116496
  0.032212
  0.146680
  0.040679
 -0.059729
 -0.122853
 -0.085553
 -0.010545
  0.053111
  0.106601
  0.027848
  0.077482
 -0.163410
 -0.074905
 -0.071207
 -0.067077
  0.139940
 -0.086735
  0.105556
  0.035173
  0.001529
 -0.016009
  0.096519
 -0.078652
 -0.013825
 -0.052763
 -0.127373
  0.011583
  0.009016
  0.062022
  0.029746
  0.192207
  0.041504
 -0.025926
 -0.043887
 -0.012373
 -0.113238
  0.083087
  0.031607
  0.160251
  0.132130
 -0.203427
 -0.037688
 -0.046140
  0.171868
 -0.039360
 -0.048377
  0.043320
  0.021278
 -0.033224
 -0.120710
 -0.066564
  0.059154
  0.081456
 -0.128702
 -0.065729
 -0.095232
 -0.130331
  0.062028
  0.033913
  0.050986
 -0.143966
  0.032938
 -0.192517
 -0.032580
 -0.011629
  0.190821
 -0.036238
 -0.183733
  0.001369
 -0.001797
  0.064533
  0.126874
  0.085826
 -0.034636
 -0.062534
 -0.157278
  0.061597
  0.028272
 -0.030716
  0.091356
 -0.018236
 -0.030386
  0.019470
 -0.107772
  0.063415
 -0.135868
  0.004068
 -0.007693
  0.024795
  0.005758
 -0.016002
 -0.128739
  0.050688
 -0.021437
 -0.114997
 -0.030637
 -0.086086
  0.170999
 -0.012054
  0.129608
  0.126882
  0.106204
 -0.084327
  0.013989
  0.087518
 -0.293010
  0.030073
 -0.023027
  0.071435
  0.087858
  0.026730
  0.106683
 -0.018066
  0.028472
 -0.136589
  0.121174
  0.093954
 -0.081814
  0.102397
 -0.021597
  0.143775
  0.075426
  0.101782
  0.072378
  0.099886
  0.104838
  0.047401
 -0.046597
 -0.185526
 -0.033906
 -0.044592
 -0.043998
  0.106537
 -0.025060
 -0.070395
 -0.034148
 -0.035557
  0.048460
  0.092995
  0.071085
  0.006943
  0.021436
 -0.046648
  0.022723
  0.011830
  0.064384
  0.021133
  0.161500
  0.041399
 -0.056770
 -0.126270
  0.170790
  0.038030
  0.093175
  0.047714
 -0.161949
  0.050202
  0.092365
 -0.139911
 -0.151548
 -0.156404
 -0.012394
  0.143556
  0.016287
 -0.173015
 -0.113999
 -0.030848
 -0.154001
 -0.165683
  0.112446
 -0.051236
  0.051432
 -0.107854
  0.241830
  0.065035
  0.112145
  0.057808
 -0.082255
 -0.107064
  0.045103
  0.027955
  0.012584
 -0.083106
  0.184837
  0.063282
  0.116207
 -0.021160
  0.188252
  0.172642
 -0.098371
 -0.043293
  0.011109
  0.070727
  0.148498
  0.166894
  0.001642
  0.081783
  0.046029
 -0.130442
 -0.009164
  0.124619
 -0.152481
 -0.062623
 -0.182028
 -0.043675
 -0.011233
  0.111966
 -0.013519
 -0.004426
 -0.085585
  0.015751
  0.067333
 -0.193657
 -0.131625
 -0.127526
 -0.044948
  0.110422
  0.007245
 -0.152320
 -0.123121
 -0.051083
 -0.065181
 -0.014695
  0.072119
 -0.006404
 -0.013306
  0.110061
  0.056631
 -0.039936
 -0.003178
 -0.047702
  0.146842
  0.049626
 -0.018836
 -0.314165
 -0.096253
  0.158547
  0.000042
 -0.157790
  0.061906
  0.031995
 -0.022804
 -0.040087
 -0.010361
 -0.038977
 -0.166388
 -0.025141
  0.065152
 -0.097648
 -0.064683
  0.126920
  0.114030
 -0.000793
 -0.067290
  0.095719
 -0.270815
  0.005920
  0.208820
 -0.030689
 -0.014396
 -0.020241
 -0.088564
 -0.084979
  0.036682
 -0.134173
  0.201152
  0.021092
  0.179523
  0.102247
 -0.143730
  0.174835
  0.154797
 -0.094707
  0.064168
  0.144703
  0.015771
 -0.106005
  0.034232
  0.010874
  0.031589
  0.129864
  0.055625
  0.099070
 -0.158377
 -0.204125
  0.146421
  0.047358
  0.191446
  0.103919
  0.107750
  0.036834
 -0.029495
  0.161351
 -0.057075
 -0.089805
 -0.051726
 -0.013462
 -0.000250
 -0.033055
  0.034186
 -0.008729
 -0.113927
  0.196237
  0.176212
  0.102381
 -0.054866
 -0.159270
 -0.101969
  0.121134
  0.053558
  0.065555
 -0.020987
 -0.027049
 -0.145351
  0.041489
 -0.103222
 -0.010219
 -0.118604
 -0.074500
  0.075155
 -0.076422
  0.014225
  0.108133
 -0.107440
  0.049341
 -0.001999
  0.041211
  0.093940
 -0.003944
  0.114555
  0.139107
 -0.021006
 -0.014874
  0.108127
  0.016863
 -0.114915
  0.105431
 -0.073166
  0.104815
 -0.072245
  0.035678
 -0.086195
 -0.197239
 -0.057865
 -0.041381
  0.042157
  0.140783
 -0.061419
  0.076097
 -0.168809
 -0.042691
 -0.044130
  0.042585
 -0.059263
 -0.032857
 -0.087855
  0.012371
 -0.069652
  0.042231
 -0.116613
 -0.002786
  0.048700
  0.123359
  0.015321
  0.067489
  0.081782
 -0.015805
  0.166225
 -0.101217
 -0.060847
 -0.045158
  0.002242
  0.123870
 -0.016728
 -0.102029
 -0.078014
  0.018260
 -0.234362
  0.065279
  0.216812
  0.027347
 -0.111268
  0.095203
 -0.010707
 -0.010433
 -0.057344
 -0.030608
  0.074818
 -0.042484
  0.062226
 -0.280575
  0.089745
 -0.087175
  0.088971
  0.015637
 -0.026829
 -0.037535
  0.051402
 -0.103101
  0.128585
 -0.067711
 -0.059807
  0.015140
 -0.013365
  0.033497
 -0.003484
 -0.028885
 -0.026700
 -0.087454
  0.046581
 -0.106740
  0.062109
  0.031725
  0.046452
  0.257623
  0.122032
  0.053391
  0.109857
  0.156989
  0.008753
  0.058525
  0.015526
  0.181641
 -0.013616
  0.011848
  0.020082
  0.116020
 -0.006845
 -0.198726
  0.168049
 -0.091124
 -0.090651
  0.167511
 -0.056935
 -0.059287
  0.128062
 -0.021850
  0.017677
 -0.030351
  0.003141
  0.059234
  0.190819
 -0.069480
  0.088400
  0.084694
 -0.112268
 -0.018029
  0.098168
 -0.001264
  0.113529
  0.139440
  0.041498
 -0.009858
 -0.140721
 -0.018632
 -0.122011
  0.010545
  0.012170
 -0.096357
 -0.130699
  0.107621
  0.016814
 -0.177616
 -0.126591
  0.046682
  0.147645
  0.013424
  0.160050
  0.099910
  0.148832
  0.080561
 -0.027668
 -0.047511
 -0.042844
 -0.134076
  0.094332
 -0.028117
  0.071564
  0.043644
  0.133995
  0.012466
 -0.191202
 -0.125515
 -0.039910
  0.015136
  0.130437
 -0.004186
 -0.009924
 -0.025843
 -0.023741
 -0.041032
 -0.163798
 -0.022138
 -0.067747
 -0.065321
  0.030600
  0.041185
 -0.142050
 -0.043619
 -0.018491
 -0.084658
 -0.041102
  0.092989
 -0.102942
 -0.049430
 -0.316266
  0.082744
  0.130505
  0.072642
  0.118273
 -0.084377
 -0.151219
 -0.083901
 -0.180858
 -0.003289
 -0.120721
  0.149931
 -0.102200
 -0.095953
  0.069508
 -0.053943
  0.029376
  0.027806
  0.008211
  0.033218
 -0.053648
 -0.006174
  0.002359
  0.173593
  0.128776
  0.009847
  0.074257
 -0.106433
 -0.155847
  0.023616
  0.045045
 -0.144024
 -0.067947
 -0.216183
 -0.118186
 -0.014188
  0.011235
 -0.098554
  0.029112
 -0.019457
  0.077650
  0.008564
  0.092916
 -0.006967
  0.038393
 -0.030615
 -0.020014
 -0.247071
 -0.126538
  0.016746
  0.049021
  0.018765
  0.140818
  0.007566
 -0.057343
 -0.033396
  0.029891
 -0.044022
  0.159671
  0.144055
  0.187458
  0.136943
  0.127995
  0.011052
  0.037456
 -0.016093
  0.073376
  0.015589
  0.111173
 -0.166483
  0.025666
  0.033701
  0.129707
 -0.098147
  0.013759
  0.031993
  0.079520
  0.063478
 -0.008642
 -0.141846
  0.243090
  0.021266
  0.002777
 -0.026843
 -0.059488
  0.051594
 -0.111921
 -0.084061
 -0.054399
  0.072495
  0.036389
  0.079815
 -0.231305
  0.094688
  0.114585
  0.074545
  0.115929
  0.022592
  0.001771
  0.167074
 -0.068221
  0.095228
  0.064582
  0.000547
 -0.153176
  0.086375
  0.149986
 -0.169223
  0.071222
  0.008046
 -0.031467
 -0.094352
 -0.063022
  0.100278
 -0.201092
  0.011267
 -0.019757
 -0.016987
  0.040637
  0.060892
 -0.001710
 -0.106691
 -0.019861
 -0.105205
 -0.059492
 -0.074519
 -0.005749
  0.134306
 -0.141285
 -0.012284
  0.039360
  0.007890
 -0.018817
 -0.057083
 -0.025233
 -0.086494
  0.053602
  0.108993
 -0.148466
  0.083261
  0.015331
  0.187900
 -0.023121
  0.088060
  0.096042
  0.156969
 -0.010907
 -0.111490
 -0.109376
 -0.150874
  0.110281
 -0.010869
  0.057725
 -0.166926
 -0.154314
  0.145878
 -0.049538
 -0.209579
  0.062327
  0.145729
  0.054056
  0.089915
 -0.005752
 -0.087172
  0.046373
 -0.077801
  0.163751
 -0.051014
  0.021274
  0.118141
 -0.243940
 -0.039569
  0.045512
 -0.109502
 -0.056176
 -0.113746
 -0.115004
 -0.129636
 -0.199852
  0.037373
  0.105723
 -0.157096
 -0.041714
 -0.024303
 -0.034125
 -0.023845
 -0.015583
  0.101723
 -0.055642
 -0.107202
  0.006579
 -0.034508
 -0.003257
 -0.031394
 -0.032344
  0.045001
 -0.016359
  0.117092
 -0.058953
  0.102443
  0.052319
 -0.040860
 -0.030054
 -0.000572
  0.016597
  0.087528
  0.123500
 -0.054886
  0.123886
 -0.080947
  0.137477
  0.158427
  0.133663
  0.036692
  0.122664
 -0.124100
 -0.040181
 -0.047463
 -0.000980
 -0.022685
  0.054098
  0.039804
 -0.044106
  0.021398
 -0.048718
  0.077221
  0.039408
 -0.091555
 -0.006961
  0.012060
  0.019642
  0.079650
 -0.040116
 -0.108618
 -0.067701
  0.072521
  0.157641
  0.008454
  0.020167
  0.057138
 -0.061025
 -0.041384
  0.093330
 -0.270655
 -0.118851
  0.036786
 -0.036430
  0.076912
  0.141229
 -0.024545
 -0.117112
 -0.086831
  0.002658
 -0.156086
  0.035479
 -0.031586
 -0.056861
 -0.085790
 -0.034332
  0.000698
 -0.132243
  0.147478
  0.033409
  0.122805
  0.016317
 -0.038311
  0.054591
 -0.028676
 -0.054762
 -0.011045
  0.014612
  0.101963
  0.066878
  0.058940
  0.080942
 -0.196506
  0.033877
 -0.154464
 -0.005488
  0.029281
  0.005140
  0.152585
 -0.031613
  0.003198
 -0.130376
  0.081743
 -0.021469
 -0.064797
  0.139664
 -0.053560
 -0.022933
  0.071659
 -0.078169
 -0.110228
 -0.014306
 -0.021123
  0.129612
 -0.012968
  0.031167
 -0.209846
  0.083221
  0.163315
  0.097122
 -0.015674
 -0.148455
 -0.049769
 -0.039331
 -0.016692
 -0.186062
  0.113146
 -0.057721
  0.079074
 -0.026850
  0.101909
 -0.095874
  0.032363
 -0.107206
 -0.001413
  0.133555
 -0.017783
  0.192682
 -0.174816
  0.001896
 -0.165210
 -0.108235
  0.020892
 -0.024864
 -0.113802
  0.065105
  0.136212
  0.062101
  0.085349
 -0.111819
 -0.028357
  0.087470
 -0.072360
  0.106666
 -0.048797
 -0.046939
 -0.033303
 -0.021690
  0.034122
 -0.161243
 -0.022810
 -0.012380
  0.018260
 -0.026739
  0.034169
 -0.159992
 -0.021474
  0.035647
  0.032719
  0.026362
  0.011533
 -0.171348
  0.026464
 -0.029233
  0.013242
  0.047118
 -0.009229
  0.114406
 -0.111883
 -0.123179
 -0.160733
 -0.071468
 -0.108714
 -0.063470
 -0.053260
  0.024405
  0.166035
 -0.054591
 -0.049652
  0.045347
 -0.085322
  0.094298
  0.061578
 -0.115515
  0.050297
  0.148836
 -0.063367
 -0.089025
 -0.027664
 -0.032775
  0.004195
 -0.113866
  0.009606
  0.003126
  0.170333
  0.031155
  0.036024
 -0.053625
  0.040164
  0.017903
  0.005504
  0.120552
 -0.112102
  0.001479
 -0.252575
  0.133365
  0.105055
  0.049799
  0.051296
 -0.056616
  0.064642
 -0.084966
  0.043763
 -0.113192
  0.069834
 -0.052067
  0.025715
  0.009089
  0.210528
  0.071509
 -0.175063
  0.041603
 -0.017167
  0.095613
 -0.074753
  0.042909
 -0.157104
 -0.071457
 -0.004221
  0.273322
  0.079722
 -0.142072
 -0.057264
  0.089413
 -0.013347
  0.009868
  0.107447
 -0.037996
 -0.246127
  0.030935
  0.091163
 -0.002869
  0.018096
 -0.065515
  0.073337
 -0.199784
  0.100827
 -0.103263
  0.078193
  0.061891
  0.017748
 -0.055076
 -0.099883
 -0.019697
  0.024771
  0.127718
  0.026184
 -0.068125
  0.090406
 -0.013544
  0.201164
  0.069187
  0.173322
  0.117513
 -0.006574
  0.001578
  0.140309
  0.025859
 -0.008848
 -0.018559
  0.027610
  0.297827
  0.018482
  0.006730
  0.240296
  0.045282
 -0.080989
 -0.029735
 -0.117922
 -0.075647
 -0.055445
 -0.052090
  0.128386
 -0.122182
  0.078698
  0.124401
 -0.075243
  0.173786
  0.056061
 -0.118392
  0.049186
 -0.023325
 -0.063148
  0.014487
  0.159424
  0.016358
  0.242371
  0.043584
 -0.177063
  0.144081
  0.038397
 -0.046800
  0.090039
 -0.071446
  0.058705
  0.016365
  0.274368
  0.020425
  0.097833
 -0.092211
 -0.064514
 -0.095687
 -0.059762
  0.087681
  0.095457
  0.092359
 -0.015453
 -0.049578
  0.053466
 -0.109219
  0.007851
  0.092937
  0.045479
  0.022931
  0.078123
 -0.042246
  0.004110
  0.080028
  0.050338
  0.256256
 -0.113498
 -0.054980
 -0.065004
 -0.077967
 -0.081105
 -0.053361
  0.093807
 -0.008234
  0.000598
  0.082386
  0.038480
 -0.034564
 -0.146577
 -0.024993
 -0.095981
  0.010054
 -0.055383
 -0.023374
 -0.098374
  0.008015
 -0.233197
 -0.024177
  0.064845
  0.075806
 -0.023972
 -0.149593
 -0.113962
 -0.020543
  0.184859
  0.155699
  0.129141
 -0.061671
 -0.079691
  0.104731
 -0.038999
  0.071488
  0.064818
 -0.004614
 -0.016987
  0.050391
 -0.063860
  0.032518
  0.202678
 -0.024994
 -0.182368
  0.001232
 -0.002009
 -0.086953
 -0.139089
  0.092753
  0.109720
  0.042544
 -0.248243
  0.098087
 -0.127561
  0.055064
 -0.024599
 -0.040900
 -0.006533
 -0.084838
 -0.035914
 -0.122670
 -0.035674
 -0.125165
  0.105030
 -0.106689
  0.047804
  0.045687
  0.150431
  0.002086
 -0.029436
  0.056823
 -0.079055
  0.040638
 -0.018818
 -0.044385
 -0.077559
 -0.159839
  0.089583
  0.119187
  0.049435
 -0.010803
 -0.096944
 -0.168433
 -0.058976
  0.042110
 -0.072097
  0.022416
 -0.155686
  0.061946
  0.060558
  0.021865
  0.023424
  0.106566
  0.073127
 -0.038145
 -0.125832
 -0.019184
 -0.011763
 -0.214667
  0.060947
 -0.002586
 -0.134753
 -0.023132
  0.116471
  0.223495
 -0.063713
 -0.111807
 -0.026505
  0.004098
 -0.037198
  0.104675
 -0.061218
 -0.120191
 -0.004555
 -0.053533
 -0.057478
  0.005149
 -0.115444
  0.006797
  0.140724
 -0.017159
 -0.032753
 -0.090803
 -0.099569
  0.023383
 -0.031592
  0.059249
  0.069977
  0.028308
  0.101165
 -0.013589
 -0.019742
 -0.013300
  0.042681
  0.156607
  0.211683
  0.050686
 -0.011594
  0.052059
  0.031111
  0.066980
  0.071263
 -0.031754
  0.097206
 -0.046789
  0.059193
  0.089383
 -0.012468
 -0.119155
 -0.130888
 -0.053331
  0.012561
 -0.162816
  0.038114
  0.050778
 -0.064877
 -0.052705
 -0.031663
 -0.052214
 -0.090678
 -0.095086
  0.183420
  0.063960
  0.105966
  0.013270
  0.049837
 -0.117261
  0.094574
  0.028179
 -0.056385
 -0.149223
 -0.090310
 -0.196861
  0.086749
  0.136629
  0.007726
  0.014844
 -0.090552
  0.183055
 -0.034392
 -0.006254
  0.065355
 -0.018505
 -0.046610
  0.008974
 -0.103610
 -0.162789
 -0.005791
  0.193963
 -0.043027
 -0.201900
 -0.015569
 -0.115773
  0.018388
  0.071778
 -0.151291
  0.136186
  0.145136
 -0.078788
 -0.010669
 -0.061926
 -0.002966
  0.047328
  0.082186
  0.034588
  0.071652
 -0.109211
 -0.069164
  0.015077
  0.047808
  0.020996
 -0.027004
  0.107808
 -0.126923
 -0.014212
  0.005984
 -0.063838
  0.123256
  0.140325
  0.009032
  0.006384
 -0.006179
  0.098557
 -0.018306
  0.090294
  0.228787
  0.137365
 -0.093397
  0.051075
  0.091224
 -0.180335
  0.061679
  0.002151
 -0.028805
 -0.129422
 -0.021104
 -0.136845
  0.158996
 -0.079408
  0.168770
 -0.114825
  0.027012
  0.006132
 -0.143427
 -0.067845
  0.142936
  0.066714
  0.027423
 -0.083684
  0.008931
  0.086843
 -0.095265
  0.029077
 -0.091629
  0.011892
  0.078704
 -0.069302
  0.075851
 -0.102517
 -0.122298
 -0.102519
  0.165829
  0.006496
 -0.116353
 -0.078804
  0.150829
  0.050849
  0.037501
 -0.005621
 -0.042389
  0.144400
  0.004691
  0.018454
  0.078765
 -0.065125
 -0.073801
 -0.018907
  0.042697
  0.013912
 -0.110539
  0.091336
  0.147628
  0.095653
 -0.015260
 -0.017307
 -0.133376
 -0.131639
 -0.022578
  0.044966
 -0.098716
 -0.094055
  0.119927
  0.018723
 -0.057925
 -0.099215
 -0.073701
 -0.172016
  0.211550
 -0.004526
 -0.128923
 -0.005361
 -0.061325
  0.027514
 -0.071619
  0.013571
 -0.058663
  0.002475
  0.017607
  0.082516
 -0.138311
 -0.011132
  0.046677
 -0.032773
  0.087256
 -0.051292
  0.049282
  0.135441
  0.028155
  0.064156
  0.046399
  0.092622
 -0.091808
 -0.137860
  0.067736
 -0.081976
  0.063270
 -0.201856
  0.170095
 -0.069643
  0.029999
 -0.046591
 -0.141676
 -0.044934
 -0.009999
  0.052624
 -0.012900
 -0.137191
  0.004557
  0.007768
  0.052343
 -0.028697
 -0.017287
 -0.058340
  0.021680
 -0.110977
 -0.049477
  0.107016
  0.079463
 -0.119101
 -0.021943
  0.061536
  0.050755
 -0.054532
 -0.065143
 -0.010762
 -0.021960
  0.026657
  0.085461
  0.134331
  0.034734
  0.061231
 -0.019462
 -0.069162
 -0.030869
  0.032735
 -0.176265
 -0.106488
 -0.157967
  0.031230
 -0.111257
 -0.138408
 -0.025362
 -0.046765
  0.089357
 -0.049432
 -0.131772
  0.042804
 -0.149718
 -0.017119
 -0.138510
  0.066788
  0.088636
  0.009679
 -0.012269
 -0.015456
 -0.042540
  0.077076
  0.007041
 -0.053578
 -0.121557
 -0.150790
 -0.031110
 -0.250658
  0.060741
  0.030176
 -0.013422
 -0.162355
 -0.128267
  0.019538
  0.025560
 -0.205877
  0.087562
  0.002449
 -0.217533
  0.114071
  0.033879
 -0.103387
 -0.008094
  0.022001
  0.071565
 -0.016262
 -0.057671
  0.094072
 -0.155561
 -0.015791
 -0.083929
 -0.036151
 -0.133725
 -0.122020
 -0.144564
  0.148471
 -0.090821
  0.002561
  0.063344
 -0.041215
 -0.089513
 -0.100374
  0.062377
 -0.120589
  0.103540
 -0.029634
 -0.060712
 -0.120898
 -0.086065
  0.014351
 -0.017168
 -0.008253
  0.034126
  0.087913
  0.104333
 -0.013829
  0.207233
 -0.151144
  0.133480
  0.121990
 -0.020234
 -0.075214
 -0.017680
 -0.131961
  0.042272
  0.024692
 -0.051388
 -0.149225
  0.048435
  0.079478
  0.151432
  0.047421
 -0.054605
 -0.028242
  0.070876
 -0.067599
 -0.134648
 -0.081371
  0.111934
  0.061602
  0.000821
 -0.016432
 -0.157352
  0.139660
  0.050350
 -0.124145
  0.019021
 -0.191522
  0.053725
 -0.112172
 -0.065019
  0.043173
 -0.133744
  0.088663
  0.054173
 -0.125136
  0.159111
  0.065122
 -0.088841
  0.067703
 -0.182516
 -0.015898
  0.092854
 -0.098601
 -0.206822
 -0.101882
  0.011584
 -0.005874
  0.006771
 -0.116006
 -0.006539
  0.025992
 -0.091380
 -0.078572
  0.026513
  0.018752
 -0.004027
 -0.074466
 -0.073943
 -0.076980
 -0.093383
 -0.130168
 -0.090410
 -0.058701
 -0.252921
 -0.036604
 -0.155370
 -0.002209
 -0.036426
 -0.013497
 -0.128510
  0.021605
  0.066769
  0.017285
  0.055773
  0.226371
 -0.159904
 -0.028996
 -0.033421
 -0.033890
  0.007957
  0.026832
 -0.006963
  0.068823
 -0.086194
 -0.055854
  0.109299
 -0.155646
 -0.050362
 -0.082428
 -0.129006
 -0.219986
 -0.009980
 -0.021950
  0.007543
 -0.132978
 -0.192039
 -0.074157
 -0.010416
 -0.062872
  0.021514
 -0.087965
 -0.020986
  0.002497
 -0.151892
 -0.147509
 -0.108595
 -0.032195
 -0.139742
  0.047345
  0.072065
 -0.141482
  0.076503
  0.086373
  0.150379
 -0.102942
 -0.088873
 -0.068319
  0.067347
 -0.017166
 -0.135438
 -0.027989
  0.004076
  0.057871
  0.020172
  0.030321
  0.116415
  0.128639
 -0.158126
 -0.227923
 -0.045875
 -0.188104
 -0.181994
 -0.005757
  0.010101
 -0.017242
 -0.114970
 -0.016166
  0.013037
 -0.155953
  0.224987
 -0.003200
****
