PROJECT: W75X_2013Aug27
NCH:     4096
BW:   2.50000e+07
VELOCITY:       0.00000
PV:      0.480000
FREQ:    2.2235080e+09
DATE:     2013       8      27
TIME:       20      43      44
POSITION:       309.704      42.6272
INTEGRATION TIMES:       30.0000      30.0000
MAX VALUE:      0.022457643
 -0.240163
  0.018941
 -0.169227
 -0.116513
 -0.175419
 -0.052411
  0.010390
  0.107422
 -0.100170
 -0.106278
  0.059613
  0.111059
  0.030302
  0.172229
  0.006285
 -0.192915
 -0.018672
 -0.059207
 -0.049573
  0.247897
 -0.110745
 -0.047821
  0.181708
  0.246402
 -0.103811
 -0.092006
  0.043481
  0.175471
  0.110341
 -0.062941
  0.052717
  0.234147
 -0.119629
  0.122809
 -0.041340
 -0.052802
 -0.043085
  0.034622
 -0.068031
  0.028223
 -0.021061
 -0.092162
  0.208002
  0.094028
  0.241112
 -0.043732
  0.089547
 -0.015283
  0.212534
 -0.007087
  0.005651
 -0.029772
  0.126635
 -0.053186
 -0.132359
  0.025130
 -0.067387
  0.166266
 -0.146766
  0.272323
 -0.016028
 -0.058781
  0.168224
 -0.022477
  0.157889
  0.072981
 -0.254682
  0.095912
  0.018234
 -0.018845
 -0.059685
  0.189173
 -0.026994
 -0.153320
  0.129056
 -0.058844
 -0.065439
 -0.006555
 -0.123646
  0.157546
  0.008033
 -0.076310
 -0.004444
 -0.064359
  0.003848
  0.189527
 -0.016822
  0.187958
 -0.107587
  0.054808
  0.051137
  0.098101
 -0.072703
 -0.112054
  0.017114
  0.022885
  0.251136
  0.158664
  0.429561
  0.123471
  0.140199
 -0.102266
  0.066038
 -0.162190
  0.071201
  0.014874
 -0.025450
 -0.077829
 -0.067570
  0.008354
  0.073163
  0.213659
  0.073271
  0.028911
  0.115593
 -0.158948
  0.136125
 -0.073418
  0.038186
 -0.232625
 -0.035426
  0.074439
 -0.032014
  0.294083
  0.031754
 -0.070121
  0.207490
 -0.036640
 -0.166510
  0.163065
  0.054271
  0.009596
 -0.163170
  0.093270
  0.310729
  0.114330
 -0.090398
 -0.224725
 -0.057744
 -0.101328
 -0.084101
 -0.120565
  0.005297
  0.109726
  0.036703
 -0.159805
 -0.021087
 -0.033816
 -0.082094
  0.185213
 -0.001986
  0.115658
  0.096613
 -0.256038
  0.074608
  0.160577
  0.124682
  0.030399
 -0.075100
  0.008534
  0.014227
  0.108979
  0.020000
 -0.016746
  0.068833
  0.042804
 -0.073203
  0.071528
  0.039276
 -0.192281
  0.054071
 -0.176423
 -0.108380
 -0.051505
  0.131265
 -0.036048
  0.139823
  0.082041
 -0.171932
  0.014979
 -0.142943
 -0.063118
 -0.061287
  0.025617
  0.138666
 -0.106170
  0.077737
 -0.031019
 -0.004550
  0.069834
 -0.078758
  0.066308
  0.165550
 -0.087243
 -0.015951
 -0.116147
  0.095527
  0.072578
  0.001987
 -0.149224
 -0.288587
  0.134970
  0.020653
  0.097495
  0.135582
  0.025836
 -0.172314
  0.000712
  0.200296
 -0.027839
 -0.077594
 -0.006451
  0.119151
  0.023733
  0.218021
 -0.033344
  0.014413
 -0.038929
  0.002976
  0.116046
 -0.153997
  0.113805
 -0.154311
 -0.011071
  0.023646
  0.101818
 -0.169575
 -0.022974
 -0.034872
 -0.095428
 -0.230198
 -0.123850
 -0.046510
  0.058478
 -0.023628
  0.117431
 -0.062059
 -0.215061
 -0.148400
  0.040984
  0.046836
 -0.017105
 -0.047316
  0.057462
 -0.028456
  0.235377
  0.098000
 -0.265900
 -0.112365
 -0.120129
  0.085839
 -0.019864
 -0.078349
  0.007422
 -0.055960
  0.013917
  0.123296
 -0.267894
 -0.048090
 -0.138130
  0.085687
 -0.091559
 -0.127745
 -0.050639
 -0.175115
 -0.031778
  0.182159
  0.022857
  0.077608
  0.275564
 -0.072484
 -0.016451
 -0.015310
 -0.165633
 -0.027403
 -0.012736
 -0.034443
 -0.020408
 -0.042978
 -0.109133
  0.202625
  0.103321
  0.122125
 -0.163135
  0.109131
 -0.120293
  0.060800
  0.048216
  0.052752
  0.015464
  0.071572
 -0.057308
 -0.120336
 -0.065769
 -0.029053
  0.121987
 -0.086921
  0.162879
  0.126946
  0.123441
 -0.060507
 -0.094384
  0.068532
 -0.100635
  0.151314
  0.024675
  0.042481
 -0.032913
 -0.035885
  0.056931
  0.026673
 -0.191838
 -0.078914
  0.141622
  0.069048
 -0.051122
  0.085363
 -0.210445
 -0.277896
  0.100859
 -0.077516
 -0.207283
 -0.185244
  0.013455
  0.048124
 -0.118742
 -0.122878
 -0.035304
 -0.084814
  0.155937
  0.126332
  0.118893
 -0.108469
 -0.064874
  0.005395
 -0.074067
 -0.016813
 -0.185002
  0.082244
  0.078044
 -0.023110
 -0.128342
 -0.015084
 -0.163464
  0.140208
  0.009367
  0.224037
  0.086565
 -0.133451
 -0.008267
  0.126094
  0.068235
 -0.138106
  0.120676
  0.084912
 -0.116014
 -0.018135
 -0.062418
 -0.110698
  0.171288
 -0.034551
  0.063320
 -0.015307
 -0.089944
 -0.144119
 -0.033897
 -0.107671
 -0.075214
 -0.024133
 -0.127687
  0.197881
  0.117107
  0.144779
  0.209629
 -0.167348
  0.050967
 -0.136293
  0.189464
 -0.097008
  0.028773
 -0.000032
 -0.052628
 -0.057652
 -0.133213
 -0.051338
  0.099088
  0.131886
 -0.039703
  0.028314
  0.033930
 -0.024569
  0.105806
  0.125714
 -0.042408
  0.055663
  0.217492
  0.108601
 -0.100611
 -0.278097
  0.019370
 -0.072633
 -0.097567
 -0.131450
 -0.046843
  0.013964
  0.019129
 -0.067643
  0.180785
 -0.079558
  0.156473
  0.206070
  0.143215
 -0.065663
  0.110223
  0.012734
  0.136716
  0.407057
  0.120330
  0.008804
 -0.005653
  0.192330
  0.084301
  0.013815
 -0.065110
  0.007803
  0.080327
 -0.034328
  0.023544
  0.220748
 -0.074038
  0.142418
 -0.059096
  0.043433
 -0.033039
 -0.012718
  0.056962
 -0.056574
  0.021611
  0.129192
  0.097993
 -0.064299
  0.277691
  0.071918
  0.224974
 -0.056705
  0.094009
 -0.066056
  0.226442
 -0.054211
  0.050386
 -0.206448
  0.156691
 -0.051115
  0.071582
  0.014724
  0.013470
  0.027198
 -0.002397
 -0.033141
 -0.036445
  0.014245
 -0.004379
  0.056228
  0.217931
  0.204347
 -0.094161
 -0.043697
 -0.142387
 -0.106634
  0.000093
  0.102685
 -0.142592
  0.071817
 -0.210712
 -0.011007
  0.043843
 -0.017340
  0.083268
 -0.071610
 -0.111371
 -0.073952
 -0.080369
  0.095251
 -0.167579
 -0.170343
  0.048611
  0.027843
 -0.058215
 -0.004110
  0.224197
 -0.059882
  0.116720
  0.100238
 -0.174990
 -0.021688
 -0.159682
 -0.170269
 -0.256322
 -0.146623
 -0.061398
  0.091110
 -0.245372
 -0.020321
 -0.131066
  0.110362
  0.074595
 -0.035353
 -0.003490
 -0.029376
 -0.068402
 -0.148190
  0.059518
 -0.007661
  0.140308
  0.146330
 -0.087564
 -0.009223
 -0.059001
 -0.096239
  0.023975
 -0.044709
  0.091554
  0.044073
 -0.019559
  0.153116
 -0.011419
  0.229812
  0.084094
 -0.090346
  0.077218
 -0.043008
 -0.045493
 -0.043007
  0.185757
  0.059646
 -0.042126
  0.095903
 -0.109490
  0.184797
  0.313132
 -0.223259
  0.095272
  0.070587
  0.002821
 -0.098678
  0.135355
 -0.128200
 -0.147880
 -0.084854
  0.168441
 -0.011054
  0.131384
 -0.191593
  0.253576
  0.005443
 -0.130136
 -0.130819
 -0.044552
 -0.052626
 -0.029850
  0.050785
 -0.177384
  0.028308
  0.060099
 -0.064390
 -0.102188
  0.173327
  0.050658
 -0.311556
 -0.071583
 -0.102566
  0.015908
  0.083866
  0.024402
  0.145024
 -0.067101
 -0.244318
  0.007346
  0.010625
  0.009135
 -0.023006
 -0.038184
  0.131950
  0.246782
 -0.127239
  0.183885
 -0.034690
 -0.010054
  0.135595
 -0.167763
  0.104350
  0.052289
 -0.214857
  0.059156
  0.056458
  0.070279
 -0.091150
 -0.000928
  0.212620
  0.023340
 -0.121311
  0.007490
  0.186593
  0.041642
 -0.052398
  0.093838
 -0.169537
  0.055196
 -0.084774
 -0.006819
  0.036913
 -0.031636
 -0.003315
 -0.210892
  0.051383
 -0.035880
 -0.089327
  0.093290
  0.019849
  0.121840
  0.082205
 -0.055719
  0.039605
 -0.093293
 -0.046287
 -0.144974
  0.175296
  0.122464
  0.061645
  0.041251
  0.048206
  0.242623
  0.297961
 -0.095284
 -0.130595
 -0.120643
  0.194127
 -0.099279
 -0.106335
 -0.041845
 -0.003873
  0.080870
  0.166085
 -0.123808
 -0.091483
 -0.084832
 -0.186793
 -0.104001
  0.305177
 -0.140545
 -0.071289
  0.000357
 -0.029376
 -0.078954
  0.103786
 -0.050832
  0.178683
  0.114155
 -0.017811
  0.008219
 -0.021313
  0.063445
 -0.072374
  0.074157
 -0.154045
  0.026035
 -0.151761
 -0.230205
 -0.007666
 -0.006035
  0.080082
 -0.018220
 -0.003272
 -0.080576
  0.112438
  0.039754
  0.139787
  0.125689
  0.089911
 -0.058678
  0.101313
 -0.087708
  0.091746
  0.039379
  0.088891
  0.023662
 -0.155546
  0.040665
 -0.025961
  0.170939
 -0.187737
  0.239632
  0.113490
 -0.062718
  0.071834
 -0.294949
 -0.086409
  0.120953
 -0.044234
 -0.286125
 -0.044236
 -0.097228
  0.089973
 -0.045053
  0.162947
 -0.016937
  0.223057
 -0.072403
  0.119314
  0.346416
 -0.203770
 -0.083708
  0.140422
 -0.059923
  0.075278
 -0.043969
  0.108360
 -0.037615
 -0.018486
  0.016604
  0.075533
  0.021983
  0.212321
 -0.072290
  0.094013
 -0.253631
  0.069670
  0.003412
 -0.005102
  0.011959
  0.020297
 -0.063769
 -0.048500
  0.008404
  0.040646
 -0.035882
 -0.001246
  0.039445
 -0.051318
 -0.046710
 -0.128534
  0.170356
 -0.068781
 -0.269757
 -0.145758
  0.072035
 -0.222273
 -0.077268
 -0.015321
 -0.127279
 -0.020583
 -0.067874
 -0.070490
 -0.013506
 -0.058673
 -0.006134
 -0.038110
 -0.022818
  0.011519
 -0.067946
 -0.054108
 -0.085561
  0.017444
 -0.067086
  0.158417
 -0.046284
  0.057740
 -0.037036
 -0.107887
  0.011962
 -0.144833
  0.030090
  0.118662
  0.048287
  0.034003
  0.127792
 -0.082631
  0.050598
  0.044766
 -0.117426
  0.153467
 -0.007350
 -0.050250
  0.079745
  0.149594
 -0.019681
  0.050641
  0.011362
  0.411988
 -0.082360
  0.101908
 -0.003790
  0.063970
 -0.091495
  0.108871
  0.140505
 -0.096152
 -0.143307
 -0.030737
 -0.099474
  0.209133
 -0.195315
 -0.106199
  0.009678
 -0.009548
  0.077585
 -0.016739
  0.129009
 -0.160286
  0.135999
  0.120875
 -0.109132
  0.044564
 -0.008682
 -0.243648
  0.093031
 -0.140564
  0.004206
 -0.133136
  0.061177
  0.052882
  0.029087
  0.194607
 -0.034941
 -0.033669
  0.092072
  0.023167
 -0.081071
  0.153425
  0.144740
  0.029089
  0.037275
  0.105790
  0.056963
 -0.016101
  0.008156
 -0.084602
 -0.191363
 -0.108935
 -0.143011
 -0.294657
 -0.172509
  0.210365
  0.011687
  0.036538
  0.031080
 -0.113910
  0.052977
  0.031790
 -0.097333
  0.011393
  0.028848
  0.155310
 -0.018802
 -0.205930
  0.014359
  0.043870
  0.141262
 -0.137463
 -0.040972
 -0.086720
  0.253536
 -0.258503
 -0.032998
 -0.030186
  0.003191
 -0.010421
 -0.028450
  0.057621
  0.065026
  0.042928
 -0.031793
 -0.161514
  0.014770
 -0.027198
  0.030664
  0.079598
 -0.182063
 -0.201508
  0.100322
 -0.100516
 -0.128091
  0.049840
 -0.085154
 -0.082088
 -0.081931
  0.109534
 -0.020803
  0.045745
 -0.071512
 -0.027247
  0.202760
 -0.046236
 -0.107653
 -0.070667
 -0.000368
 -0.014096
 -0.125619
 -0.051959
 -0.040460
 -0.143242
  0.151875
 -0.107966
  0.058046
  0.190152
 -0.182092
 -0.084286
  0.308371
  0.081295
  0.004809
 -0.023592
 -0.049513
  0.031606
  0.148334
  0.121352
 -0.119129
  0.075010
  0.080919
  0.121432
 -0.170173
  0.055124
  0.089501
 -0.333404
 -0.306167
 -0.051923
  0.106213
  0.088345
 -0.050746
 -0.069239
  0.007642
  0.071515
 -0.065303
 -0.158351
 -0.007885
 -0.031656
  0.016511
 -0.021006
  0.007008
  0.126314
  0.044854
  0.022594
  0.142401
 -0.019558
 -0.088128
 -0.046511
 -0.022755
  0.175810
 -0.090731
 -0.120025
  0.215231
 -0.029195
  0.023708
 -0.018285
 -0.132372
 -0.111105
 -0.242587
  0.208004
 -0.019200
  0.053066
 -0.133940
  0.127166
 -0.231804
 -0.053336
 -0.110779
 -0.165495
  0.086822
  0.272330
  0.235892
 -0.152285
 -0.012818
  0.122260
  0.299869
  0.026395
 -0.034703
 -0.121259
 -0.076017
 -0.004659
 -0.189593
 -0.083304
  0.159155
  0.071394
  0.235729
 -0.216430
  0.004140
  0.266907
 -0.241039
 -0.005112
  0.011950
  0.096463
 -0.170635
 -0.146044
  0.024935
 -0.095434
 -0.050318
 -0.017612
  0.125356
 -0.096916
  0.081823
  0.078293
  0.058083
 -0.060994
 -0.003103
  0.068924
  0.059577
  0.051443
  0.032886
 -0.097577
 -0.118101
 -0.013657
 -0.079278
  0.057222
  0.194087
  0.054054
 -0.057453
  0.105710
  0.040633
 -0.051659
  0.102510
 -0.175180
  0.242592
  0.246577
  0.010720
  0.308035
  0.107242
  0.043014
 -0.022372
  0.095315
 -0.046468
  0.065365
  0.051886
  0.070745
 -0.086481
  0.105664
 -0.281525
  0.146573
  0.006087
  0.174958
 -0.097481
 -0.100271
 -0.071443
  0.227250
 -0.147985
 -0.000277
 -0.148861
  0.022056
 -0.041760
 -0.011366
 -0.259663
 -0.055211
 -0.004228
 -0.101615
 -0.190677
  0.021404
  0.108772
  0.012942
  0.075299
 -0.226565
  0.133753
  0.226422
  0.003742
  0.069788
  0.087667
 -0.010725
 -0.026006
 -0.039880
 -0.013138
  0.052130
 -0.135108
  0.087629
  0.146798
  0.105497
 -0.109570
  0.083087
  0.105608
 -0.078896
 -0.124019
  0.087141
 -0.055454
  0.009439
  0.103270
 -0.035192
  0.213810
  0.093451
 -0.153479
 -0.134549
  0.021695
 -0.157941
 -0.111500
 -0.017249
  0.013787
 -0.041479
  0.000410
  0.174725
  0.071160
 -0.086383
  0.019053
  0.140656
  0.310929
  0.027765
  0.166143
 -0.044997
  0.094525
  0.076044
  0.074261
 -0.042300
 -0.223148
 -0.029928
 -0.042152
 -0.005868
  0.225004
  0.129404
  0.004453
 -0.175891
 -0.149919
 -0.058630
  0.052923
 -0.103323
 -0.157945
  0.075644
 -0.018823
  0.018631
  0.028555
 -0.144192
 -0.114718
 -0.085498
 -0.106149
 -0.049341
 -0.108375
 -0.003836
 -0.059507
  0.027320
  0.029741
  0.061537
 -0.039790
 -0.059386
 -0.009431
  0.079944
  0.127437
 -0.075719
 -0.209645
  0.062836
  0.028780
 -0.148508
 -0.177134
  0.077753
  0.056813
  0.078648
  0.040665
 -0.061683
  0.105422
 -0.150317
  0.188696
  0.134411
  0.022082
  0.157411
 -0.008296
  0.032487
 -0.030189
  0.167164
 -0.131619
  0.120084
 -0.039360
  0.074153
 -0.067196
 -0.068608
 -0.183725
 -0.092049
  0.026300
 -0.047612
  0.064381
  0.052304
  0.018394
  0.025744
  0.041710
  0.228229
  0.056090
 -0.093430
  0.026709
  0.083709
  0.026074
 -0.018710
  0.229131
 -0.071478
 -0.099787
  0.036811
 -0.299783
 -0.013583
  0.005799
 -0.011810
 -0.151274
 -0.011954
 -0.166744
  0.091104
 -0.025594
  0.071819
  0.003111
  0.097064
 -0.276484
 -0.005051
  0.034087
 -0.121160
  0.110525
  0.087234
  0.097724
 -0.132910
  0.047125
 -0.197337
  0.048359
 -0.087103
 -0.042361
 -0.107609
 -0.140751
 -0.095287
  0.023688
 -0.061682
  0.008227
  0.086438
 -0.191899
 -0.086363
 -0.078398
 -0.112081
  0.124740
  0.137441
  0.016430
 -0.163861
  0.188012
 -0.047576
 -0.143504
  0.005740
  0.087639
  0.161202
  0.323595
  0.152602
  0.045349
  0.258533
 -0.005070
 -0.043730
 -0.110644
 -0.052573
 -0.068860
  0.086285
 -0.000004
 -0.103040
  0.075065
 -0.045833
 -0.028606
  0.014416
 -0.113840
  0.124469
  0.034876
 -0.222455
  0.057354
  0.085566
  0.014617
 -0.150629
  0.030434
 -0.075880
 -0.108082
  0.053267
 -0.146849
  0.012682
  0.000615
 -0.063118
  0.093739
  0.065244
  0.040947
  0.001471
 -0.208217
 -0.068731
  0.053725
 -0.082902
 -0.341348
 -0.133850
  0.033505
 -0.062857
 -0.070024
  0.092352
 -0.082125
 -0.131060
  0.179498
  0.096225
  0.214834
  0.018365
  0.071969
 -0.031298
  0.257680
 -0.094553
 -0.086887
  0.118542
 -0.161632
 -0.177437
  0.226414
  0.109315
 -0.126842
 -0.123146
 -0.101265
  0.183377
  0.124815
  0.170325
  0.128972
  0.200720
  0.049145
  0.011472
 -0.202633
  0.033825
 -0.072801
  0.034972
 -0.165579
  0.013577
 -0.008129
  0.021648
  0.098020
 -0.030642
  0.103160
  0.087863
 -0.219383
  0.128636
 -0.055715
 -0.111439
 -0.120255
  0.065445
 -0.057314
  0.102889
 -0.204092
 -0.076984
 -0.059789
  0.117735
 -0.180863
  0.306746
  0.075802
  0.055690
  0.105744
  0.032466
  0.189918
 -0.288795
  0.122659
  0.087938
  0.147120
 -0.141015
 -0.038768
  0.049220
 -0.079517
  0.180153
 -0.028530
 -0.066543
 -0.319161
 -0.266124
  0.103800
  0.001501
 -0.176019
 -0.025926
 -0.101562
  0.046285
  0.083700
 -0.057314
  0.177850
  0.064121
  0.169761
 -0.008047
  0.167561
 -0.094195
  0.006722
 -0.239717
  0.130425
 -0.010375
 -0.076604
  0.096879
  0.006090
 -0.102059
  0.035319
 -0.014999
  0.062398
  0.034758
 -0.037880
 -0.029349
 -0.046307
 -0.078261
 -0.045375
 -0.065281
  0.027600
 -0.021140
  0.091189
  0.032108
  0.004061
 -0.089396
 -0.013410
 -0.062679
  0.179307
 -0.119195
 -0.172585
 -0.096413
 -0.044011
  0.170837
 -0.074071
 -0.157432
  0.174722
  0.075602
  0.041191
  0.300865
 -0.005370
  0.089019
 -0.067994
  0.099143
 -0.057019
 -0.055274
 -0.033970
  0.181512
  0.088355
  0.017542
  0.033883
 -0.007353
 -0.005463
  0.035726
  0.172515
  0.016826
  0.093564
  0.062712
 -0.212027
  0.030433
 -0.022520
  0.190422
  0.054141
 -0.105303
  0.042841
  0.025779
  0.020900
 -0.020204
  0.023803
  0.059128
 -0.140694
 -0.139347
 -0.150153
  0.056129
 -0.018942
 -0.065563
 -0.120212
 -0.094085
  0.099770
  0.059123
 -0.054299
 -0.024740
  0.045239
 -0.019682
  0.001071
  0.091890
  0.024417
  0.037520
 -0.357860
 -0.130523
 -0.079794
  0.112958
 -0.005054
 -0.030254
 -0.149017
  0.073528
  0.068634
 -0.080708
  0.031378
  0.101781
  0.043400
  0.106968
  0.063445
  0.123024
  0.179272
  0.142522
 -0.085332
 -0.047854
 -0.047007
  0.011114
 -0.067322
  0.036358
 -0.008779
  0.244400
  0.133526
 -0.102649
  0.026789
 -0.163605
  0.043480
 -0.136375
  0.061181
  0.036081
  0.095246
 -0.160914
 -0.064217
  0.083990
 -0.223806
 -0.168131
 -0.121972
  0.155056
  0.093443
  0.101656
  0.019401
  0.059700
  0.181340
  0.002976
 -0.111369
 -0.048015
  0.089521
  0.003496
 -0.001503
  0.056034
  0.084517
 -0.041326
  0.015452
  0.190831
  0.225878
  0.256603
 -0.051722
 -0.023098
 -0.010672
  0.064159
 -0.079886
  0.083949
  0.013577
 -0.016624
  0.012016
  0.011496
  0.132069
  0.218388
 -0.247332
 -0.033789
  0.124812
 -0.020263
 -0.019064
  0.033633
  0.068835
 -0.195559
 -0.152691
  0.170594
 -0.190000
 -0.190264
  0.050688
 -0.041472
 -0.023009
 -0.031151
 -0.102457
  0.035507
 -0.033356
  0.223520
  0.053201
  0.172243
  0.062453
 -0.108109
  0.099355
  0.013385
  0.036806
  0.024506
  0.047084
 -0.163446
  0.199981
 -0.110825
 -0.032345
  0.032599
  0.122986
 -0.142070
 -0.027170
 -0.130461
 -0.008039
  0.202939
  0.055851
  0.096012
 -0.106434
 -0.105827
  0.010183
  0.072415
  0.094356
  0.139849
 -0.011811
  0.056138
 -0.160463
 -0.120286
 -0.155785
 -0.025188
 -0.231252
 -0.054246
  0.053461
  0.127106
 -0.016962
  0.154359
  0.191215
 -0.130344
 -0.106822
 -0.164264
 -0.139272
 -0.001952
 -0.117503
 -0.031350
  0.078065
 -0.206890
  0.148838
 -0.069434
  0.089980
 -0.076885
 -0.010116
  0.001911
 -0.043867
 -0.096890
  0.244266
  0.139771
  0.230015
  0.068585
  0.162208
  0.026218
  0.135135
  0.101971
 -0.162832
 -0.015060
  0.014750
  0.175381
  0.090549
  0.091912
  0.152007
 -0.030257
 -0.043918
  0.007447
 -0.062284
 -0.057358
  0.097771
  0.103369
  0.010463
 -0.059066
 -0.165601
  0.060799
  0.096575
 -0.034711
  0.053500
  0.044143
 -0.002568
  0.025155
 -0.109141
  0.029240
  0.142252
  0.093440
 -0.089016
 -0.067897
 -0.005668
  0.076952
 -0.014976
 -0.043342
  0.169811
 -0.045071
  0.086903
 -0.219358
 -0.034995
  0.174903
  0.073906
 -0.250396
  0.031241
 -0.057362
 -0.024852
 -0.074942
  0.108554
 -0.014574
 -0.024316
  0.230674
  0.130023
 -0.117821
 -0.135084
 -0.105197
  0.015730
  0.113796
 -0.090047
 -0.014565
  0.035526
 -0.049223
  0.055570
 -0.002813
 -0.072922
 -0.124966
 -0.194836
  0.006624
  0.222054
 -0.062832
  0.026854
  0.205162
  0.127991
 -0.108023
 -0.158713
 -0.339272
 -0.071156
  0.111307
  0.000665
 -0.179712
  0.102548
  0.050901
 -0.059401
 -0.088513
 -0.059803
  0.112238
 -0.118245
  0.065440
  0.051433
 -0.247648
 -0.115060
 -0.154607
  0.022680
  0.093302
  0.180176
  0.203344
  0.040116
 -0.025744
 -0.182098
 -0.038267
  0.006992
  0.081085
  0.145774
 -0.132560
 -0.112069
  0.063957
  0.172738
  0.009965
  0.104583
 -0.031234
 -0.093014
  0.076170
 -0.121119
 -0.005767
 -0.127991
  0.200468
 -0.067389
 -0.019997
  0.138141
 -0.119595
 -0.236388
 -0.075999
  0.051873
 -0.014356
 -0.068231
 -0.046432
  0.083396
  0.268603
 -0.168102
 -0.021832
  0.048199
  0.033549
 -0.086901
  0.058867
  0.076208
 -0.017775
  0.001592
  0.090160
  0.026933
  0.077573
 -0.113276
 -0.006049
 -0.201339
  0.129417
  0.040190
 -0.165830
  0.043943
  0.083927
 -0.028019
  0.082007
 -0.122495
 -0.073870
  0.148971
 -0.022101
  0.203042
  0.065999
 -0.090701
  0.075122
  0.050945
  0.124956
 -0.071439
  0.211233
 -0.166807
  0.027715
  0.115188
  0.136974
 -0.013873
  0.012503
  0.219078
  0.099096
  0.201155
  0.062190
  0.202158
  0.274213
  0.058194
  0.136597
  0.041519
  0.264974
 -0.145748
 -0.038740
 -0.184100
  0.093150
  0.137127
 -0.158304
  0.039120
 -0.084163
  0.122563
 -0.032533
 -0.145981
  0.076836
 -0.123785
 -0.148953
  0.051265
  0.213853
  0.026068
  0.066962
  0.106900
  0.246538
 -0.076892
 -0.062905
 -0.120299
  0.096864
 -0.082600
  0.129129
 -0.011058
  0.415897
  0.030917
  0.207008
  0.284143
  0.069745
  0.356847
  0.248119
  0.475185
  0.305304
  0.477480
  0.430865
  0.426417
  0.321946
  0.384109
  0.465502
  0.474810
  0.453278
  0.511439
  0.713421
  0.789499
  0.821098
  0.752936
  0.759049
  0.849162
  0.645230
  0.817662
  0.804523
  0.525197
  0.474002
  0.670898
  0.513214
  0.473033
  0.270223
  0.257809
  0.262707
  0.302827
  0.180606
 -0.134138
 -0.035094
  0.167967
 -0.091105
 -0.120964
 -0.076625
  0.160170
 -0.165737
 -0.092885
  0.012142
 -0.030496
 -0.152106
 -0.155474
 -0.349533
  0.084803
 -0.163953
 -0.020076
  0.047194
 -0.049217
 -0.240253
  0.029886
 -0.003055
  0.050793
 -0.105996
 -0.085318
 -0.206087
  0.064292
 -0.016833
 -0.101284
 -0.041857
 -0.040657
  0.038021
 -0.118286
  0.197239
  0.028478
  0.054904
  0.104687
 -0.030594
 -0.021352
 -0.158148
  0.153973
 -0.127548
  0.061722
  0.190869
 -0.007760
  0.015327
  0.040268
  0.021649
  0.097244
 -0.166927
 -0.183083
 -0.042757
  0.179091
  0.102899
  0.105306
 -0.236358
 -0.217029
 -0.050157
  0.130935
 -0.100793
  0.028513
 -0.059842
  0.248282
  0.064524
 -0.117480
 -0.051282
  0.088487
 -0.129854
  0.074849
  0.062554
  0.047909
 -0.016515
 -0.123106
  0.024238
 -0.000622
 -0.222302
 -0.154167
 -0.017388
 -0.201579
 -0.073626
  0.053339
 -0.018630
  0.008149
  0.028182
  0.166656
  0.003517
 -0.091622
 -0.063610
 -0.021734
 -0.147389
  0.025629
  0.022086
 -0.359879
  0.136138
  0.123096
  0.008676
  0.033251
 -0.231099
 -0.171740
  0.019041
 -0.014586
 -0.029853
  0.227263
  0.028063
 -0.061026
 -0.063152
  0.044855
  0.177878
  0.118842
  0.026513
  0.022856
 -0.144640
 -0.122796
  0.153290
  0.100143
 -0.034601
 -0.054439
  0.176614
  0.080124
 -0.171935
  0.057708
 -0.171738
  0.010323
  0.165482
  0.139989
  0.240728
  0.256708
  0.051100
  0.058319
  0.048348
  0.073654
  0.043164
  0.126072
 -0.060867
  0.017350
  0.070804
 -0.029644
 -0.021744
  0.003180
 -0.085037
 -0.008148
 -0.124040
  0.095846
  0.226142
 -0.025606
 -0.018075
 -0.205928
  0.029250
  0.080355
  0.103637
 -0.175660
 -0.001458
 -0.194675
 -0.006883
 -0.018954
  0.070867
  0.075486
 -0.061127
 -0.074733
  0.078961
 -0.145194
  0.124272
 -0.148052
 -0.119371
 -0.255237
  0.058050
 -0.141759
  0.016492
 -0.169531
 -0.066443
  0.001655
 -0.066726
  0.244241
 -0.039081
 -0.147559
  0.185819
 -0.053616
 -0.010726
  0.025082
  0.010074
 -0.289120
 -0.033641
  0.087329
  0.056731
 -0.035950
 -0.023075
 -0.025286
 -0.058854
  0.012174
 -0.194078
 -0.079933
  0.185556
 -0.090350
 -0.103856
 -0.070874
 -0.055368
 -0.038008
  0.027752
 -0.091573
 -0.135474
  0.020248
  0.023909
 -0.094691
 -0.003514
  0.156422
 -0.179713
 -0.162693
 -0.070527
  0.003362
 -0.079926
  0.095339
  0.128342
  0.083277
 -0.043403
  0.174578
  0.073475
 -0.072607
 -0.032319
 -0.010362
 -0.187658
 -0.051125
  0.300172
 -0.029022
  0.131563
 -0.077879
 -0.005850
  0.000229
  0.038734
 -0.020076
 -0.076411
  0.037332
 -0.027110
  0.052386
  0.006237
  0.004154
  0.133029
  0.089350
  0.177045
  0.050126
  0.007697
  0.177415
  0.125723
  0.227326
  0.146218
 -0.097019
 -0.046721
 -0.016233
 -0.081756
  0.076394
 -0.080517
 -0.045194
 -0.042733
 -0.025937
 -0.192885
  0.117840
  0.115255
 -0.244443
  0.025492
  0.050391
  0.035366
  0.136287
 -0.037374
  0.052695
  0.162735
 -0.175850
 -0.025439
  0.190036
 -0.084731
  0.190713
  0.116398
 -0.130053
 -0.147281
 -0.086945
  0.144233
 -0.048269
 -0.100621
  0.019223
  0.024471
 -0.211433
 -0.201957
 -0.067622
 -0.008107
 -0.076700
  0.014301
  0.180065
  0.117563
 -0.032163
 -0.047338
  0.208025
 -0.175924
  0.001061
  0.147207
 -0.128758
 -0.112002
 -0.085930
  0.185075
  0.051070
  0.002350
  0.152122
  0.005377
  0.048491
 -0.158362
 -0.198523
 -0.005635
  0.139188
  0.054890
 -0.021195
 -0.135708
  0.019610
 -0.061173
  0.082797
  0.014762
  0.012998
  0.098107
 -0.026557
 -0.067027
  0.106444
  0.078900
 -0.038437
  0.042762
 -0.005212
 -0.001609
 -0.089904
  0.057001
  0.085323
  0.112174
  0.031844
  0.001138
  0.034946
 -0.079461
  0.025258
 -0.095317
  0.059998
  0.035619
 -0.032861
  0.322970
 -0.148382
 -0.013004
  0.196388
 -0.076706
  0.024353
  0.183005
 -0.094188
  0.086523
 -0.197250
 -0.066193
 -0.000122
 -0.116618
 -0.012947
  0.035838
 -0.212695
  0.086033
 -0.252661
 -0.059705
 -0.135138
  0.190629
  0.291107
 -0.069694
 -0.028864
  0.097160
 -0.003459
 -0.066566
 -0.097556
 -0.118326
  0.119251
  0.034393
  0.120184
  0.178343
  0.011514
 -0.080363
  0.116157
 -0.193130
 -0.121623
 -0.002239
 -0.041938
 -0.110539
  0.101254
 -0.067160
  0.112164
  0.051897
 -0.239784
  0.124058
  0.113268
 -0.217543
 -0.090493
 -0.078099
 -0.163288
 -0.066168
  0.003875
  0.019951
  0.097983
  0.014914
 -0.060513
 -0.116138
 -0.008477
 -0.021380
  0.040150
 -0.157620
  0.050611
  0.075537
 -0.052923
  0.001509
 -0.139396
 -0.114466
 -0.142289
 -0.369808
  0.042025
  0.118844
  0.035242
 -0.089443
 -0.175990
 -0.226679
 -0.039123
  0.101577
 -0.102337
  0.065103
  0.050323
  0.020490
  0.120958
 -0.060858
 -0.134161
  0.047991
 -0.034293
  0.132864
  0.120643
  0.030577
 -0.006411
 -0.018502
 -0.024105
 -0.000672
  0.051535
 -0.073197
 -0.178840
 -0.051648
  0.115483
  0.037302
 -0.147530
 -0.055767
 -0.071906
  0.072758
  0.086988
 -0.135720
  0.067917
  0.197320
  0.007563
 -0.142121
 -0.159289
  0.029398
 -0.077508
 -0.239605
  0.357366
  0.229540
  0.193728
  0.016729
 -0.008906
 -0.033786
 -0.180478
 -0.144770
 -0.058510
  0.124829
 -0.133166
  0.017583
  0.143603
  0.150931
 -0.169781
  0.102701
 -0.048904
  0.115979
 -0.067666
  0.099550
  0.009670
  0.054495
  0.025744
 -0.046079
  0.147851
  0.241673
  0.124989
 -0.070127
  0.059812
  0.032641
  0.003055
 -0.018980
 -0.042214
  0.094006
  0.142704
  0.057850
 -0.071205
  0.047408
  0.002899
  0.026876
  0.072983
 -0.145677
 -0.037221
  0.076498
  0.060100
  0.178532
 -0.112531
  0.148613
  0.162021
 -0.057493
 -0.057625
  0.063534
  0.057849
 -0.230756
 -0.027554
  0.086839
  0.026585
 -0.156490
 -0.139868
  0.030366
 -0.067641
 -0.190310
 -0.084615
 -0.087985
 -0.183403
  0.016824
 -0.003550
  0.340045
 -0.119981
 -0.134031
  0.003112
 -0.002156
  0.077434
 -0.191488
  0.026353
 -0.014958
 -0.025734
  0.038823
  0.031760
 -0.253113
 -0.032118
 -0.070546
  0.058715
  0.023529
  0.194525
  0.023850
 -0.009421
  0.242338
  0.038339
  0.233288
 -0.050657
  0.099858
 -0.097151
  0.002371
 -0.141030
 -0.030199
 -0.055993
 -0.096675
  0.124567
  0.061325
 -0.157781
  0.151521
  0.229360
  0.068750
 -0.100130
  0.003530
  0.055990
 -0.079803
 -0.032853
  0.018576
  0.048889
  0.364709
  0.009367
  0.019142
  0.038454
 -0.160398
 -0.150397
  0.197384
 -0.117448
  0.172976
 -0.075774
 -0.017941
 -0.137793
  0.079832
  0.081553
 -0.165802
 -0.041697
  0.002111
  0.235847
  0.235266
 -0.087630
  0.082384
 -0.129416
  0.031833
 -0.143688
 -0.122479
  0.194978
 -0.098753
  0.068886
 -0.102116
  0.041903
 -0.205855
 -0.002328
  0.010033
  0.190260
  0.060283
  0.139386
  0.012502
  0.091838
 -0.118780
 -0.026484
 -0.068227
 -0.103665
  0.110470
  0.014498
 -0.030413
 -0.020977
 -0.091364
 -0.088014
  0.040279
  0.161107
  0.244124
 -0.000487
  0.243657
  0.195097
 -0.146586
 -0.131609
  0.158456
  0.078074
  0.207120
  0.000660
  0.013569
 -0.012346
 -0.058358
  0.320919
  0.170367
  0.090979
 -0.086591
  0.317843
 -0.177445
  0.244315
 -0.004351
 -0.043636
  0.154461
 -0.072351
  0.027128
 -0.034290
 -0.034388
  0.029639
 -0.134555
 -0.033420
 -0.129225
  0.172897
  0.092097
  0.039457
  0.244724
 -0.090428
 -0.109443
 -0.069167
 -0.236436
 -0.026667
  0.068143
  0.151429
  0.073876
 -0.034131
 -0.047937
 -0.026077
 -0.082889
  0.021767
  0.083226
  0.033338
  0.007725
 -0.027954
 -0.044014
 -0.004512
  0.103303
  0.016941
  0.029969
 -0.029003
  0.069274
  0.126339
  0.044454
 -0.143793
 -0.250253
  0.060075
  0.057402
  0.127615
  0.085928
 -0.158290
 -0.206752
 -0.116140
 -0.017141
 -0.094122
 -0.010479
  0.057239
 -0.093551
  0.037233
  0.020019
  0.032814
  0.112255
  0.069468
  0.009138
 -0.064480
 -0.062729
 -0.095176
  0.066202
  0.020542
  0.159073
 -0.195970
  0.127466
  0.024178
  0.230546
 -0.044206
  0.257682
  0.142215
 -0.136582
 -0.093923
 -0.031092
 -0.122348
  0.003552
  0.024913
  0.018245
 -0.042241
 -0.273788
 -0.019664
  0.083596
  0.171700
 -0.030627
 -0.251031
  0.271704
  0.017059
  0.147966
  0.040758
 -0.004983
 -0.049431
 -0.086478
  0.184500
  0.053097
  0.067046
  0.111469
  0.169365
 -0.021160
  0.136997
 -0.226124
  0.024263
 -0.090443
  0.057083
  0.090703
 -0.083414
 -0.082188
  0.032918
 -0.088992
 -0.036048
 -0.099213
 -0.124053
  0.115314
 -0.157755
  0.200247
 -0.090008
 -0.008419
  0.063974
 -0.173415
 -0.080271
 -0.320648
  0.103068
  0.012259
 -0.118665
  0.013007
  0.037547
  0.088719
 -0.040339
 -0.080643
 -0.136839
  0.023942
 -0.023946
  0.086066
  0.315452
  0.008264
 -0.004889
 -0.087298
  0.002443
 -0.248030
 -0.267865
 -0.100845
  0.027114
 -0.070591
  0.057751
 -0.103785
 -0.080698
  0.072818
  0.277290
 -0.205978
  0.011163
 -0.128801
  0.058747
 -0.084269
  0.020076
 -0.063376
 -0.229311
 -0.219547
 -0.074014
 -0.027468
  0.157813
  0.179786
  0.115575
 -0.045194
  0.050598
  0.041880
 -0.058177
 -0.120566
 -0.099776
 -0.166563
 -0.108242
  0.095339
 -0.104868
  0.225189
 -0.088828
 -0.043100
 -0.001478
  0.026993
 -0.041265
  0.044943
  0.170440
  0.231402
 -0.067685
  0.110408
 -0.060471
  0.171758
  0.085390
 -0.272524
 -0.096068
 -0.198631
  0.029586
  0.478039
  0.070266
 -0.036928
 -0.213564
 -0.119444
  0.023357
 -0.084186
  0.136847
 -0.010626
  0.010420
 -0.159017
 -0.082854
  0.028056
 -0.280270
 -0.024108
 -0.208452
 -0.087892
 -0.053420
  0.122150
 -0.009261
  0.132702
 -0.079107
 -0.140863
  0.062590
  0.150060
 -0.018994
 -0.138118
  0.027911
  0.088129
  0.087758
  0.080826
 -0.061910
  0.089044
  0.060643
 -0.035238
  0.165481
 -0.026163
 -0.196247
  0.151721
 -0.023770
 -0.165890
  0.025092
 -0.009646
  0.105603
 -0.037836
 -0.065072
 -0.010453
 -0.051416
  0.175388
  0.101213
 -0.000721
  0.007207
 -0.043993
 -0.042573
 -0.073418
 -0.101021
  0.067848
  0.124640
  0.000353
  0.111979
  0.040624
 -0.203148
  0.030198
  0.091308
  0.005296
 -0.112762
 -0.048118
 -0.034287
 -0.094826
 -0.188181
 -0.062290
 -0.049977
 -0.062392
  0.125033
  0.007600
 -0.019131
  0.118477
 -0.003927
  0.019856
 -0.118724
  0.220617
 -0.066909
  0.026370
 -0.149957
 -0.030230
 -0.152587
 -0.066299
 -0.061034
  0.137069
  0.216170
  0.035823
  0.137033
  0.173361
  0.207597
 -0.022997
  0.010780
  0.073516
 -0.067437
  0.039831
  0.019478
  0.107335
  0.093566
 -0.079739
  0.059122
 -0.245493
 -0.001448
 -0.035352
  0.106196
  0.006651
 -0.057594
  0.198636
 -0.033082
 -0.232933
 -0.021616
 -0.086894
 -0.090963
 -0.111687
  0.120013
  0.172166
  0.012436
  0.231259
  0.160142
  0.092977
 -0.022796
 -0.156879
  0.056959
  0.062185
 -0.124131
  0.069458
 -0.014712
  0.015863
  0.133515
  0.097838
 -0.134322
 -0.132330
 -0.110029
  0.000900
 -0.074137
  0.069129
 -0.132468
  0.043901
  0.020929
 -0.021838
 -0.088243
  0.065059
  0.076908
 -0.166857
 -0.224879
  0.035176
  0.094314
  0.087326
  0.170957
  0.044345
  0.033564
 -0.063122
 -0.223108
  0.045672
 -0.151150
 -0.033252
  0.198752
  0.084183
 -0.003335
  0.150758
  0.305897
  0.157520
 -0.105072
  0.180226
  0.152741
  0.043499
 -0.131714
 -0.076689
 -0.064328
 -0.091783
 -0.000067
 -0.018269
 -0.034914
  0.116497
 -0.123207
  0.165203
  0.015102
  0.188773
 -0.178800
 -0.053481
 -0.190877
  0.156036
 -0.003330
  0.084705
  0.027015
  0.082997
  0.081545
 -0.001266
 -0.128491
 -0.134881
  0.119481
 -0.032026
 -0.191494
 -0.096324
  0.014836
 -0.002337
 -0.004289
 -0.117524
  0.030616
  0.223451
 -0.348456
  0.091361
 -0.006290
  0.142103
  0.092389
 -0.027750
 -0.024964
 -0.021336
  0.256961
 -0.181838
 -0.199613
 -0.068622
 -0.027672
 -0.111205
 -0.136375
 -0.087063
  0.030116
  0.118786
 -0.115540
 -0.019564
 -0.033585
 -0.107872
  0.132460
 -0.148907
  0.179470
  0.065490
  0.081741
  0.145542
 -0.068932
  0.004045
 -0.013021
 -0.055415
 -0.195987
  0.067158
  0.165480
  0.096170
 -0.095480
 -0.161805
 -0.039926
  0.008121
  0.036772
  0.069186
  0.047310
  0.088172
  0.066180
  0.117459
 -0.153888
 -0.012713
 -0.051292
 -0.022710
  0.105523
 -0.051147
 -0.124252
 -0.090424
 -0.029479
  0.076989
  0.165957
  0.038177
  0.105991
 -0.146647
 -0.061219
 -0.102364
 -0.114140
 -0.134916
  0.015635
  0.182804
 -0.033812
  0.066293
 -0.099626
 -0.170281
 -0.059974
 -0.110816
 -0.023086
  0.112144
  0.233701
 -0.041372
 -0.150956
 -0.082969
 -0.013219
 -0.056298
 -0.063901
 -0.058720
  0.055944
  0.043843
  0.096396
  0.141869
  0.133601
 -0.000955
 -0.213679
 -0.087320
 -0.119474
 -0.357881
  0.065344
  0.085493
  0.068583
 -0.239035
 -0.090478
 -0.108848
 -0.040255
  0.043250
 -0.075762
  0.287234
  0.067303
 -0.036408
  0.132160
 -0.129971
  0.084018
  0.182854
 -0.100658
  0.136648
  0.003609
 -0.050745
  0.051817
  0.070291
  0.024411
  0.076941
 -0.034412
  0.226195
  0.120577
 -0.036570
  0.109057
 -0.203747
 -0.046460
 -0.215096
  0.012495
 -0.074387
  0.013352
  0.203958
  0.163031
  0.005968
  0.099923
  0.180061
  0.225424
 -0.068653
  0.026335
  0.042954
 -0.012370
  0.142617
 -0.212342
  0.095756
 -0.142074
 -0.157023
 -0.081919
 -0.306516
  0.108052
 -0.141301
 -0.034154
 -0.053943
 -0.065852
  0.292791
  0.053300
  0.125577
  0.154320
  0.059213
 -0.064530
 -0.050154
  0.119014
  0.131054
  0.077553
 -0.022518
  0.192110
 -0.102130
  0.162026
  0.113755
 -0.098434
  0.036168
  0.035884
  0.184720
  0.097055
 -0.011225
 -0.072545
  0.078327
  0.299600
 -0.042573
 -0.181193
  0.239293
 -0.263774
  0.179555
  0.009379
  0.101105
 -0.142372
  0.027280
  0.136689
 -0.004153
 -0.078447
 -0.073000
 -0.112353
 -0.150547
 -0.076261
  0.029811
 -0.019397
 -0.047716
 -0.113242
 -0.053962
  0.012832
  0.112590
 -0.049772
 -0.020556
 -0.186187
 -0.156773
  0.090754
 -0.017510
 -0.048034
  0.130135
 -0.077423
  0.116058
 -0.063609
 -0.013795
 -0.014348
 -0.002190
  0.102938
  0.138350
 -0.054256
  0.100021
  0.066961
 -0.110813
 -0.084559
 -0.089127
 -0.146853
 -0.201100
 -0.026266
  0.172194
  0.019302
  0.078362
 -0.058941
 -0.023865
 -0.028825
 -0.177133
 -0.194495
  0.181702
  0.011887
 -0.102205
 -0.096302
 -0.001521
 -0.259244
  0.142138
 -0.024487
 -0.024433
 -0.160885
 -0.150774
  0.012846
 -0.207174
 -0.021659
 -0.004109
  0.063126
  0.070536
 -0.051943
  0.090675
  0.049390
 -0.084513
 -0.092417
 -0.204831
 -0.028049
  0.034398
 -0.040538
  0.129993
  0.255707
  0.145643
 -0.106812
 -0.027698
 -0.092605
 -0.061777
 -0.054955
 -0.251475
  0.218915
 -0.013020
 -0.007598
  0.239518
 -0.035495
 -0.004629
  0.054141
 -0.036258
 -0.082884
  0.181435
  0.101859
 -0.112644
  0.133788
  0.035863
  0.036400
  0.198335
 -0.037787
  0.086690
 -0.047275
  0.095164
 -0.104083
 -0.086349
 -0.062660
 -0.016958
  0.139751
  0.188357
  0.005080
  0.033678
  0.208166
  0.125125
 -0.181531
 -0.008027
  0.031417
 -0.096840
 -0.003320
  0.169732
 -0.011527
 -0.011002
  0.116513
 -0.041103
 -0.067219
 -0.081318
  0.066479
 -0.108684
  0.134857
  0.010058
 -0.022102
  0.156191
  0.049080
 -0.053006
 -0.102259
  0.001669
 -0.127979
 -0.029207
 -0.003870
  0.043499
  0.228295
  0.022148
  0.022532
 -0.161565
  0.017553
 -0.087288
 -0.044011
 -0.096420
  0.005463
  0.053064
 -0.008998
 -0.172946
  0.155195
  0.040159
  0.153253
  0.102440
 -0.110158
 -0.054107
  0.242584
 -0.048919
 -0.011717
  0.060025
  0.061144
 -0.003089
  0.138192
 -0.290512
 -0.152035
  0.086462
  0.130652
 -0.147687
 -0.057689
 -0.021585
  0.083486
 -0.046193
  0.081599
  0.071484
  0.035201
  0.041411
  0.032423
 -0.215499
 -0.008529
  0.137016
 -0.148846
  0.271906
  0.113385
  0.203303
 -0.127398
 -0.180762
 -0.297858
  0.263640
 -0.050277
 -0.044242
  0.037415
 -0.158848
  0.039229
  0.010421
 -0.016644
 -0.152197
  0.105167
 -0.035681
 -0.095412
  0.021079
 -0.124766
  0.031773
  0.157432
 -0.022596
  0.124122
  0.099147
  0.116526
 -0.038483
 -0.113742
  0.108559
 -0.069717
  0.219344
 -0.009766
 -0.197466
  0.074262
 -0.149783
  0.120850
 -0.016524
 -0.059613
  0.062135
 -0.188176
 -0.037397
 -0.095966
  0.050423
  0.033113
 -0.096119
 -0.027931
  0.020875
  0.054475
  0.241771
  0.000572
  0.001180
 -0.002037
 -0.084306
 -0.009248
 -0.131103
 -0.213732
 -0.089586
 -0.148344
  0.124247
 -0.160982
  0.047715
 -0.191000
 -0.110652
  0.085634
 -0.003018
  0.031559
  0.123338
  0.009001
  0.079499
  0.011999
 -0.005743
  0.017120
 -0.002858
  0.058125
  0.139227
 -0.000814
  0.058362
 -0.034416
 -0.070645
  0.136187
  0.037070
  0.139835
 -0.136929
 -0.047439
 -0.100895
 -0.032006
  0.199519
  0.108342
  0.049136
  0.034474
 -0.195638
 -0.294641
  0.093287
 -0.191875
 -0.044006
 -0.009064
 -0.148071
  0.044239
  0.156633
 -0.002572
 -0.174046
 -0.134625
  0.101094
  0.114838
  0.180175
 -0.039990
  0.164378
  0.007919
 -0.011231
 -0.121325
 -0.149673
 -0.170758
 -0.022517
  0.116682
  0.010808
 -0.049241
  0.108922
 -0.069337
  0.058348
 -0.047622
  0.081168
 -0.007751
 -0.061270
 -0.051518
  0.208609
  0.030782
  0.160744
  0.008289
  0.005031
 -0.021823
  0.075408
 -0.182187
 -0.039998
 -0.052074
  0.277655
 -0.050098
  0.113475
  0.124778
 -0.070095
  0.174760
 -0.123885
  0.031143
  0.131172
 -0.009116
 -0.058998
  0.075293
  0.034678
  0.066127
  0.065998
  0.130347
 -0.084435
  0.018812
 -0.012383
 -0.083394
 -0.273519
 -0.040264
  0.139249
 -0.000097
  0.035663
  0.099816
  0.017656
 -0.074209
  0.015921
 -0.070922
  0.005797
 -0.183958
  0.114689
  0.093030
 -0.171060
  0.075845
 -0.024133
  0.054148
 -0.142711
  0.008357
  0.023411
  0.028625
 -0.033566
  0.013775
  0.064118
 -0.173422
  0.002721
 -0.060007
 -0.171145
  0.192190
 -0.169455
  0.003946
  0.017161
 -0.016070
  0.077893
  0.090604
  0.006565
  0.161250
  0.014242
 -0.102068
  0.140002
 -0.051900
  0.035132
 -0.063684
  0.151610
 -0.112173
 -0.172079
 -0.060842
 -0.092014
 -0.105626
  0.179790
 -0.038050
 -0.033145
  0.019750
  0.114475
  0.066583
 -0.008965
 -0.191287
 -0.169688
  0.069885
  0.038796
 -0.090366
  0.284625
 -0.114020
 -0.033792
  0.125651
 -0.153289
 -0.041988
  0.100448
 -0.151679
  0.063621
 -0.020711
  0.039755
  0.069677
  0.078648
  0.001828
 -0.073769
 -0.273136
  0.028781
 -0.017626
 -0.040211
  0.048029
 -0.104102
  0.108313
  0.027977
 -0.335400
  0.061050
 -0.160640
  0.239306
 -0.099033
 -0.017171
  0.041154
 -0.011923
 -0.080143
  0.218783
  0.130387
  0.218462
 -0.202160
  0.066537
  0.372293
 -0.110432
 -0.044836
  0.069081
  0.106613
 -0.022503
  0.068957
 -0.076878
  0.058312
  0.106391
 -0.074760
 -0.206577
  0.062635
 -0.066200
  0.054793
 -0.030567
 -0.191607
  0.061672
  0.037854
  0.042005
  0.020062
  0.082869
 -0.098380
 -0.039825
 -0.008522
  0.009595
  0.136389
 -0.076438
  0.189657
  0.072829
  0.151144
 -0.076690
 -0.096168
 -0.098574
  0.131042
 -0.010581
  0.001561
  0.047014
 -0.055811
 -0.173011
 -0.089249
 -0.109254
 -0.180696
 -0.054374
 -0.139506
 -0.123761
 -0.005599
 -0.088579
 -0.020017
 -0.149597
  0.080984
  0.024032
  0.174070
  0.181090
 -0.046384
 -0.133838
  0.017984
  0.112718
 -0.101807
 -0.017384
  0.018384
 -0.082825
  0.231816
  0.150544
  0.132776
 -0.125960
 -0.029102
  0.193657
 -0.133330
  0.000770
  0.186922
 -0.087493
  0.062677
 -0.273318
 -0.243419
  0.017163
  0.012543
 -0.139937
 -0.144855
 -0.263566
  0.077696
 -0.081760
 -0.081577
  0.131774
 -0.070100
 -0.108557
 -0.022777
  0.022830
  0.103770
  0.028586
 -0.005147
  0.109505
  0.079464
 -0.047961
 -0.013348
  0.066008
 -0.047473
 -0.024977
 -0.265994
 -0.056142
  0.076817
 -0.010783
 -0.058248
  0.005244
 -0.061241
  0.071155
 -0.011438
 -0.078879
  0.020975
  0.002596
 -0.016038
  0.151452
  0.047516
 -0.025441
  0.000599
 -0.025989
 -0.007033
 -0.024177
 -0.269375
  0.000345
 -0.085269
  0.051693
 -0.024804
  0.051085
 -0.042490
 -0.060191
  0.061202
 -0.106150
  0.051563
 -0.002110
  0.086856
  0.043328
  0.053338
 -0.042139
  0.043948
  0.055544
  0.071795
 -0.155099
  0.084634
  0.202099
  0.120496
 -0.130309
  0.045274
 -0.055182
  0.125904
 -0.155610
  0.096669
  0.233343
  0.039212
 -0.035673
  0.103934
 -0.079722
 -0.087893
  0.088649
  0.149023
  0.147034
 -0.076257
  0.183924
  0.054295
  0.048640
  0.009578
  0.159017
  0.002233
  0.036549
 -0.006347
 -0.039945
  0.005104
  0.280345
  0.188057
 -0.102037
 -0.097866
  0.194920
 -0.084419
 -0.067885
 -0.055274
  0.097816
 -0.033281
 -0.022787
 -0.233731
 -0.095165
  0.013580
  0.157421
 -0.171480
 -0.079217
 -0.272871
  0.247472
  0.025662
 -0.038548
  0.040631
  0.108539
  0.139565
 -0.071601
  0.029045
  0.153856
  0.139121
  0.046712
  0.060207
 -0.125438
 -0.021861
  0.152693
  0.037795
 -0.297848
  0.000340
 -0.135253
 -0.122638
  0.064237
  0.170522
 -0.008676
  0.206551
  0.049647
  0.065356
 -0.002544
  0.000924
  0.198084
  0.043381
  0.095799
  0.139273
  0.131655
  0.230140
 -0.047985
 -0.027184
  0.088131
  0.152121
 -0.159238
 -0.000540
  0.005086
  0.063277
 -0.046697
 -0.033756
 -0.277582
 -0.159294
  0.053196
 -0.093782
  0.141220
  0.026731
  0.104621
 -0.134182
 -0.204160
  0.045026
 -0.032615
  0.102436
  0.024654
 -0.039710
 -0.286674
 -0.072940
 -0.072558
  0.033648
 -0.101297
  0.129672
  0.071400
 -0.244918
 -0.079040
 -0.129010
  0.170547
  0.010113
  0.120989
 -0.022604
  0.056803
  0.188718
  0.017586
  0.009639
 -0.153190
  0.031576
  0.099292
 -0.129415
  0.060325
 -0.086859
 -0.038523
 -0.228394
  0.072367
  0.072627
  0.259460
 -0.014869
  0.000477
 -0.145069
 -0.031013
 -0.110732
 -0.049453
  0.067933
  0.083143
 -0.231404
 -0.162796
  0.080313
 -0.131912
  0.050337
 -0.282628
 -0.112423
  0.061732
 -0.035366
  0.070098
  0.168333
  0.257339
  0.070750
 -0.073220
  0.056301
 -0.052362
  0.180392
 -0.075645
  0.248260
 -0.245825
  0.027760
 -0.098629
  0.156199
 -0.171660
  0.300257
 -0.126549
  0.055561
 -0.135438
  0.043377
  0.038219
 -0.161335
 -0.300035
  0.100380
  0.036255
  0.044897
  0.064641
  0.058497
 -0.110455
  0.032062
  0.191149
  0.050921
 -0.026921
  0.076130
 -0.062001
 -0.024177
 -0.104190
 -0.066567
  0.147889
  0.008976
  0.170708
 -0.069188
  0.099770
  0.238735
  0.092425
  0.050129
 -0.091183
 -0.111276
 -0.088551
  0.036943
  0.136802
  0.156304
  0.051130
 -0.100138
 -0.019887
  0.013837
 -0.109791
  0.019227
 -0.025540
 -0.040776
  0.154203
 -0.038704
 -0.013793
 -0.057519
  0.058268
 -0.064723
 -0.182292
  0.200801
 -0.072542
 -0.016338
 -0.125152
 -0.040172
  0.086672
 -0.214168
  0.099085
  0.228624
 -0.115828
  0.091107
  0.220272
  0.191122
  0.211165
  0.089848
 -0.041046
 -0.122125
  0.387807
  0.036996
  0.120616
  0.139226
 -0.009742
  0.013987
  0.352697
 -0.148293
  0.097468
  0.039708
  0.173850
 -0.083051
 -0.181126
  0.200429
  0.084049
 -0.011418
  0.042890
  0.135366
  0.035580
 -0.092183
  0.076080
  0.027536
  0.019456
 -0.050920
  0.008298
 -0.055392
 -0.253907
  0.144258
 -0.048477
  0.204936
 -0.211043
 -0.254026
  0.255764
  0.225523
 -0.052944
 -0.128767
 -0.198569
  0.008292
 -0.075004
 -0.034972
  0.086015
  0.198571
  0.085596
 -0.240677
 -0.022638
  0.095434
 -0.037731
  0.028885
  0.014101
 -0.067754
  0.014414
  0.094089
 -0.040733
  0.055380
 -0.133654
  0.059611
  0.324408
  0.098960
  0.169321
 -0.028974
  0.063086
 -0.007032
  0.121990
 -0.037702
  0.056481
  0.138831
 -0.297081
  0.033224
 -0.120262
  0.050692
  0.047808
 -0.106676
 -0.194347
 -0.046437
 -0.228074
  0.127196
 -0.046540
  0.233545
  0.071306
  0.057339
  0.158220
 -0.219547
 -0.227619
 -0.055825
  0.139170
  0.036809
 -0.045527
 -0.106376
  0.038430
  0.288311
  0.054558
 -0.031071
  0.145159
 -0.063907
  0.151223
  0.209985
 -0.065984
  0.236918
 -0.129295
 -0.020566
  0.040429
  0.009540
  0.075052
 -0.054719
  0.093025
 -0.174040
  0.098242
  0.164543
  0.171226
  0.036611
  0.172713
  0.126598
  0.167316
  0.091564
 -0.096868
  0.045389
 -0.012091
  0.036596
  0.024130
 -0.127147
  0.048196
 -0.002916
  0.082230
  0.067232
  0.135470
 -0.116283
 -0.031061
 -0.089100
  0.069630
  0.111119
  0.104613
  0.050199
 -0.018700
  0.279329
  0.068388
  0.035248
 -0.036737
 -0.030868
  0.017882
  0.157054
 -0.117093
  0.169742
  0.158672
  0.036194
 -0.041120
  0.269053
 -0.125825
  0.051077
  0.232828
  0.157375
  0.003603
  0.187757
  0.202331
 -0.080575
 -0.001053
  0.230592
  0.006819
  0.041043
  0.034138
 -0.053406
  0.061807
  0.013002
 -0.096810
 -0.116693
  0.080739
  0.036074
  0.208495
  0.145912
  0.098007
  0.116819
  0.020357
 -0.041704
  0.028626
  0.062930
 -0.026684
  0.041677
  0.344410
 -0.094483
  0.166657
  0.091827
  0.098871
  0.064949
 -0.034610
  0.090951
  0.290176
  0.106142
  0.106112
  0.143821
 -0.029835
  0.001042
  0.212817
  0.016286
 -0.023307
  0.171523
 -0.069150
  0.057967
  0.135073
  0.106310
 -0.199802
 -0.011227
  0.108973
  0.229476
 -0.042503
 -0.006886
  0.197081
  0.008617
 -0.160636
  0.249658
  0.082379
 -0.005183
 -0.011273
 -0.036983
  0.036847
  0.103381
 -0.068745
  0.115425
  0.124074
 -0.063357
 -0.018565
  0.143790
  0.203281
 -0.014077
  0.014455
 -0.119912
  0.244467
  0.175577
  0.109593
  0.194559
  0.074300
  0.212365
  0.074472
 -0.059786
  0.079343
  0.040740
  0.075616
  0.104958
 -0.227344
  0.372108
  0.056014
 -0.087642
  0.013172
  0.254024
 -0.103896
 -0.052620
 -0.279877
 -0.014313
 -0.060884
 -0.088876
 -0.115818
 -0.169222
  0.162468
  0.086491
 -0.068652
  0.036286
 -0.043728
 -0.040816
 -0.004167
  0.002160
 -0.054362
 -0.019707
 -0.140858
 -0.000535
 -0.031536
 -0.143994
  0.096953
 -0.044229
  0.054121
  0.077157
  0.040583
  0.071070
 -0.016212
 -0.160427
 -0.059057
 -0.380557
 -0.118954
 -0.076487
 -0.051845
 -0.268085
 -0.119489
  0.114363
 -0.115658
  0.082183
  0.026153
  0.123386
 -0.196023
 -0.165209
 -0.008513
  0.274810
  0.017688
 -0.019699
  0.018583
  0.093502
 -0.159878
  0.026988
  0.032923
 -0.024427
 -0.043681
 -0.076291
  0.084766
  0.012389
 -0.077124
  0.158030
 -0.218587
  0.115957
 -0.096595
  0.083184
  0.085233
 -0.036835
 -0.109210
  0.022768
 -0.433236
  0.097883
 -0.105709
 -0.039250
  0.082658
  0.020209
 -0.010410
  0.166816
  0.145919
 -0.153112
 -0.106887
  0.121311
 -0.126984
  0.157197
 -0.167984
  0.187607
  0.018243
 -0.226280
 -0.143811
 -0.222757
  0.184191
  0.178855
 -0.048885
 -0.007537
 -0.205177
  0.208019
  0.047332
 -0.062755
  0.189687
  0.283260
  0.067298
 -0.011752
  0.016202
 -0.113058
 -0.041618
  0.174481
  0.076791
  0.135303
 -0.037834
  0.084719
 -0.239789
 -0.159108
  0.056720
 -0.139704
  0.131023
 -0.358690
 -0.132733
  0.131218
 -0.051996
  0.164510
  0.152881
 -0.038077
  0.102741
  0.122987
 -0.035066
  0.057486
 -0.093027
  0.043830
 -0.012365
 -0.061857
 -0.219540
  0.147888
  0.066572
 -0.039133
  0.019993
  0.149771
 -0.278110
 -0.072127
 -0.072925
 -0.145696
  0.230269
  0.016308
 -0.164157
 -0.028324
 -0.172475
 -0.025986
 -0.076042
  0.201107
  0.030793
 -0.054742
  0.256648
 -0.005950
 -0.027612
  0.154640
 -0.029749
  0.197238
  0.112185
  0.007695
 -0.005041
 -0.058632
 -0.146197
 -0.102471
  0.044928
 -0.071678
  0.105911
 -0.244700
 -0.085869
 -0.207913
 -0.226599
 -0.028712
 -0.148353
  0.031737
  0.012084
  0.036730
 -0.010895
  0.103701
 -0.100404
 -0.026852
 -0.136154
  0.015380
  0.047938
  0.162393
  0.069515
  0.065414
  0.235847
  0.108352
 -0.168646
  0.093163
 -0.225284
 -0.026218
 -0.001555
  0.189081
  0.199993
  0.052837
 -0.022918
 -0.106167
 -0.024643
  0.128284
  0.087614
  0.034373
  0.078945
 -0.122880
 -0.055825
  0.144047
  0.109169
 -0.182196
  0.061621
 -0.121900
  0.025890
 -0.063419
 -0.314027
 -0.094519
  0.227080
 -0.175969
  0.062581
  0.001178
  0.020975
  0.136962
 -0.146181
  0.194455
 -0.049768
 -0.059468
  0.018571
 -0.184480
 -0.052043
  0.106058
  0.006468
 -0.156486
 -0.039705
 -0.034151
  0.071011
 -0.051142
  0.122089
  0.135398
 -0.153176
 -0.080148
  0.042650
  0.100508
  0.130093
  0.227247
 -0.072886
  0.106621
 -0.170777
  0.032274
 -0.109779
  0.013142
  0.056144
  0.159849
  0.003648
  0.169337
 -0.002474
  0.072029
 -0.029496
  0.149448
 -0.066488
 -0.063949
 -0.171630
  0.038778
  0.058009
 -0.119334
  0.065438
 -0.082350
  0.088623
 -0.030655
 -0.155697
 -0.210446
  0.142627
 -0.201783
 -0.058965
 -0.046719
  0.135232
  0.106351
  0.104961
 -0.106853
 -0.054000
  0.032679
 -0.028296
 -0.118826
 -0.015451
 -0.098067
  0.030936
  0.009110
 -0.179795
 -0.011275
 -0.073109
  0.168059
 -0.013042
 -0.071104
 -0.073272
  0.174310
 -0.000940
 -0.040998
  0.014289
  0.149652
 -0.106632
  0.099824
 -0.004279
  0.049980
  0.102955
  0.059326
 -0.038985
 -0.092148
 -0.075543
 -0.024984
  0.115399
 -0.013642
 -0.185615
 -0.125614
  0.149444
  0.169967
 -0.181054
 -0.148315
 -0.056791
  0.016893
  0.160522
 -0.045359
  0.029755
  0.118789
 -0.009373
 -0.069829
  0.174976
 -0.033611
  0.145685
 -0.029150
  0.047354
  0.161036
 -0.027011
 -0.166565
  0.014837
 -0.059266
 -0.043756
  0.048872
  0.060331
 -0.097003
 -0.116360
 -0.077650
 -0.012197
  0.153622
 -0.010099
 -0.096346
 -0.128257
 -0.029864
 -0.024312
  0.076617
  0.008988
  0.062300
  0.019469
  0.072342
  0.233536
  0.133814
  0.086982
 -0.199683
 -0.054593
  0.265471
  0.023392
 -0.023576
  0.022214
  0.062851
  0.132243
 -0.172572
 -0.027811
  0.028807
  0.147801
  0.070584
  0.071320
 -0.066848
  0.075710
 -0.111871
  0.009376
  0.105455
 -0.079906
 -0.090203
  0.043559
  0.110534
 -0.030058
 -0.033780
 -0.019566
  0.111691
 -0.117409
 -0.025029
  0.040276
 -0.025949
 -0.086761
  0.040067
  0.092423
 -0.096804
 -0.088208
 -0.165884
  0.120254
 -0.087332
 -0.058064
 -0.111881
  0.068644
 -0.070594
 -0.082473
  0.086594
  0.091801
  0.048616
 -0.068343
 -0.033318
 -0.043979
 -0.204496
 -0.137831
 -0.011974
  0.069416
  0.046991
  0.116219
 -0.262549
 -0.072124
 -0.052190
  0.138216
  0.016280
  0.042605
  0.092119
 -0.076080
 -0.097718
 -0.030361
  0.242747
 -0.093122
 -0.004529
  0.242526
 -0.183978
 -0.099440
 -0.063044
 -0.067625
  0.014829
  0.036073
  0.045998
  0.158321
  0.200869
 -0.101733
  0.147578
 -0.069550
 -0.006427
 -0.133941
 -0.147808
  0.129270
  0.157173
 -0.184689
  0.111970
  0.020139
  0.024079
 -0.075818
 -0.009118
 -0.023917
 -0.049059
 -0.006910
 -0.076934
 -0.059026
  0.136697
 -0.033853
  0.041532
  0.032501
 -0.132942
 -0.077514
  0.323588
  0.223988
  0.055543
 -0.052393
  0.165574
 -0.037095
 -0.071780
 -0.075945
 -0.156682
  0.043923
  0.090799
  0.094696
  0.144146
  0.029871
 -0.023412
 -0.113651
 -0.083630
  0.154827
  0.025973
 -0.045807
  0.119559
 -0.103550
 -0.125565
 -0.264343
 -0.059910
 -0.086922
 -0.049508
 -0.117970
  0.192959
 -0.054309
 -0.040385
  0.081101
  0.048605
 -0.116216
 -0.073452
 -0.046322
  0.168435
 -0.091559
 -0.070096
  0.208416
 -0.086188
  0.060203
 -0.077517
  0.111012
 -0.062149
 -0.062756
 -0.000777
 -0.222178
 -0.242733
  0.048179
 -0.209527
 -0.051087
 -0.054293
  0.052460
 -0.120250
 -0.055576
  0.339535
  0.018670
  0.188907
  0.111165
 -0.183072
  0.139771
  0.044403
 -0.121474
  0.038873
 -0.079167
  0.020830
 -0.099845
 -0.027506
 -0.099173
 -0.114887
  0.073710
 -0.075287
  0.065659
  0.137138
  0.205732
 -0.070352
  0.146285
 -0.107044
 -0.009058
 -0.220661
 -0.175456
 -0.017979
  0.027512
 -0.024176
 -0.008036
  0.172237
  0.092730
 -0.127675
  0.093534
  0.003171
  0.089938
  0.140648
 -0.220279
 -0.015354
  0.077340
  0.010680
 -0.041889
  0.169637
 -0.086148
  0.113825
  0.003682
 -0.048118
  0.079810
 -0.002674
 -0.007076
 -0.010027
 -0.051718
  0.188381
  0.191040
  0.100360
  0.307439
 -0.005851
  0.150574
 -0.044100
  0.136539
  0.063932
 -0.149470
 -0.013388
 -0.257026
  0.151804
 -0.026433
  0.226728
  0.088785
  0.154805
 -0.052916
  0.045740
 -0.052137
  0.052476
  0.012246
  0.085795
  0.020078
  0.115263
  0.051656
 -0.061523
  0.071481
  0.005283
  0.037442
 -0.163511
  0.109160
 -0.086177
  0.008351
 -0.025818
  0.017657
  0.269504
 -0.006045
  0.022528
 -0.188601
  0.100421
 -0.153137
  0.139296
  0.034764
  0.011188
  0.175321
 -0.158502
  0.039604
  0.037224
  0.166660
  0.203021
 -0.070506
 -0.015079
 -0.065289
 -0.028229
  0.049544
 -0.099710
 -0.149875
  0.172068
  0.174003
 -0.160090
  0.074749
 -0.070206
  0.128896
  0.001777
  0.045927
  0.073078
  0.055341
 -0.084653
 -0.017880
  0.008752
 -0.238971
 -0.071118
 -0.174503
  0.164780
 -0.179596
 -0.014990
 -0.020236
  0.058613
 -0.003999
  0.078265
 -0.146878
 -0.086658
 -0.080511
  0.143547
  0.058207
 -0.031718
  0.004778
 -0.136619
 -0.033048
 -0.122980
 -0.118455
 -0.041629
 -0.045248
 -0.080390
  0.072310
 -0.069587
  0.071236
  0.057316
  0.124522
  0.073512
 -0.182949
  0.162513
 -0.119792
 -0.231923
  0.146614
 -0.235823
  0.026910
 -0.145061
 -0.127305
 -0.060343
 -0.102088
 -0.074653
  0.043880
 -0.080874
 -0.058963
  0.052993
  0.012632
 -0.090903
 -0.183685
 -0.065743
 -0.147492
  0.027420
  0.160223
  0.215036
  0.111308
  0.130258
 -0.078262
  0.000858
  0.011149
 -0.051363
 -0.060713
 -0.069631
  0.369313
 -0.004571
 -0.235872
  0.018268
  0.177878
 -0.243254
 -0.220404
 -0.001546
  0.163256
 -0.055365
 -0.031295
  0.038361
  0.182431
  0.038062
 -0.006199
  0.056050
 -0.008859
  0.057143
 -0.147823
 -0.091870
  0.235942
  0.155015
 -0.064602
 -0.101781
 -0.194779
 -0.009697
 -0.017400
  0.000561
 -0.050440
 -0.003110
 -0.142090
  0.108413
  0.094073
  0.008545
  0.409193
  0.179431
  0.343935
  0.250035
 -0.094661
 -0.202269
  0.076699
  0.088135
  0.021922
 -0.146234
  0.165110
 -0.298177
  0.022593
 -0.188063
  0.004090
  0.014388
 -0.375638
 -0.069648
  0.067746
 -0.087308
  0.055320
 -0.009285
 -0.105186
  0.156207
 -0.069398
  0.029638
  0.092430
  0.006989
 -0.021817
  0.013617
  0.255574
  0.167962
 -0.298467
  0.125395
  0.054654
 -0.065003
  0.053010
 -0.185619
  0.018166
  0.016665
 -0.248757
  0.034753
 -0.093595
 -0.062744
 -0.025060
 -0.025854
 -0.028610
 -0.086527
  0.105079
 -0.102654
  0.276272
 -0.126093
  0.260876
 -0.344354
  0.032266
  0.245055
  0.020849
 -0.157553
  0.096089
 -0.173076
 -0.014890
 -0.104245
 -0.118950
 -0.100653
 -0.023600
 -0.102395
 -0.139971
  0.008664
 -0.038898
  0.182432
 -0.193640
 -0.038564
 -0.125161
 -0.133621
 -0.270022
 -0.193367
 -0.131170
  0.058245
  0.110895
 -0.129570
  0.078778
  0.043902
 -0.106548
  0.035018
  0.017599
 -0.164146
 -0.121131
  0.065995
  0.083722
 -0.157713
  0.066591
  0.127715
 -0.012364
  0.012825
 -0.004639
 -0.059944
  0.226115
  0.148964
  0.058478
  0.022627
  0.093192
 -0.125637
 -0.244641
  0.118215
  0.050096
 -0.045294
  0.064575
  0.087018
 -0.072750
  0.049913
  0.242401
  0.124503
  0.094964
 -0.130322
 -0.140580
 -0.227938
 -0.157898
 -0.039137
  0.128263
 -0.002333
 -0.033472
  0.088688
  0.169383
 -0.121959
 -0.127388
  0.080323
 -0.182481
  0.064262
  0.079460
 -0.034837
 -0.148710
  0.218073
 -0.015035
  0.055979
 -0.142551
 -0.040235
  0.069185
 -0.175014
  0.035745
  0.066756
  0.077791
 -0.037068
 -0.043819
 -0.003213
 -0.012839
 -0.078113
 -0.000761
  0.136006
 -0.004974
 -0.032019
  0.104590
  0.027719
 -0.084581
  0.186377
  0.135961
  0.118637
  0.050334
 -0.137721
  0.037466
 -0.099902
 -0.050032
 -0.101440
 -0.060067
 -0.137421
  0.248926
  0.081414
  0.079722
 -0.075308
  0.132950
  0.033934
 -0.088632
 -0.011612
 -0.013216
  0.090501
 -0.102926
 -0.011747
 -0.047277
  0.008269
 -0.073807
  0.014791
  0.081942
 -0.136669
  0.274785
 -0.045195
 -0.281745
  0.031491
  0.170373
 -0.027641
  0.407765
  0.067170
  0.089656
 -0.128085
 -0.010151
  0.092640
 -0.258238
  0.136356
  0.107693
 -0.058519
 -0.212116
  0.111561
  0.019650
 -0.117932
  0.020987
 -0.140632
  0.057949
  0.015997
  0.125502
 -0.078538
  0.072980
 -0.211297
 -0.031779
 -0.034637
  0.077548
 -0.008475
  0.066977
 -0.161659
 -0.043393
  0.008771
 -0.069499
 -0.023290
  0.272271
 -0.048511
 -0.182492
 -0.143797
  0.000433
 -0.116119
  0.220901
 -0.052086
  0.062329
  0.143991
 -0.013889
 -0.180525
 -0.080225
 -0.083769
 -0.063816
 -0.143482
  0.051593
  0.045568
  0.124158
  0.139617
 -0.086721
  0.007555
 -0.072198
  0.051889
  0.059163
  0.100750
  0.101547
 -0.296346
 -0.038333
  0.015397
 -0.078210
  0.036856
  0.119207
 -0.061033
 -0.022402
 -0.239331
 -0.068968
  0.082377
  0.180159
  0.166519
 -0.048085
  0.047450
  0.045896
 -0.060938
  0.075723
  0.014886
  0.159677
  0.023247
  0.060360
  0.087145
  0.037830
 -0.060370
  0.133209
 -0.141569
  0.202869
  0.052676
 -0.042776
 -0.035120
 -0.168704
  0.133613
 -0.080232
 -0.155786
 -0.064998
 -0.127348
 -0.019709
  0.036104
  0.072413
 -0.137197
 -0.062923
 -0.070118
 -0.039894
  0.174526
 -0.159553
 -0.036121
  0.040330
 -0.010686
 -0.357922
  0.029495
  0.156553
  0.053717
  0.052711
  0.138991
  0.136319
  0.150422
  0.055195
 -0.204797
  0.071960
 -0.105862
 -0.014512
  0.027200
  0.117946
 -0.210847
  0.096266
  0.005047
  0.101609
  0.017538
  0.142146
 -0.216351
 -0.024684
  0.054133
 -0.131363
 -0.041781
  0.129866
  0.050193
  0.139575
 -0.003748
  0.039988
  0.073898
  0.100697
  0.117474
 -0.201475
 -0.027431
  0.033670
 -0.055341
  0.033274
  0.105410
  0.227232
 -0.009558
 -0.065532
  0.126211
  0.098867
  0.043196
 -0.089957
  0.173209
 -0.064512
  0.248181
  0.101673
  0.118335
 -0.112088
 -0.016924
 -0.059489
  0.149566
  0.109544
  0.052205
  0.015474
 -0.016605
 -0.030438
  0.130128
  0.298462
  0.157799
  0.172083
  0.113084
  0.045282
 -0.040086
 -0.124404
  0.106888
 -0.170235
  0.126550
 -0.194279
  0.203016
  0.336056
 -0.118154
  0.058516
  0.025333
 -0.054586
  0.147775
  0.072530
 -0.001899
 -0.053377
  0.061680
  0.080275
 -0.058842
  0.007843
  0.082033
 -0.099737
  0.069512
 -0.053711
  0.022439
  0.201408
 -0.117117
  0.032462
  0.078559
 -0.182073
  0.169942
 -0.033600
  0.037813
  0.076810
 -0.050132
  0.158630
  0.152166
  0.068079
  0.164643
  0.027700
  0.060689
  0.168271
  0.105933
  0.012446
 -0.043825
 -0.061482
 -0.116501
 -0.134979
  0.021002
  0.220013
  0.198972
 -0.068663
  0.009529
 -0.096511
  0.015787
  0.136457
  0.075530
 -0.037684
 -0.266213
  0.019098
  0.165951
 -0.013985
  0.018019
 -0.203462
  0.006376
  0.004823
  0.090191
 -0.217640
  0.087033
 -0.109564
 -0.126058
 -0.120972
  0.036916
  0.004989
 -0.068669
 -0.137584
  0.064933
 -0.087465
 -0.057722
 -0.031267
  0.222795
 -0.092110
  0.109189
 -0.041297
 -0.106847
  0.038727
 -0.006725
 -0.091872
 -0.086729
 -0.035254
 -0.279837
  0.009124
 -0.057384
 -0.129081
  0.000616
  0.252174
  0.041876
  0.100662
  0.067453
  0.041624
 -0.129969
 -0.026964
 -0.096909
  0.180538
 -0.084043
  0.048794
 -0.010921
  0.107102
  0.159705
 -0.206483
  0.085856
 -0.050103
  0.124570
  0.109048
 -0.072347
 -0.121356
  0.169064
 -0.100883
 -0.087852
 -0.036039
  0.055707
  0.052942
  0.153772
 -0.079183
  0.090887
  0.052002
  0.040327
 -0.091988
  0.182739
  0.047557
 -0.140154
 -0.108048
 -0.068429
  0.209486
  0.008327
  0.186103
  0.108062
 -0.043108
 -0.025540
  0.181989
  0.048673
  0.137006
  0.202259
  0.077135
  0.040035
 -0.204121
  0.021258
 -0.049258
 -0.153457
 -0.071578
 -0.017160
 -0.140637
  0.210468
  0.116487
  0.027060
  0.075527
 -0.169745
  0.113856
 -0.145313
 -0.006890
  0.075399
 -0.116171
 -0.142306
 -0.038711
 -0.074596
 -0.147886
 -0.060996
 -0.092013
 -0.030725
  0.011101
 -0.112236
 -0.098817
 -0.094984
 -0.071143
 -0.019368
 -0.157984
 -0.235780
  0.163528
 -0.064738
 -0.074073
  0.111076
  0.016962
 -0.118173
 -0.029691
 -0.166861
  0.149446
 -0.056601
 -0.257764
 -0.057301
  0.055968
  0.005018
 -0.036187
  0.009143
  0.028522
 -0.034627
 -0.194260
 -0.023755
 -0.097295
  0.094727
  0.072958
  0.002952
 -0.194234
 -0.048515
 -0.155634
  0.090614
  0.021483
  0.024352
  0.070190
  0.012153
  0.121911
 -0.131366
  0.072770
 -0.129240
  0.060205
  0.004483
  0.000133
  0.103402
 -0.079761
  0.005158
 -0.179639
 -0.080571
 -0.080803
  0.186378
  0.121840
 -0.025487
 -0.088599
 -0.024657
 -0.078867
  0.118851
  0.073624
  0.020378
 -0.105800
  0.070112
  0.106401
  0.102267
  0.126327
  0.002421
 -0.028444
  0.039724
 -0.073717
 -0.150058
 -0.110439
 -0.175273
 -0.193878
  0.162740
 -0.119354
 -0.032564
 -0.096741
  0.227112
  0.177340
  0.042497
 -0.073778
  0.182984
 -0.007826
  0.120789
 -0.106384
 -0.141865
  0.068728
  0.220766
  0.131849
 -0.032280
  0.022231
  0.100926
  0.029728
  0.178366
  0.095515
  0.068998
 -0.294711
 -0.055837
  0.149818
 -0.028231
 -0.198253
 -0.221133
 -0.096016
  0.053255
 -0.095552
  0.051993
 -0.217634
  0.271922
 -0.047531
 -0.025835
 -0.026009
  0.179503
  0.233769
  0.241611
 -0.073378
  0.075270
 -0.067035
 -0.046588
  0.143020
  0.122284
  0.151321
  0.138988
  0.174623
 -0.157582
  0.063766
 -0.087365
 -0.083755
  0.095791
  0.236366
 -0.018169
 -0.000945
 -0.073450
 -0.006613
 -0.011384
 -0.052287
  0.013741
  0.093202
  0.196977
 -0.024507
  0.081061
 -0.011078
 -0.037796
  0.100627
  0.060708
 -0.200422
  0.091193
  0.015831
  0.028662
 -0.124512
 -0.131579
 -0.109589
 -0.016180
  0.044739
 -0.076821
 -0.187225
 -0.049874
  0.011329
 -0.038920
 -0.115446
 -0.160321
  0.065515
 -0.141852
 -0.095533
 -0.070834
 -0.110251
  0.020991
  0.129731
  0.048520
 -0.109194
  0.231351
  0.101526
  0.137866
 -0.158707
 -0.109873
 -0.057730
 -0.117268
  0.099070
 -0.277387
 -0.057288
 -0.222864
 -0.014044
 -0.149212
  0.060520
 -0.009874
 -0.062842
  0.009848
 -0.268844
 -0.042300
  0.187820
  0.128719
  0.024646
  0.111296
  0.026449
 -0.057697
 -0.046569
 -0.100971
  0.176704
 -0.068880
  0.196092
 -0.127249
 -0.091370
 -0.019974
 -0.039812
  0.113811
 -0.061718
  0.038477
  0.220574
  0.074890
  0.067901
  0.131611
 -0.020829
 -0.082444
 -0.016517
 -0.121700
 -0.148141
 -0.082979
  0.136506
 -0.020054
 -0.074082
 -0.017733
 -0.119188
 -0.159671
  0.201711
 -0.063552
  0.172803
 -0.006821
  0.053442
  0.035599
  0.026219
 -0.130586
  0.047514
 -0.111220
  0.028577
 -0.048668
 -0.078674
  0.034857
  0.086134
  0.024979
 -0.091154
  0.020647
  0.039769
 -0.008092
 -0.055915
  0.016404
 -0.011308
 -0.012402
 -0.184245
  0.022002
  0.134132
 -0.252614
 -0.134721
  0.295592
  0.168591
  0.058253
  0.095279
 -0.068551
 -0.025006
 -0.168587
 -0.050336
  0.124458
 -0.182120
 -0.022753
  0.081839
  0.007704
 -0.041416
  0.100985
  0.338681
 -0.088788
 -0.034553
  0.043303
 -0.028360
  0.237768
 -0.011986
 -0.155039
 -0.099657
  0.214985
 -0.035265
 -0.108419
  0.050052
 -0.193171
 -0.125029
 -0.068362
 -0.053560
 -0.038995
 -0.148006
 -0.107291
 -0.152641
 -0.076902
  0.021044
  0.096185
  0.100853
 -0.031890
 -0.109510
 -0.062044
 -0.033602
  0.052789
 -0.007011
  0.081971
 -0.124350
  0.181263
  0.038089
 -0.098035
  0.132390
 -0.041472
  0.190909
 -0.033600
 -0.009138
  0.099250
  0.056001
 -0.269741
  0.066446
 -0.031123
  0.017687
 -0.101494
 -0.159033
  0.027556
 -0.091187
 -0.076350
 -0.021669
  0.113488
 -0.018334
  0.158997
  0.018835
  0.224686
  0.053595
  0.202202
  0.094449
  0.022343
 -0.001983
 -0.006858
 -0.075254
  0.003860
 -0.069850
 -0.115980
 -0.085511
 -0.046196
 -0.152485
  0.133244
 -0.170494
  0.117792
  0.177039
  0.102143
  0.116005
  0.124533
 -0.069201
 -0.082300
  0.223186
 -0.195092
  0.235101
  0.046063
 -0.046773
 -0.022533
 -0.166155
  0.012847
 -0.097892
 -0.110171
 -0.035481
 -0.119135
  0.050288
 -0.143933
 -0.047771
  0.045493
 -0.049009
  0.122863
  0.094483
  0.034218
 -0.103593
 -0.019500
  0.038195
 -0.151583
 -0.080642
 -0.064914
 -0.043426
 -0.336584
 -0.112917
 -0.008378
 -0.088084
 -0.095249
 -0.073196
  0.047986
 -0.087130
 -0.059802
 -0.074380
 -0.045659
 -0.183622
  0.106246
  0.167389
  0.102565
 -0.119645
  0.108604
  0.051226
  0.017653
  0.042582
 -0.027453
 -0.148041
 -0.049885
  0.158673
  0.066891
 -0.097675
 -0.011671
  0.111961
  0.020276
  0.027216
  0.053481
 -0.079672
  0.014858
 -0.030856
 -0.022452
  0.035362
 -0.012589
  0.022796
  0.123747
 -0.056268
 -0.033481
 -0.024024
 -0.274676
  0.041029
 -0.092344
  0.077112
 -0.035552
  0.085136
 -0.192198
 -0.016737
 -0.171186
 -0.141209
 -0.101804
 -0.177282
  0.050642
  0.079085
 -0.084540
  0.038018
 -0.019114
  0.057778
 -0.006954
  0.078554
 -0.089525
  0.064690
  0.163477
 -0.145891
  0.082608
  0.184596
  0.102742
 -0.000055
 -0.024410
 -0.192430
 -0.013148
 -0.078708
 -0.202650
  0.105849
  0.112530
  0.002610
 -0.017087
  0.063942
 -0.079187
 -0.199687
  0.177926
 -0.188996
 -0.123939
 -0.127169
  0.095078
 -0.042175
  0.016518
 -0.192666
  0.044641
  0.060671
  0.148738
  0.023867
  0.188221
  0.119123
 -0.034377
 -0.002273
 -0.054864
 -0.000588
 -0.328983
 -0.101644
 -0.117543
 -0.061785
 -0.033917
 -0.068396
 -0.141469
 -0.081862
  0.039506
  0.189072
 -0.006502
  0.050408
 -0.092271
  0.037022
 -0.086350
 -0.109661
 -0.054938
  0.022912
  0.221030
  0.078511
 -0.009826
  0.034073
  0.216197
 -0.018831
 -0.049044
  0.204040
 -0.098514
  0.070925
  0.231878
  0.071448
  0.086191
  0.212537
  0.422345
  0.352328
  0.098874
  0.447506
  0.151903
  0.000209
  0.056173
  0.333235
 -0.209515
  0.104442
  0.121662
  0.187053
 -0.116878
  0.078667
  0.071497
 -0.120268
  0.111613
 -0.110432
  0.164645
  0.129175
  0.013534
 -0.090237
  0.178437
  0.343167
  0.125453
  0.014495
 -0.075762
  0.154572
  0.027900
  0.101556
 -0.051871
 -0.043400
  0.105696
 -0.005289
  0.259118
  0.055303
  0.050100
  0.040041
  0.272462
  0.367364
  0.358820
  0.275350
  0.568984
  0.609603
  0.465003
  0.468455
  0.625691
  0.384085
  0.628264
  0.589255
  0.556057
  0.651145
  0.811331
  0.666489
  1.000000
  0.763503
  0.712019
  0.950881
  0.845383
  0.914766
  0.780878
  0.527381
  0.558817
  0.680414
  0.830979
  0.542693
  0.338976
  0.370591
  0.294873
  0.264036
  0.316310
  0.244586
  0.102444
  0.099670
 -0.036195
 -0.053558
 -0.100860
  0.129830
 -0.026230
  0.057198
  0.098176
  0.007731
 -0.036695
 -0.276531
 -0.015261
 -0.014783
 -0.036896
  0.068754
  0.010042
 -0.125241
  0.021749
 -0.101409
 -0.026509
 -0.101985
  0.039070
 -0.160235
 -0.092373
  0.069593
  0.145047
  0.160672
 -0.078224
 -0.152167
 -0.018144
  0.212885
  0.186483
  0.272589
 -0.006512
  0.093245
  0.057925
 -0.124739
  0.093223
  0.091276
 -0.008985
 -0.108407
  0.109548
  0.062000
 -0.215105
  0.102314
 -0.020457
  0.081711
  0.238078
 -0.245936
 -0.020948
 -0.053742
  0.008967
  0.049892
 -0.174104
 -0.057676
 -0.012291
 -0.123004
 -0.075745
  0.267874
  0.092483
  0.044207
  0.028672
 -0.107811
 -0.113343
  0.119337
 -0.084920
  0.092328
  0.208329
  0.116126
 -0.031325
 -0.037360
  0.133575
 -0.002042
  0.034102
 -0.036152
 -0.086309
  0.042388
 -0.058938
  0.168067
 -0.016729
 -0.204202
  0.016316
 -0.103162
 -0.277661
  0.025398
 -0.137240
 -0.003978
 -0.100846
 -0.121340
  0.000581
 -0.025637
  0.272863
 -0.127819
  0.180566
  0.128967
 -0.280062
  0.109890
  0.128505
  0.123837
 -0.126717
 -0.197316
  0.025816
 -0.078644
 -0.201450
 -0.015727
  0.136425
  0.127934
 -0.088833
 -0.116779
 -0.200438
  0.274780
  0.021661
 -0.080428
 -0.076424
  0.123644
 -0.008103
  0.251687
 -0.157232
  0.106514
 -0.031052
  0.015744
  0.039390
  0.233474
  0.153276
  0.044038
 -0.015844
  0.096707
 -0.031720
  0.061604
  0.058131
  0.061658
 -0.100553
 -0.129638
 -0.138863
 -0.060289
  0.079225
  0.099387
 -0.030984
 -0.035448
  0.074683
  0.126441
  0.015984
  0.223235
  0.108416
  0.044054
  0.062063
  0.045716
 -0.042224
  0.007709
  0.013504
  0.025757
  0.056112
  0.076566
 -0.228749
  0.089985
 -0.047809
 -0.092630
 -0.371271
  0.030930
  0.065017
  0.076210
 -0.036913
 -0.144755
  0.155148
 -0.003830
  0.167658
  0.087042
 -0.232880
 -0.077436
  0.165282
 -0.077861
  0.208367
 -0.153431
  0.063452
 -0.073427
 -0.032939
 -0.105339
  0.146172
  0.051749
 -0.019680
  0.096908
 -0.204811
 -0.062820
 -0.213068
  0.000818
 -0.027856
 -0.015855
  0.017963
  0.174439
  0.027583
 -0.092263
  0.169686
 -0.018999
 -0.101948
 -0.045649
  0.102353
 -0.312436
 -0.079610
  0.069631
  0.094409
  0.002283
  0.286048
  0.070058
  0.158890
  0.208605
  0.012808
 -0.190979
  0.116329
 -0.113074
 -0.013975
 -0.150834
  0.017260
  0.043657
  0.133529
  0.161018
 -0.290154
  0.011868
 -0.109774
  0.029190
 -0.171092
 -0.038125
  0.212294
 -0.161317
  0.104974
 -0.109362
  0.058767
  0.134878
  0.081858
  0.300460
  0.072685
  0.031051
  0.076649
  0.104785
  0.228877
  0.147120
 -0.079329
 -0.002321
 -0.098396
 -0.073991
  0.092638
  0.056247
  0.155129
 -0.134301
  0.068279
  0.250420
  0.143224
  0.311344
  0.251413
  0.034606
 -0.084216
 -0.122780
  0.047378
  0.052872
  0.004656
 -0.093853
  0.034733
 -0.114698
  0.100697
  0.101620
  0.054077
 -0.116453
 -0.082958
 -0.002663
 -0.002769
 -0.032288
 -0.183977
 -0.096033
 -0.048293
  0.222143
 -0.018823
 -0.081493
  0.002635
 -0.181485
 -0.031659
  0.065781
  0.084421
 -0.005349
 -0.230023
 -0.041176
  0.045143
  0.244472
 -0.004148
 -0.153977
  0.151422
 -0.023421
  0.194965
 -0.235828
 -0.139836
  0.111415
  0.037023
 -0.088680
 -0.028286
 -0.184370
  0.154704
 -0.027492
  0.000738
  0.080221
  0.040905
 -0.195792
 -0.046954
  0.090744
 -0.068746
  0.002606
 -0.113407
  0.316929
  0.069985
  0.180883
  0.029235
  0.015304
 -0.118411
  0.129533
 -0.087384
 -0.023469
  0.135420
  0.090426
  0.067098
  0.037960
 -0.085594
  0.064243
 -0.003777
  0.118491
  0.093096
 -0.022656
  0.013415
 -0.185175
  0.097834
 -0.036946
  0.397278
  0.037960
  0.174189
 -0.119084
 -0.030378
 -0.183271
  0.075296
  0.093260
  0.058564
  0.173764
 -0.000792
  0.056773
 -0.065625
 -0.019038
  0.118335
 -0.130820
  0.223955
 -0.136594
  0.123471
 -0.010274
 -0.220391
  0.043721
  0.000280
  0.069943
 -0.115135
 -0.035358
  0.008910
  0.115784
 -0.048783
  0.068263
  0.038663
  0.040522
 -0.063573
 -0.039581
  0.045969
 -0.059429
 -0.015922
  0.071922
  0.008638
  0.009706
 -0.085371
 -0.275389
 -0.089323
 -0.160391
  0.064297
 -0.043721
 -0.013182
 -0.044481
 -0.062712
 -0.086358
 -0.063432
 -0.098337
  0.056378
 -0.084207
  0.134706
 -0.194401
  0.012426
 -0.149376
 -0.112996
 -0.043068
  0.136170
  0.014368
  0.138050
  0.088564
 -0.015774
  0.005604
 -0.136304
  0.062273
  0.117291
  0.064650
  0.144522
  0.030525
  0.002760
 -0.227271
  0.250868
 -0.070219
  0.027351
 -0.090846
 -0.163682
 -0.068226
  0.044403
  0.057124
 -0.272784
  0.020197
  0.178117
 -0.001673
  0.074609
 -0.057896
 -0.061631
  0.023940
  0.003738
  0.256164
 -0.211609
 -0.060052
 -0.078212
 -0.073648
 -0.036048
 -0.177331
 -0.117934
 -0.031486
 -0.012871
  0.001843
  0.144736
 -0.278243
 -0.130238
 -0.197495
  0.109421
 -0.163970
 -0.096370
 -0.006667
  0.036716
 -0.037651
 -0.026354
  0.074406
 -0.054013
  0.036628
  0.155424
  0.183420
 -0.006460
  0.121239
  0.049659
  0.166616
  0.104138
  0.139109
  0.032432
  0.122310
 -0.079122
 -0.056813
 -0.023973
  0.061404
  0.149308
 -0.019682
  0.122897
 -0.026585
 -0.050497
  0.032791
  0.046010
 -0.119134
  0.216807
  0.082071
 -0.030543
 -0.218849
  0.190531
  0.027771
  0.188643
  0.002675
 -0.032104
  0.011551
 -0.069636
 -0.165896
  0.013398
 -0.011531
  0.204258
 -0.000915
 -0.152491
  0.110854
 -0.207910
  0.012873
  0.149345
  0.022802
 -0.017434
 -0.072345
  0.033465
 -0.124149
  0.159783
  0.152959
  0.255120
 -0.018989
 -0.052058
  0.197973
  0.053705
  0.054563
 -0.018607
  0.000540
  0.008380
  0.023091
 -0.117983
 -0.007143
  0.044463
 -0.013379
  0.211129
 -0.075858
  0.000052
  0.177414
  0.012877
 -0.003558
  0.004581
  0.027723
  0.010025
 -0.160385
  0.114530
  0.001053
  0.146386
  0.135529
 -0.030992
  0.050992
  0.055716
  0.176965
 -0.029369
 -0.161858
 -0.034864
 -0.046471
  0.001241
 -0.023382
  0.064639
  0.051288
 -0.112101
  0.246103
 -0.081554
 -0.006476
 -0.017550
  0.009603
  0.088510
 -0.058862
 -0.092771
 -0.124528
  0.007435
  0.099182
  0.058405
  0.072690
  0.012976
 -0.206096
  0.064454
  0.216820
  0.007280
 -0.207388
  0.038045
 -0.106916
 -0.184574
 -0.108771
  0.039614
 -0.091908
  0.107120
  0.072946
  0.132244
  0.221280
 -0.038422
 -0.064863
 -0.013827
 -0.147142
 -0.125652
  0.091943
  0.077477
 -0.121434
  0.138772
  0.084209
  0.033045
 -0.199817
  0.040764
 -0.110079
  0.022666
  0.068146
  0.235336
 -0.060024
  0.097247
  0.120599
 -0.025606
  0.007665
  0.027116
 -0.038854
 -0.012886
 -0.062213
 -0.072291
 -0.112534
  0.048457
 -0.126501
 -0.031083
  0.077317
 -0.023379
 -0.274591
 -0.060223
 -0.071182
  0.081403
 -0.208085
  0.118162
 -0.105028
 -0.057148
 -0.006540
 -0.092265
 -0.054411
  0.034281
 -0.077243
  0.078605
 -0.033846
  0.068498
 -0.024150
 -0.035451
 -0.074366
  0.246411
 -0.086475
  0.002765
  0.043518
 -0.016290
 -0.178821
  0.001594
  0.047412
  0.039459
  0.044298
  0.016531
  0.077517
  0.034777
  0.036371
  0.040985
  0.041078
 -0.037403
  0.042183
  0.106303
 -0.068090
  0.095462
 -0.010023
 -0.184929
 -0.012637
 -0.006521
  0.271863
  0.162695
 -0.020197
  0.041149
 -0.075954
  0.051686
 -0.147762
  0.070164
 -0.047217
  0.004830
  0.072154
 -0.138957
 -0.133627
 -0.081068
  0.028445
  0.080889
 -0.103871
 -0.154778
  0.105626
  0.155563
 -0.073320
  0.093275
  0.028686
  0.083833
 -0.050556
  0.096169
 -0.276013
  0.099437
  0.085632
 -0.061949
  0.060148
  0.093447
  0.125909
  0.106167
 -0.197234
  0.008536
  0.018167
 -0.077457
  0.061090
 -0.140507
 -0.076660
  0.136638
 -0.168380
 -0.217496
 -0.157333
  0.147010
  0.038197
 -0.030946
  0.251187
 -0.013492
 -0.172831
  0.159294
  0.077141
 -0.063092
 -0.070058
  0.255951
  0.030010
  0.011571
  0.068955
  0.094929
 -0.135536
 -0.212620
 -0.186078
 -0.138414
 -0.064749
  0.066659
 -0.042376
  0.110585
 -0.169152
 -0.094701
 -0.071254
  0.077664
  0.090172
 -0.075229
  0.028894
  0.186018
 -0.017867
 -0.095794
  0.123501
 -0.068449
 -0.199718
 -0.184619
  0.001266
  0.198271
 -0.112739
  0.028704
 -0.076870
 -0.124456
  0.003559
  0.131860
 -0.015474
  0.055194
  0.016720
 -0.028489
 -0.031155
 -0.117240
 -0.172286
  0.050510
  0.010224
 -0.075822
 -0.032755
  0.062160
 -0.175655
 -0.085430
 -0.160064
  0.032194
 -0.167400
  0.039025
  0.059078
  0.264780
 -0.008439
 -0.047259
 -0.019903
  0.175801
 -0.163758
 -0.088900
  0.028479
 -0.103696
  0.220921
 -0.041474
  0.085170
  0.165158
 -0.112706
  0.006834
 -0.059753
 -0.054373
 -0.008361
  0.007489
  0.051137
 -0.015287
 -0.107993
 -0.104629
  0.025042
 -0.089618
  0.240295
  0.019292
 -0.145490
  0.138043
 -0.016142
 -0.088770
 -0.066977
 -0.017235
 -0.073916
 -0.082048
 -0.144287
 -0.006718
  0.020735
 -0.005715
  0.123798
  0.155949
  0.151167
 -0.215219
 -0.131885
 -0.142830
 -0.241188
 -0.054455
 -0.034252
 -0.141456
  0.072869
  0.066429
  0.119745
 -0.087041
 -0.109663
  0.048436
 -0.101845
 -0.067099
  0.229872
 -0.022785
 -0.056383
 -0.043589
  0.018053
 -0.160729
  0.128788
 -0.003840
 -0.139886
  0.107244
 -0.057360
 -0.230707
  0.129033
 -0.240673
  0.031756
  0.159063
  0.051662
 -0.207687
 -0.124143
 -0.088956
 -0.017631
  0.150174
  0.018862
  0.159268
  0.088705
  0.063012
  0.035649
  0.078895
 -0.245323
  0.049704
 -0.165601
 -0.064537
 -0.129682
 -0.020715
  0.162989
 -0.123870
 -0.221688
 -0.180885
  0.048452
 -0.373375
  0.107953
  0.054809
  0.133305
  0.010633
 -0.099570
  0.019787
 -0.046388
 -0.125298
  0.014870
 -0.025059
  0.076643
  0.291698
 -0.064393
  0.034369
 -0.012300
  0.000889
 -0.045290
 -0.016601
 -0.204491
 -0.060808
  0.097200
  0.127454
  0.030757
  0.023068
 -0.152064
  0.176344
  0.104960
 -0.008210
 -0.104289
 -0.006952
  0.059290
 -0.067203
 -0.028287
 -0.335704
 -0.228560
  0.071554
 -0.087229
  0.029447
 -0.111756
  0.000583
  0.174830
  0.133794
  0.129816
  0.195160
 -0.081023
  0.073370
  0.058723
  0.099926
 -0.050574
 -0.061116
  0.055295
 -0.103890
 -0.187241
  0.146232
 -0.044626
 -0.168032
 -0.012553
  0.236911
  0.023113
  0.148073
  0.010891
  0.117123
 -0.130196
 -0.118302
  0.184886
  0.034427
  0.119218
 -0.004272
  0.066838
 -0.169273
  0.024306
 -0.001279
 -0.104053
 -0.040954
  0.039300
  0.066084
  0.134367
 -0.145877
  0.052498
 -0.125332
  0.053038
  0.043175
  0.016991
  0.321560
  0.136453
  0.126637
  0.057517
  0.014719
  0.025330
 -0.000193
  0.182678
  0.074561
 -0.024093
  0.148330
 -0.184963
  0.051966
 -0.053265
 -0.042241
 -0.000737
  0.063936
  0.064248
 -0.099724
 -0.008347
 -0.085073
 -0.006875
 -0.157584
  0.106243
  0.090547
 -0.187810
 -0.048194
 -0.135908
  0.270666
 -0.109964
 -0.039218
  0.281219
  0.004121
 -0.011374
 -0.212603
  0.044434
 -0.170577
  0.057732
  0.198830
 -0.107364
 -0.058014
  0.012265
 -0.138046
 -0.127396
  0.264379
 -0.178398
  0.064780
  0.057434
  0.034205
 -0.248331
  0.081261
  0.211301
 -0.038165
  0.060786
 -0.034503
  0.093202
 -0.030937
 -0.133460
  0.047320
  0.238477
  0.159994
  0.037969
 -0.131757
  0.146397
 -0.223072
 -0.005024
 -0.074223
  0.268384
 -0.180748
 -0.168951
  0.083324
  0.045025
 -0.054694
  0.100012
  0.032887
  0.100384
  0.088991
 -0.023457
  0.088353
  0.009722
  0.096992
 -0.121098
 -0.224391
  0.041776
 -0.129928
  0.225541
  0.227997
  0.116636
  0.029712
 -0.069659
  0.084808
 -0.009878
 -0.054922
  0.024087
 -0.226364
 -0.107655
  0.223681
  0.184260
  0.117627
 -0.019660
 -0.007963
  0.067831
  0.035456
 -0.096006
 -0.079164
 -0.028372
 -0.059653
  0.008836
  0.179418
  0.145934
  0.014097
 -0.027509
 -0.012350
 -0.132537
 -0.096210
  0.108232
 -0.077091
  0.024501
 -0.028474
 -0.026895
 -0.023657
 -0.228854
 -0.046059
 -0.036604
  0.033856
  0.064260
 -0.037108
  0.076511
  0.023291
  0.083768
 -0.124637
  0.000107
 -0.154904
 -0.072208
 -0.067761
  0.042474
 -0.029266
  0.070921
 -0.251852
  0.051670
 -0.066773
  0.059571
  0.177251
  0.075394
  0.052263
  0.132144
 -0.168855
 -0.206935
 -0.009580
 -0.193420
 -0.067139
 -0.023259
  0.113441
 -0.059344
  0.057467
 -0.008938
  0.086234
  0.090624
  0.012067
 -0.089546
  0.107453
 -0.180418
 -0.026785
  0.031733
 -0.034534
  0.058784
 -0.011249
 -0.084243
 -0.131223
 -0.003969
 -0.050760
  0.017372
  0.004288
  0.182487
  0.176532
 -0.087935
 -0.043740
  0.006600
  0.049024
 -0.132878
  0.183832
 -0.001203
  0.132904
 -0.060305
 -0.092025
 -0.006198
 -0.235152
 -0.111260
  0.053755
  0.003515
  0.045419
  0.047279
 -0.057353
 -0.005088
  0.100694
  0.164699
 -0.068286
  0.096849
 -0.023944
  0.056019
 -0.200341
 -0.178495
  0.240162
 -0.112609
  0.082481
 -0.041476
  0.059445
  0.074887
 -0.119448
 -0.149112
 -0.058447
 -0.135324
 -0.275575
  0.064389
 -0.103980
  0.038600
 -0.055297
 -0.032996
  0.084875
  0.158627
  0.153431
  0.044790
 -0.037505
  0.017508
 -0.086726
 -0.075090
 -0.088352
 -0.154824
  0.165221
 -0.166622
 -0.037526
  0.062331
  0.194943
 -0.021589
  0.287468
  0.053179
  0.086515
  0.009908
 -0.001070
  0.073814
 -0.091335
  0.046862
  0.265340
  0.238920
  0.023920
 -0.215518
 -0.048128
 -0.182681
 -0.116625
 -0.027205
 -0.120717
  0.142407
  0.092258
  0.024124
  0.027885
  0.220001
 -0.086047
  0.062323
  0.016726
  0.033072
  0.042679
 -0.198382
  0.019690
  0.130884
 -0.103022
 -0.166532
 -0.034712
 -0.097571
 -0.164997
  0.117974
 -0.158519
 -0.020453
  0.132023
 -0.099361
  0.062875
  0.015349
  0.002950
 -0.120360
  0.110923
  0.131426
 -0.086499
  0.056310
  0.006523
  0.027199
 -0.044040
  0.034275
  0.137312
 -0.181370
 -0.115803
  0.065792
 -0.137338
 -0.041720
  0.016672
  0.001049
  0.086117
  0.050922
 -0.119840
  0.230541
 -0.046270
 -0.049392
 -0.052154
  0.005119
 -0.113658
  0.096055
 -0.042296
  0.312439
  0.074350
  0.280772
 -0.209448
  0.089855
  0.084664
 -0.133703
  0.052118
 -0.183827
 -0.037919
  0.203833
  0.089262
  0.110642
  0.095396
 -0.038018
 -0.074358
 -0.148369
  0.151056
 -0.022903
  0.142334
 -0.114826
  0.139153
 -0.180639
  0.131631
  0.047656
 -0.093168
  0.011355
 -0.106386
 -0.049458
 -0.229328
  0.227525
  0.052622
 -0.080434
 -0.041303
  0.142973
 -0.082575
  0.198730
  0.199052
 -0.039209
  0.052268
 -0.207650
  0.004957
 -0.105694
  0.087693
  0.108896
  0.184917
 -0.125352
  0.051067
 -0.086631
  0.240209
  0.097432
 -0.187753
 -0.159280
 -0.020867
  0.028737
 -0.099733
  0.063019
 -0.153474
 -0.010493
 -0.056855
  0.150076
  0.061256
 -0.197026
 -0.296841
  0.149582
  0.177562
 -0.088138
 -0.072049
 -0.146061
  0.082665
  0.089133
  0.061759
  0.115712
  0.015194
 -0.024156
  0.057782
  0.154558
  0.102839
 -0.116546
 -0.028934
  0.024232
 -0.095028
  0.122453
  0.147010
 -0.039157
  0.149237
 -0.099749
 -0.115929
  0.076635
 -0.097671
 -0.112714
  0.056556
  0.049347
 -0.087263
 -0.053295
  0.026146
  0.004737
  0.015040
 -0.225821
  0.090720
 -0.074491
  0.097626
  0.041157
 -0.000002
 -0.178665
  0.130718
  0.139692
 -0.100561
 -0.003062
  0.174931
 -0.227305
 -0.034977
 -0.037055
  0.322731
  0.027496
 -0.095938
 -0.110435
 -0.021976
 -0.066166
 -0.054079
  0.093545
 -0.109321
 -0.070963
 -0.072309
 -0.076348
 -0.039054
 -0.097902
  0.008729
  0.036011
  0.025406
  0.039570
 -0.041960
 -0.134358
 -0.107224
  0.166344
  0.040827
 -0.063015
 -0.120036
 -0.137174
 -0.177400
 -0.031852
  0.026385
  0.038362
  0.013362
 -0.136205
  0.108103
 -0.000860
 -0.057862
  0.053509
 -0.004487
  0.038941
 -0.076528
  0.195746
 -0.071173
 -0.006637
 -0.021242
 -0.115980
  0.078390
 -0.036180
 -0.102062
 -0.108719
  0.029418
 -0.001308
  0.021073
  0.271109
  0.267664
  0.014388
  0.006520
 -0.039105
  0.116915
  0.077563
  0.075432
 -0.074712
  0.091289
 -0.114775
  0.130575
  0.085839
 -0.170074
  0.141861
  0.092061
 -0.097035
 -0.029961
  0.020921
 -0.010545
  0.198258
 -0.181752
 -0.004731
  0.082230
  0.076723
 -0.187468
  0.156708
 -0.098876
  0.155160
  0.134340
  0.065326
 -0.162977
 -0.153417
 -0.050539
 -0.176081
 -0.050842
 -0.082242
  0.042571
  0.211739
 -0.047954
  0.056275
  0.034251
  0.138322
 -0.017207
 -0.278946
  0.078330
  0.176132
  0.056501
  0.058403
  0.002549
  0.135958
 -0.010039
 -0.049115
 -0.024496
  0.008753
 -0.072084
 -0.142167
  0.072787
 -0.004856
  0.157174
 -0.069777
 -0.009089
 -0.001196
  0.075613
  0.070526
 -0.002814
  0.081742
 -0.063554
  0.036190
 -0.012560
 -0.116183
  0.039659
  0.050028
  0.028972
  0.053927
  0.047008
  0.177338
  0.036384
  0.101151
  0.032148
  0.042225
 -0.154599
 -0.008324
  0.130363
 -0.021175
  0.181122
  0.091414
 -0.068975
  0.256157
 -0.034353
  0.095348
 -0.093801
 -0.211080
 -0.217684
 -0.087160
 -0.169951
 -0.030324
 -0.225409
 -0.051620
 -0.089642
  0.079526
 -0.012859
 -0.118337
 -0.061407
 -0.035297
  0.028540
  0.108117
  0.121130
 -0.068662
  0.114976
  0.139400
 -0.026964
  0.243532
  0.025022
 -0.154465
 -0.141802
 -0.115513
 -0.073924
  0.038504
  0.039572
  0.096191
  0.017268
  0.065949
  0.078786
 -0.037781
 -0.049245
  0.006764
  0.141296
 -0.030387
  0.015319
  0.096763
  0.190221
  0.228843
 -0.077037
 -0.131183
  0.131526
  0.053267
  0.042113
  0.120237
  0.197479
 -0.055396
 -0.049134
  0.165897
  0.133268
  0.067578
 -0.290921
 -0.258356
 -0.009592
  0.286828
 -0.105437
 -0.157393
 -0.072020
 -0.074908
  0.117657
  0.032809
  0.061369
 -0.011274
 -0.014221
  0.022199
  0.129925
  0.222157
 -0.107564
 -0.154619
 -0.094437
  0.202684
 -0.178812
 -0.169057
 -0.129885
 -0.352075
  0.092815
 -0.128525
  0.030327
  0.084453
  0.043355
  0.069246
 -0.100161
  0.097928
 -0.145423
  0.139719
  0.057215
 -0.012232
  0.137182
  0.181495
  0.088366
  0.055823
 -0.182153
  0.007097
 -0.075592
  0.151072
 -0.088318
  0.021973
  0.103331
 -0.195889
  0.077664
  0.121111
  0.092770
 -0.090956
 -0.229768
 -0.161147
  0.128089
 -0.185881
 -0.054021
 -0.057400
 -0.211638
 -0.017989
 -0.229711
  0.082535
  0.035271
 -0.011326
  0.095345
  0.080594
  0.061674
  0.003458
  0.103734
 -0.163311
 -0.046178
 -0.100807
  0.093977
 -0.128491
 -0.163853
 -0.125718
  0.025691
  0.038817
  0.143986
 -0.078238
 -0.066785
  0.013571
  0.034956
  0.053240
 -0.000122
  0.066341
  0.109357
 -0.118059
  0.060461
 -0.130793
 -0.017880
 -0.092120
 -0.192972
  0.230999
 -0.000351
  0.195648
  0.104165
  0.065299
  0.017148
 -0.053667
 -0.060704
 -0.205065
 -0.250974
 -0.007578
 -0.082763
 -0.128943
 -0.032644
 -0.130411
 -0.073992
 -0.039600
  0.116118
 -0.010570
  0.014499
 -0.045327
 -0.036571
  0.075863
 -0.024688
  0.128947
 -0.074315
  0.043581
  0.008618
  0.019234
  0.075442
  0.137300
 -0.029910
 -0.177674
 -0.000633
  0.040347
  0.000035
  0.223474
 -0.072709
  0.098068
  0.123677
  0.175826
 -0.136291
  0.022322
 -0.061010
 -0.018595
 -0.176614
  0.045010
  0.002006
  0.054433
 -0.051263
  0.027347
  0.027677
  0.101446
 -0.009035
  0.003866
 -0.084905
  0.258789
  0.090825
 -0.152188
  0.148096
  0.299244
 -0.056610
  0.011465
  0.041605
 -0.197826
  0.224688
  0.105644
  0.101727
  0.011954
  0.069024
 -0.037849
  0.118599
 -0.025826
 -0.121838
  0.072537
  0.102110
 -0.122897
  0.118943
  0.145429
 -0.059032
  0.023577
  0.021810
  0.147040
  0.035152
 -0.204887
 -0.073189
 -0.100051
 -0.053789
  0.036718
  0.131048
 -0.126608
 -0.129444
  0.130822
 -0.041876
 -0.044043
 -0.039481
  0.029035
  0.113921
  0.061488
  0.118136
  0.021360
  0.233822
 -0.124824
 -0.114470
  0.033704
 -0.041013
  0.064924
 -0.138682
 -0.017025
  0.046685
  0.056676
 -0.078629
  0.134126
 -0.046958
  0.006724
  0.020629
  0.160881
  0.067386
 -0.052216
 -0.020502
 -0.039100
 -0.144190
 -0.003214
  0.005258
  0.144453
  0.003926
 -0.207972
 -0.022831
 -0.019157
 -0.203283
 -0.232545
  0.157353
  0.000215
 -0.003502
  0.038054
 -0.191395
 -0.106962
 -0.052198
  0.017040
  0.067475
  0.237990
  0.052096
 -0.068469
 -0.091726
  0.030637
 -0.086215
 -0.063663
  0.262465
 -0.141578
 -0.105364
  0.133164
 -0.088266
 -0.091867
 -0.084220
  0.038610
  0.016436
 -0.019548
 -0.161972
  0.036763
  0.039414
 -0.108408
  0.106171
 -0.074119
 -0.003713
  0.140114
 -0.084075
 -0.104259
  0.108288
 -0.069711
 -0.159812
  0.001243
  0.049098
 -0.057682
 -0.175293
  0.034478
  0.174170
  0.077605
  0.002331
 -0.052834
  0.051470
  0.001437
 -0.093912
  0.170823
 -0.145766
  0.059447
  0.155983
 -0.138250
 -0.161063
  0.048049
 -0.147020
 -0.213521
  0.012327
  0.012193
 -0.087116
  0.106774
  0.206083
  0.177333
  0.172581
 -0.138846
 -0.061015
 -0.076190
 -0.034136
  0.110338
  0.003452
 -0.101793
  0.030347
  0.131936
  0.070053
 -0.168981
 -0.077613
  0.098113
  0.023188
  0.196595
 -0.038426
 -0.160509
 -0.084790
  0.022343
  0.042042
  0.166952
 -0.155184
 -0.131431
 -0.023093
 -0.181316
  0.038239
 -0.111164
  0.272225
 -0.134554
  0.049469
 -0.162305
 -0.004276
  0.002944
  0.005406
 -0.039270
 -0.091235
  0.031864
  0.155007
  0.147545
  0.067789
  0.066343
 -0.047715
  0.038178
 -0.101484
  0.056995
  0.056967
 -0.051602
  0.057833
  0.012292
 -0.245956
 -0.079872
  0.128712
  0.020668
 -0.065314
  0.084728
 -0.261158
 -0.147313
 -0.122581
  0.182393
  0.035838
 -0.180059
  0.145323
  0.084956
 -0.027182
 -0.175299
  0.061317
 -0.146001
  0.134658
 -0.010720
 -0.037853
  0.010458
  0.108416
 -0.124612
 -0.186583
 -0.013688
  0.200665
  0.120208
  0.136370
  0.055575
  0.132164
 -0.079010
 -0.066100
 -0.000581
  0.147850
  0.178189
  0.158462
 -0.098044
 -0.123540
 -0.095072
 -0.153835
 -0.010241
  0.083161
  0.102885
 -0.248809
  0.074662
 -0.018689
 -0.096769
 -0.163663
  0.175677
  0.054445
 -0.083356
  0.227070
  0.073810
 -0.067629
  0.037578
 -0.063065
  0.178551
 -0.041815
 -0.040405
  0.075134
  0.045163
  0.112365
  0.149675
 -0.182461
 -0.087983
  0.107274
  0.130708
 -0.028344
 -0.034853
 -0.084214
  0.003734
  0.037311
 -0.072808
 -0.015764
  0.148611
  0.158879
  0.055826
  0.015355
  0.041263
 -0.203888
 -0.051686
 -0.062468
 -0.013400
 -0.048521
  0.021716
  0.067454
 -0.004829
 -0.030164
 -0.039914
 -0.151512
 -0.076094
  0.380322
  0.078312
 -0.060282
  0.113772
  0.011548
  0.089356
  0.015468
  0.141734
  0.019539
 -0.156686
 -0.124728
 -0.040141
  0.124268
 -0.049983
 -0.175103
 -0.026333
 -0.237941
 -0.001786
  0.052128
  0.203856
 -0.047452
  0.027171
  0.156712
  0.041289
 -0.101920
  0.014301
  0.158942
  0.057072
 -0.164531
  0.248117
 -0.077506
  0.015361
  0.113552
  0.002038
 -0.105842
 -0.113885
 -0.054921
 -0.081081
  0.031390
 -0.021142
  0.088015
  0.093583
  0.108413
  0.104469
 -0.203271
  0.025962
  0.014877
  0.247791
 -0.040007
 -0.048361
 -0.053534
  0.200354
  0.069677
 -0.088288
  0.115154
  0.157542
 -0.012837
 -0.189966
  0.082248
  0.190728
 -0.262909
  0.043012
  0.135034
 -0.174630
 -0.015511
  0.042299
 -0.080426
 -0.162034
 -0.204230
  0.052235
  0.087311
 -0.021354
 -0.076234
  0.039763
  0.141956
 -0.251153
 -0.204376
 -0.171830
 -0.057455
  0.015885
 -0.231801
  0.087794
  0.147445
 -0.035240
  0.044473
  0.078807
 -0.022836
 -0.189922
  0.095177
 -0.142942
  0.123499
 -0.132981
  0.100445
 -0.013179
  0.047137
  0.016445
 -0.055094
 -0.186239
 -0.068858
 -0.442425
 -0.197844
  0.028688
  0.175902
 -0.239329
 -0.101680
 -0.086116
  0.038720
  0.123184
  0.064427
 -0.043626
 -0.077698
  0.056791
  0.240977
  0.068795
 -0.016689
  0.033687
 -0.058333
  0.102785
 -0.198155
 -0.145110
 -0.001013
 -0.186893
 -0.055114
 -0.003581
  0.028285
 -0.108435
 -0.130222
  0.199688
  0.043798
 -0.009484
 -0.187805
  0.013648
 -0.076554
 -0.085528
 -0.136842
 -0.063800
 -0.017774
 -0.184305
 -0.072342
 -0.199053
  0.020746
 -0.246847
  0.009959
  0.149243
 -0.246281
 -0.001512
 -0.064283
  0.069189
 -0.068710
 -0.109674
  0.018492
  0.081523
 -0.039378
  0.205346
  0.028033
 -0.007230
 -0.035841
  0.007963
 -0.139798
  0.059075
  0.062513
  0.052336
 -0.124327
  0.000874
  0.044436
  0.018061
  0.054348
 -0.009956
 -0.097715
 -0.011458
 -0.085900
  0.081455
  0.345292
 -0.005978
 -0.199960
  0.168540
  0.150206
 -0.067425
 -0.132190
  0.006067
 -0.204542
 -0.072095
 -0.038274
 -0.061541
  0.149294
  0.092416
  0.054153
  0.037898
 -0.088757
 -0.000526
  0.094109
 -0.001692
 -0.097940
 -0.059899
  0.188064
 -0.172007
 -0.021523
 -0.055712
 -0.379946
 -0.121028
  0.008593
  0.021488
 -0.109035
  0.002971
 -0.132798
 -0.057623
 -0.075397
 -0.050232
  0.003415
  0.039372
 -0.104309
 -0.177049
 -0.082916
 -0.055191
 -0.013653
  0.024622
 -0.117565
  0.112950
 -0.149677
 -0.209222
 -0.067423
 -0.039203
 -0.142841
 -0.154881
 -0.146954
 -0.188259
 -0.084498
 -0.043162
 -0.050158
  0.121080
 -0.098253
  0.034577
 -0.152211
  0.074189
  0.150586
 -0.049988
 -0.173244
 -0.191694
 -0.100917
  0.044555
  0.030459
 -0.021748
  0.017185
  0.034888
 -0.112501
 -0.133224
 -0.032796
 -0.094652
 -0.149379
 -0.127066
  0.027495
  0.045550
 -0.383712
 -0.084212
 -0.059747
 -0.058598
 -0.097481
  0.125395
 -0.043763
  0.064583
 -0.053056
 -0.069078
 -0.178211
 -0.031020
 -0.139973
 -0.244160
  0.043243
 -0.193305
 -0.017974
 -0.092310
  0.199005
 -0.029270
  0.048888
 -0.144053
  0.060961
****
