PROJECT: W75X_2014Jan02
NCH:     4096
BW:   2.50000e+07
VELOCITY:       0.00000
PV:      0.480000
FREQ:    2.2235080e+09
DATE:     2014       1       2
TIME:       16      40      48
POSITION:       309.704      42.6272
INTEGRATION TIMES:       30.0000      30.0000
MAX VALUE:      0.031791081
 -0.038276
 -0.221556
 -0.076819
  0.045257
 -0.142044
  0.039635
 -0.067178
  0.018328
  0.058076
 -0.149924
 -0.030719
  0.078673
 -0.027817
 -0.024226
  0.078497
 -0.145519
  0.162051
  0.092741
  0.024326
  0.024269
 -0.103583
 -0.016795
  0.002400
  0.055147
 -0.047739
  0.039396
 -0.159391
 -0.066307
  0.011521
  0.107830
  0.049060
  0.070753
 -0.087464
 -0.211724
  0.018898
  0.087097
 -0.072026
  0.154224
  0.081550
 -0.047222
  0.092048
  0.022124
  0.012177
 -0.083502
 -0.077478
 -0.096923
  0.079491
 -0.014223
  0.197927
  0.117879
 -0.002361
 -0.108358
 -0.035281
 -0.030264
  0.136100
  0.010043
 -0.130119
  0.106127
  0.055325
 -0.017651
  0.179851
  0.018223
  0.044497
 -0.071915
  0.058225
 -0.023992
  0.067613
  0.050883
  0.176161
  0.204466
  0.041221
 -0.058952
  0.046996
 -0.105549
  0.013554
 -0.003693
 -0.027762
  0.088817
 -0.007591
  0.036395
 -0.006727
 -0.035011
 -0.031944
  0.078584
  0.002126
 -0.028598
 -0.171919
 -0.065277
 -0.170883
  0.019041
 -0.056131
 -0.072222
 -0.065382
  0.150476
 -0.206907
 -0.019004
  0.167721
  0.126531
  0.038592
 -0.119457
  0.095218
 -0.026369
 -0.026945
 -0.111398
 -0.097838
  0.083912
 -0.061459
 -0.053420
  0.131866
  0.066870
 -0.138895
 -0.158712
 -0.014326
  0.105663
 -0.035395
  0.084049
 -0.117322
  0.133145
 -0.040308
  0.009816
 -0.020132
 -0.055497
 -0.157563
  0.001081
 -0.136152
  0.164389
  0.102463
  0.022586
  0.004100
 -0.004857
 -0.162999
  0.145675
  0.014699
 -0.081053
 -0.020029
 -0.015183
 -0.116050
 -0.145343
 -0.045226
  0.048589
  0.074719
 -0.024017
 -0.006752
 -0.002329
  0.002775
 -0.032508
  0.157635
  0.123587
 -0.013879
  0.049062
  0.145165
  0.053263
 -0.042128
 -0.028043
  0.038154
 -0.040971
 -0.062111
  0.100455
  0.007102
  0.145287
 -0.141929
 -0.107961
  0.000817
  0.005006
 -0.216836
 -0.056724
 -0.009562
  0.079122
 -0.076866
  0.003750
 -0.031535
  0.045479
  0.054902
  0.026440
 -0.215931
  0.082557
 -0.193494
  0.134643
  0.017316
 -0.032616
  0.073549
 -0.182179
 -0.014826
 -0.067286
  0.036416
 -0.162411
  0.114491
 -0.103246
  0.193939
  0.069264
 -0.068604
 -0.064044
 -0.039532
 -0.079194
 -0.017161
 -0.023557
 -0.027106
 -0.097921
  0.097526
  0.026671
  0.081631
 -0.058779
 -0.088349
  0.248982
  0.041686
  0.056008
  0.102565
 -0.064044
  0.041116
 -0.049696
  0.039093
  0.202480
 -0.034921
  0.080428
 -0.051125
  0.042922
  0.155518
  0.103857
 -0.252703
  0.048965
  0.095937
  0.172764
 -0.041320
 -0.020485
 -0.076514
 -0.018579
  0.060092
 -0.059941
  0.074538
 -0.054657
  0.005712
  0.003241
  0.013406
  0.019791
  0.114062
  0.017528
  0.032413
 -0.105437
 -0.099942
 -0.214411
 -0.000431
 -0.057519
  0.062936
 -0.022550
 -0.027139
  0.168902
 -0.027689
  0.098049
  0.184431
 -0.073038
  0.058574
  0.075892
  0.058633
  0.018410
 -0.042417
  0.098158
  0.014359
  0.187531
  0.092519
  0.044848
 -0.008160
 -0.060522
  0.007455
  0.219429
 -0.077747
 -0.002368
  0.103003
  0.017521
 -0.047790
  0.097160
 -0.091925
  0.098965
 -0.130175
 -0.018618
 -0.015154
 -0.118621
 -0.053599
  0.109346
 -0.067163
  0.112333
  0.117943
 -0.003282
  0.009493
  0.034371
 -0.166763
  0.152529
  0.173120
 -0.097617
  0.027052
 -0.052839
 -0.086007
  0.080801
  0.154308
  0.098284
 -0.248266
  0.169067
 -0.033680
 -0.031433
 -0.066345
 -0.110332
  0.146141
  0.036534
  0.005528
 -0.064333
  0.084498
 -0.124381
 -0.067225
 -0.066585
 -0.075521
  0.024172
 -0.202014
  0.040954
 -0.053283
 -0.074893
 -0.049438
  0.122714
 -0.136726
 -0.028206
  0.130838
 -0.130165
  0.018894
 -0.103741
  0.043208
 -0.171959
  0.009075
  0.078438
 -0.053159
  0.107803
  0.094678
  0.091363
  0.155939
  0.074470
  0.152359
  0.038397
 -0.073318
 -0.011069
  0.080438
 -0.104822
 -0.042423
 -0.018491
 -0.104666
  0.031757
 -0.019445
 -0.158097
 -0.051207
  0.046971
  0.081924
 -0.086873
 -0.230192
 -0.045926
  0.062711
 -0.054449
  0.043216
  0.054265
 -0.003431
  0.132882
 -0.110634
 -0.024426
 -0.042366
  0.168185
 -0.022117
  0.005368
 -0.041329
  0.031493
  0.067652
  0.000655
  0.040354
  0.073368
 -0.013168
  0.032650
  0.090686
 -0.117007
  0.091443
 -0.055965
 -0.067487
  0.076582
 -0.054090
  0.168117
 -0.132526
  0.120658
  0.156098
 -0.045205
  0.014220
  0.055661
 -0.055346
  0.002258
 -0.007931
  0.042449
  0.026618
 -0.005736
 -0.129362
 -0.137044
  0.015659
  0.002117
  0.000655
 -0.008595
  0.096521
  0.059541
  0.174431
 -0.079192
 -0.056137
 -0.155721
 -0.003143
 -0.064458
 -0.122243
  0.038417
 -0.051164
  0.030972
 -0.022716
  0.017158
 -0.001134
  0.149665
 -0.186070
 -0.301649
  0.075931
 -0.040608
  0.007250
 -0.121526
  0.199201
  0.037278
 -0.067977
  0.086318
 -0.084477
  0.076595
 -0.034687
 -0.158274
 -0.017336
 -0.024723
 -0.033914
 -0.019430
  0.222928
  0.076727
  0.057816
 -0.061385
 -0.117628
 -0.016888
  0.173969
 -0.373960
  0.013653
  0.034086
  0.112310
 -0.195015
 -0.064619
 -0.161615
 -0.185202
  0.097755
 -0.175890
  0.027111
  0.101203
 -0.043678
  0.053586
  0.099381
 -0.085617
 -0.105846
  0.113089
  0.037766
 -0.094523
  0.071382
  0.094689
 -0.004159
 -0.084972
  0.079116
  0.000335
 -0.045131
  0.054940
 -0.032516
  0.149422
  0.078865
  0.081627
 -0.178216
 -0.115013
  0.053229
  0.121420
  0.071485
  0.122981
  0.083837
  0.123743
 -0.227263
 -0.083645
 -0.027204
  0.130715
 -0.045187
  0.051027
  0.092518
  0.038891
  0.071151
 -0.155408
 -0.079609
 -0.154194
 -0.102125
 -0.210174
 -0.041751
  0.149920
  0.036326
 -0.072548
  0.170406
 -0.019428
 -0.066130
  0.026240
  0.130250
 -0.023671
  0.088969
  0.112488
 -0.064772
 -0.086113
 -0.056309
  0.031764
  0.115976
  0.051362
  0.050499
  0.163026
  0.042112
 -0.062770
 -0.007456
  0.097219
 -0.008116
  0.207382
  0.076470
 -0.053347
 -0.041329
  0.073257
  0.020880
 -0.034739
 -0.069796
 -0.094828
  0.031577
  0.181560
 -0.107900
  0.037437
  0.135732
 -0.031990
 -0.141542
 -0.051274
  0.098281
 -0.160538
 -0.077394
  0.024677
  0.149231
 -0.061767
 -0.230057
 -0.033933
  0.040879
 -0.043302
 -0.126308
  0.175010
  0.079643
 -0.065999
 -0.106169
  0.192983
 -0.067912
  0.002379
 -0.072008
  0.033847
 -0.138133
 -0.035202
 -0.043125
  0.206900
  0.134249
 -0.147701
  0.015585
 -0.325093
 -0.072044
  0.018967
  0.113704
  0.048383
  0.022787
  0.206824
 -0.064929
 -0.205897
  0.013672
 -0.156146
  0.094308
 -0.097576
 -0.114175
 -0.097542
  0.084441
  0.081151
  0.134274
 -0.005393
 -0.158883
  0.022673
 -0.052390
  0.108029
  0.026724
  0.128803
 -0.051001
 -0.000002
 -0.037713
  0.016113
 -0.074717
  0.010150
  0.010859
  0.027593
  0.232028
  0.115169
 -0.065390
  0.113505
 -0.051923
  0.144054
  0.019363
 -0.010505
  0.124585
  0.053703
 -0.057184
  0.049089
  0.068281
 -0.061623
  0.028506
 -0.003371
 -0.070942
  0.080443
  0.003393
 -0.012084
 -0.011503
 -0.007781
  0.072776
 -0.084090
  0.017752
  0.057623
  0.063502
  0.081654
 -0.038148
 -0.041364
 -0.038694
 -0.026060
 -0.151931
 -0.170183
  0.023708
  0.016055
  0.029778
  0.004239
  0.155132
 -0.099492
  0.145429
  0.277663
 -0.028497
 -0.003824
  0.066667
  0.045686
  0.024223
  0.234130
 -0.031909
  0.064747
 -0.051588
 -0.046849
  0.015571
  0.144181
  0.012533
  0.059607
 -0.092955
  0.078509
 -0.015097
  0.071973
 -0.125258
  0.055381
 -0.050325
  0.092207
 -0.051421
  0.017789
  0.030179
 -0.151645
 -0.247799
  0.044411
 -0.144536
 -0.187960
 -0.047423
 -0.078426
  0.170478
 -0.081442
  0.119623
  0.167767
 -0.120594
 -0.034065
 -0.000113
  0.083088
 -0.202160
  0.043532
  0.131182
 -0.015122
  0.033669
  0.018024
 -0.090472
 -0.062547
 -0.030885
  0.003014
  0.082437
 -0.065585
  0.061181
  0.104551
  0.016979
 -0.058939
 -0.139517
  0.179762
 -0.048859
  0.033715
 -0.023368
  0.031517
  0.043292
 -0.017010
  0.129913
 -0.170532
 -0.013306
 -0.026531
 -0.006782
  0.011538
  0.037282
 -0.043534
  0.004204
 -0.010215
 -0.070352
  0.131080
 -0.008910
 -0.004091
 -0.246881
 -0.154336
  0.174586
  0.103974
 -0.106382
  0.011936
 -0.197448
  0.089248
 -0.129037
 -0.168491
 -0.093665
  0.000621
  0.242447
  0.118596
 -0.138703
 -0.035913
  0.072449
  0.017791
 -0.082848
 -0.036121
 -0.099764
  0.106890
 -0.209713
 -0.143853
 -0.037063
 -0.071817
  0.033718
 -0.131012
  0.081837
  0.126743
 -0.037836
  0.007138
  0.004835
 -0.024447
 -0.065744
  0.031625
  0.012728
 -0.011046
 -0.133878
  0.099252
  0.110491
  0.014875
  0.025126
  0.020441
  0.110376
  0.076342
 -0.069031
  0.035571
  0.046386
 -0.089402
  0.158011
  0.101276
  0.027867
  0.034066
 -0.100612
 -0.233630
 -0.012754
 -0.093866
 -0.016201
  0.175924
 -0.006400
  0.110841
  0.097982
 -0.145976
 -0.137359
 -0.031333
  0.004986
  0.056047
 -0.023047
 -0.017814
 -0.008922
  0.133257
  0.085156
 -0.020202
  0.059018
  0.098314
 -0.030495
 -0.177976
 -0.100858
  0.080215
 -0.081159
 -0.292865
  0.101319
 -0.186264
 -0.252339
 -0.021019
  0.000162
 -0.042951
 -0.086036
 -0.034934
 -0.033869
 -0.104275
 -0.039502
  0.059559
 -0.173076
 -0.069260
 -0.177652
 -0.020764
 -0.123096
 -0.023748
  0.092597
  0.010226
  0.013535
  0.101708
 -0.174880
  0.032538
 -0.006753
 -0.043140
  0.016744
  0.043126
  0.050946
 -0.039073
 -0.087729
 -0.020403
 -0.096856
  0.025268
 -0.143874
  0.095630
  0.143552
  0.007097
  0.059829
  0.119679
  0.104182
  0.005873
 -0.091378
  0.114836
  0.099196
  0.195185
 -0.002544
  0.097776
 -0.101749
  0.007985
 -0.128862
 -0.011434
  0.108057
  0.178395
 -0.023988
  0.077081
 -0.013383
 -0.151555
 -0.063004
  0.074477
 -0.011020
 -0.012182
  0.004561
  0.119801
 -0.069547
 -0.163392
  0.029192
  0.169908
  0.081127
  0.014366
  0.102721
  0.108411
 -0.017609
 -0.125783
 -0.043378
  0.110194
 -0.183653
  0.031778
 -0.026061
 -0.142898
 -0.045846
 -0.145662
  0.110248
  0.105648
 -0.003495
  0.022327
  0.108258
  0.074056
 -0.047309
  0.082780
  0.101452
  0.123637
  0.120520
 -0.018666
 -0.222066
 -0.029560
  0.075892
  0.075943
 -0.073164
 -0.191935
  0.050439
  0.019599
  0.048769
 -0.098017
  0.051253
  0.011534
  0.050600
 -0.122501
  0.042242
  0.168263
  0.058021
  0.017689
  0.096928
 -0.021704
 -0.042437
  0.038616
 -0.113114
  0.168533
 -0.055112
 -0.005327
 -0.004351
  0.204451
  0.061740
  0.000463
 -0.109177
 -0.048517
  0.038681
 -0.161855
  0.130967
  0.073825
 -0.084425
  0.097063
 -0.070041
 -0.116609
 -0.109149
 -0.002258
 -0.145385
 -0.075291
  0.005913
  0.111829
 -0.002380
  0.061968
  0.221711
  0.022553
  0.019066
 -0.014316
  0.007457
  0.207504
 -0.086216
 -0.165875
  0.142155
 -0.047344
  0.005931
  0.153976
  0.066140
 -0.052868
 -0.071382
 -0.059713
  0.032997
  0.052324
 -0.098658
  0.122758
  0.092084
 -0.080784
 -0.121764
  0.194341
 -0.022264
 -0.030991
  0.110172
 -0.022345
 -0.009808
 -0.023800
  0.071254
 -0.240736
 -0.123006
 -0.133585
 -0.014311
  0.170005
  0.020634
  0.078917
  0.138201
 -0.028136
  0.097093
 -0.124151
 -0.103375
 -0.058358
  0.002113
 -0.021297
  0.040605
 -0.101275
  0.086621
 -0.084327
  0.159613
  0.065234
 -0.054714
 -0.074069
 -0.011876
  0.053466
  0.029645
 -0.205759
  0.313133
 -0.007620
 -0.201968
  0.017976
 -0.098960
 -0.022404
  0.110408
  0.047975
  0.016072
  0.004719
  0.151838
  0.060006
  0.073895
  0.036594
  0.036039
  0.063085
  0.088963
 -0.001327
  0.027562
 -0.029419
 -0.162263
  0.031154
  0.045071
 -0.069019
 -0.054887
 -0.003664
 -0.169210
  0.118686
  0.111030
 -0.017224
  0.118918
  0.006303
 -0.128269
 -0.040622
  0.024243
 -0.034873
 -0.099594
 -0.012340
 -0.094548
  0.061720
 -0.006815
 -0.098716
  0.105745
  0.102849
  0.132026
  0.060146
 -0.032920
 -0.089797
 -0.106089
  0.027630
  0.015204
  0.017581
 -0.198189
  0.059159
 -0.128383
 -0.057182
 -0.023008
  0.060078
  0.050427
 -0.064779
 -0.076248
  0.068671
  0.124486
  0.147715
 -0.161244
  0.079461
  0.009840
  0.079454
  0.021176
  0.066293
 -0.132167
 -0.197321
 -0.053937
  0.137135
 -0.000201
 -0.080547
 -0.242480
 -0.055355
 -0.070697
  0.108258
  0.032903
  0.010778
  0.127830
 -0.050406
 -0.061167
  0.118267
 -0.024703
  0.162758
 -0.053820
 -0.182683
  0.019204
 -0.078616
 -0.081691
 -0.024836
  0.029031
 -0.252145
 -0.109509
 -0.022744
 -0.024424
 -0.049698
  0.115992
 -0.037987
  0.023663
  0.046812
  0.027709
 -0.016671
  0.083377
  0.084590
 -0.017667
  0.067857
  0.018486
 -0.032992
 -0.005895
 -0.078932
  0.018425
  0.071755
 -0.103168
  0.105545
 -0.116261
 -0.101809
 -0.101234
  0.012776
 -0.052906
  0.150263
 -0.137377
  0.162768
 -0.115492
  0.064200
  0.074852
  0.027168
  0.082390
  0.068470
  0.064042
  0.024445
 -0.014117
 -0.062051
 -0.112585
 -0.033325
  0.010510
 -0.069502
  0.032816
 -0.095950
 -0.043740
 -0.065809
 -0.022764
 -0.076772
  0.019227
  0.119224
  0.030139
 -0.155808
 -0.028832
 -0.148966
  0.005083
 -0.000128
  0.045480
 -0.040231
 -0.039204
  0.035710
 -0.235972
  0.082079
 -0.002411
  0.167133
  0.123823
  0.037235
 -0.072133
  0.028700
  0.108475
 -0.000150
  0.012747
  0.044330
  0.096344
 -0.004967
 -0.015483
 -0.003244
  0.094098
 -0.106158
 -0.045936
  0.079233
 -0.185916
 -0.094730
  0.048389
  0.113989
  0.081953
  0.183029
  0.037155
  0.086292
 -0.134522
  0.003061
 -0.056921
 -0.034627
  0.018902
  0.079323
 -0.030959
  0.008273
  0.030077
  0.056269
 -0.074905
 -0.018909
  0.140126
  0.126905
  0.198732
 -0.033510
 -0.168996
 -0.001358
  0.078856
  0.218290
  0.046873
  0.082435
 -0.049307
  0.093733
  0.010070
  0.109058
 -0.039551
  0.017783
  0.040265
 -0.016775
 -0.023309
  0.081528
  0.062646
 -0.100906
  0.009701
 -0.049555
 -0.087922
  0.115695
 -0.022824
 -0.066368
 -0.015244
 -0.037031
 -0.069101
 -0.123659
 -0.041341
  0.043895
  0.155039
 -0.037153
  0.141187
 -0.100954
  0.181298
  0.071491
 -0.007777
  0.045249
 -0.107092
 -0.012134
  0.020932
  0.068444
 -0.178174
 -0.158497
  0.177273
  0.218236
 -0.130837
  0.113002
  0.128819
 -0.071705
 -0.062166
 -0.051116
 -0.056713
  0.045074
  0.074311
  0.106722
  0.220760
 -0.137232
  0.124094
 -0.139680
 -0.012756
 -0.075178
  0.015640
  0.032180
 -0.101248
  0.067510
  0.131323
 -0.099293
  0.187221
 -0.031389
 -0.110214
  0.025580
  0.080845
  0.080859
  0.192580
  0.039106
 -0.039728
  0.046389
  0.069009
 -0.000543
 -0.010470
 -0.087325
  0.021866
 -0.031243
  0.125043
  0.111356
 -0.085204
  0.073263
 -0.220763
  0.048081
 -0.004876
 -0.001796
 -0.067251
 -0.093072
  0.060053
 -0.215218
  0.058158
 -0.005793
 -0.058306
  0.118516
 -0.126989
 -0.043119
 -0.014758
 -0.061744
  0.056429
 -0.104790
  0.178579
 -0.134918
  0.111166
  0.046100
  0.022540
  0.116693
  0.026559
 -0.178508
 -0.066555
 -0.101134
 -0.126211
  0.135369
 -0.002631
 -0.118103
 -0.039387
 -0.012754
 -0.088158
  0.011490
  0.058732
  0.084046
 -0.006065
 -0.224583
 -0.010399
 -0.101210
 -0.017438
 -0.027323
 -0.129003
 -0.105009
  0.076648
 -0.112424
  0.040879
  0.136317
  0.050363
  0.043966
 -0.028481
  0.120680
  0.177283
 -0.074240
  0.065819
  0.187419
  0.078560
  0.064910
  0.020577
  0.077004
 -0.042833
 -0.002240
  0.096219
  0.059840
  0.019910
 -0.004490
  0.001935
  0.046076
 -0.050235
  0.009440
 -0.058189
  0.079278
 -0.047607
 -0.036221
 -0.182764
  0.018540
 -0.175245
 -0.125530
  0.090066
  0.085916
 -0.122754
  0.017119
 -0.013268
 -0.039243
  0.031640
 -0.016061
 -0.133130
 -0.089004
 -0.017947
 -0.055532
 -0.136029
  0.229344
 -0.012368
 -0.105528
 -0.073417
  0.082516
 -0.000251
  0.122993
 -0.039653
  0.047687
  0.076395
  0.014697
 -0.075682
 -0.005669
  0.040358
 -0.045351
  0.101271
 -0.050576
 -0.156684
 -0.005682
 -0.053660
  0.081414
 -0.052941
  0.071893
 -0.277589
 -0.182491
 -0.014497
 -0.089526
 -0.039473
  0.017675
  0.110876
  0.096464
 -0.060825
 -0.221064
  0.040129
 -0.051278
  0.069337
  0.026207
 -0.105977
 -0.017758
  0.046157
 -0.017780
 -0.013559
 -0.025347
 -0.055946
 -0.033377
  0.028160
 -0.020035
  0.068897
  0.056046
  0.013830
  0.052933
  0.185786
 -0.011265
 -0.087875
 -0.156514
 -0.134724
 -0.024360
  0.056650
 -0.174457
 -0.031261
 -0.045690
 -0.057011
 -0.006960
 -0.052335
  0.041154
 -0.003981
  0.036027
  0.233291
 -0.071732
  0.019014
  0.166854
 -0.014241
 -0.063852
  0.024237
  0.005482
 -0.039862
  0.113572
 -0.036695
  0.189391
  0.032213
 -0.064664
  0.053023
 -0.021253
  0.056045
  0.211269
 -0.020389
 -0.010426
 -0.073399
  0.091581
  0.011974
  0.039821
  0.159294
  0.126683
 -0.063750
  0.033931
  0.212478
 -0.022817
  0.079946
  0.063653
  0.032845
  0.034386
 -0.201789
  0.032540
 -0.050413
  0.080898
  0.057805
  0.117326
  0.037128
 -0.144027
 -0.124829
 -0.004658
 -0.137079
 -0.053498
 -0.114288
  0.107915
 -0.133137
  0.021589
  0.043560
  0.098152
  0.078021
 -0.060742
 -0.057877
  0.077520
  0.041062
  0.040224
 -0.007985
  0.027120
 -0.079183
  0.002034
  0.030259
  0.077913
 -0.033647
  0.056457
 -0.041545
 -0.104898
 -0.014726
 -0.094334
 -0.050124
 -0.044427
 -0.046989
  0.059172
  0.011313
 -0.029324
 -0.106449
  0.103035
 -0.054277
  0.093780
 -0.025716
  0.054175
  0.070845
  0.142341
  0.091226
  0.130038
 -0.017712
 -0.151483
  0.107574
 -0.022314
 -0.176543
 -0.053215
 -0.191789
  0.080127
  0.001707
  0.021417
 -0.033753
  0.050168
 -0.074759
  0.066752
  0.039697
 -0.030577
 -0.062466
  0.008380
 -0.041432
 -0.061137
 -0.018434
  0.018161
 -0.207175
  0.072899
 -0.138386
 -0.059486
  0.119609
  0.047299
 -0.007464
  0.216635
  0.121894
 -0.087504
  0.040274
 -0.149771
  0.103973
  0.195592
 -0.134207
 -0.084928
  0.059431
 -0.117225
 -0.147744
 -0.029697
  0.008172
 -0.018264
 -0.182060
  0.028292
  0.066957
 -0.014952
  0.140385
  0.002924
  0.011488
 -0.004267
 -0.074917
  0.200665
 -0.135877
 -0.018724
  0.159252
 -0.094927
  0.028853
 -0.045097
  0.035023
 -0.020138
 -0.010941
 -0.079880
 -0.181520
  0.102130
 -0.026120
 -0.015320
  0.122463
 -0.044185
 -0.115608
 -0.039986
  0.004641
  0.113474
  0.105587
  0.244139
 -0.077398
 -0.058278
  0.224047
 -0.122063
  0.064397
 -0.199768
  0.000270
  0.035004
  0.082067
 -0.010158
  0.082061
 -0.067288
 -0.072101
 -0.050158
  0.086585
 -0.150450
  0.062579
 -0.125718
 -0.056487
  0.030455
 -0.055207
 -0.018747
 -0.042518
 -0.062256
 -0.052952
  0.070774
 -0.010552
  0.022696
 -0.078370
  0.077313
 -0.035550
 -0.151660
  0.001414
  0.055480
  0.178444
  0.104555
  0.006076
 -0.105795
 -0.006700
 -0.173470
  0.112595
  0.127934
 -0.103065
  0.021047
  0.091932
 -0.105677
 -0.096842
  0.214854
 -0.144212
  0.105476
  0.128326
 -0.171629
  0.038651
 -0.112125
  0.095126
  0.102476
  0.041821
  0.011581
 -0.044028
 -0.003485
 -0.062446
  0.033998
 -0.073809
 -0.028337
 -0.044628
 -0.067374
  0.121568
 -0.050612
 -0.000105
 -0.073524
 -0.149993
  0.040950
 -0.033992
 -0.125091
  0.010547
  0.131725
  0.093831
 -0.037079
  0.220325
  0.080670
  0.025968
  0.061172
 -0.056152
  0.072113
 -0.138593
 -0.079888
 -0.114002
  0.170800
  0.130499
  0.018773
 -0.114389
  0.076803
  0.133741
  0.226651
  0.063655
  0.054586
 -0.169344
 -0.054996
 -0.053740
  0.097943
 -0.007566
  0.088632
 -0.135590
 -0.095523
 -0.142585
  0.200365
 -0.053749
  0.083306
 -0.163214
 -0.015242
 -0.255358
 -0.164146
 -0.111783
  0.024881
 -0.104525
 -0.244947
 -0.046463
  0.043870
  0.103451
  0.201909
  0.114985
  0.168560
 -0.068586
 -0.016963
 -0.020825
  0.072571
 -0.053458
  0.056156
 -0.027073
 -0.056853
 -0.055820
  0.126580
  0.065182
 -0.114034
  0.009203
  0.017118
 -0.161525
 -0.012180
  0.139638
 -0.045671
  0.262607
  0.023266
 -0.118791
 -0.034610
  0.005454
 -0.004569
 -0.106895
 -0.213327
 -0.023605
  0.111904
  0.126629
 -0.110460
  0.073741
  0.076280
  0.021984
 -0.079011
  0.023321
 -0.040786
 -0.010263
  0.032262
  0.020120
  0.176953
  0.024539
  0.015087
  0.212135
  0.071790
 -0.004316
  0.199877
  0.219274
  0.118143
  0.101685
  0.084039
  0.312917
  0.028776
  0.157014
  0.026399
  0.138003
  0.152177
  0.005897
  0.155483
 -0.061655
  0.089625
  0.002206
  0.032634
  0.123483
  0.183227
  0.206524
  0.071106
  0.162466
  0.185263
  0.110886
  0.124687
  0.331662
  0.121633
  0.058724
  0.136815
  0.200215
  0.087241
  0.164613
 -0.012698
  0.199269
  0.331799
  0.242627
  0.180868
  0.173165
  0.208928
  0.199066
  0.253820
  0.414710
  0.301576
  0.506509
  0.535906
  0.435661
  0.662484
  0.301149
  0.437750
  0.549699
  0.540812
  0.606614
  0.689344
  0.766379
  0.706990
  0.694458
  0.772913
  0.546760
  0.875947
  0.668707
  0.632730
  0.817945
  0.619443
  0.817504
  0.717609
  0.713447
  0.656077
  0.748661
  0.738742
  0.697921
  0.780089
  0.770451
  0.754209
  0.709735
  0.488474
  0.490159
  0.234065
  0.276119
  0.060601
  0.300957
  0.028855
  0.213563
  0.176969
  0.058120
  0.076425
  0.127416
  0.073310
 -0.081658
 -0.006563
  0.030572
  0.067451
 -0.084756
  0.130405
  0.120185
  0.084105
  0.002768
  0.016149
  0.038061
  0.001206
  0.076551
  0.027613
  0.012321
 -0.045114
  0.218982
 -0.092717
  0.016156
  0.074285
  0.011659
 -0.103668
 -0.013916
 -0.006809
 -0.047545
  0.027800
 -0.101919
 -0.068967
 -0.077082
  0.121304
  0.085509
 -0.042581
  0.070241
  0.034192
 -0.060573
 -0.017038
 -0.020127
  0.016105
  0.223336
  0.172181
  0.024593
 -0.069583
 -0.087398
  0.109425
  0.016525
  0.003225
 -0.146286
 -0.036132
  0.008334
 -0.095801
  0.064685
  0.052939
 -0.007414
  0.049234
  0.005181
 -0.130248
  0.048306
 -0.024159
  0.077144
 -0.060614
  0.054180
  0.007526
  0.083789
  0.047854
  0.063404
 -0.207810
 -0.108200
  0.083490
  0.039730
  0.170611
  0.073723
  0.078648
 -0.198936
  0.086529
 -0.102583
 -0.012720
 -0.092508
  0.078509
 -0.106023
  0.031695
  0.034999
 -0.106407
 -0.107281
 -0.066933
 -0.083240
  0.077710
  0.152575
  0.064103
  0.076849
 -0.007246
 -0.110004
  0.160731
 -0.032677
 -0.011128
  0.011329
 -0.097646
 -0.058502
  0.041002
 -0.078648
  0.159258
 -0.167654
 -0.048658
  0.151304
 -0.007865
 -0.047595
 -0.028023
 -0.153036
 -0.008196
  0.028424
  0.136874
  0.013664
 -0.040056
  0.037105
 -0.027342
  0.043700
 -0.034637
  0.130805
 -0.106391
  0.243746
  0.062001
  0.046416
 -0.034968
 -0.072517
 -0.054740
 -0.090098
 -0.128222
  0.054661
  0.082430
 -0.010511
 -0.146594
  0.104295
  0.063230
 -0.077136
  0.101194
  0.103454
  0.106592
  0.140501
 -0.183882
  0.027460
 -0.074137
 -0.066428
  0.002049
  0.071087
 -0.128481
  0.031361
 -0.025402
 -0.270749
  0.057452
 -0.124371
 -0.035124
 -0.066566
  0.025205
 -0.113096
 -0.111555
  0.046522
 -0.026462
 -0.015895
 -0.046268
  0.172324
  0.106129
  0.020429
 -0.125746
  0.085313
 -0.105660
 -0.041855
 -0.097581
 -0.076638
  0.074737
  0.006775
 -0.034066
 -0.043847
  0.085543
  0.038663
  0.084170
 -0.062674
  0.093690
 -0.040928
  0.112143
  0.124316
  0.097221
  0.070740
  0.044918
 -0.271139
 -0.028675
  0.067568
  0.066845
  0.168106
 -0.096320
 -0.067093
 -0.111372
 -0.117549
 -0.056563
 -0.127683
  0.024303
  0.090873
 -0.021089
  0.110413
  0.117818
 -0.038644
  0.212323
 -0.003724
  0.068723
  0.044134
  0.147744
 -0.089405
 -0.011552
  0.036093
 -0.147030
 -0.167983
  0.103413
  0.122434
 -0.033352
 -0.065438
  0.157597
 -0.025064
 -0.026137
  0.189083
 -0.149369
  0.096473
  0.124274
 -0.062755
 -0.065137
 -0.204322
  0.098611
 -0.046986
  0.034930
 -0.018708
 -0.083007
  0.073150
 -0.128251
  0.189570
  0.063467
  0.112105
 -0.058729
  0.219231
 -0.137026
 -0.019199
 -0.037821
  0.045611
  0.079336
  0.092950
 -0.056855
  0.075207
  0.080174
  0.167232
  0.040996
 -0.018339
  0.080643
 -0.071942
  0.173414
  0.013982
 -0.105701
 -0.214357
  0.099468
  0.066294
  0.049582
  0.003378
 -0.318799
  0.023459
 -0.217915
 -0.084255
  0.199905
  0.029757
 -0.060960
 -0.075433
 -0.096028
  0.139530
  0.227853
  0.027897
 -0.071566
 -0.118351
 -0.008131
 -0.083909
  0.222990
 -0.094380
  0.116638
  0.056002
 -0.041604
 -0.016430
  0.045007
 -0.022261
 -0.100069
 -0.186480
 -0.036322
  0.082269
 -0.062924
  0.192565
 -0.069570
 -0.089750
 -0.280416
  0.086669
  0.169961
 -0.065600
  0.000975
  0.019817
 -0.138143
  0.002431
 -0.023701
 -0.047679
 -0.103099
  0.276291
  0.031256
 -0.054349
  0.067744
  0.027742
 -0.027665
  0.043899
  0.027538
  0.115672
  0.010321
 -0.062355
 -0.002814
  0.001760
 -0.006393
 -0.120005
  0.066329
  0.079934
 -0.065299
 -0.153783
 -0.104915
  0.004744
 -0.053234
  0.043644
  0.049747
 -0.100205
 -0.068780
 -0.042095
  0.061523
  0.088548
  0.000775
 -0.124253
  0.058709
 -0.059157
 -0.020133
  0.080816
  0.064753
 -0.121144
 -0.008342
  0.034708
 -0.078651
  0.208552
  0.010302
  0.034054
  0.165954
  0.145569
  0.014061
  0.014189
 -0.068733
 -0.121272
  0.066782
 -0.176317
 -0.078391
  0.007896
  0.036245
  0.161015
  0.080142
  0.017028
  0.000281
 -0.084465
  0.037059
  0.121589
  0.167015
  0.003954
 -0.122754
  0.096621
  0.111899
 -0.095699
  0.132675
 -0.110812
 -0.048356
 -0.046793
  0.030117
 -0.052130
  0.083917
  0.062259
 -0.098868
 -0.024203
  0.013417
  0.050119
 -0.161434
  0.033667
 -0.100656
  0.164544
 -0.080788
 -0.086675
 -0.021657
  0.052833
 -0.007349
 -0.006695
 -0.112792
  0.001547
  0.129958
  0.001224
 -0.016337
 -0.016382
 -0.214389
 -0.068795
  0.048976
  0.065505
  0.093439
 -0.052914
 -0.057809
  0.028245
 -0.102970
 -0.078561
  0.070298
 -0.043504
 -0.137302
 -0.105005
  0.117616
 -0.040514
 -0.127896
  0.159661
 -0.131469
 -0.062449
 -0.028093
  0.002186
 -0.122457
 -0.167244
  0.084358
  0.014179
 -0.164995
 -0.096378
  0.175125
 -0.093291
  0.066807
  0.205998
 -0.035271
  0.046669
  0.003802
 -0.250261
  0.126675
 -0.137047
 -0.044126
 -0.025318
 -0.123920
  0.160258
  0.150774
 -0.022386
 -0.047785
  0.093748
 -0.056026
 -0.052280
  0.166355
  0.028593
  0.158105
 -0.030578
  0.071897
 -0.118320
  0.014688
  0.013717
  0.027821
  0.012431
 -0.062495
 -0.163364
  0.016127
 -0.126914
 -0.090421
 -0.001411
  0.101478
  0.089461
 -0.076524
 -0.172105
  0.137315
 -0.110762
  0.163845
 -0.074521
 -0.184416
 -0.087436
 -0.079776
  0.197949
 -0.082326
 -0.048430
  0.124129
  0.037598
 -0.082015
 -0.027256
  0.033749
  0.023310
 -0.017451
  0.149644
  0.058972
 -0.035142
  0.007339
 -0.062445
 -0.137963
  0.126780
  0.014449
 -0.078919
  0.017658
  0.079115
  0.044883
 -0.139319
 -0.130426
  0.033505
 -0.020708
 -0.033466
 -0.005489
 -0.070194
  0.004254
 -0.062116
  0.054371
 -0.081029
  0.039125
  0.047862
 -0.082723
  0.058374
 -0.109149
  0.158761
 -0.001708
 -0.116262
  0.003333
 -0.011436
 -0.125519
  0.069078
  0.085128
 -0.080244
  0.086419
  0.025773
  0.112038
 -0.052769
  0.092165
 -0.045594
  0.104598
  0.106376
 -0.084868
  0.039762
  0.033293
 -0.032495
 -0.119745
  0.047540
 -0.080780
  0.000478
  0.059856
  0.105556
 -0.146775
  0.038488
 -0.154443
  0.029604
 -0.091916
  0.021064
 -0.179062
 -0.145193
  0.016867
 -0.039302
 -0.106302
 -0.071639
 -0.129518
  0.000033
 -0.178087
  0.098234
  0.043721
 -0.085132
  0.071707
  0.044062
  0.137807
 -0.081604
 -0.170699
  0.107891
  0.105317
  0.024818
 -0.011807
  0.016458
  0.029188
 -0.013946
 -0.039780
  0.166352
  0.109636
 -0.075963
  0.004256
 -0.014102
  0.060508
  0.150266
 -0.076482
  0.007243
 -0.033299
  0.106841
 -0.173701
  0.119862
  0.098927
  0.027049
  0.039795
  0.064721
 -0.012522
 -0.201090
  0.181590
 -0.127136
  0.076461
  0.054755
 -0.039394
  0.043085
  0.032072
  0.069411
 -0.004758
  0.162194
 -0.090153
  0.058987
  0.194472
  0.028422
 -0.041597
  0.033296
 -0.041092
 -0.021512
 -0.022239
 -0.011299
  0.157555
 -0.078949
  0.047751
  0.062633
  0.155675
 -0.212138
 -0.087889
 -0.065915
 -0.120734
 -0.041471
 -0.137997
 -0.022015
  0.002944
 -0.001063
  0.005533
 -0.028783
 -0.051888
 -0.004857
  0.028947
  0.133170
 -0.053135
 -0.012886
  0.062095
  0.090505
  0.032975
  0.105433
 -0.034626
 -0.079569
  0.210799
  0.013779
  0.073865
  0.130721
  0.009104
  0.050373
 -0.010725
 -0.212813
  0.107271
  0.069476
  0.111396
  0.027250
  0.142689
  0.022156
  0.059035
  0.091761
  0.012907
  0.039649
 -0.168456
  0.042702
  0.173759
  0.169253
  0.016373
 -0.191103
  0.038400
 -0.044349
  0.130404
  0.134830
 -0.037765
 -0.035142
 -0.055480
 -0.067228
  0.000186
  0.011241
 -0.090607
  0.191416
 -0.256734
 -0.005036
  0.038127
 -0.221507
 -0.069663
  0.049404
 -0.005857
  0.162507
 -0.020757
  0.040414
  0.151308
  0.043632
 -0.084954
  0.097425
  0.004561
 -0.050569
 -0.116995
 -0.020935
 -0.024190
  0.199941
  0.057839
  0.070221
 -0.044164
 -0.174807
 -0.121425
 -0.073395
  0.080259
  0.004152
  0.124291
  0.332137
 -0.071294
 -0.032524
  0.013329
  0.029404
 -0.019548
  0.022930
 -0.260388
 -0.090747
  0.056699
  0.111277
  0.058567
 -0.049852
  0.042396
  0.009988
  0.029996
 -0.036894
 -0.069972
  0.038738
  0.045640
 -0.012222
  0.069697
  0.038061
 -0.064309
  0.128601
 -0.073619
 -0.046169
  0.096135
 -0.030371
 -0.022734
 -0.033668
  0.020417
 -0.223090
  0.092406
  0.111150
  0.017675
  0.012034
 -0.138586
  0.228762
 -0.019089
 -0.124929
  0.020911
  0.103525
 -0.024314
  0.122778
 -0.055440
 -0.151599
 -0.067542
 -0.045070
  0.013744
 -0.077081
 -0.065699
  0.057959
  0.091203
  0.057578
 -0.061239
  0.056700
 -0.113714
  0.038304
  0.049085
  0.070726
  0.187697
 -0.095908
 -0.135651
  0.068123
  0.032178
 -0.117030
  0.242066
 -0.006793
 -0.147250
 -0.054017
  0.099483
  0.009320
 -0.020908
 -0.042492
  0.067747
 -0.058721
 -0.142230
  0.002185
 -0.036724
 -0.064571
  0.068647
 -0.002553
  0.078679
 -0.025821
  0.025697
  0.022354
 -0.010861
 -0.034869
 -0.085235
 -0.080962
 -0.257785
  0.080592
  0.038126
 -0.011467
  0.079314
 -0.037566
  0.131872
 -0.087091
  0.070622
  0.015163
 -0.075703
  0.121493
  0.053674
  0.060800
 -0.095783
  0.155640
  0.080430
  0.315834
 -0.168504
 -0.123275
 -0.019397
  0.146131
  0.151626
 -0.003417
 -0.002190
 -0.041453
 -0.142354
 -0.017777
 -0.135103
  0.121880
 -0.116234
 -0.003348
  0.159409
  0.014407
 -0.007061
 -0.075726
  0.038226
 -0.140288
  0.076170
 -0.007166
 -0.076721
 -0.148340
 -0.023673
  0.015549
  0.008877
 -0.017588
 -0.206537
  0.190096
 -0.116510
 -0.086546
 -0.117679
 -0.197248
  0.067179
 -0.009039
  0.090145
 -0.010979
 -0.090431
  0.038785
  0.017941
 -0.179647
 -0.031794
  0.041782
 -0.104437
 -0.149679
  0.072337
 -0.193392
  0.088979
  0.084509
 -0.059724
 -0.172069
  0.151097
 -0.065028
  0.042401
 -0.080690
  0.148326
 -0.194632
  0.015189
  0.223252
 -0.061932
  0.228348
  0.029357
 -0.042297
  0.000768
 -0.103311
 -0.024148
 -0.098841
  0.072637
  0.042926
  0.001014
  0.119880
 -0.085856
  0.191594
  0.104240
  0.058928
  0.151916
  0.115492
 -0.085604
 -0.035089
  0.069910
 -0.044183
 -0.037685
 -0.031787
 -0.071118
  0.025368
  0.101648
 -0.155668
  0.071052
 -0.011123
 -0.087121
  0.090456
 -0.126348
  0.073788
  0.076722
 -0.012740
 -0.196206
  0.282975
  0.008655
  0.070429
  0.084384
 -0.111686
 -0.186910
 -0.027022
  0.029104
  0.101378
 -0.008959
  0.082663
  0.043010
 -0.021233
 -0.003596
 -0.136782
 -0.006014
 -0.001511
  0.015008
  0.050963
 -0.118581
 -0.033406
  0.001626
  0.138914
 -0.002310
 -0.023703
 -0.164668
  0.035410
  0.069023
  0.299823
 -0.026749
  0.040562
 -0.022754
 -0.100435
 -0.024745
 -0.025982
  0.059506
  0.000504
 -0.118192
  0.024029
 -0.076115
 -0.169021
  0.080696
  0.004119
 -0.002233
 -0.148205
  0.039421
  0.270248
  0.130815
  0.006634
  0.048980
  0.050850
 -0.263848
 -0.061905
  0.116036
 -0.001668
 -0.092970
 -0.020013
 -0.103927
  0.042330
  0.049802
 -0.105277
  0.021324
  0.120605
  0.122335
  0.153087
 -0.064278
 -0.061593
 -0.043673
  0.173529
 -0.122735
  0.075632
  0.193729
  0.075601
 -0.199266
 -0.112759
  0.016710
 -0.154236
 -0.068639
  0.098074
  0.004619
  0.006945
 -0.033231
  0.044684
  0.028475
 -0.154693
  0.177030
 -0.012287
 -0.106520
 -0.086127
  0.024753
  0.037753
 -0.014314
 -0.083914
  0.094812
 -0.021089
 -0.070200
 -0.097243
 -0.034537
 -0.023610
  0.167235
 -0.171757
  0.145269
  0.155072
  0.240901
  0.001375
 -0.103129
 -0.055082
 -0.029326
 -0.088991
 -0.180999
  0.055570
 -0.231061
 -0.140385
 -0.007162
 -0.138437
  0.021413
  0.095512
 -0.020170
 -0.067687
  0.098367
 -0.110009
 -0.120586
  0.071306
 -0.086187
 -0.163247
  0.075226
  0.073047
  0.079695
  0.119172
  0.016417
 -0.158784
 -0.003281
 -0.075126
 -0.155227
 -0.057833
  0.143584
  0.004751
  0.201537
 -0.202535
 -0.049071
  0.073734
  0.123836
  0.010325
 -0.035368
 -0.084250
 -0.061932
  0.011737
  0.189935
  0.236282
  0.051383
 -0.046020
  0.143683
 -0.023073
 -0.000318
  0.045054
  0.078484
  0.083729
  0.022202
  0.048109
  0.063341
 -0.128875
  0.127498
 -0.004671
  0.115933
 -0.075002
  0.069412
  0.186495
  0.044527
  0.220555
  0.014466
 -0.167666
 -0.110605
 -0.001374
  0.012269
  0.083774
 -0.257536
  0.067839
 -0.005058
  0.005166
 -0.050941
  0.006749
  0.023050
  0.037418
  0.011505
  0.006784
 -0.030398
  0.047058
 -0.206478
 -0.191183
 -0.000926
  0.098955
 -0.054106
 -0.016082
 -0.097801
  0.060485
  0.027499
  0.001534
 -0.074274
 -0.036758
  0.014819
  0.241104
 -0.046202
 -0.012745
  0.054975
 -0.133562
 -0.068133
  0.139200
  0.018643
  0.034190
  0.010286
 -0.157496
 -0.100709
  0.064330
 -0.010143
  0.012654
 -0.023365
 -0.093216
 -0.095444
  0.005677
 -0.060673
 -0.163485
 -0.063283
 -0.048650
 -0.025885
 -0.193856
  0.049402
 -0.055036
  0.067441
  0.016107
 -0.120531
 -0.129070
  0.059088
  0.085457
 -0.014956
  0.060059
 -0.111112
 -0.018364
  0.066027
  0.096656
  0.078825
  0.079080
  0.035539
 -0.051388
 -0.048629
  0.042315
 -0.143751
 -0.167210
  0.102215
 -0.004079
 -0.144381
  0.028812
  0.135286
 -0.104328
 -0.072668
  0.207596
 -0.111849
  0.185683
 -0.011029
  0.070180
  0.039261
 -0.116160
 -0.019764
 -0.014569
 -0.084928
  0.134247
  0.058666
  0.079412
 -0.038130
 -0.106034
  0.181681
 -0.089668
 -0.206010
  0.177224
  0.045838
  0.227175
  0.018749
 -0.049143
 -0.122345
 -0.047196
  0.082575
  0.210766
 -0.029194
  0.073865
 -0.054140
  0.130259
 -0.150369
 -0.120233
 -0.066365
  0.013935
  0.026355
 -0.032792
 -0.004143
  0.008838
 -0.080991
 -0.022967
  0.156012
  0.046086
 -0.030290
  0.071002
 -0.035678
  0.081688
 -0.028420
  0.076990
 -0.015449
 -0.008774
  0.125786
 -0.053578
 -0.153350
 -0.156440
 -0.012186
  0.133124
  0.000100
 -0.079994
 -0.207802
 -0.051131
  0.012119
 -0.150617
  0.189870
 -0.072998
  0.031872
  0.000527
 -0.039198
  0.125021
  0.035624
 -0.061134
 -0.112144
 -0.053999
 -0.250552
  0.050529
 -0.040858
  0.064889
 -0.019612
  0.101342
  0.063633
 -0.220678
  0.087938
 -0.115502
 -0.025689
 -0.001443
 -0.112554
 -0.028552
  0.110455
 -0.176523
  0.065588
  0.094828
 -0.053001
 -0.115978
 -0.151542
  0.046054
 -0.009548
  0.026578
  0.050104
  0.024447
 -0.027690
 -0.094589
 -0.042952
 -0.049462
  0.072438
  0.095379
 -0.011893
  0.069851
  0.025244
  0.022747
  0.163002
 -0.125363
 -0.109518
 -0.027295
 -0.051050
 -0.094852
  0.054641
  0.063827
 -0.051800
  0.142688
  0.155147
  0.110083
  0.076744
 -0.033538
 -0.063377
  0.098356
  0.113687
  0.007423
 -0.039336
  0.034588
 -0.003360
 -0.022371
  0.057205
 -0.003657
  0.027120
 -0.043729
  0.031679
  0.096794
  0.027204
  0.049987
  0.007170
  0.131261
  0.007119
  0.040081
  0.004975
  0.024065
 -0.013919
 -0.027416
  0.014032
  0.031786
  0.035917
 -0.170019
  0.010206
 -0.013125
  0.262510
 -0.003749
  0.172548
 -0.022831
  0.151121
 -0.078460
  0.093835
 -0.179788
  0.082636
  0.075095
 -0.139065
  0.095796
 -0.176340
  0.011901
  0.015488
  0.061016
 -0.065809
 -0.002107
  0.100465
 -0.082752
 -0.019008
  0.174564
  0.009029
  0.030649
 -0.119238
  0.115803
 -0.071374
 -0.031514
  0.123839
 -0.013294
  0.073716
 -0.090370
 -0.106109
 -0.005140
  0.080054
 -0.078189
  0.084642
  0.154084
  0.247205
  0.094052
 -0.031297
 -0.030281
  0.016918
 -0.232700
  0.128882
 -0.007488
  0.106849
  0.157362
 -0.201862
  0.220842
 -0.151336
 -0.126778
  0.051387
 -0.113490
  0.046927
 -0.192128
  0.131934
 -0.109512
  0.083342
 -0.146149
  0.283542
  0.032500
  0.077264
 -0.114617
 -0.156040
  0.073133
  0.151724
  0.045776
  0.101787
  0.081528
  0.155910
 -0.096349
 -0.094088
  0.254739
 -0.098348
  0.070292
 -0.029121
  0.097048
  0.064425
  0.107144
 -0.011071
 -0.065086
 -0.256534
 -0.089557
 -0.049153
 -0.006180
  0.011911
 -0.038849
 -0.166718
 -0.141541
  0.013356
  0.054809
  0.056301
  0.040715
  0.060025
 -0.018973
 -0.032922
 -0.050015
 -0.151971
  0.075850
 -0.035995
  0.026015
  0.018258
  0.065846
  0.033270
 -0.176270
 -0.035285
 -0.087084
  0.025759
  0.030499
  0.005401
  0.023685
 -0.096266
 -0.065020
 -0.016971
  0.025165
 -0.023373
  0.116174
  0.057803
  0.132285
  0.015550
  0.152117
 -0.062881
  0.040547
  0.124571
  0.031917
  0.159436
 -0.099168
  0.063569
  0.290906
  0.088378
  0.158100
  0.028626
 -0.307567
  0.157369
  0.043519
  0.025287
  0.007002
  0.160009
 -0.026199
 -0.033460
 -0.187314
 -0.012776
 -0.019946
 -0.129169
 -0.239552
  0.027608
 -0.054420
  0.109285
 -0.016029
 -0.118826
 -0.057463
 -0.067058
 -0.087634
  0.191901
 -0.032776
  0.036489
  0.060668
  0.162289
 -0.008612
 -0.156344
 -0.046883
  0.068995
 -0.234347
  0.123789
  0.062803
 -0.032741
 -0.124360
  0.102952
 -0.024342
  0.027507
 -0.117830
 -0.212361
 -0.123000
 -0.026738
 -0.135167
 -0.000769
 -0.004463
 -0.106590
  0.037218
  0.020224
 -0.009921
 -0.146954
 -0.135797
  0.162166
  0.006828
 -0.077573
  0.030506
  0.022585
 -0.055209
 -0.066771
  0.063350
 -0.029954
 -0.082474
  0.027950
  0.062739
 -0.131310
 -0.027562
 -0.114076
 -0.137768
  0.062718
  0.086928
  0.153730
  0.010749
  0.107378
  0.049485
  0.020921
 -0.085158
 -0.004673
  0.040218
 -0.049017
 -0.020373
 -0.068109
 -0.024204
 -0.037979
 -0.062233
 -0.031147
  0.123387
 -0.106976
  0.091698
  0.067745
  0.030040
  0.136491
  0.016942
  0.075321
  0.053385
  0.043463
  0.089295
 -0.002719
  0.058518
  0.056366
  0.145753
  0.003241
  0.099860
  0.000052
 -0.222677
  0.030350
 -0.107135
  0.032251
 -0.055181
  0.098621
  0.072006
  0.092633
  0.230986
  0.007731
 -0.204933
 -0.019912
  0.011132
  0.008715
  0.043752
 -0.137737
 -0.032441
 -0.027079
 -0.103168
 -0.062153
 -0.090726
 -0.275773
 -0.070941
 -0.210011
  0.009739
 -0.098387
 -0.002578
 -0.024346
  0.261954
  0.222411
  0.166980
  0.260139
  0.007643
  0.142442
 -0.018291
 -0.079505
 -0.146436
 -0.003380
  0.056244
  0.019401
 -0.076456
  0.072444
 -0.125498
  0.087712
  0.028162
 -0.136567
 -0.213262
 -0.089616
  0.186764
  0.082993
  0.099577
 -0.089116
 -0.026359
  0.068181
 -0.006248
 -0.088922
  0.123027
 -0.032078
  0.068270
  0.001305
  0.000388
 -0.016155
 -0.046967
  0.104740
 -0.107022
  0.100524
 -0.130401
 -0.072442
  0.164868
  0.000831
 -0.099479
  0.088636
 -0.022126
  0.101182
  0.013368
 -0.067763
  0.160483
 -0.007312
 -0.108540
  0.025101
 -0.120329
  0.083524
 -0.126333
 -0.037946
 -0.026138
 -0.145759
 -0.062460
 -0.054672
 -0.083788
  0.154925
 -0.115621
  0.133145
 -0.150324
 -0.133774
 -0.116750
  0.062657
  0.089493
 -0.016877
 -0.034767
 -0.117722
 -0.042775
  0.120101
 -0.017946
  0.125067
  0.013224
 -0.197902
  0.025630
 -0.015413
  0.019391
  0.024795
 -0.058591
 -0.081065
 -0.005883
 -0.034657
 -0.007181
 -0.097058
 -0.012327
  0.130961
 -0.182899
  0.044414
  0.241229
  0.044891
 -0.053530
 -0.010310
  0.170613
  0.277174
 -0.091428
  0.083351
 -0.028656
  0.024049
  0.001848
  0.105235
  0.018223
  0.085182
  0.058131
  0.265458
  0.039321
  0.130171
  0.108105
  0.075965
  0.026024
  0.069001
 -0.071151
  0.005037
 -0.104273
 -0.010849
 -0.035371
 -0.041600
 -0.001644
  0.089922
 -0.052182
  0.061892
 -0.004956
  0.094570
 -0.003205
  0.115691
 -0.094105
  0.072628
  0.026322
 -0.004949
  0.010096
 -0.068343
  0.100225
 -0.041557
  0.057168
  0.172483
 -0.066367
  0.105906
 -0.165808
 -0.099354
 -0.041391
  0.057293
  0.054207
  0.021376
 -0.067775
 -0.145314
 -0.095713
  0.132736
  0.091047
 -0.104995
  0.036415
 -0.015167
  0.064936
  0.043221
 -0.039782
  0.137253
  0.017488
  0.002059
 -0.188991
 -0.085804
  0.094516
  0.151684
 -0.129851
 -0.137760
 -0.079609
 -0.159103
 -0.082627
  0.027887
  0.008091
 -0.089115
 -0.072317
 -0.035988
  0.094224
 -0.127617
  0.086379
  0.129158
  0.038777
 -0.007028
 -0.004661
  0.125813
 -0.111519
  0.063624
  0.126372
  0.017965
  0.015366
  0.219053
 -0.044986
 -0.015089
  0.072249
  0.028150
 -0.049965
 -0.195774
  0.207043
  0.025496
 -0.102437
 -0.123323
  0.056602
  0.070411
  0.121443
 -0.033432
 -0.168445
  0.064285
 -0.004119
 -0.118013
  0.078693
  0.019310
 -0.127072
 -0.232755
 -0.144391
 -0.082636
  0.088540
  0.084739
 -0.157776
  0.093480
 -0.047394
  0.034255
 -0.114727
  0.111030
 -0.095638
 -0.056697
  0.020336
 -0.018158
  0.033941
  0.010904
  0.171725
  0.089228
 -0.082527
 -0.027521
 -0.097041
 -0.021189
 -0.138650
 -0.037911
 -0.052319
  0.120490
  0.042419
  0.051938
 -0.094356
 -0.023233
 -0.108880
  0.105665
  0.063092
  0.008932
 -0.081241
 -0.076089
  0.012909
  0.028280
  0.068988
 -0.074853
 -0.043167
 -0.017606
 -0.138093
 -0.128406
 -0.096925
 -0.052258
  0.138565
 -0.032129
 -0.122649
  0.223914
 -0.089863
  0.070151
 -0.025245
 -0.173914
  0.073314
 -0.210261
  0.036888
  0.059684
  0.056225
  0.171744
  0.071502
  0.003924
 -0.009766
 -0.017885
 -0.138364
 -0.165126
  0.021006
  0.067826
  0.042640
 -0.006269
  0.049664
 -0.047051
  0.054221
  0.006966
  0.006531
 -0.109266
 -0.055663
 -0.003908
 -0.176477
 -0.066640
 -0.027585
 -0.029833
 -0.093616
 -0.072377
  0.046920
 -0.057423
 -0.095803
 -0.034831
 -0.082512
  0.125898
 -0.005902
  0.109871
  0.020164
 -0.142897
 -0.048060
 -0.016092
 -0.048365
  0.244545
  0.150065
 -0.048214
  0.011390
 -0.177095
  0.074039
 -0.049897
 -0.089723
  0.071974
 -0.135746
  0.017229
  0.050431
 -0.194095
 -0.208610
  0.101882
 -0.078297
  0.105712
 -0.032482
  0.044628
  0.066793
  0.311600
  0.094001
 -0.011666
 -0.151269
  0.056224
  0.087116
 -0.131971
  0.095688
  0.148214
 -0.124208
  0.007480
  0.075288
  0.021913
  0.006963
 -0.071421
  0.033939
  0.096360
  0.005175
  0.223753
  0.067661
  0.122492
  0.097412
  0.127198
 -0.000621
  0.058002
 -0.099839
  0.023584
  0.061393
  0.029514
 -0.028037
 -0.052279
  0.025360
 -0.134400
  0.118071
 -0.039721
  0.050525
  0.126423
 -0.112576
 -0.021722
 -0.159750
 -0.045927
 -0.143966
  0.090587
  0.036937
  0.019579
 -0.095087
  0.063968
 -0.115213
 -0.003261
  0.025722
  0.040851
 -0.004379
  0.127658
 -0.065430
 -0.003844
  0.154987
 -0.177226
  0.152460
  0.032547
 -0.017785
 -0.019607
  0.135366
  0.067062
  0.018351
  0.060045
 -0.016761
  0.081110
  0.132009
  0.012965
  0.066909
  0.106200
  0.040353
  0.007681
  0.138802
 -0.041884
 -0.038304
  0.126953
  0.094570
  0.078282
 -0.110389
 -0.052030
  0.045873
 -0.039798
 -0.025684
  0.090322
  0.059101
  0.181584
  0.138014
 -0.015905
  0.124821
 -0.002991
  0.085242
 -0.113713
  0.078908
  0.140507
  0.058974
  0.081756
 -0.076131
  0.035643
  0.227422
  0.073006
  0.017384
  0.070814
 -0.039162
 -0.036547
  0.168848
  0.088917
  0.078169
 -0.075830
  0.073124
 -0.002708
  0.162274
  0.106269
 -0.086033
 -0.050369
  0.151041
  0.022685
  0.046279
 -0.045853
  0.113042
  0.207972
  0.202987
  0.009729
 -0.008939
  0.031156
 -0.081673
  0.049436
  0.138284
 -0.022895
  0.178613
 -0.003636
  0.095671
  0.185056
 -0.160673
  0.137358
 -0.060890
 -0.037693
 -0.154878
  0.072276
  0.092974
  0.067252
  0.039099
  0.051264
 -0.258270
  0.106169
 -0.032695
  0.137833
  0.121753
 -0.053907
 -0.003446
  0.171960
 -0.003784
 -0.034056
  0.095837
  0.067930
  0.046040
  0.060942
 -0.005361
 -0.051907
  0.132735
  0.115271
 -0.029275
 -0.095341
  0.025671
  0.038843
 -0.076073
  0.025219
  0.078611
  0.065348
  0.051138
  0.052267
  0.163802
  0.069986
  0.013874
  0.062624
  0.139318
  0.177435
  0.006642
  0.165275
  0.085253
 -0.061066
  0.081598
 -0.133568
  0.118094
  0.126609
  0.045856
  0.042762
  0.029711
 -0.125024
  0.039851
  0.118200
 -0.173368
  0.033261
 -0.081306
  0.073761
  0.020513
  0.163640
  0.082730
  0.033724
 -0.094440
 -0.001940
  0.151632
  0.101093
  0.034447
 -0.109569
  0.033350
 -0.159618
  0.017769
  0.039303
  0.150511
  0.103819
  0.051649
  0.079308
  0.036430
  0.048113
  0.175389
  0.047998
 -0.075396
 -0.005236
  0.063012
  0.170263
 -0.068979
  0.276739
 -0.006200
  0.068832
  0.225778
 -0.260945
 -0.153633
  0.185200
  0.044257
  0.053647
 -0.010653
  0.058491
  0.208709
 -0.096866
 -0.044386
 -0.024032
  0.158695
  0.022188
 -0.052061
 -0.064343
  0.184648
  0.072248
 -0.031789
 -0.125903
 -0.068311
  0.160562
  0.107293
  0.171324
 -0.036564
  0.097753
  0.096572
 -0.038978
 -0.071467
 -0.086715
  0.144296
  0.165181
  0.161632
  0.233094
  0.095672
  0.141508
 -0.007790
  0.295170
  0.091257
  0.178066
 -0.003070
  0.133416
  0.165170
 -0.071722
 -0.088103
  0.099733
  0.136189
  0.171036
  0.024883
  0.155395
  0.244711
  0.035973
  0.014964
  0.126561
 -0.080594
 -0.106068
  0.090212
 -0.047090
  0.159013
  0.051270
  0.080254
  0.020093
  0.032871
  0.053995
  0.212695
  0.119629
  0.009504
  0.033030
  0.112824
  0.179328
 -0.129722
  0.273730
  0.026540
  0.099420
  0.186894
  0.011963
  0.047662
  0.083074
  0.040618
 -0.026151
 -0.051157
 -0.050456
  0.090171
  0.127277
  0.137925
  0.219929
  0.262146
  0.148467
  0.094495
  0.008554
  0.098089
  0.321911
  0.100033
  0.095872
  0.054709
  0.149761
  0.064870
  0.205203
  0.048395
  0.022279
  0.240176
  0.147528
  0.009946
  0.103277
  0.318088
  0.145889
  0.078875
  0.249688
  0.062023
 -0.255649
 -0.392822
 -0.098206
 -0.055572
  0.032648
  0.111055
 -0.101296
 -0.017738
  0.021104
  0.182000
  0.113549
 -0.088845
 -0.070796
  0.093006
 -0.157983
  0.057232
  0.027738
 -0.012701
 -0.019146
 -0.141431
  0.003225
  0.218628
  0.122881
 -0.073341
 -0.040378
 -0.097409
 -0.099134
 -0.050591
  0.072341
  0.136495
 -0.004334
 -0.052400
  0.054679
 -0.084687
  0.043581
  0.049489
  0.010896
 -0.027449
  0.131080
  0.021169
  0.030434
  0.049099
  0.015989
 -0.005599
 -0.040771
 -0.114182
 -0.282816
  0.174504
 -0.084671
 -0.052099
  0.020364
  0.014525
 -0.030848
  0.138948
  0.058768
 -0.028930
 -0.018227
 -0.033729
  0.084156
 -0.095515
  0.057498
 -0.027081
  0.167893
 -0.084850
 -0.081617
  0.036051
  0.021154
  0.134910
  0.006447
 -0.049882
  0.026278
 -0.029132
  0.188797
  0.123062
 -0.034612
 -0.155303
  0.182351
  0.104426
  0.172706
  0.103826
 -0.012484
 -0.086189
  0.020714
  0.025612
  0.029707
 -0.151813
 -0.058117
  0.038274
 -0.015208
 -0.083603
 -0.002943
  0.121997
  0.112031
 -0.104108
  0.099840
  0.227303
 -0.020620
  0.079011
 -0.095353
  0.011050
  0.010786
  0.008972
  0.083733
  0.129282
  0.105449
  0.053122
 -0.136849
 -0.007527
  0.084938
 -0.150064
  0.094913
 -0.030270
  0.028095
  0.010614
 -0.002957
 -0.000116
  0.124074
 -0.160864
  0.112449
  0.026272
  0.085629
 -0.076540
  0.218795
  0.136535
  0.068936
 -0.179643
 -0.026601
 -0.183204
 -0.204316
 -0.045283
 -0.046374
  0.123773
  0.001761
  0.015979
  0.103444
 -0.150698
  0.004948
  0.012761
 -0.145272
 -0.038163
 -0.173000
 -0.020380
  0.121049
 -0.131628
  0.045834
  0.074596
 -0.164146
  0.069575
 -0.044586
 -0.014217
  0.167144
 -0.051326
 -0.019776
 -0.113591
  0.036432
  0.036276
 -0.064210
  0.049932
  0.146071
  0.015415
  0.028438
  0.057968
  0.084867
  0.083727
  0.109604
  0.014302
 -0.088479
 -0.079278
 -0.071378
 -0.008536
 -0.035359
 -0.037118
 -0.018559
 -0.063717
  0.019860
 -0.064554
  0.084166
 -0.080513
 -0.017697
  0.109151
 -0.153380
 -0.008691
  0.026508
  0.012648
  0.073541
 -0.029953
 -0.058708
  0.104434
  0.077001
 -0.199504
  0.127004
  0.030035
  0.073037
 -0.066143
  0.080797
 -0.199022
  0.137573
  0.036387
 -0.001999
 -0.072267
  0.017257
  0.026825
 -0.048189
 -0.157137
 -0.093398
 -0.061442
  0.019310
  0.024165
 -0.120507
  0.104122
  0.228214
 -0.051231
 -0.096307
  0.213823
  0.043947
 -0.107902
  0.079188
 -0.007190
 -0.278102
  0.188828
  0.108167
 -0.016092
  0.081377
  0.055510
  0.054834
  0.052239
  0.037507
  0.010799
  0.046959
  0.059827
 -0.008504
  0.009868
  0.022593
  0.027989
  0.042020
  0.146729
  0.102394
  0.151193
 -0.042937
  0.001805
  0.117897
  0.027671
  0.007523
 -0.018972
 -0.027267
 -0.007980
 -0.047615
  0.065904
  0.080150
  0.083036
  0.018934
  0.177859
  0.094738
 -0.079485
 -0.078262
  0.028270
  0.061656
  0.096376
 -0.044427
  0.024374
 -0.116096
  0.062202
 -0.050347
 -0.101169
 -0.068829
 -0.059960
  0.074351
 -0.014007
  0.093902
  0.060814
 -0.050636
  0.024093
  0.044225
 -0.111684
 -0.028635
 -0.073190
  0.099788
 -0.097160
  0.102490
  0.152323
  0.083166
 -0.070637
 -0.003138
  0.012702
 -0.082182
  0.207189
 -0.136127
 -0.194342
 -0.067515
  0.046844
 -0.137144
 -0.014559
 -0.105672
  0.036208
  0.109601
  0.063721
  0.041785
 -0.177016
 -0.050864
 -0.033626
 -0.200525
  0.044874
  0.006832
  0.094805
 -0.155656
  0.025662
  0.094575
 -0.190719
 -0.094080
  0.082060
  0.087423
 -0.158805
 -0.251364
 -0.078059
 -0.005450
 -0.161098
 -0.167035
 -0.018664
 -0.039265
 -0.053147
  0.143372
 -0.081397
  0.046673
  0.004097
  0.028247
  0.082124
  0.079297
 -0.092567
 -0.083185
 -0.302936
 -0.267464
  0.043914
 -0.167598
  0.063434
  0.165257
  0.188615
 -0.005402
 -0.055864
  0.075982
 -0.028817
 -0.093375
  0.039184
  0.116292
  0.040200
  0.031886
  0.115966
 -0.095385
 -0.061684
 -0.048800
 -0.038239
  0.110276
  0.017390
  0.104470
 -0.017192
 -0.006409
 -0.043113
  0.015651
  0.090717
 -0.063318
  0.114467
  0.069163
 -0.116045
 -0.083621
  0.034463
  0.047639
 -0.275358
  0.056903
  0.173779
  0.121513
 -0.082705
  0.069221
  0.007524
  0.131111
 -0.035979
 -0.080868
 -0.135410
 -0.116437
 -0.152651
 -0.310335
 -0.086093
 -0.057158
  0.184729
 -0.020326
  0.132186
  0.029897
 -0.122331
 -0.125399
  0.034804
  0.043266
 -0.088311
  0.172757
 -0.090435
  0.046043
 -0.026453
  0.084055
 -0.146192
  0.068396
  0.120898
  0.125011
  0.091221
 -0.005119
 -0.052586
 -0.026621
  0.003278
  0.079253
  0.078929
  0.030628
 -0.298263
  0.110808
  0.074409
  0.113658
 -0.015586
 -0.048566
 -0.018067
  0.088855
 -0.031847
 -0.075256
 -0.209200
  0.040591
 -0.151259
 -0.069018
 -0.026723
 -0.046886
 -0.043675
  0.084967
 -0.114008
  0.038872
 -0.108587
  0.163989
 -0.141474
 -0.123630
 -0.137560
 -0.035145
 -0.110160
 -0.000558
 -0.094265
  0.065777
 -0.169174
 -0.065919
 -0.096563
  0.039075
 -0.117854
 -0.266152
 -0.066513
 -0.056056
 -0.032019
  0.112919
 -0.037616
 -0.116263
  0.107855
 -0.017728
  0.250805
  0.020332
 -0.074261
  0.010421
  0.183979
  0.176372
  0.089156
 -0.014647
 -0.035932
  0.089652
 -0.019981
 -0.086804
  0.010728
  0.189659
 -0.109593
  0.104337
  0.046792
 -0.107909
  0.051180
 -0.084633
 -0.023987
  0.226188
 -0.209863
  0.097569
 -0.069298
  0.052526
  0.164481
  0.018458
  0.059577
  0.150330
 -0.002064
  0.036300
 -0.056282
  0.099998
 -0.005214
  0.018499
 -0.260323
 -0.037754
  0.075003
 -0.099822
  0.000871
 -0.078471
 -0.072769
  0.005860
 -0.039874
  0.118779
  0.030200
  0.068739
  0.218385
  0.189589
  0.080291
 -0.041416
  0.042904
  0.036748
 -0.125091
 -0.039875
 -0.121522
 -0.006477
 -0.062976
  0.148198
 -0.092120
 -0.079930
 -0.026771
  0.208858
 -0.043239
  0.034635
 -0.043839
  0.111875
 -0.120304
  0.047320
  0.057313
 -0.030250
 -0.017873
 -0.029092
 -0.241104
  0.028784
 -0.210383
  0.057144
  0.021299
 -0.015374
  0.083410
  0.175515
 -0.007462
 -0.016199
 -0.172698
  0.031858
 -0.002139
  0.008155
 -0.054780
 -0.047716
  0.185222
 -0.102532
 -0.046278
  0.064916
 -0.032069
  0.090472
  0.148428
  0.048757
  0.046227
  0.019403
 -0.038782
  0.024895
  0.002899
  0.030446
  0.099887
  0.003367
  0.001891
  0.172483
 -0.004449
  0.079860
  0.018017
 -0.116591
 -0.111219
 -0.063978
 -0.070088
 -0.118994
  0.195771
  0.015701
 -0.032645
 -0.021307
  0.023174
 -0.000967
  0.179079
 -0.115768
 -0.141986
 -0.122503
 -0.164643
  0.033613
  0.129778
  0.025211
  0.042201
  0.153524
 -0.129151
  0.010238
  0.046465
  0.065791
 -0.114204
 -0.002319
 -0.017112
  0.021014
 -0.032841
  0.061008
  0.098994
 -0.192889
 -0.005099
  0.040467
 -0.068106
 -0.089269
  0.062076
  0.156171
  0.043402
 -0.037415
 -0.014236
 -0.096507
 -0.076229
  0.041883
 -0.005182
  0.029096
  0.063712
 -0.119474
  0.065728
 -0.015797
  0.176280
 -0.037472
  0.034170
  0.000623
  0.064198
 -0.035046
  0.066661
  0.107578
  0.074654
  0.008248
  0.020318
 -0.117101
  0.028728
 -0.167050
 -0.005670
 -0.070953
 -0.064534
 -0.018704
  0.033981
 -0.070278
  0.034681
 -0.040891
 -0.002029
 -0.090188
  0.005925
  0.158988
  0.034595
 -0.058749
 -0.140375
  0.101889
 -0.123695
  0.081058
 -0.045924
  0.035565
 -0.123047
 -0.087977
 -0.021266
 -0.183300
 -0.082709
 -0.066524
  0.010447
 -0.005224
  0.151100
  0.207682
  0.066269
  0.062195
 -0.017280
  0.080675
  0.099290
 -0.063653
  0.062666
 -0.068183
  0.038709
  0.045086
 -0.163177
 -0.050698
  0.025830
 -0.013904
  0.095892
  0.008321
  0.016895
 -0.056639
  0.019017
 -0.005590
  0.052448
 -0.014379
 -0.009368
 -0.022670
  0.091924
 -0.030170
 -0.027262
 -0.032881
  0.018132
 -0.026554
  0.105876
  0.093159
 -0.041841
  0.107467
  0.022297
  0.024428
 -0.135453
  0.057110
 -0.007961
 -0.016255
 -0.050733
 -0.011258
 -0.010083
 -0.025549
  0.005033
 -0.018063
  0.044265
 -0.033531
 -0.036788
  0.018170
 -0.027160
 -0.019831
  0.127628
  0.010603
  0.007812
  0.103831
 -0.030269
  0.020785
 -0.049703
 -0.122497
 -0.074532
 -0.016786
 -0.029572
 -0.064385
  0.019529
  0.114887
  0.120855
  0.112655
 -0.115130
 -0.028123
  0.013487
  0.027751
  0.057835
  0.140353
  0.089249
 -0.117117
  0.024818
 -0.011228
  0.034721
  0.039794
  0.109056
 -0.014373
  0.000819
  0.174912
  0.085124
 -0.124056
  0.092156
  0.087935
  0.093593
  0.134592
 -0.032195
  0.020195
  0.080529
  0.125188
 -0.124921
 -0.053619
 -0.075180
  0.116667
  0.052423
  0.039800
  0.069917
  0.057676
 -0.047344
 -0.176676
  0.009608
  0.014284
 -0.075559
  0.025775
  0.101149
  0.173569
 -0.082758
  0.080161
  0.168774
  0.095383
  0.012116
  0.036025
  0.057090
  0.117725
 -0.120010
 -0.097048
 -0.001308
 -0.010848
 -0.080605
  0.020591
  0.028304
 -0.070113
  0.060119
 -0.002459
 -0.022986
  0.038277
  0.078681
 -0.023914
  0.045282
  0.190852
  0.053288
 -0.013901
  0.024331
  0.087131
 -0.025568
 -0.117922
 -0.049100
 -0.152149
  0.141618
 -0.245704
  0.022332
 -0.011120
 -0.009802
  0.042240
 -0.012072
  0.028845
 -0.010392
  0.064707
  0.061808
 -0.018678
  0.092186
 -0.039431
  0.106329
 -0.069753
 -0.145475
 -0.025962
  0.052247
 -0.009918
 -0.077153
  0.048353
 -0.085914
  0.248223
 -0.023220
  0.109686
  0.095356
  0.076971
  0.009649
  0.074734
 -0.147395
  0.003483
  0.043730
 -0.116021
 -0.166801
 -0.032180
  0.033776
 -0.009356
 -0.033195
  0.008041
  0.026578
 -0.045649
 -0.120011
 -0.122687
  0.053587
  0.169050
 -0.142585
  0.051830
  0.046461
  0.080746
 -0.059933
 -0.047255
 -0.012050
 -0.009975
  0.163861
  0.029212
 -0.097688
  0.046152
  0.090010
  0.072530
  0.073810
  0.134211
 -0.031807
 -0.056986
  0.083389
  0.055992
  0.010698
 -0.103478
 -0.014694
 -0.060103
  0.111494
 -0.057327
  0.005492
  0.084761
 -0.083982
 -0.030245
  0.045245
 -0.020584
 -0.141209
  0.103331
 -0.163402
 -0.144372
  0.099419
  0.097007
  0.267682
  0.146822
 -0.116702
  0.095291
  0.210753
  0.070636
  0.096597
 -0.006367
  0.177828
  0.009706
 -0.014671
 -0.135975
 -0.105103
  0.089331
  0.160962
 -0.001373
  0.012567
 -0.118807
 -0.141549
  0.034916
 -0.022084
 -0.188304
 -0.088603
  0.006194
  0.055734
 -0.097673
  0.228347
 -0.029749
 -0.120713
  0.129821
 -0.147103
 -0.084591
  0.045928
  0.087108
  0.155048
 -0.009007
 -0.091201
  0.016527
  0.017818
  0.027236
 -0.049802
 -0.028725
 -0.144303
  0.195068
  0.083422
 -0.004494
 -0.013433
 -0.027412
 -0.035714
  0.118754
 -0.046195
 -0.047709
 -0.076072
  0.086688
 -0.083097
  0.138182
  0.013074
  0.130772
 -0.028380
 -0.037483
 -0.063644
  0.056147
  0.036492
 -0.086314
 -0.012923
  0.063910
  0.067564
 -0.141600
  0.112343
  0.062760
  0.081972
  0.064340
  0.258541
 -0.044230
  0.160988
 -0.201095
 -0.065210
 -0.070030
  0.008347
  0.071465
  0.007962
  0.207690
 -0.103835
  0.036876
  0.037782
 -0.115941
 -0.054512
 -0.047966
 -0.095679
 -0.010297
  0.125142
  0.041425
 -0.076629
  0.019081
  0.007902
 -0.024765
 -0.127578
 -0.009829
 -0.104586
 -0.028539
  0.039385
 -0.009070
 -0.052924
 -0.079209
 -0.057722
 -0.216501
 -0.098352
 -0.000809
  0.136727
 -0.016158
  0.061812
 -0.065372
  0.057776
 -0.019095
 -0.061729
 -0.088852
  0.003799
 -0.112922
  0.120018
  0.076521
 -0.154120
  0.041374
 -0.208180
  0.020155
 -0.081007
 -0.288099
  0.059324
  0.073930
  0.086006
 -0.037835
 -0.068225
  0.097382
  0.023176
  0.210714
  0.055875
 -0.024068
 -0.014136
  0.050712
 -0.127384
  0.032200
  0.006635
 -0.098283
  0.115590
  0.010333
  0.096303
 -0.050904
  0.018847
  0.035539
  0.007297
 -0.109743
  0.008877
  0.089749
  0.013299
 -0.069750
 -0.081411
  0.065597
  0.029920
 -0.152522
  0.090327
 -0.059469
 -0.026561
 -0.058967
  0.127246
 -0.201655
 -0.087137
  0.033560
  0.013843
 -0.085842
 -0.070830
 -0.040227
 -0.032339
  0.088195
  0.019999
  0.006008
  0.057843
  0.039364
 -0.015742
 -0.006647
  0.155697
  0.026039
  0.223554
 -0.043910
 -0.102669
  0.017758
 -0.047329
 -0.041477
  0.100452
  0.037708
 -0.098525
 -0.150172
  0.051828
  0.109182
  0.001530
  0.069285
 -0.053173
 -0.097115
  0.080867
  0.038979
 -0.025683
  0.017495
 -0.068899
  0.013853
  0.064820
 -0.145382
 -0.130723
  0.154902
  0.050277
  0.106227
 -0.092868
  0.009022
  0.136873
  0.140653
  0.096002
  0.290311
 -0.014603
 -0.152260
 -0.115200
 -0.023770
  0.006278
  0.084085
  0.085870
 -0.101119
  0.119340
 -0.087175
 -0.177174
  0.087803
 -0.166650
  0.056752
 -0.028873
  0.035009
 -0.006177
 -0.039069
  0.030950
 -0.045155
  0.038064
 -0.021147
 -0.232368
  0.012151
 -0.111285
 -0.051810
 -0.044881
  0.019401
  0.070405
 -0.195294
 -0.056259
 -0.093166
  0.028705
 -0.055394
  0.038794
 -0.027914
  0.071604
 -0.122130
  0.063049
  0.016432
 -0.037321
  0.037093
 -0.035354
 -0.073816
 -0.224642
 -0.045633
  0.007792
 -0.072505
 -0.113278
  0.155633
  0.205661
 -0.085128
 -0.110404
 -0.201883
 -0.106979
  0.140441
  0.166659
 -0.121264
  0.026429
 -0.005787
  0.018329
  0.015049
  0.051828
 -0.106175
  0.049787
  0.088240
 -0.063581
  0.050535
 -0.004054
 -0.005341
 -0.004319
  0.224549
  0.011701
 -0.064895
  0.007469
  0.014296
 -0.119840
  0.168842
 -0.077562
 -0.020446
 -0.103782
  0.112638
 -0.062048
  0.001339
  0.060723
  0.078500
 -0.142872
 -0.085147
 -0.194995
  0.062452
 -0.019219
  0.370530
  0.006526
  0.076158
  0.070278
 -0.136842
  0.018190
  0.002264
  0.013333
 -0.118171
  0.114780
 -0.061526
  0.041741
  0.055557
 -0.131452
 -0.006420
 -0.036131
  0.130846
 -0.077516
 -0.078812
  0.080391
  0.087487
 -0.167192
  0.111427
  0.005068
  0.033725
 -0.007373
 -0.034538
 -0.077763
 -0.040079
  0.075647
  0.115426
  0.189149
 -0.010716
 -0.101213
  0.050359
 -0.121178
 -0.169591
 -0.050143
 -0.119545
 -0.042773
 -0.032299
 -0.008645
 -0.095210
  0.024191
 -0.097973
  0.063262
 -0.123652
 -0.115885
 -0.035201
 -0.166548
 -0.070240
  0.034226
  0.063571
  0.220874
  0.030626
  0.091200
 -0.180081
  0.039530
 -0.099315
 -0.031606
 -0.006584
  0.057579
 -0.021053
 -0.036317
 -0.136627
  0.133316
  0.059813
 -0.039170
  0.040777
  0.128550
 -0.031232
  0.073840
 -0.027979
  0.069665
  0.093930
 -0.022962
  0.035312
 -0.002456
 -0.039995
  0.155690
  0.122291
 -0.098454
 -0.086704
 -0.012328
  0.010727
 -0.045462
  0.063354
  0.051965
 -0.233975
  0.027695
  0.091010
  0.226790
  0.067433
 -0.101423
 -0.125386
  0.206236
 -0.135319
  0.128587
  0.100063
 -0.089693
 -0.087014
 -0.068718
 -0.024030
 -0.046698
  0.045871
  0.083022
 -0.193083
 -0.155653
 -0.085977
 -0.084597
 -0.036596
  0.098489
  0.128589
  0.081315
  0.047466
 -0.093286
  0.038376
 -0.187654
  0.019188
  0.100568
 -0.002807
 -0.218957
  0.142287
 -0.174497
  0.176608
 -0.164318
  0.058747
  0.132616
 -0.045406
  0.213979
  0.058061
  0.061878
  0.004515
  0.095982
 -0.068461
 -0.102249
 -0.037339
 -0.096100
 -0.112196
  0.058583
 -0.115968
 -0.063759
 -0.095896
 -0.137090
  0.008598
  0.056236
 -0.035344
 -0.072507
  0.000781
 -0.050157
 -0.071333
  0.146883
  0.022391
 -0.170791
  0.054759
 -0.054469
  0.087999
  0.118079
 -0.166620
  0.127798
 -0.076059
 -0.023762
 -0.080148
 -0.018866
 -0.295077
  0.068261
  0.052025
 -0.052961
 -0.046929
 -0.021306
  0.151736
  0.024781
 -0.096461
 -0.086324
 -0.095145
  0.079493
 -0.208804
  0.148746
 -0.107582
  0.134783
  0.009524
 -0.138775
 -0.110790
 -0.034567
  0.049573
  0.054359
  0.063817
 -0.139343
  0.018413
  0.061016
  0.048579
  0.069012
  0.045942
 -0.042262
 -0.073823
  0.013795
 -0.063342
 -0.051670
  0.119138
 -0.104673
  0.081298
 -0.074096
 -0.141506
  0.075995
  0.069728
 -0.226161
  0.085026
  0.046367
 -0.124037
  0.102798
  0.079381
 -0.111086
 -0.308997
  0.090811
 -0.031017
  0.076567
  0.082510
  0.101384
  0.115912
  0.002622
  0.091683
  0.008119
  0.109243
 -0.131286
 -0.013938
  0.182979
  0.021950
 -0.211660
  0.096433
  0.063516
  0.022732
 -0.014696
 -0.125620
 -0.054891
  0.032958
  0.004660
 -0.101797
 -0.057540
  0.171541
 -0.026354
 -0.161877
 -0.032034
  0.049486
  0.112504
  0.224167
  0.042500
  0.004748
  0.147707
 -0.136046
 -0.036788
 -0.117309
  0.073822
 -0.058672
 -0.050545
 -0.169848
 -0.105782
 -0.020388
 -0.132408
  0.020841
  0.121773
  0.067262
  0.242110
 -0.091456
  0.088573
  0.128931
 -0.075669
 -0.034385
 -0.108097
 -0.203844
  0.021719
  0.141985
  0.079340
 -0.122046
  0.050727
  0.216354
  0.154681
  0.106593
 -0.001397
 -0.095002
  0.112862
  0.041803
  0.034468
 -0.188002
  0.006285
 -0.171049
  0.012944
 -0.080865
 -0.132646
  0.007282
 -0.034950
 -0.035493
  0.091079
  0.062707
 -0.085751
  0.029237
  0.008654
 -0.004873
  0.030025
  0.150041
 -0.181598
 -0.007989
  0.059679
 -0.055712
 -0.254529
  0.072289
  0.121174
 -0.009554
 -0.078044
  0.024683
 -0.131130
 -0.116786
 -0.061249
  0.052378
 -0.167205
  0.008269
  0.005339
 -0.079076
 -0.047580
 -0.078239
  0.043627
 -0.095163
  0.197391
 -0.159327
 -0.098231
 -0.188845
 -0.034410
  0.153852
 -0.112208
  0.097410
  0.091600
  0.175229
 -0.022966
  0.065130
  0.111743
  0.172662
 -0.183456
  0.054191
 -0.002152
 -0.011276
 -0.083984
 -0.207886
  0.013450
 -0.046504
 -0.015190
  0.092342
 -0.048517
 -0.074545
  0.134876
 -0.211383
 -0.071823
  0.087955
  0.148836
 -0.056962
  0.032936
  0.106672
  0.102990
  0.010698
  0.175730
 -0.005413
  0.014485
 -0.025735
 -0.060441
 -0.051005
 -0.023157
  0.095986
 -0.058555
 -0.037065
  0.037295
 -0.058927
 -0.134565
 -0.123265
 -0.026328
  0.009976
  0.092428
 -0.039748
 -0.189777
  0.015661
 -0.020109
 -0.041507
  0.013387
  0.013744
  0.032622
 -0.058577
 -0.155576
  0.011274
  0.092167
 -0.100346
  0.045692
 -0.033048
 -0.025783
  0.068076
 -0.044426
  0.097307
  0.107677
  0.079997
  0.076861
 -0.063875
 -0.107605
  0.087490
  0.009421
  0.132506
 -0.155960
 -0.007173
  0.018085
 -0.052224
  0.116912
  0.076908
 -0.032009
  0.164009
 -0.150694
 -0.033614
  0.101573
 -0.036904
  0.019216
  0.018939
 -0.028737
  0.133911
  0.056355
 -0.048640
  0.037327
  0.038551
  0.026517
  0.022613
  0.066292
  0.042805
  0.151776
  0.040900
 -0.199162
 -0.104576
 -0.112966
  0.053731
  0.018042
 -0.064135
  0.062450
 -0.029322
  0.074640
 -0.013630
  0.072634
 -0.176556
  0.102876
  0.053571
  0.110618
 -0.224193
 -0.037848
 -0.004374
  0.091048
 -0.141391
  0.046362
 -0.124623
  0.006087
 -0.025510
 -0.046239
 -0.011224
  0.117989
 -0.005768
  0.176367
  0.093634
 -0.248635
  0.145537
  0.126487
 -0.064148
 -0.045657
  0.125692
  0.011513
  0.027314
  0.049056
  0.209606
  0.050116
 -0.155357
 -0.169960
 -0.095344
  0.079304
  0.072445
 -0.061808
  0.097473
  0.087460
 -0.045742
  0.036233
 -0.017795
  0.091539
 -0.030429
  0.068417
 -0.074890
 -0.148098
  0.082537
 -0.031786
 -0.018381
  0.150087
  0.217698
  0.039008
  0.063828
  0.033655
 -0.082003
  0.150342
  0.098850
 -0.023400
 -0.005017
 -0.044847
 -0.102473
  0.125670
 -0.062652
  0.183845
  0.021158
  0.010778
 -0.001315
  0.093639
  0.126666
  0.214513
 -0.109549
 -0.063198
  0.244055
  0.131480
  0.056408
 -0.101002
 -0.023223
  0.068131
  0.034406
  0.092211
 -0.044403
 -0.017315
 -0.135984
  0.115646
 -0.061453
  0.069841
 -0.062354
  0.010630
 -0.029451
  0.070486
  0.088341
 -0.056545
 -0.006363
 -0.120726
 -0.098259
 -0.044658
  0.030270
  0.165746
 -0.066445
 -0.013898
  0.048176
  0.125835
  0.144675
  0.081281
  0.157762
 -0.034476
 -0.151073
 -0.009946
  0.012159
  0.008213
 -0.063228
 -0.207455
 -0.036637
 -0.021898
 -0.103635
  0.026732
 -0.048264
 -0.103656
  0.068077
  0.044455
  0.010994
  0.141534
 -0.110154
  0.031217
  0.058724
 -0.130873
 -0.081944
  0.083246
  0.020672
 -0.058230
 -0.073195
 -0.142589
 -0.060288
  0.115832
 -0.133744
 -0.022081
  0.049424
 -0.089337
 -0.010499
  0.002116
  0.144647
  0.116748
 -0.048552
 -0.155452
  0.052904
  0.050528
  0.379707
  0.262012
  0.186514
  0.190770
  0.121578
  0.030408
  0.188538
  0.016856
 -0.019886
 -0.010893
 -0.141412
  0.199736
  0.056209
  0.095691
  0.016533
 -0.013448
 -0.156435
  0.112736
  0.189118
  0.156375
  0.234211
  0.166801
  0.393261
  0.187519
  0.125923
  0.021347
  0.033955
  0.091803
  0.126401
  0.225233
  0.276321
  0.110857
  0.225597
  0.247704
  0.159771
 -0.053712
  0.065542
  0.164022
  0.149202
  0.097651
  0.148368
  0.190618
  0.303372
  0.405106
  0.639990
  0.495345
  0.500331
  0.486340
  0.663822
  0.712314
  0.550620
  0.532936
  0.683464
  0.595954
  0.654396
  0.831255
  0.581273
  0.730123
  0.653151
  1.000000
  0.783543
  0.814400
  0.834518
  0.851784
  0.697895
  0.807847
  0.839381
  0.872276
  0.869961
  0.769858
  0.913267
  0.761680
  0.930620
  0.830999
  0.796293
  0.555088
  0.723889
  0.543112
  0.517806
  0.499340
  0.289483
  0.348519
  0.193101
  0.088881
  0.059323
  0.231974
  0.214518
  0.114456
 -0.031456
  0.141977
 -0.022034
 -0.121044
 -0.035415
  0.017315
 -0.063277
 -0.004574
 -0.162849
 -0.036579
  0.021686
  0.017428
  0.104794
  0.035401
  0.002067
  0.112520
  0.137708
  0.023539
 -0.098526
 -0.020198
 -0.035966
 -0.000617
  0.062259
 -0.049757
  0.141895
 -0.182042
  0.006735
  0.144556
 -0.082086
 -0.092842
 -0.041116
  0.155803
  0.042102
  0.203080
 -0.195721
  0.075761
  0.000959
 -0.096005
  0.143324
 -0.109398
  0.122504
 -0.020591
  0.054768
  0.047961
  0.008564
 -0.031002
 -0.119276
  0.038409
 -0.031179
  0.233983
 -0.023466
  0.013621
  0.019976
  0.143759
  0.098368
 -0.051384
 -0.005848
  0.112962
 -0.022491
 -0.052299
 -0.107845
 -0.123231
 -0.081608
  0.059823
  0.042658
 -0.241540
 -0.030986
 -0.022771
  0.258884
 -0.087350
  0.188261
 -0.289127
 -0.018114
  0.003135
  0.007708
 -0.013025
  0.071667
  0.097385
  0.062275
  0.090961
 -0.085020
 -0.124992
  0.094102
  0.091976
  0.019988
  0.053145
  0.002862
  0.034065
  0.071589
  0.036938
 -0.269493
 -0.162568
 -0.008455
 -0.025382
  0.033913
  0.102379
  0.151246
 -0.148069
 -0.005157
 -0.084953
  0.211919
  0.093160
  0.075359
  0.052861
  0.056404
 -0.054146
 -0.011251
  0.040850
  0.143742
  0.069518
 -0.121081
  0.133454
 -0.080225
  0.134684
 -0.076883
 -0.017766
 -0.185661
  0.091394
  0.080646
 -0.135373
  0.018980
  0.286791
 -0.128320
 -0.064904
 -0.111830
 -0.087934
  0.175479
 -0.049271
  0.027599
  0.039885
 -0.052802
 -0.097280
 -0.003800
 -0.007782
 -0.046370
  0.166998
  0.038409
  0.029251
 -0.075500
  0.034051
  0.039380
  0.041930
 -0.125901
  0.092689
 -0.065239
  0.070671
  0.021128
 -0.069117
  0.107502
 -0.198211
  0.069122
  0.198903
  0.093215
  0.149094
 -0.031849
  0.056060
 -0.017261
 -0.159746
 -0.021850
 -0.099053
 -0.196095
  0.006655
  0.158723
 -0.142091
 -0.252942
 -0.215205
 -0.166905
  0.008458
 -0.136449
  0.061437
  0.024009
 -0.088112
 -0.064794
 -0.079999
  0.085672
 -0.021873
  0.004173
  0.015636
  0.175735
 -0.020760
  0.120448
 -0.084545
 -0.054236
  0.047139
 -0.101214
 -0.088552
  0.041418
 -0.053896
  0.109391
 -0.076184
  0.152019
  0.194835
 -0.095163
  0.014270
 -0.043297
  0.084878
  0.007471
  0.032287
 -0.029333
  0.032723
  0.005672
  0.301548
 -0.134494
  0.118207
  0.028732
  0.058025
 -0.063885
  0.003189
 -0.161962
  0.030568
 -0.035477
 -0.029011
 -0.157823
  0.022159
  0.099353
  0.016152
 -0.006833
  0.114344
 -0.061936
  0.051346
 -0.067012
  0.095219
  0.237245
 -0.022000
  0.035261
  0.145206
  0.148077
 -0.149407
  0.045654
 -0.004843
 -0.060382
  0.229214
  0.067494
  0.006678
  0.108967
  0.124806
  0.205092
  0.029492
  0.051655
 -0.002706
 -0.030060
  0.032786
  0.021543
  0.038548
 -0.095088
 -0.073551
  0.073863
 -0.027843
 -0.063164
 -0.076554
  0.010838
 -0.028267
  0.034246
  0.014170
  0.056562
 -0.090418
 -0.071835
  0.055714
 -0.023825
  0.085190
 -0.035760
  0.316606
  0.023135
  0.058695
  0.200185
 -0.082767
 -0.026693
 -0.009575
 -0.009813
 -0.213961
  0.065264
  0.068583
  0.166364
 -0.083769
 -0.042254
 -0.033608
 -0.010280
  0.124840
  0.010532
  0.166849
  0.009442
  0.094465
 -0.196828
  0.004692
 -0.014337
 -0.012720
  0.048526
 -0.001852
 -0.128409
  0.047550
 -0.011813
 -0.030756
 -0.079036
  0.073134
  0.010897
  0.047224
 -0.049250
  0.052007
  0.043304
 -0.001476
  0.019604
 -0.093540
  0.128865
 -0.175614
  0.032118
  0.084285
 -0.024341
 -0.054985
 -0.080280
  0.183890
 -0.129110
 -0.184351
 -0.033246
 -0.059950
 -0.095586
  0.041703
 -0.017008
 -0.044526
 -0.043101
 -0.063574
 -0.035785
  0.009586
  0.117368
  0.062707
 -0.043367
 -0.069084
 -0.003733
 -0.014676
 -0.011301
 -0.009843
 -0.113850
  0.008020
 -0.008179
 -0.029600
  0.030166
 -0.153023
 -0.052902
 -0.026271
  0.026308
  0.110573
 -0.155060
 -0.054159
 -0.006818
 -0.064146
 -0.183085
  0.022331
 -0.049676
  0.135913
 -0.158966
  0.088224
  0.023748
  0.159105
  0.065894
  0.034633
  0.060140
 -0.180950
  0.178820
  0.160453
  0.031819
  0.044536
 -0.226603
  0.021808
 -0.019889
 -0.021620
 -0.100388
 -0.020768
 -0.032482
 -0.048473
  0.057694
 -0.021641
  0.095022
 -0.002803
 -0.063241
 -0.021391
  0.010547
 -0.162761
 -0.056604
 -0.042986
 -0.120933
 -0.084658
 -0.301527
 -0.080699
 -0.043272
 -0.222711
 -0.008385
 -0.138775
 -0.015690
 -0.063550
  0.110543
  0.103841
 -0.015559
 -0.036783
 -0.093130
 -0.184770
  0.092499
  0.193407
 -0.084990
  0.053429
 -0.122550
 -0.040355
  0.048072
  0.029850
 -0.121410
 -0.053417
 -0.064599
 -0.033785
 -0.101402
  0.083438
  0.109643
  0.003208
 -0.201013
 -0.086716
  0.089221
  0.008674
  0.035670
 -0.026615
  0.037325
  0.042718
  0.181276
 -0.091024
 -0.041886
 -0.039422
 -0.153861
 -0.009496
 -0.048109
 -0.043886
  0.047276
 -0.213133
  0.046116
  0.027034
 -0.017230
  0.115462
 -0.170893
 -0.034625
 -0.062653
  0.026299
  0.109610
  0.167766
  0.130543
 -0.031086
 -0.007998
 -0.135996
  0.073984
  0.095952
 -0.194556
 -0.020055
  0.032350
  0.071358
 -0.160553
  0.117441
 -0.100129
 -0.179603
  0.046310
  0.076276
 -0.026593
 -0.036527
  0.028753
 -0.029381
  0.055973
 -0.026406
 -0.088267
  0.091325
 -0.029927
 -0.107454
  0.116155
 -0.056153
  0.179316
 -0.049064
 -0.001269
 -0.058043
  0.071251
 -0.082566
 -0.105075
  0.078261
 -0.007267
  0.007544
  0.101701
  0.019426
  0.088904
 -0.048055
 -0.118954
 -0.023292
 -0.044208
 -0.104108
 -0.058266
  0.084184
  0.085038
  0.040823
  0.064396
  0.142386
 -0.032110
 -0.059446
  0.116103
  0.171053
 -0.046360
 -0.106238
  0.131489
  0.049019
 -0.152137
  0.018946
  0.000481
  0.033383
 -0.015832
  0.109348
  0.074649
 -0.044344
 -0.083886
 -0.009898
  0.139955
 -0.064336
  0.063365
  0.163750
  0.053755
  0.003437
 -0.137647
  0.056593
  0.018149
 -0.013997
 -0.021690
 -0.134246
  0.189672
  0.119947
 -0.052800
 -0.133551
  0.013945
 -0.037003
  0.145986
  0.083081
  0.051358
 -0.074453
 -0.093490
  0.071807
  0.139984
 -0.068245
  0.341671
  0.091267
 -0.207600
  0.118076
  0.075193
 -0.070807
  0.003264
  0.057488
  0.101006
 -0.144252
 -0.007608
 -0.021878
 -0.315703
 -0.132469
 -0.025768
  0.002599
  0.077504
  0.106874
  0.056529
 -0.077121
 -0.005543
 -0.000193
  0.157156
  0.038451
 -0.013732
  0.000616
  0.222129
 -0.141059
 -0.073450
  0.026045
  0.020847
 -0.125273
  0.104261
  0.008466
  0.020521
  0.017498
  0.074277
 -0.153847
  0.113980
  0.015512
  0.069710
  0.144825
 -0.225284
  0.136549
 -0.066953
  0.267010
 -0.049046
 -0.089453
  0.006560
 -0.053314
 -0.114355
 -0.097547
  0.091727
 -0.021504
 -0.035983
  0.042921
 -0.016289
 -0.046197
 -0.078449
  0.018868
 -0.103650
  0.169462
  0.071901
 -0.144930
  0.042490
 -0.083690
 -0.048312
 -0.128367
  0.179014
 -0.142161
  0.015408
  0.011537
 -0.044497
  0.053994
 -0.052798
  0.044901
  0.285147
 -0.018869
  0.080360
  0.168340
 -0.025898
  0.099449
 -0.153433
  0.012280
 -0.016769
 -0.063446
  0.123070
 -0.063795
  0.010276
 -0.076307
 -0.069065
 -0.080027
 -0.005927
  0.024708
 -0.015183
  0.033473
 -0.136853
 -0.045503
  0.168639
 -0.157526
 -0.039676
 -0.157781
  0.057985
 -0.114126
  0.153953
  0.029622
  0.095102
  0.014984
  0.057882
 -0.100034
 -0.132771
 -0.063087
  0.018015
  0.061721
 -0.024441
 -0.073332
  0.077859
 -0.001240
  0.031534
 -0.055707
 -0.053527
  0.165411
 -0.012877
  0.086820
  0.079586
  0.059777
  0.083614
  0.057919
 -0.155867
  0.045005
  0.039327
 -0.045138
  0.105244
  0.080700
  0.077775
 -0.043450
  0.106281
 -0.216929
  0.095362
 -0.215521
  0.131656
 -0.020080
 -0.081773
 -0.001556
 -0.116159
 -0.033397
 -0.018424
  0.032653
 -0.086499
  0.017039
  0.035902
  0.000370
  0.078767
  0.019746
 -0.097732
  0.035207
 -0.095727
  0.016748
  0.105323
 -0.006926
 -0.094452
 -0.038717
 -0.023357
  0.038954
  0.030351
 -0.087232
 -0.066502
 -0.013340
  0.119371
 -0.113342
 -0.150230
  0.021189
  0.082039
  0.084572
  0.032689
 -0.026511
 -0.107331
  0.028908
 -0.022577
 -0.068624
  0.038745
  0.072675
  0.227202
 -0.049585
  0.035262
 -0.005661
  0.190996
 -0.075425
 -0.046126
 -0.101037
 -0.023359
 -0.083327
 -0.175202
 -0.017947
  0.045581
  0.011459
 -0.068261
 -0.025493
  0.029421
 -0.166009
  0.089550
  0.077475
  0.080751
 -0.060962
  0.059484
  0.168187
  0.111956
 -0.067234
 -0.152725
  0.099906
  0.240995
 -0.163896
  0.131255
 -0.001021
 -0.003531
 -0.030564
 -0.165708
  0.080102
  0.096087
  0.165399
  0.002111
 -0.041631
  0.121852
  0.012048
 -0.056771
 -0.128605
 -0.001889
 -0.136307
 -0.039278
 -0.013664
  0.278574
 -0.169024
 -0.173977
  0.100078
 -0.081295
  0.068805
 -0.086286
  0.065030
 -0.094672
 -0.096856
  0.094788
  0.136362
 -0.003550
 -0.024234
 -0.036926
 -0.010222
  0.063213
 -0.101959
 -0.009482
  0.021955
 -0.056630
  0.142000
 -0.017827
 -0.125910
 -0.013363
  0.052082
  0.063131
  0.079157
 -0.049499
 -0.051400
  0.135691
  0.138918
 -0.083466
  0.022475
  0.001538
 -0.028458
  0.131516
  0.008344
  0.017687
 -0.128672
  0.021154
 -0.061226
  0.130818
 -0.038145
  0.087832
  0.056881
  0.010918
 -0.064217
  0.044415
  0.007738
 -0.051929
 -0.042946
 -0.159080
 -0.053629
 -0.066255
  0.212768
 -0.136695
  0.021258
 -0.047546
  0.018722
  0.065463
 -0.054854
 -0.092908
 -0.138976
  0.014012
  0.147162
 -0.072633
 -0.071952
 -0.072316
 -0.101371
  0.136983
  0.279332
 -0.005519
 -0.166212
  0.071647
  0.158175
 -0.078243
  0.159923
 -0.022084
 -0.088214
  0.071278
 -0.060535
 -0.007676
  0.027512
  0.116404
 -0.007143
  0.043241
 -0.080634
 -0.104045
 -0.019636
  0.033291
 -0.064175
 -0.142572
  0.038081
 -0.149481
 -0.050735
 -0.021303
  0.029303
  0.096253
 -0.033676
 -0.080755
  0.114362
  0.057266
 -0.144156
  0.020685
  0.042454
 -0.047193
  0.016416
  0.045869
 -0.148249
  0.025850
 -0.113636
 -0.155637
 -0.036894
  0.101363
 -0.133861
 -0.063273
 -0.057504
  0.031028
  0.022436
  0.052764
 -0.056295
  0.056107
 -0.196396
  0.030791
  0.040015
  0.038693
 -0.020974
 -0.112827
  0.266831
  0.030824
  0.035299
 -0.060285
 -0.092396
  0.061814
  0.084220
 -0.045011
  0.062854
  0.192272
 -0.016186
  0.105670
  0.006759
  0.163220
 -0.071153
 -0.212592
 -0.081637
 -0.063582
  0.030478
  0.305807
  0.087867
  0.021739
 -0.064408
  0.028208
  0.000141
 -0.049375
  0.027392
  0.210792
 -0.025402
  0.019248
  0.241099
  0.061614
  0.044735
 -0.000509
 -0.005736
  0.023753
  0.011407
 -0.094553
 -0.087696
 -0.006535
  0.176148
  0.031861
  0.045557
  0.015055
 -0.040467
 -0.041212
 -0.013924
  0.023219
  0.080353
  0.062230
  0.054988
 -0.036151
 -0.085081
 -0.023180
 -0.031492
 -0.038379
  0.117225
  0.198265
  0.062899
  0.012576
  0.126846
  0.006463
  0.064251
 -0.046925
 -0.104808
  0.000186
 -0.199916
 -0.078244
 -0.127010
 -0.112539
 -0.010848
 -0.067262
  0.011609
 -0.013777
  0.047101
 -0.089562
 -0.029183
 -0.053474
  0.134118
 -0.022903
 -0.032063
  0.196983
  0.144976
 -0.077448
 -0.098615
 -0.053728
 -0.043234
 -0.009206
 -0.067804
  0.000573
 -0.010094
 -0.031052
  0.060563
 -0.036406
 -0.246400
 -0.069065
 -0.070485
  0.016619
 -0.163009
 -0.034721
  0.087798
  0.050105
 -0.123185
 -0.019753
  0.020347
  0.023998
 -0.136000
 -0.127254
  0.158049
  0.032329
  0.091141
 -0.108538
 -0.017690
 -0.060634
  0.030870
 -0.015707
 -0.020252
 -0.165729
 -0.017118
 -0.107679
 -0.092485
  0.020790
 -0.093294
  0.083933
 -0.036940
 -0.038570
 -0.063174
  0.035531
 -0.062698
  0.004329
  0.041243
  0.216448
 -0.151616
 -0.067118
 -0.158469
  0.206828
  0.035791
 -0.112536
 -0.141118
 -0.037973
 -0.190393
 -0.043099
 -0.107473
 -0.079489
  0.094207
  0.056059
 -0.057562
 -0.099413
  0.020161
  0.051554
  0.099035
  0.052962
  0.025277
 -0.008887
  0.051501
 -0.089105
  0.127502
 -0.067988
  0.086397
  0.130102
 -0.070730
  0.060314
 -0.050533
 -0.147550
 -0.079413
  0.036739
 -0.075590
 -0.092992
  0.034744
 -0.168180
 -0.088844
 -0.113330
  0.097077
  0.109600
 -0.178115
  0.046228
  0.022600
 -0.137810
 -0.024240
 -0.079400
  0.006872
  0.170415
 -0.154751
  0.087506
  0.049220
 -0.014696
  0.026220
 -0.081183
  0.042919
 -0.181933
 -0.043058
 -0.092788
  0.113743
 -0.072310
 -0.082582
  0.234740
 -0.003716
  0.140535
 -0.091307
 -0.056699
  0.029691
  0.025041
 -0.037232
  0.041982
  0.003665
  0.080782
 -0.040229
  0.214815
 -0.142879
  0.173301
 -0.039263
  0.041779
 -0.046788
  0.104655
 -0.000085
 -0.004977
 -0.101014
  0.124337
 -0.014235
  0.148864
 -0.167540
  0.046744
  0.172008
 -0.070960
  0.033239
  0.110434
  0.020257
 -0.028755
  0.108441
 -0.055366
 -0.095817
  0.135386
 -0.114728
 -0.026272
  0.070385
 -0.004554
  0.054797
 -0.063755
 -0.089780
  0.112513
  0.027013
  0.024395
  0.014015
 -0.074673
 -0.047196
 -0.127383
 -0.000915
  0.051806
 -0.112948
 -0.012447
 -0.046669
  0.015007
  0.121337
 -0.044552
  0.140081
 -0.047796
 -0.070341
 -0.022696
  0.200625
 -0.076666
  0.063223
  0.075140
  0.076114
 -0.015598
 -0.108438
 -0.127581
 -0.020172
 -0.008377
  0.224344
 -0.095678
  0.009973
 -0.074989
  0.286678
  0.131401
  0.125668
  0.017059
 -0.121104
 -0.088467
  0.007442
 -0.092023
  0.039437
  0.048857
  0.069948
  0.022939
  0.123901
 -0.049711
 -0.057253
  0.129004
 -0.070670
  0.006136
  0.017290
  0.083160
 -0.000461
  0.029542
  0.226720
 -0.117724
  0.101055
  0.185709
  0.145508
  0.150049
  0.020048
  0.235866
 -0.018763
 -0.126218
 -0.060320
  0.036864
 -0.024773
 -0.014975
 -0.106658
  0.027435
  0.057950
 -0.021129
 -0.128505
  0.073169
  0.091476
 -0.148608
 -0.066967
  0.100881
  0.148445
 -0.000737
  0.060348
 -0.026908
  0.093522
  0.035276
  0.112069
  0.141228
 -0.093399
 -0.000706
  0.291631
  0.007611
 -0.038834
 -0.031176
  0.094543
  0.070543
 -0.140751
 -0.091673
 -0.000105
  0.178565
 -0.168344
 -0.071055
  0.096912
 -0.010852
  0.086313
 -0.043315
  0.125358
  0.016315
  0.081208
 -0.083435
 -0.076161
  0.020587
  0.020549
 -0.163352
  0.019867
 -0.178394
 -0.034580
 -0.011216
 -0.057763
  0.094874
 -0.058679
  0.124090
 -0.031561
 -0.004224
 -0.014971
  0.171911
 -0.019733
 -0.096124
  0.059160
 -0.012807
  0.006329
 -0.098795
 -0.022997
 -0.088855
 -0.186385
  0.212526
 -0.026277
 -0.110199
 -0.064074
  0.079413
 -0.027023
 -0.041991
  0.184563
 -0.196575
 -0.067223
  0.044869
  0.014390
 -0.020244
  0.106734
 -0.054324
 -0.070584
 -0.085102
 -0.002898
  0.017345
  0.028475
 -0.008369
 -0.180453
 -0.117889
 -0.039081
  0.140951
  0.087145
 -0.066603
 -0.118742
  0.162619
 -0.110291
 -0.105404
 -0.060478
  0.066583
  0.153908
 -0.202928
 -0.065134
 -0.165066
  0.068735
  0.006869
 -0.137384
 -0.030987
 -0.016491
 -0.093130
  0.067874
 -0.015410
 -0.200090
  0.056277
  0.066884
  0.033612
  0.119451
  0.126728
 -0.080878
  0.111477
  0.027641
  0.090825
  0.092896
  0.339013
 -0.074903
  0.063625
 -0.000369
  0.131496
  0.054689
 -0.029655
 -0.149507
  0.105184
  0.055519
  0.045739
 -0.084911
 -0.072261
  0.074855
 -0.028054
  0.151610
 -0.021022
  0.039478
  0.060731
  0.022129
  0.016697
 -0.105581
  0.119394
  0.075988
  0.159413
  0.033121
  0.179189
  0.003682
 -0.006779
 -0.091269
  0.214034
  0.014885
 -0.018777
 -0.168910
  0.102139
 -0.154916
  0.025474
 -0.031887
 -0.138822
 -0.087795
  0.096697
  0.046234
 -0.047658
  0.001224
  0.101324
 -0.041801
  0.050420
  0.001375
 -0.074131
 -0.113397
 -0.057076
  0.041716
  0.202921
 -0.031163
 -0.005149
 -0.216997
  0.005013
  0.005168
  0.036335
 -0.077918
 -0.186347
  0.011332
 -0.002561
  0.032345
 -0.078684
  0.056933
 -0.051374
  0.103388
  0.024290
  0.032835
 -0.041384
 -0.124703
 -0.021141
  0.096901
  0.031336
 -0.036786
  0.073382
  0.063758
 -0.098761
 -0.113977
  0.089771
  0.063571
 -0.037274
  0.025109
 -0.093708
 -0.085709
 -0.052516
 -0.087150
 -0.071014
  0.004200
  0.024416
  0.095204
  0.079630
 -0.019211
 -0.161881
  0.068549
 -0.216684
 -0.060644
 -0.008333
  0.024038
 -0.071703
  0.042380
  0.061720
  0.135559
  0.028617
  0.008570
 -0.001824
  0.072817
 -0.117701
  0.038774
 -0.009274
 -0.176755
  0.006081
  0.148837
 -0.094754
 -0.032477
 -0.007622
  0.053475
  0.014652
 -0.081602
 -0.183124
 -0.052063
 -0.019340
 -0.017014
 -0.019553
 -0.125988
 -0.136990
  0.004159
 -0.027852
 -0.057843
  0.005549
  0.038144
  0.150513
  0.086551
  0.069425
  0.016733
  0.118640
 -0.126071
  0.246703
  0.108272
 -0.035129
 -0.036525
  0.059072
 -0.134413
 -0.085459
 -0.111452
  0.025243
 -0.119493
  0.169213
  0.091301
  0.104413
 -0.100161
 -0.096171
  0.000331
 -0.118069
  0.011971
  0.107747
  0.078729
  0.075627
 -0.003981
 -0.088837
  0.105231
  0.060357
  0.012784
  0.084423
  0.007606
 -0.193409
  0.014828
 -0.092494
  0.140104
  0.085178
  0.075267
  0.036860
 -0.044745
  0.078798
  0.008429
 -0.083884
 -0.136078
  0.133879
 -0.021128
  0.037008
  0.069003
 -0.047091
 -0.141122
  0.054087
 -0.061501
  0.016697
 -0.236372
 -0.031358
 -0.097328
 -0.107402
 -0.120039
 -0.103776
 -0.111541
  0.174084
 -0.027220
 -0.135269
  0.061200
 -0.025958
 -0.082422
  0.055882
 -0.099249
  0.354679
  0.027813
  0.037333
  0.021638
 -0.057610
  0.018748
 -0.037200
 -0.038604
  0.079521
  0.014757
  0.050235
  0.145079
 -0.058291
 -0.027506
 -0.211290
  0.038240
  0.044830
  0.018526
 -0.047904
 -0.020932
  0.199687
  0.028324
  0.138983
 -0.012852
  0.040638
  0.126311
 -0.026724
  0.158575
  0.060010
  0.109306
  0.070864
 -0.053713
  0.032533
 -0.112828
  0.186929
 -0.144621
 -0.060442
  0.039902
  0.126420
 -0.037944
  0.079232
  0.038457
 -0.070566
 -0.008728
  0.091453
 -0.029861
 -0.023117
  0.047438
  0.134670
  0.005558
  0.194854
  0.114511
 -0.105301
 -0.091189
 -0.197228
 -0.005271
  0.126657
 -0.100427
  0.068897
  0.032220
  0.015335
 -0.056183
 -0.054410
 -0.062255
  0.007077
 -0.048607
 -0.089911
 -0.106187
  0.063089
  0.099145
 -0.070061
  0.040247
  0.128339
  0.015010
 -0.054547
 -0.037517
  0.153178
  0.177456
 -0.000732
 -0.249084
 -0.039551
 -0.213593
  0.108117
 -0.005555
  0.062035
  0.127932
 -0.051657
  0.122228
 -0.073968
  0.113968
  0.025991
  0.159879
  0.162372
 -0.103747
  0.021639
  0.047805
 -0.063176
 -0.025408
  0.107405
  0.032926
  0.064981
  0.081917
 -0.027213
  0.060922
 -0.056330
 -0.097075
 -0.010368
  0.100143
  0.066876
 -0.083076
 -0.185324
 -0.008906
  0.171831
  0.140834
 -0.045336
  0.006919
 -0.037033
 -0.045935
 -0.114002
 -0.056630
 -0.003258
  0.150656
 -0.046401
  0.023334
  0.115284
 -0.053262
  0.031591
  0.117497
 -0.022121
 -0.052145
  0.009810
  0.093525
  0.044358
  0.068469
 -0.150422
 -0.071075
 -0.027839
 -0.178635
  0.095001
 -0.145787
  0.114238
  0.034204
  0.153532
  0.073172
 -0.027021
  0.163474
 -0.064378
  0.128478
 -0.082746
 -0.061678
 -0.009206
  0.047412
 -0.159450
 -0.196918
  0.066679
  0.052785
 -0.018618
  0.026351
 -0.059669
 -0.198328
 -0.173219
 -0.133931
  0.088053
 -0.103809
  0.216194
  0.053468
 -0.028937
  0.008848
 -0.092873
 -0.017807
 -0.025372
  0.089890
  0.073106
  0.044135
  0.107459
 -0.027688
  0.077609
  0.043427
 -0.020515
 -0.083443
 -0.010794
 -0.159287
  0.036872
 -0.091242
  0.029614
 -0.104548
 -0.028237
 -0.058812
  0.082688
 -0.071990
  0.054124
 -0.094344
 -0.138874
 -0.102339
 -0.105345
 -0.072354
 -0.063773
  0.038248
  0.012603
 -0.142564
 -0.139868
 -0.064985
  0.150421
 -0.120188
 -0.009912
 -0.054713
  0.000925
  0.037442
 -0.096823
 -0.051711
  0.021263
  0.078197
 -0.104005
 -0.010063
  0.024453
  0.003148
  0.006477
 -0.051656
 -0.006739
  0.008094
 -0.112480
  0.014844
  0.035481
 -0.058484
 -0.063279
 -0.107846
 -0.038166
  0.050621
  0.045273
  0.036957
  0.115514
 -0.000913
 -0.080574
  0.038985
 -0.071180
  0.018373
 -0.046510
  0.030296
  0.005653
 -0.083960
 -0.081238
  0.229153
  0.033430
 -0.002642
  0.004639
 -0.024215
 -0.036711
  0.042264
  0.113385
  0.100365
  0.180321
  0.034108
 -0.031595
  0.155475
  0.041955
 -0.079504
  0.166848
 -0.073570
 -0.001654
 -0.063406
 -0.023674
  0.047245
  0.135353
  0.104494
  0.041049
 -0.033355
 -0.252298
  0.107394
  0.012524
  0.120695
  0.165965
 -0.075226
 -0.103408
 -0.029191
 -0.048354
 -0.109192
  0.109879
 -0.046793
 -0.019702
 -0.103839
 -0.149786
 -0.011012
  0.151941
  0.123612
 -0.310772
 -0.009157
  0.149375
 -0.367720
 -0.051192
 -0.032463
  0.009577
  0.024752
 -0.140716
  0.041246
  0.030173
 -0.100385
  0.088511
  0.022712
 -0.064781
 -0.020996
 -0.103416
 -0.019508
 -0.033720
 -0.121681
  0.058416
  0.181770
 -0.079264
  0.035667
  0.012970
 -0.032042
 -0.009566
 -0.113207
 -0.055889
 -0.035882
 -0.107443
  0.033868
  0.092131
 -0.075701
  0.140457
 -0.132828
 -0.101595
  0.100648
 -0.029283
  0.034565
 -0.121741
 -0.122865
 -0.079025
  0.144654
 -0.000566
 -0.068349
 -0.063594
  0.068739
  0.029485
 -0.016159
  0.020970
 -0.014941
  0.060117
  0.019738
 -0.006895
  0.225599
 -0.009680
  0.276696
  0.003918
  0.069661
 -0.023202
 -0.118387
 -0.030395
 -0.188859
  0.041576
  0.052985
 -0.094107
  0.200295
  0.122478
 -0.122813
 -0.098368
 -0.066120
 -0.222445
 -0.080355
 -0.046654
  0.162877
  0.025267
 -0.057727
  0.090988
  0.130095
  0.043181
 -0.056396
 -0.082972
  0.191554
  0.212435
  0.000561
 -0.121709
  0.121861
 -0.054770
  0.105174
  0.181559
  0.053833
  0.109134
  0.114019
  0.197819
  0.050240
  0.104989
  0.059402
 -0.048451
 -0.062876
 -0.298409
  0.176310
  0.006348
  0.213705
 -0.063122
  0.018855
  0.016412
  0.026364
  0.117536
  0.108571
  0.163388
 -0.076347
 -0.136680
  0.036934
  0.028717
  0.066410
  0.007123
 -0.018580
 -0.015801
 -0.021305
  0.006830
 -0.020397
  0.100608
 -0.114238
 -0.160933
 -0.151361
 -0.149646
 -0.024232
  0.013434
  0.094037
 -0.023340
 -0.066731
 -0.169115
 -0.044409
 -0.186159
 -0.100923
  0.032397
  0.079040
  0.186656
 -0.055264
  0.198296
  0.051032
 -0.043570
  0.117151
 -0.053809
  0.188446
  0.161472
 -0.002875
 -0.112139
 -0.025060
  0.075724
  0.139885
  0.010469
  0.081073
  0.042825
 -0.129712
  0.074299
  0.120607
 -0.043052
  0.119299
  0.003655
 -0.066002
 -0.025491
  0.083976
 -0.000171
  0.043017
  0.176753
 -0.184638
 -0.054482
  0.178434
 -0.058637
  0.089911
  0.066759
 -0.079282
  0.210726
  0.031864
  0.002400
  0.018072
  0.071971
 -0.030765
 -0.113155
  0.038416
  0.099115
 -0.063903
 -0.105046
 -0.114143
  0.091572
  0.121151
  0.004314
  0.109109
  0.055226
 -0.195122
  0.030782
  0.025798
 -0.061193
 -0.058554
 -0.117257
  0.036472
  0.004530
  0.108112
  0.163318
 -0.076866
  0.144556
  0.119502
  0.018174
  0.061818
  0.125310
 -0.029611
 -0.081041
 -0.055191
  0.168878
  0.045899
 -0.002930
 -0.003270
  0.133917
 -0.023108
  0.042341
 -0.008968
  0.133817
  0.087795
  0.187993
 -0.021838
 -0.094023
  0.048623
  0.091188
  0.139645
 -0.227298
 -0.006212
 -0.059235
  0.042362
  0.143820
  0.002744
  0.043867
 -0.006061
  0.010421
  0.133135
 -0.036486
 -0.134835
 -0.006683
  0.124601
 -0.098018
 -0.121291
 -0.085336
  0.137817
  0.004666
 -0.102306
  0.102260
  0.281057
  0.044324
 -0.052413
 -0.024995
  0.032866
  0.161577
  0.114056
 -0.195893
  0.156684
 -0.035423
  0.088561
  0.004824
  0.108174
 -0.063866
  0.157551
 -0.008080
  0.063120
 -0.046175
  0.093719
  0.000704
  0.086541
 -0.044653
  0.031138
  0.092862
  0.071361
 -0.045656
 -0.108940
  0.134513
 -0.054313
  0.060138
  0.130110
 -0.143263
  0.027757
 -0.097854
  0.056059
 -0.005725
  0.089137
  0.142167
  0.223608
 -0.080392
  0.025472
 -0.033620
  0.246690
  0.173218
  0.109933
 -0.164152
 -0.003738
 -0.001425
  0.167466
  0.291226
  0.094754
 -0.120765
  0.086078
  0.015516
 -0.034362
  0.030637
  0.066955
 -0.179622
 -0.004351
  0.083386
 -0.059481
 -0.079658
  0.080579
 -0.014175
  0.008614
  0.062556
 -0.010486
 -0.113869
  0.063081
  0.152058
  0.106525
 -0.104289
  0.093031
 -0.078653
 -0.079449
  0.145764
  0.105217
 -0.054088
  0.044337
 -0.016404
  0.015228
 -0.128112
  0.096585
  0.027042
 -0.050680
  0.038694
  0.033376
 -0.148372
  0.154047
 -0.004188
 -0.041491
  0.028771
 -0.112110
  0.119869
  0.018870
  0.027688
  0.084976
  0.055395
  0.004021
  0.056998
  0.037342
 -0.032698
  0.004774
  0.153404
  0.078747
  0.066637
  0.201714
  0.228285
  0.126261
 -0.109959
  0.054500
  0.010655
 -0.029778
  0.079729
  0.050772
 -0.159070
 -0.267337
  0.290104
  0.027203
  0.086139
  0.147667
  0.020636
 -0.048524
  0.042954
  0.169698
  0.104403
  0.112026
 -0.035304
  0.089891
  0.086209
  0.004464
  0.090155
  0.049554
  0.000682
 -0.032335
  0.067764
  0.017919
 -0.064788
  0.012021
 -0.069890
  0.209156
  0.104939
  0.032606
 -0.129769
  0.186045
  0.170538
  0.103296
  0.157111
 -0.000649
  0.175442
  0.147314
  0.045636
  0.113269
  0.115097
  0.009720
 -0.006250
  0.105562
  0.116246
 -0.033006
  0.110946
  0.171756
  0.183346
 -0.155792
  0.102864
 -0.059167
 -0.171024
 -0.087309
 -0.115014
  0.066161
 -0.204859
  0.198119
 -0.104744
  0.214863
  0.197327
 -0.092391
 -0.047699
  0.206711
 -0.060842
  0.158584
 -0.103541
  0.079788
****
