PROJECT: W75X_2014Jan02
NCH:     4096
BW:   2.50000e+07
VELOCITY:       0.00000
PV:      0.480000
FREQ:    2.2235080e+09
DATE:     2014       1       2
TIME:       16      27      52
POSITION:       309.704      42.6272
INTEGRATION TIMES:       30.0000      30.0000
MAX VALUE:      0.033088889
  0.107117
 -0.075955
  0.015854
  0.042284
  0.040410
 -0.054697
 -0.157788
 -0.111652
 -0.053129
  0.061540
 -0.075173
  0.034669
 -0.156480
 -0.084660
 -0.025977
 -0.051188
  0.002496
 -0.137845
  0.031829
  0.007197
  0.081898
 -0.105967
 -0.062538
 -0.069830
 -0.100079
 -0.071782
 -0.016052
 -0.047504
 -0.043038
 -0.030923
 -0.048725
 -0.095357
 -0.121483
 -0.125246
 -0.128874
  0.108950
 -0.136703
  0.077387
 -0.027533
  0.003364
 -0.109960
 -0.108860
 -0.094830
 -0.131135
 -0.115627
 -0.042121
 -0.135211
 -0.080346
 -0.130910
 -0.062841
  0.136923
  0.012293
 -0.000388
  0.006798
 -0.025326
 -0.069120
 -0.050595
 -0.106359
 -0.158175
  0.093955
 -0.211739
  0.010103
 -0.099437
 -0.016224
  0.145796
  0.035486
  0.089139
 -0.030271
 -0.041243
 -0.141927
  0.115159
 -0.071886
 -0.057240
 -0.111502
 -0.007997
 -0.075157
 -0.027190
 -0.022144
 -0.056956
  0.039996
  0.037230
 -0.185981
  0.009071
 -0.009717
 -0.215940
 -0.093290
 -0.097767
 -0.135477
  0.065671
 -0.016137
 -0.062472
 -0.072470
  0.064788
 -0.081814
 -0.004867
 -0.065270
 -0.042532
  0.034644
 -0.033345
  0.105972
  0.030063
 -0.086294
 -0.120002
 -0.116212
 -0.119818
  0.069910
 -0.179696
  0.038880
  0.097173
 -0.050479
  0.001872
  0.030036
  0.039394
  0.019629
  0.030443
  0.009799
  0.041243
 -0.106616
  0.139299
 -0.214584
  0.037352
  0.066635
 -0.009134
 -0.023406
 -0.027393
 -0.145552
 -0.155924
  0.098757
  0.067588
 -0.014752
 -0.164292
  0.094061
  0.082905
  0.158953
  0.023922
 -0.070864
 -0.029022
  0.037469
  0.031173
 -0.004044
 -0.198855
 -0.070185
 -0.035181
 -0.012920
  0.022412
 -0.033577
 -0.007029
 -0.015886
  0.015822
 -0.087671
  0.044417
  0.093653
 -0.040867
  0.025384
  0.061726
  0.106068
 -0.025193
 -0.072573
  0.154156
 -0.045275
 -0.119043
  0.090696
  0.117447
  0.002495
  0.022305
 -0.126286
 -0.022598
 -0.046974
 -0.007184
  0.104069
 -0.019997
  0.007552
  0.010513
 -0.031842
  0.005199
  0.028397
  0.050276
  0.017433
  0.143017
  0.090429
 -0.038655
 -0.004141
 -0.152664
  0.026793
 -0.057759
 -0.210526
  0.009728
  0.011356
  0.000843
 -0.092912
 -0.046957
 -0.080464
  0.104503
  0.080655
  0.199216
 -0.083033
 -0.000199
  0.021406
  0.063019
  0.082446
  0.011725
  0.025740
  0.032143
 -0.005491
  0.033484
 -0.028602
  0.031807
  0.054028
 -0.078183
  0.017612
  0.082321
 -0.087158
  0.115525
  0.069657
 -0.074460
  0.109409
  0.020288
  0.128635
  0.050930
  0.077109
  0.033772
  0.229258
  0.022958
 -0.089260
 -0.002709
 -0.033318
  0.082116
 -0.059271
 -0.011442
  0.013061
 -0.049677
 -0.031317
  0.007371
 -0.159169
 -0.081313
 -0.040685
  0.036686
 -0.018454
 -0.035058
 -0.113487
  0.066753
  0.137615
  0.023328
  0.062093
 -0.120084
  0.030001
  0.028740
  0.045680
 -0.008825
 -0.038226
  0.044707
  0.033951
 -0.094877
 -0.105580
 -0.042209
  0.174906
  0.046912
 -0.027055
  0.106233
 -0.006217
 -0.122474
  0.033024
 -0.005770
 -0.054554
 -0.057466
 -0.046032
 -0.013651
  0.040152
 -0.204612
  0.033300
  0.034452
 -0.013178
  0.164332
  0.031286
 -0.081274
  0.114702
  0.005396
 -0.197405
 -0.036156
  0.010784
  0.029073
 -0.016424
 -0.019876
  0.075415
  0.010203
 -0.060831
  0.043316
 -0.001012
 -0.125381
  0.007560
 -0.037463
 -0.039462
  0.069256
 -0.033179
 -0.011678
 -0.056166
  0.142568
  0.149532
 -0.045193
 -0.013916
  0.053704
  0.027763
 -0.002322
 -0.013998
 -0.016136
  0.043775
  0.070395
  0.089017
  0.085656
 -0.136796
  0.124792
  0.002669
  0.006835
 -0.003115
  0.047723
  0.111594
 -0.018682
 -0.027272
 -0.016861
  0.119517
 -0.048468
 -0.068922
 -0.093458
  0.007716
 -0.053943
  0.085017
  0.038709
  0.075612
  0.000949
  0.064271
  0.113759
 -0.019301
  0.065476
  0.005487
 -0.037105
 -0.020922
  0.148950
  0.155448
  0.209074
 -0.047545
 -0.005922
  0.025841
  0.041239
 -0.003672
 -0.003246
 -0.105467
 -0.073019
  0.105878
  0.304414
  0.014001
 -0.030376
 -0.104929
 -0.057551
  0.056555
  0.071388
  0.055385
  0.084878
 -0.101328
  0.015600
 -0.058420
  0.083233
 -0.116728
 -0.019804
  0.018176
  0.003557
  0.004371
  0.010814
 -0.015804
 -0.078083
  0.041158
 -0.129571
 -0.057005
  0.063927
  0.140826
 -0.124976
 -0.023096
 -0.124270
  0.019450
 -0.147242
 -0.137117
 -0.170848
  0.051429
 -0.099788
  0.003544
  0.181348
  0.103535
 -0.151336
 -0.081346
 -0.034578
  0.015096
  0.059922
  0.040641
 -0.007419
 -0.024376
  0.113967
 -0.007452
 -0.086237
  0.019645
 -0.071720
  0.041745
 -0.110514
  0.051468
  0.009521
  0.112974
  0.004477
 -0.063812
 -0.016511
  0.137344
  0.070355
 -0.062406
 -0.044827
 -0.059443
 -0.051941
  0.068374
 -0.031281
 -0.126531
 -0.090775
 -0.015333
 -0.041244
 -0.100851
 -0.076224
 -0.145816
 -0.017964
 -0.054989
 -0.160450
 -0.123150
 -0.034520
 -0.045550
  0.185306
  0.006907
 -0.034181
 -0.007991
  0.037106
 -0.165681
  0.060942
  0.008067
  0.022604
  0.011391
  0.219517
  0.066999
 -0.158899
  0.108684
  0.004583
  0.101858
  0.065229
  0.098931
  0.082453
  0.091474
 -0.008148
  0.058734
 -0.076277
  0.005250
  0.117664
 -0.098365
 -0.198586
  0.110610
 -0.019100
  0.031072
 -0.104555
  0.009321
 -0.157521
 -0.027948
 -0.106560
  0.007275
  0.106512
  0.092540
 -0.043016
  0.024947
 -0.175977
  0.117630
 -0.033794
  0.066898
  0.079379
  0.074557
 -0.088727
 -0.060730
  0.082148
 -0.115533
 -0.050816
  0.030425
 -0.067507
  0.045551
  0.073793
 -0.080664
 -0.107446
 -0.028973
  0.019833
 -0.053259
 -0.024409
 -0.024903
 -0.011519
 -0.105469
  0.007064
  0.049910
  0.043170
  0.030441
  0.090139
  0.067328
  0.065765
 -0.018493
  0.104563
  0.050888
 -0.090491
 -0.143548
 -0.102118
 -0.019471
 -0.094565
 -0.050267
 -0.096791
  0.080812
  0.104329
  0.001962
  0.207601
  0.048368
 -0.055857
  0.038515
  0.105388
  0.040778
 -0.048508
  0.104066
 -0.017482
  0.076419
  0.022378
 -0.004269
 -0.195262
 -0.063318
 -0.006304
 -0.067489
  0.001705
 -0.098154
  0.109966
  0.148529
 -0.093548
  0.011082
 -0.031900
  0.134640
 -0.180007
  0.138848
  0.111902
 -0.152764
 -0.016410
  0.095256
 -0.030147
 -0.126879
 -0.061910
  0.090697
  0.068739
 -0.094919
 -0.021998
  0.031129
 -0.085602
 -0.070282
 -0.050221
  0.031381
 -0.006543
  0.135351
  0.018733
 -0.072624
 -0.074874
 -0.106157
 -0.160816
 -0.002802
 -0.087397
  0.012871
 -0.075418
  0.031553
  0.114753
  0.030951
  0.234332
  0.014149
 -0.066297
  0.005081
 -0.051784
  0.039230
  0.078373
 -0.026404
  0.081512
  0.065406
  0.015939
 -0.143278
  0.005710
  0.096631
  0.049984
  0.057369
  0.165969
 -0.023010
 -0.121321
 -0.305225
 -0.043662
 -0.023803
  0.110386
  0.066263
 -0.027918
  0.074813
 -0.075822
 -0.090829
  0.041111
 -0.090280
  0.055201
  0.133651
 -0.057979
  0.170496
 -0.085807
  0.027836
 -0.083155
  0.030420
  0.004174
  0.131736
  0.063147
 -0.084745
  0.090958
  0.069207
  0.124959
  0.148618
 -0.036338
 -0.037759
  0.098627
  0.075664
 -0.044022
 -0.125406
 -0.025578
  0.068445
 -0.039787
 -0.105132
  0.142679
 -0.055860
  0.051039
  0.079620
 -0.072662
 -0.110903
  0.066297
 -0.006431
  0.061513
 -0.119309
 -0.102255
  0.054497
  0.023582
  0.005812
  0.006350
 -0.142516
  0.095187
  0.075974
 -0.090338
 -0.039965
 -0.081310
 -0.009159
  0.019327
 -0.146319
  0.014356
 -0.011965
  0.014876
  0.063613
 -0.028943
 -0.154010
 -0.088479
 -0.059398
 -0.060285
 -0.019150
 -0.027508
 -0.070077
  0.053448
  0.004295
 -0.150999
  0.042861
 -0.039459
  0.017931
  0.153369
  0.079065
 -0.025799
 -0.065215
 -0.101657
 -0.105896
 -0.036679
 -0.047680
  0.088171
 -0.058503
 -0.099376
  0.146108
  0.082583
 -0.033702
 -0.087222
  0.019537
  0.049173
  0.033919
 -0.082766
 -0.003529
  0.023469
 -0.069851
  0.077216
  0.072464
  0.052919
 -0.051301
  0.045636
 -0.038052
  0.000509
 -0.116393
  0.028785
  0.004174
  0.042285
  0.064697
 -0.066207
  0.155730
  0.040310
  0.029080
 -0.104231
  0.056316
 -0.098516
 -0.030762
 -0.051589
 -0.067432
 -0.000479
  0.005767
  0.069154
 -0.012640
  0.021931
  0.014090
  0.056249
 -0.045600
 -0.009057
 -0.047547
  0.103928
 -0.125764
 -0.131224
 -0.080717
 -0.031069
 -0.075190
 -0.076676
  0.047840
 -0.071031
  0.104278
  0.094092
 -0.127102
  0.054746
  0.052628
 -0.010287
 -0.016703
 -0.006430
 -0.062382
 -0.083474
 -0.043291
  0.065654
  0.030260
 -0.080053
  0.037586
  0.012057
  0.039342
  0.138670
 -0.015342
  0.055873
 -0.018182
  0.054773
  0.191207
 -0.044233
  0.001413
 -0.022365
  0.117019
  0.027351
  0.132357
  0.104569
  0.003078
  0.022409
 -0.038787
 -0.149730
  0.052537
 -0.019511
  0.015049
 -0.142307
 -0.017118
  0.166754
  0.154490
  0.009351
  0.000155
 -0.071301
  0.076113
 -0.024767
  0.177113
  0.116045
  0.004193
 -0.022171
 -0.022627
  0.055943
 -0.033109
  0.000797
 -0.012646
 -0.031890
 -0.016554
 -0.042083
  0.023333
  0.056635
  0.036468
 -0.096502
  0.099373
 -0.127572
  0.071959
 -0.178781
  0.009681
  0.089168
  0.092695
  0.096487
 -0.009632
  0.056342
 -0.125336
  0.006791
 -0.023556
  0.013421
  0.067807
  0.011214
 -0.074077
  0.005748
 -0.019381
 -0.055734
  0.122492
  0.029448
  0.007603
 -0.011991
 -0.053715
 -0.008774
  0.069222
  0.019050
  0.114188
  0.063090
  0.136771
  0.004021
  0.142310
 -0.040897
 -0.067846
 -0.057134
 -0.051326
 -0.006683
  0.087630
  0.082083
  0.033130
 -0.129272
 -0.001314
  0.082768
 -0.194708
 -0.032080
  0.055293
  0.068533
 -0.071456
 -0.099784
 -0.082863
 -0.009837
 -0.123920
  0.023549
  0.027228
  0.087888
  0.131059
  0.018222
 -0.056782
 -0.039420
  0.131372
  0.003850
 -0.059954
  0.105146
 -0.119319
  0.071643
 -0.005427
  0.014615
 -0.089204
 -0.029652
 -0.012712
  0.018349
 -0.053616
 -0.096622
 -0.019778
  0.021359
  0.064204
 -0.120422
  0.107364
  0.102644
 -0.039595
 -0.030520
  0.074955
 -0.001640
 -0.054390
 -0.060217
 -0.031270
  0.090399
  0.126145
 -0.039412
  0.119305
  0.058255
 -0.003176
  0.105222
 -0.171940
  0.094980
  0.023485
 -0.027341
 -0.002095
 -0.021906
 -0.007532
 -0.008358
 -0.029224
  0.019125
 -0.056064
  0.083113
  0.053980
  0.026034
 -0.051038
 -0.084499
 -0.043281
 -0.045364
  0.172896
  0.276897
 -0.010012
 -0.020172
 -0.034179
 -0.053349
 -0.031686
  0.125440
 -0.132421
 -0.124853
  0.079018
 -0.013461
 -0.014448
 -0.092183
 -0.024724
  0.024500
  0.043118
 -0.020570
 -0.017335
 -0.045816
  0.098296
  0.036453
 -0.020273
  0.032751
  0.144680
 -0.152256
  0.101813
  0.001079
 -0.060235
  0.073823
 -0.007059
  0.030889
  0.130489
 -0.088233
  0.024032
 -0.132262
  0.111640
 -0.070018
 -0.053920
 -0.144897
 -0.094007
  0.094235
 -0.044429
 -0.087441
 -0.043260
 -0.048436
 -0.160640
 -0.024781
  0.043428
 -0.130143
 -0.109664
  0.062183
  0.038840
  0.095062
  0.017678
 -0.044866
  0.134236
 -0.056624
  0.009683
 -0.038166
 -0.038660
 -0.051827
 -0.041977
  0.107299
  0.016561
  0.008172
 -0.016827
  0.079592
 -0.155192
  0.086084
  0.021903
 -0.007882
 -0.113725
 -0.008235
  0.027114
  0.068570
  0.044468
  0.048367
 -0.078215
 -0.082846
 -0.010355
 -0.061129
 -0.047457
 -0.040285
  0.034159
 -0.012734
  0.086381
 -0.112695
 -0.106892
  0.259736
  0.106845
 -0.003513
  0.045178
  0.030735
 -0.027318
 -0.067769
  0.126917
  0.099647
 -0.007407
 -0.008972
 -0.071705
 -0.056635
 -0.006674
  0.085558
 -0.102496
 -0.154052
  0.010353
  0.086732
 -0.055584
  0.079772
  0.085136
  0.036636
 -0.044697
  0.082255
 -0.000709
 -0.007163
  0.051705
  0.062491
  0.192231
 -0.124948
 -0.152673
 -0.132119
 -0.247396
 -0.122569
  0.146428
  0.012624
 -0.067913
  0.087171
 -0.102328
 -0.080948
  0.034474
  0.016931
 -0.093431
  0.150640
  0.073308
 -0.056769
 -0.081275
 -0.091075
 -0.038278
 -0.091204
  0.038685
  0.026463
 -0.023549
 -0.020901
 -0.009276
 -0.101924
  0.171398
 -0.032230
 -0.041789
 -0.037010
 -0.030630
 -0.055127
 -0.070652
 -0.092722
 -0.034470
  0.210392
  0.042277
 -0.202865
  0.020310
 -0.154176
 -0.040727
 -0.041361
 -0.018509
  0.107108
 -0.010511
  0.018258
  0.011888
  0.007351
  0.031522
 -0.051830
  0.022235
  0.065561
  0.065870
 -0.125641
 -0.028874
 -0.027508
 -0.004201
  0.040713
 -0.012015
 -0.005280
 -0.040596
  0.091121
 -0.026193
 -0.011045
  0.228443
  0.121383
  0.052263
 -0.032844
  0.026453
 -0.044349
  0.100302
 -0.064650
 -0.076428
 -0.099909
 -0.174523
  0.046285
  0.047569
 -0.073741
 -0.091786
  0.084378
 -0.013366
 -0.092318
  0.023596
 -0.096681
 -0.025122
  0.041921
  0.037463
 -0.055417
 -0.015286
 -0.127074
  0.109976
  0.055110
 -0.043535
 -0.045614
 -0.041104
 -0.033120
 -0.039682
  0.091763
  0.042644
  0.075183
 -0.072878
 -0.011985
  0.056790
 -0.067994
 -0.008176
  0.065853
 -0.029262
  0.017709
  0.066351
  0.075268
 -0.073544
  0.122891
 -0.003560
  0.023615
 -0.020629
  0.035170
  0.097138
 -0.043723
 -0.085670
 -0.074288
  0.003265
 -0.186182
 -0.001577
  0.062168
 -0.067560
  0.089891
  0.002832
 -0.009552
  0.087187
  0.004483
  0.082923
  0.013450
 -0.099350
  0.089257
 -0.019382
 -0.028109
 -0.012409
 -0.073866
  0.150206
 -0.050922
  0.106232
  0.036306
  0.002950
 -0.074304
 -0.027800
  0.106446
 -0.009543
  0.123005
  0.044037
  0.133391
  0.094813
  0.059323
  0.034854
  0.010402
  0.100984
 -0.115387
  0.104633
  0.003453
 -0.052175
 -0.042711
 -0.040687
 -0.033820
  0.044256
  0.039566
 -0.094932
 -0.053443
 -0.145275
  0.025594
  0.046079
 -0.041790
 -0.032695
 -0.144585
  0.034873
  0.013244
  0.000845
 -0.075716
 -0.156260
 -0.124713
  0.021567
  0.084689
  0.026116
  0.102301
  0.136323
  0.048780
 -0.035978
 -0.023317
  0.152352
  0.010117
  0.002460
  0.094838
  0.071278
  0.043152
  0.056176
 -0.060304
 -0.008229
 -0.151930
 -0.071125
  0.153624
 -0.048266
 -0.059076
 -0.087312
  0.076899
 -0.000219
 -0.013934
 -0.016456
 -0.013633
 -0.103418
 -0.066401
 -0.090992
 -0.004562
 -0.041867
 -0.010474
 -0.041208
 -0.060554
  0.059465
  0.055458
  0.071216
  0.237998
 -0.035177
  0.061412
 -0.090595
  0.098432
  0.019710
  0.053209
  0.038801
 -0.089241
  0.004223
 -0.069271
  0.028928
 -0.136797
  0.051958
 -0.040049
  0.030491
  0.021225
 -0.065547
 -0.014122
  0.058880
 -0.174962
  0.031619
 -0.092500
 -0.029413
 -0.002249
  0.113170
  0.075619
  0.038001
  0.044519
  0.198780
 -0.057621
  0.125198
 -0.008050
 -0.011476
  0.062976
 -0.155417
 -0.092970
 -0.060152
 -0.099542
 -0.110100
 -0.003077
  0.148326
 -0.126315
  0.003317
 -0.145876
  0.032588
 -0.069598
  0.066973
 -0.052447
 -0.063886
 -0.040355
 -0.023623
  0.074340
  0.033795
  0.062033
  0.007164
  0.022738
  0.096879
  0.037298
 -0.092867
 -0.107492
  0.043987
  0.264148
  0.039256
 -0.012606
  0.092657
  0.051745
  0.057284
  0.005412
 -0.138864
 -0.104200
  0.125961
  0.047634
 -0.130084
  0.042989
 -0.056767
  0.023278
 -0.015033
 -0.133502
 -0.026423
 -0.040444
 -0.028390
 -0.042668
 -0.122451
  0.020927
  0.084886
 -0.027656
  0.071233
 -0.065236
  0.080055
 -0.095801
  0.057317
  0.024416
  0.078681
 -0.014557
 -0.169233
 -0.033327
  0.064276
  0.097797
  0.091849
  0.001572
 -0.053074
  0.119485
 -0.150316
  0.129074
  0.127664
  0.076865
 -0.088917
 -0.010685
  0.055453
  0.060311
  0.030823
  0.072027
 -0.186407
  0.203112
  0.113106
 -0.073112
 -0.087680
 -0.004982
  0.186088
  0.070420
 -0.181775
  0.025165
 -0.085421
  0.065433
 -0.077518
  0.098008
  0.050506
 -0.082918
  0.066915
  0.028427
  0.070229
  0.112560
  0.050529
 -0.019145
  0.053830
 -0.007315
 -0.035846
  0.041567
  0.144930
  0.046680
  0.073041
  0.041027
  0.105021
 -0.052749
  0.010730
  0.049508
 -0.098021
  0.089446
 -0.048603
 -0.036205
  0.018066
 -0.069410
  0.093025
 -0.027695
 -0.020192
  0.042811
 -0.085600
 -0.089774
 -0.039335
  0.087408
 -0.027433
  0.078284
  0.018321
  0.028791
 -0.009108
 -0.100697
  0.057057
  0.093124
 -0.074691
  0.043570
  0.014895
 -0.007043
  0.082717
  0.090002
 -0.048228
 -0.005365
 -0.010202
  0.038459
 -0.005623
 -0.093058
  0.058995
 -0.033895
 -0.080896
  0.056266
  0.028079
 -0.108061
  0.044602
 -0.045274
 -0.123078
 -0.056589
 -0.082956
  0.005169
  0.123131
 -0.033341
 -0.015171
 -0.051806
 -0.118976
 -0.018522
 -0.030234
  0.111883
  0.003025
  0.001865
  0.020468
  0.002245
  0.063913
 -0.025442
  0.017298
  0.062915
  0.011045
 -0.095208
  0.107135
 -0.095702
 -0.046282
 -0.003171
  0.051363
 -0.052508
 -0.012666
  0.051835
 -0.066724
 -0.002292
  0.079201
  0.045462
 -0.089536
  0.142645
 -0.030572
 -0.008449
 -0.006684
  0.108982
  0.051959
 -0.010569
  0.012810
 -0.040726
  0.087480
  0.013777
 -0.126128
  0.037982
 -0.004987
  0.100828
  0.040339
 -0.075134
  0.045931
 -0.126774
 -0.029647
 -0.213057
 -0.240270
  0.112679
  0.072059
 -0.008651
  0.050190
 -0.027628
 -0.007556
  0.018937
  0.085898
 -0.114769
 -0.003993
  0.068788
 -0.038415
  0.102441
 -0.028927
 -0.012971
  0.086670
  0.037012
 -0.042510
 -0.122801
  0.085738
 -0.029394
  0.093564
  0.052706
 -0.080296
 -0.004613
  0.070781
 -0.012924
  0.018805
  0.019961
  0.100656
  0.028069
  0.148522
 -0.025363
 -0.049430
  0.011330
  0.075373
  0.061251
 -0.101148
  0.065198
 -0.103783
  0.110606
 -0.033214
 -0.005557
  0.001042
  0.156201
  0.106470
  0.001736
  0.051373
 -0.061249
  0.026705
  0.014972
 -0.055343
 -0.052102
  0.007694
  0.007447
 -0.070795
  0.021896
  0.157964
  0.099978
 -0.057779
 -0.074153
  0.111628
 -0.110494
 -0.031992
 -0.001263
 -0.142815
  0.015997
  0.029123
  0.077544
 -0.007397
  0.052425
  0.000068
 -0.105222
  0.031547
 -0.098828
 -0.008629
 -0.026626
 -0.038561
  0.188790
  0.000276
 -0.098207
  0.054502
  0.105897
 -0.159972
 -0.193713
  0.045032
  0.019149
 -0.021150
 -0.147269
 -0.093382
  0.031456
  0.031771
 -0.015581
 -0.096119
 -0.020326
 -0.091170
 -0.184836
 -0.026801
  0.035897
 -0.027697
  0.092357
  0.068590
 -0.124018
  0.053140
 -0.048243
 -0.011631
 -0.078812
  0.112690
 -0.060207
  0.179010
  0.000787
 -0.045641
  0.076736
 -0.014745
 -0.124815
 -0.177905
 -0.061435
  0.138130
 -0.035880
  0.057136
 -0.004134
  0.052686
  0.000096
  0.053063
  0.058198
 -0.079450
  0.029110
  0.064706
 -0.166001
  0.009911
 -0.044128
  0.005610
 -0.045754
 -0.037116
  0.068113
  0.007786
  0.018788
 -0.026512
 -0.065226
 -0.036869
 -0.159059
  0.018949
 -0.158400
  0.119027
  0.051636
  0.000719
  0.029271
  0.095631
  0.028828
  0.079254
  0.052127
  0.021579
  0.152382
 -0.059198
 -0.013151
  0.060728
 -0.035596
  0.179465
 -0.037631
 -0.056844
 -0.094826
  0.115659
  0.097711
  0.117628
  0.073742
 -0.030632
  0.060037
  0.003980
 -0.110993
 -0.071846
  0.098138
 -0.004304
  0.020416
 -0.013415
 -0.095914
 -0.043201
 -0.185703
 -0.094785
  0.024907
 -0.055539
  0.162188
 -0.026895
  0.140841
 -0.052305
  0.063518
 -0.084112
 -0.047115
 -0.007283
  0.012319
 -0.054209
 -0.014147
 -0.034006
 -0.081875
 -0.026816
  0.101996
  0.032798
 -0.107476
 -0.140800
  0.012284
 -0.014566
  0.038287
  0.005232
 -0.128746
 -0.114607
 -0.106178
 -0.021306
  0.101199
 -0.024647
 -0.062392
 -0.098909
 -0.012252
 -0.032214
  0.086871
 -0.111936
  0.123165
  0.071607
  0.077047
  0.018873
 -0.006677
  0.064611
  0.238893
 -0.015979
 -0.008272
  0.004580
 -0.107918
  0.193578
  0.066233
 -0.011886
  0.008828
 -0.027644
 -0.008875
 -0.025185
  0.127742
  0.194808
 -0.026767
  0.000107
 -0.075854
 -0.001053
  0.035047
  0.041065
 -0.051717
 -0.059509
 -0.103502
  0.100588
 -0.042832
  0.040392
 -0.139030
  0.181176
 -0.015828
  0.029764
  0.047585
  0.039584
 -0.065767
  0.028148
 -0.230544
 -0.180795
  0.044302
 -0.146943
  0.090766
  0.124898
  0.036142
 -0.080006
  0.106314
  0.129071
 -0.072322
  0.007509
  0.054933
  0.032518
 -0.070762
 -0.005847
 -0.059618
 -0.047977
  0.170049
  0.017885
 -0.029657
  0.010252
  0.049021
  0.044420
 -0.000781
 -0.190681
  0.055992
  0.058350
 -0.038975
  0.065980
  0.046989
  0.239591
  0.192202
  0.233132
  0.107170
  0.209648
  0.233974
  0.204291
  0.072675
  0.190956
  0.192123
  0.095669
  0.070543
  0.069638
 -0.054542
  0.090106
  0.056034
 -0.079184
  0.104726
  0.085772
  0.098727
  0.018904
 -0.022617
  0.275405
  0.141697
  0.236918
  0.147034
  0.172471
  0.114870
  0.106274
  0.138691
  0.132322
  0.083724
  0.101839
  0.085963
  0.077457
  0.257124
  0.139001
  0.062299
  0.104756
  0.160794
  0.190593
  0.265716
  0.203347
  0.359445
  0.359952
  0.363532
  0.679787
  0.537349
  0.562810
  0.636423
  0.417826
  0.274767
  0.649933
  0.571349
  0.599455
  0.601304
  0.566734
  0.702252
  0.623629
  0.608092
  0.965135
  0.808008
  0.613776
  0.825597
  0.748483
  0.795743
  0.661344
  0.659807
  0.645737
  0.746240
  0.772737
  0.702495
  0.770555
  0.712681
  0.588704
  0.617033
  0.562365
  0.382389
  0.375115
  0.539539
  0.282029
  0.317087
  0.258869
  0.249660
  0.176763
  0.026564
  0.214705
  0.072350
  0.068878
 -0.001530
  0.039491
 -0.025402
  0.081557
  0.031988
  0.180575
  0.199004
  0.044486
  0.030693
  0.185964
 -0.118801
  0.161339
  0.085204
 -0.080903
 -0.008645
  0.000863
  0.025644
  0.019544
  0.110794
 -0.048394
  0.129718
  0.055728
 -0.067194
  0.182738
 -0.035096
  0.111196
  0.093055
 -0.043891
 -0.037472
 -0.060597
  0.156903
  0.043467
  0.013894
  0.001080
  0.029848
  0.055647
 -0.007068
  0.015772
 -0.006553
  0.045447
  0.020639
  0.101542
  0.002680
 -0.081344
  0.086727
 -0.021338
 -0.089482
  0.014027
 -0.180586
 -0.067028
  0.104428
  0.057316
 -0.157648
  0.087198
  0.050761
  0.023149
 -0.026130
 -0.054263
  0.194467
  0.010717
 -0.187469
 -0.054948
  0.152684
  0.202569
 -0.014655
  0.031276
  0.004245
 -0.037010
  0.071089
 -0.019568
 -0.164059
  0.115981
 -0.016969
 -0.013588
 -0.136113
 -0.024366
  0.059304
  0.033995
  0.062902
 -0.074159
 -0.137380
  0.064661
  0.033052
  0.022044
  0.082737
 -0.046687
  0.024891
  0.030852
 -0.014439
  0.065061
  0.025184
  0.024253
 -0.116124
 -0.110148
  0.096521
 -0.066285
  0.089332
  0.025220
 -0.193010
  0.114772
 -0.041433
  0.020762
  0.110809
 -0.040716
  0.155931
  0.025893
  0.009774
 -0.021379
  0.120798
  0.041886
  0.042476
  0.026630
  0.040424
  0.079848
 -0.039521
 -0.073005
 -0.020305
 -0.114126
 -0.030556
 -0.029608
 -0.008656
  0.117670
  0.000161
  0.026349
 -0.000744
 -0.037964
  0.143530
  0.064876
  0.004789
 -0.070310
  0.046918
  0.059713
  0.007103
  0.037223
 -0.082829
  0.069874
 -0.036449
  0.019041
  0.012628
  0.000033
 -0.070619
  0.008034
  0.032254
 -0.024419
 -0.023777
 -0.106121
  0.094706
  0.014634
  0.029547
  0.069257
 -0.026064
  0.071552
  0.112778
  0.054078
  0.056677
 -0.063742
 -0.126663
  0.042694
  0.069222
  0.166504
 -0.089199
  0.010623
  0.032532
 -0.002817
 -0.081136
 -0.066105
 -0.018077
 -0.207488
 -0.050946
 -0.182914
  0.062747
 -0.066739
  0.043980
 -0.056884
 -0.000404
  0.103528
 -0.161184
 -0.055430
  0.009035
  0.066769
  0.150777
 -0.000657
  0.011431
 -0.016736
  0.046798
  0.104935
 -0.152529
  0.055701
  0.109616
  0.057492
 -0.051441
 -0.011844
 -0.006382
  0.095785
  0.033117
 -0.007730
  0.030106
 -0.026407
 -0.007341
  0.092248
 -0.259090
  0.028757
 -0.033514
 -0.085814
 -0.007202
 -0.035049
 -0.049534
 -0.086092
 -0.073239
  0.106270
  0.046920
 -0.061370
  0.046567
  0.059101
 -0.003288
 -0.018970
  0.009554
  0.038055
 -0.058684
  0.105930
  0.080453
  0.049915
  0.062743
 -0.009574
  0.109045
  0.048774
  0.024022
 -0.058890
 -0.024924
  0.060789
  0.076862
  0.096021
  0.067538
  0.075091
  0.099904
  0.062282
 -0.036758
  0.040498
  0.129053
  0.049906
  0.134565
  0.020495
 -0.005976
 -0.001640
  0.057142
 -0.015279
  0.064231
 -0.060300
 -0.218442
  0.050798
 -0.042656
  0.050432
  0.086327
  0.012229
 -0.151505
  0.038105
 -0.069604
 -0.044395
  0.082247
 -0.037493
  0.057058
 -0.013659
  0.123264
 -0.155057
 -0.068979
  0.055175
 -0.037199
  0.054667
  0.047711
 -0.062929
  0.040079
  0.004823
  0.021869
  0.088435
 -0.008339
  0.037797
 -0.149068
 -0.041009
 -0.080347
  0.055915
 -0.014068
 -0.019256
  0.009908
  0.071688
  0.002907
  0.019577
  0.008532
 -0.109397
 -0.012192
  0.008343
  0.070104
 -0.027702
 -0.043285
 -0.019043
  0.028766
  0.015734
  0.007672
  0.128463
 -0.049008
 -0.183973
  0.033378
 -0.070075
  0.079945
  0.155756
 -0.091043
 -0.101141
 -0.054733
 -0.111257
 -0.074131
 -0.029025
  0.087485
  0.045281
 -0.059145
 -0.017412
  0.010794
 -0.184312
  0.031276
  0.042847
  0.063260
 -0.029319
  0.006523
 -0.122460
  0.008420
 -0.060754
 -0.010255
 -0.079340
 -0.028120
  0.101919
  0.072077
 -0.068503
 -0.017652
  0.147977
 -0.022432
  0.022440
 -0.031570
 -0.016177
 -0.259959
  0.019033
  0.101340
 -0.008818
 -0.022102
  0.048973
 -0.114269
 -0.085238
  0.066749
 -0.052980
 -0.025872
 -0.097465
 -0.059736
  0.059254
 -0.108289
  0.166832
 -0.053854
 -0.041156
  0.061911
  0.072987
  0.037870
 -0.088192
 -0.044029
  0.036993
  0.078447
  0.056047
 -0.025207
  0.092938
  0.006639
 -0.046596
  0.015293
  0.113323
 -0.077187
  0.033380
 -0.083562
  0.011032
  0.016214
 -0.025117
  0.100661
 -0.087735
 -0.118148
 -0.029371
  0.071043
  0.069645
  0.010587
  0.084471
  0.038462
  0.054201
 -0.062168
  0.039516
  0.026800
 -0.053322
  0.088992
  0.064920
  0.098555
 -0.108142
 -0.077777
 -0.092369
 -0.240885
 -0.053476
  0.044403
  0.031985
 -0.014632
 -0.035848
 -0.034865
  0.170108
 -0.023292
 -0.111929
  0.014873
 -0.029383
 -0.028999
 -0.053947
 -0.122242
 -0.105317
  0.079526
 -0.139816
 -0.002367
  0.035013
 -0.000821
 -0.072285
 -0.035762
 -0.115300
  0.043829
 -0.035450
  0.021158
  0.001567
  0.086842
  0.117217
  0.035993
  0.025732
  0.108808
  0.023072
  0.106315
  0.007301
 -0.038629
  0.049167
  0.124368
  0.161931
  0.041714
  0.005681
  0.100256
  0.011512
 -0.024556
  0.046335
  0.037373
  0.090175
 -0.001985
  0.024410
  0.017011
 -0.002973
 -0.127262
 -0.066749
  0.005407
 -0.012080
  0.032551
 -0.119692
  0.060625
 -0.100260
  0.048655
  0.173866
 -0.093252
 -0.104045
 -0.006357
 -0.120475
  0.063390
 -0.028637
 -0.004383
  0.097416
  0.011169
  0.035495
 -0.079243
  0.009808
 -0.030299
  0.049569
 -0.011256
 -0.000374
 -0.182663
 -0.188910
 -0.025992
  0.005717
 -0.138868
  0.044849
  0.045227
 -0.110163
 -0.017325
 -0.048116
 -0.019760
 -0.026447
  0.049089
  0.015126
 -0.040424
 -0.052463
  0.025313
  0.007333
  0.186043
 -0.056343
 -0.013296
  0.075219
  0.039090
  0.057154
 -0.008300
  0.084389
  0.031301
  0.005711
 -0.000163
  0.032442
 -0.040509
 -0.145004
  0.000910
  0.106423
  0.146334
 -0.076062
  0.050600
  0.127982
 -0.082446
 -0.067560
 -0.042933
  0.009057
 -0.021741
 -0.019156
  0.035758
  0.100533
  0.133465
 -0.001007
  0.006131
  0.069404
 -0.160734
  0.039332
  0.010211
 -0.013342
 -0.077761
 -0.040974
 -0.026468
 -0.000951
  0.034358
 -0.131311
  0.058756
 -0.186635
  0.174118
 -0.001114
  0.067876
  0.027887
 -0.055658
 -0.042502
  0.000376
  0.173274
 -0.178777
 -0.051372
  0.008508
  0.026155
 -0.070400
  0.046887
  0.105586
 -0.096478
  0.004115
  0.110836
 -0.150592
  0.062333
 -0.087285
  0.044357
  0.105669
 -0.000014
  0.094548
 -0.023909
 -0.075112
  0.035450
 -0.178080
  0.148205
 -0.034156
 -0.006815
  0.048887
 -0.069940
 -0.061951
 -0.069380
  0.013486
  0.054285
  0.033956
 -0.033159
 -0.010531
 -0.073893
  0.185650
 -0.032861
  0.106440
 -0.016753
 -0.148912
  0.046398
 -0.057942
 -0.011155
 -0.044176
 -0.028149
 -0.155729
 -0.180657
 -0.114196
  0.123519
  0.056194
  0.038820
  0.052108
 -0.051704
  0.097358
 -0.088535
  0.157724
 -0.056621
 -0.050229
  0.106132
  0.082478
 -0.028444
 -0.053627
 -0.063225
 -0.022542
  0.074019
 -0.103378
  0.061745
  0.019671
  0.006823
  0.100905
  0.007163
 -0.050526
  0.030968
 -0.036037
  0.027866
 -0.021197
  0.031062
  0.073000
 -0.022817
  0.132044
 -0.004719
 -0.015395
 -0.053620
 -0.141141
  0.038540
  0.006496
 -0.012818
  0.012034
  0.096705
  0.041483
  0.039631
 -0.037115
  0.053027
 -0.034192
 -0.101302
  0.043584
 -0.044453
 -0.102017
  0.064686
 -0.001107
 -0.072481
 -0.077887
 -0.057883
 -0.088637
 -0.010308
 -0.073681
  0.071251
  0.010417
 -0.010405
  0.109715
 -0.012578
 -0.187264
 -0.036560
 -0.104763
  0.105755
  0.031103
 -0.064289
  0.007776
  0.092070
 -0.013138
 -0.089151
  0.001758
  0.017784
  0.026654
 -0.070307
  0.061282
  0.016347
  0.147570
  0.076690
  0.003155
  0.099761
 -0.064372
 -0.087076
 -0.038619
  0.008526
 -0.031928
 -0.073906
  0.127347
 -0.024606
 -0.017788
 -0.022251
  0.137830
 -0.117755
 -0.073584
  0.077316
 -0.102268
  0.001879
 -0.152702
  0.098524
 -0.053596
  0.160301
  0.065879
 -0.027967
 -0.064493
 -0.046100
  0.048358
  0.088540
 -0.042377
 -0.049931
 -0.094034
  0.001916
 -0.102152
  0.012596
  0.017505
 -0.045963
  0.035647
 -0.059284
 -0.009841
 -0.037250
 -0.218188
 -0.033558
 -0.039125
  0.067824
 -0.120267
  0.078387
 -0.046967
  0.012773
  0.041253
  0.031096
  0.153789
  0.005690
 -0.032860
 -0.064417
  0.006860
 -0.009559
  0.076952
 -0.031233
 -0.021384
 -0.097803
 -0.071287
 -0.049932
 -0.109252
 -0.112733
 -0.107638
  0.045186
  0.055561
 -0.026865
 -0.042691
  0.203773
 -0.178393
 -0.030754
  0.087457
 -0.109534
  0.026986
  0.009859
 -0.148625
 -0.012550
  0.035211
 -0.002880
 -0.015933
  0.047470
  0.045428
 -0.000975
  0.018358
 -0.038436
  0.027749
 -0.043969
  0.064078
 -0.010688
 -0.031203
 -0.050629
  0.162636
 -0.011266
  0.066262
  0.086456
 -0.004874
  0.039038
  0.031659
 -0.115075
  0.059597
  0.061952
 -0.123237
  0.094667
 -0.025287
 -0.063045
  0.035954
 -0.013742
  0.063514
  0.051331
 -0.054916
  0.133785
  0.084883
  0.009371
 -0.073691
 -0.053057
  0.065967
  0.025751
  0.005370
  0.026124
 -0.008078
 -0.015882
 -0.014349
 -0.041358
  0.072288
 -0.118194
 -0.076297
 -0.039001
 -0.051055
 -0.099494
  0.192869
 -0.020214
  0.049059
  0.013169
  0.049525
  0.056449
 -0.115244
  0.136284
 -0.014935
  0.004169
 -0.044419
  0.053021
 -0.054236
  0.052815
  0.131485
 -0.166129
  0.033486
  0.035821
  0.043404
 -0.076514
  0.035102
 -0.099266
  0.056107
 -0.063603
 -0.186220
 -0.072763
 -0.147116
  0.015814
  0.001022
  0.008773
 -0.090187
  0.076261
  0.035882
 -0.009776
 -0.062712
 -0.065503
  0.027098
  0.064626
  0.043898
  0.012006
 -0.191002
  0.016785
  0.030725
  0.012459
  0.063402
 -0.074676
  0.037828
  0.021174
 -0.003666
  0.007072
  0.224207
 -0.108421
  0.073167
  0.024661
  0.092278
 -0.028678
  0.186083
  0.070695
 -0.089678
  0.090565
  0.128666
  0.114594
 -0.048226
 -0.059460
 -0.092022
 -0.111290
 -0.250908
 -0.039994
  0.044370
  0.121916
 -0.061050
 -0.008403
 -0.080996
  0.088286
  0.151842
 -0.040323
 -0.039954
 -0.038758
 -0.041770
 -0.013943
 -0.020444
 -0.043695
 -0.125744
  0.029657
 -0.001404
  0.105711
 -0.034289
 -0.037626
 -0.176681
  0.010790
 -0.071912
 -0.068562
 -0.007209
  0.039148
 -0.039865
 -0.019036
 -0.035463
  0.032807
 -0.002449
  0.081579
 -0.017357
 -0.118305
  0.043795
 -0.048683
  0.000013
 -0.156718
  0.044767
 -0.017721
  0.095346
  0.063557
  0.092820
 -0.047916
  0.111559
 -0.027515
  0.043616
 -0.132204
 -0.053538
 -0.078172
 -0.039093
  0.076928
  0.113769
  0.194357
 -0.135543
 -0.035173
 -0.132678
  0.113638
 -0.005050
  0.055785
  0.215521
  0.009562
 -0.021681
 -0.012567
 -0.034847
  0.029903
 -0.045532
  0.011764
 -0.004911
  0.000879
 -0.014047
 -0.044319
  0.046687
 -0.164823
  0.065601
 -0.017765
 -0.062086
 -0.081200
  0.109604
  0.075259
 -0.014665
  0.040524
  0.087311
 -0.059745
 -0.011356
 -0.011163
  0.030038
  0.098201
  0.062528
 -0.135342
  0.147879
  0.011021
  0.076951
 -0.052140
  0.019223
 -0.105597
 -0.059605
  0.020410
  0.015124
  0.028934
  0.078552
 -0.175650
 -0.103116
  0.079912
 -0.029964
  0.050557
 -0.052847
 -0.013118
  0.119165
  0.003628
  0.053796
  0.228356
 -0.037007
  0.068317
  0.131376
 -0.033425
 -0.021469
  0.028473
 -0.000507
  0.250134
 -0.010961
 -0.084796
 -0.069761
  0.133545
  0.135213
  0.030488
 -0.034911
 -0.109961
  0.004786
 -0.032153
  0.063678
 -0.072806
 -0.081611
  0.077143
  0.040392
  0.082791
 -0.099044
  0.173248
 -0.048262
 -0.015909
 -0.097402
 -0.008466
 -0.072569
  0.008791
 -0.013231
 -0.064124
 -0.016450
  0.059393
  0.101796
  0.037104
  0.072344
  0.019155
  0.044050
  0.026443
 -0.012209
  0.026072
  0.091310
  0.192729
  0.102770
  0.037817
  0.083144
  0.062769
 -0.119706
 -0.106684
  0.030836
  0.061373
  0.088456
  0.040348
 -0.082689
  0.040391
  0.022271
 -0.002869
 -0.075771
 -0.006310
 -0.040595
  0.094071
  0.064364
  0.030020
  0.025575
 -0.070015
  0.025116
 -0.038082
 -0.079757
  0.030184
 -0.105502
 -0.057635
 -0.051948
  0.020527
  0.021110
  0.151336
 -0.052926
  0.080940
  0.159926
 -0.045909
  0.009630
  0.030756
 -0.131427
 -0.105483
 -0.061592
  0.055186
  0.068170
  0.041093
  0.156516
  0.120921
  0.093293
  0.221985
  0.004452
  0.096505
 -0.036862
 -0.116081
 -0.097461
  0.045734
  0.005049
  0.086984
 -0.060935
 -0.006605
  0.094718
 -0.053149
 -0.082516
 -0.054444
  0.018755
 -0.015836
  0.005936
 -0.006211
  0.051753
 -0.026506
 -0.056032
  0.038694
 -0.021471
 -0.050781
  0.137781
  0.152535
  0.055857
  0.223685
  0.087937
 -0.060252
 -0.042804
  0.023154
 -0.076686
 -0.032496
 -0.167826
  0.045997
 -0.023199
 -0.076727
  0.081818
 -0.125729
  0.124135
 -0.077745
  0.011967
 -0.083971
  0.013211
 -0.017663
  0.186255
  0.064086
  0.079934
  0.060140
  0.040875
  0.063966
  0.011965
  0.108650
 -0.093834
 -0.149464
 -0.136845
  0.049623
 -0.028474
  0.123386
  0.021628
  0.034233
 -0.031669
 -0.004777
 -0.058843
  0.057617
 -0.008991
  0.070504
 -0.037921
  0.070359
  0.142243
 -0.009292
 -0.008458
  0.028939
 -0.173660
 -0.091770
  0.008807
  0.111976
  0.050911
 -0.018085
 -0.050836
 -0.005745
 -0.074056
 -0.011276
 -0.020796
 -0.139474
  0.180139
 -0.101981
 -0.033559
  0.116655
 -0.042216
  0.008425
  0.014901
  0.100165
 -0.114871
 -0.100138
 -0.048726
 -0.060373
 -0.106176
  0.027243
 -0.029947
 -0.038025
  0.062463
  0.089824
 -0.028883
  0.071111
 -0.089930
 -0.050565
 -0.016645
 -0.026932
  0.070493
  0.029580
  0.118586
 -0.094605
  0.075709
 -0.086937
  0.109913
  0.183135
 -0.159185
  0.110806
 -0.138162
 -0.041590
 -0.025900
  0.084461
 -0.053160
  0.162254
 -0.038374
 -0.072195
 -0.029419
  0.031661
 -0.070362
 -0.024946
  0.065738
  0.046317
  0.091539
 -0.001549
  0.044161
  0.157983
  0.106631
 -0.180306
  0.030532
  0.022808
  0.022000
 -0.162497
  0.001667
 -0.073983
  0.000899
  0.015789
 -0.042853
  0.131937
 -0.056034
  0.000696
 -0.028181
 -0.044892
  0.048030
  0.062751
 -0.023658
 -0.091880
  0.076391
 -0.130222
 -0.044189
  0.008590
  0.037561
  0.061076
 -0.038581
 -0.067032
 -0.030841
 -0.034755
 -0.080738
 -0.007112
 -0.072949
  0.027808
  0.005187
  0.005487
  0.001287
 -0.205684
 -0.037735
  0.017836
  0.037009
 -0.022522
 -0.158249
 -0.122326
  0.088998
  0.070037
 -0.045407
 -0.122808
  0.013736
  0.072886
  0.084213
 -0.090406
 -0.002419
 -0.061655
  0.175563
 -0.135750
 -0.065903
 -0.009411
  0.048629
 -0.013491
 -0.111408
 -0.078630
 -0.115751
  0.084907
 -0.042654
  0.029348
  0.201334
 -0.047308
 -0.022356
 -0.035552
 -0.035560
 -0.139864
  0.001364
  0.198808
  0.057343
 -0.025587
 -0.035487
  0.052052
 -0.035317
  0.151349
  0.131135
  0.104234
 -0.041227
 -0.072697
 -0.050736
 -0.006681
  0.066057
  0.042713
 -0.063974
  0.038777
  0.071373
 -0.134485
  0.018557
  0.021937
 -0.074491
 -0.054254
 -0.087146
 -0.060378
  0.034227
  0.113138
  0.110370
 -0.071817
 -0.133227
 -0.115341
  0.014512
  0.021999
  0.070355
 -0.113753
 -0.101016
 -0.027025
  0.109774
 -0.061339
  0.012886
  0.027806
  0.007201
 -0.080039
 -0.009478
 -0.017142
 -0.074764
  0.020579
 -0.075315
 -0.072253
 -0.014553
  0.069157
 -0.004456
  0.044591
  0.062614
  0.020801
  0.044815
  0.024171
 -0.035529
  0.139795
 -0.030420
 -0.024175
 -0.034110
  0.106520
 -0.044350
  0.025683
  0.081034
 -0.033986
 -0.022460
 -0.103208
 -0.166640
 -0.027227
 -0.155468
 -0.082463
 -0.119518
 -0.071772
 -0.058829
  0.113192
 -0.042641
 -0.013159
 -0.038900
  0.098890
  0.033956
  0.001251
  0.031431
  0.130756
  0.062165
 -0.104728
  0.063729
 -0.040662
  0.001316
  0.124565
  0.076938
  0.105135
  0.096467
  0.006232
  0.009803
  0.032149
  0.022764
 -0.108774
  0.062016
  0.028012
  0.036607
  0.060567
  0.042840
  0.042393
  0.221321
 -0.039055
  0.075857
  0.046307
 -0.051835
 -0.080426
 -0.071343
  0.008692
 -0.099522
  0.109538
  0.118874
  0.001271
  0.034215
  0.055564
 -0.129264
 -0.062611
 -0.048267
 -0.064338
  0.144444
 -0.173553
 -0.135321
 -0.011764
 -0.049139
 -0.131050
 -0.025553
 -0.060398
 -0.105642
  0.101717
  0.112836
  0.041827
 -0.108518
  0.054291
 -0.127077
  0.105080
  0.071763
  0.035847
 -0.086322
 -0.053930
  0.190862
  0.080157
  0.079232
 -0.034930
  0.060355
 -0.057405
 -0.052578
 -0.151513
 -0.029137
 -0.077923
  0.062097
 -0.175066
  0.021890
 -0.060827
  0.080147
 -0.005971
  0.007101
  0.144789
 -0.118321
 -0.060228
 -0.006923
 -0.049195
 -0.032256
 -0.073968
  0.057979
 -0.122306
 -0.117958
  0.004040
  0.064342
  0.063066
 -0.049267
  0.091243
  0.007101
 -0.128812
  0.010214
 -0.001442
 -0.030865
  0.085753
 -0.038657
 -0.143055
  0.022299
 -0.016759
  0.099719
  0.032013
  0.091136
  0.038754
  0.000758
 -0.063275
  0.104708
  0.077479
  0.053985
 -0.053524
 -0.156875
 -0.014251
  0.087192
  0.036653
  0.125061
 -0.050092
  0.057261
 -0.201777
 -0.078045
  0.070918
  0.017564
 -0.102605
 -0.061338
  0.111430
 -0.023177
 -0.029119
  0.047775
 -0.003233
  0.016286
  0.055768
 -0.024307
  0.122252
 -0.145468
  0.091190
 -0.009518
 -0.048204
 -0.151325
 -0.044205
 -0.078150
  0.005465
 -0.125562
 -0.065335
  0.055838
  0.001921
  0.115478
  0.020223
 -0.114774
  0.130126
 -0.042554
 -0.025725
 -0.032819
  0.107559
 -0.052026
  0.042647
  0.047978
  0.022923
 -0.026172
  0.022276
 -0.013620
 -0.125198
  0.085275
 -0.115372
  0.016978
 -0.110130
 -0.064029
  0.246791
  0.114895
  0.053787
  0.082518
  0.096490
 -0.110500
 -0.017539
 -0.098333
  0.077678
  0.030219
 -0.075024
  0.018044
  0.049256
  0.074518
  0.132963
  0.017291
 -0.031960
  0.120315
 -0.057306
  0.056169
 -0.024078
 -0.024454
 -0.126467
  0.106664
  0.018012
  0.031894
 -0.025421
  0.084561
 -0.081608
  0.127072
 -0.132266
 -0.023435
 -0.022414
  0.122532
  0.030762
  0.082425
 -0.112556
  0.109731
  0.054597
 -0.040043
  0.096026
 -0.042694
  0.021679
  0.065979
 -0.173533
 -0.001765
 -0.016670
  0.055444
  0.036441
 -0.050391
  0.037214
 -0.083428
  0.028743
 -0.013048
 -0.095613
  0.016975
  0.075830
  0.063165
  0.128903
  0.085783
  0.007969
 -0.053504
 -0.040081
  0.072005
  0.096969
 -0.065024
 -0.095008
  0.017903
  0.007185
  0.028516
 -0.101853
  0.063924
  0.063883
  0.110847
 -0.103771
  0.009792
  0.060066
  0.038637
  0.048197
 -0.143294
 -0.169566
 -0.064644
 -0.065230
  0.009738
 -0.073138
  0.004318
 -0.000731
 -0.134311
 -0.050313
  0.046373
  0.126717
 -0.041628
 -0.010474
 -0.119912
  0.020920
  0.083794
 -0.179055
  0.062791
  0.058773
 -0.007341
 -0.101836
  0.041274
  0.009595
 -0.052278
  0.075618
 -0.044343
  0.020275
  0.004500
  0.024359
 -0.021369
  0.111114
 -0.097576
  0.185194
 -0.049197
 -0.054249
  0.064861
 -0.080535
 -0.017397
  0.004612
 -0.062706
  0.106110
  0.076568
 -0.032171
  0.053123
  0.021952
 -0.015171
  0.054054
  0.043985
  0.017951
  0.045748
  0.041124
  0.032235
  0.043966
 -0.060409
  0.089366
 -0.013482
 -0.080653
 -0.033653
 -0.055620
 -0.107196
  0.051342
 -0.012110
 -0.034333
  0.044003
 -0.067249
  0.040895
  0.078532
  0.089480
  0.002959
 -0.026172
  0.036674
 -0.028720
  0.008430
 -0.009531
  0.028211
 -0.031888
  0.008860
  0.021048
  0.030161
  0.111301
  0.024921
 -0.099215
 -0.189735
 -0.096173
  0.018934
  0.065608
  0.006607
  0.008405
  0.041836
 -0.139787
 -0.032547
  0.106859
  0.048676
 -0.019666
 -0.086333
  0.165869
 -0.147344
 -0.052926
 -0.119618
 -0.080167
 -0.051363
  0.034705
  0.038566
 -0.022522
  0.111265
  0.067432
 -0.070386
  0.096784
  0.086756
 -0.031981
  0.030255
  0.019313
 -0.068254
  0.063068
 -0.039013
  0.054992
 -0.054033
 -0.041578
 -0.121549
  0.071067
 -0.022902
  0.057209
 -0.094039
 -0.080813
 -0.007298
 -0.003919
 -0.017002
  0.109865
 -0.133373
  0.196990
  0.086348
 -0.009011
 -0.119602
 -0.041321
 -0.067050
 -0.055685
  0.054196
 -0.081284
  0.151662
 -0.114131
 -0.017856
  0.088859
  0.037203
  0.028773
  0.016120
 -0.046329
 -0.009289
 -0.002190
 -0.102629
  0.018794
  0.005655
  0.064656
  0.083790
 -0.073627
  0.065411
  0.022666
  0.012558
  0.108740
  0.020571
 -0.036562
 -0.064349
  0.010554
 -0.098998
  0.067875
  0.092645
  0.008639
 -0.013183
 -0.025883
 -0.041414
  0.033202
  0.135379
  0.097737
  0.038022
  0.018731
  0.023253
  0.007923
  0.005427
 -0.093346
 -0.000850
 -0.042395
  0.020091
 -0.050854
  0.034618
  0.006087
 -0.049731
  0.023210
 -0.119350
  0.101943
  0.069683
 -0.018745
 -0.010660
 -0.041661
 -0.029388
  0.024237
 -0.099369
  0.060542
  0.015252
 -0.216340
  0.049324
 -0.007310
 -0.032223
 -0.006803
  0.120637
 -0.007659
  0.121474
 -0.003785
  0.010214
 -0.114714
 -0.087605
  0.023488
 -0.050032
 -0.127929
 -0.017165
 -0.040816
 -0.116381
 -0.023417
  0.098791
 -0.051108
 -0.082070
  0.030128
 -0.137649
  0.042898
 -0.012811
  0.103002
  0.034673
 -0.181677
 -0.021137
  0.006932
  0.050455
  0.027197
  0.037998
 -0.059498
  0.054248
 -0.206605
  0.046050
  0.025694
  0.069490
 -0.078281
  0.104262
  0.026542
 -0.028142
 -0.098243
  0.027902
  0.077351
 -0.000663
  0.066545
 -0.034227
  0.150053
 -0.009873
  0.017294
  0.097782
 -0.038988
  0.039326
  0.013428
 -0.070248
 -0.011177
 -0.082625
  0.054914
 -0.009897
  0.002872
 -0.036735
 -0.056042
 -0.018656
  0.034028
  0.012252
 -0.052812
  0.003748
 -0.046030
  0.054518
  0.138770
  0.048356
 -0.062280
 -0.036738
  0.044646
  0.038441
 -0.009760
 -0.037882
  0.025235
  0.083423
 -0.017373
  0.015703
  0.018343
  0.007433
  0.008056
  0.103049
 -0.025486
 -0.035001
 -0.028878
  0.015826
  0.014695
 -0.073439
  0.101429
 -0.002790
  0.023235
  0.112456
  0.014266
  0.019670
 -0.201238
 -0.055176
 -0.001172
  0.035923
 -0.040856
 -0.036289
 -0.028658
  0.237841
 -0.090990
  0.062502
 -0.070121
 -0.009225
  0.053528
 -0.071713
 -0.003466
  0.118913
  0.107338
 -0.125966
  0.007760
  0.033632
  0.188029
 -0.173805
  0.041818
 -0.004111
 -0.096552
 -0.026999
  0.129445
 -0.048552
 -0.102096
  0.104575
  0.159170
 -0.055872
 -0.031990
  0.176102
 -0.118592
  0.031632
  0.133334
  0.111976
  0.053005
 -0.066610
  0.021366
  0.044226
 -0.142782
 -0.008156
 -0.065973
  0.012269
  0.055535
 -0.124936
  0.024620
 -0.082279
 -0.058618
 -0.041663
 -0.006253
  0.093798
 -0.010483
 -0.081609
  0.125316
 -0.016441
 -0.009551
  0.050608
  0.108069
  0.020017
 -0.026794
 -0.058532
  0.007626
 -0.106554
 -0.023563
  0.017229
 -0.124639
  0.088953
 -0.040566
  0.026107
 -0.096864
 -0.015998
  0.155819
  0.032868
 -0.102613
 -0.000287
  0.095598
 -0.067264
 -0.113068
  0.049523
 -0.156850
 -0.046849
 -0.062482
  0.028025
  0.126335
 -0.192495
 -0.084264
  0.143775
 -0.030892
  0.062525
 -0.040296
 -0.008053
 -0.057976
  0.106641
  0.056544
 -0.029017
  0.012408
 -0.030918
 -0.025051
 -0.054960
 -0.116451
  0.105751
  0.034244
  0.001169
  0.113509
 -0.103598
  0.045163
  0.008003
 -0.039634
 -0.013155
 -0.041017
 -0.075427
  0.012751
  0.108900
  0.062401
  0.090629
 -0.064832
  0.050117
  0.005672
 -0.040918
  0.016988
 -0.010110
  0.107064
  0.079432
  0.068944
  0.128614
 -0.124103
  0.151021
 -0.031604
 -0.032925
 -0.042688
 -0.077421
 -0.100067
  0.044043
 -0.048954
 -0.061615
 -0.047957
  0.065905
 -0.062729
 -0.000938
 -0.064791
 -0.021926
 -0.077100
  0.049568
  0.010587
  0.102788
 -0.100035
  0.143288
 -0.019327
  0.065979
 -0.046843
  0.137023
 -0.126288
 -0.049835
 -0.156362
 -0.004682
  0.032942
  0.009603
  0.067981
 -0.042618
 -0.020532
  0.026084
  0.030480
  0.013984
 -0.034118
 -0.083217
  0.000477
  0.141863
 -0.000263
 -0.005783
 -0.020319
  0.021737
 -0.060549
 -0.058951
 -0.026814
  0.078403
 -0.036984
  0.053088
  0.036550
 -0.073430
  0.064511
  0.063312
  0.066285
 -0.055897
 -0.027903
  0.196340
  0.088002
 -0.026283
  0.023455
  0.028093
  0.168090
  0.003608
 -0.083316
  0.016411
  0.054961
 -0.063828
  0.017721
 -0.038537
  0.026289
  0.028490
  0.044803
 -0.088948
  0.033043
  0.054782
 -0.026256
  0.008751
  0.010437
  0.075392
  0.002581
 -0.031302
  0.114991
 -0.016298
  0.101054
 -0.021614
  0.006063
 -0.027016
  0.158859
  0.047637
  0.068287
  0.070426
  0.007025
 -0.023582
  0.022243
  0.032750
 -0.040425
  0.010219
 -0.003512
 -0.076520
 -0.045014
  0.187042
 -0.064991
  0.085940
 -0.051892
 -0.047616
 -0.141454
  0.114717
  0.101862
 -0.026999
 -0.111385
 -0.040220
  0.103990
 -0.018895
  0.088340
  0.047002
  0.038456
  0.193739
  0.055215
  0.150743
 -0.020735
  0.092985
 -0.015971
 -0.143279
 -0.074567
  0.029387
 -0.166974
  0.024732
 -0.088658
 -0.005931
  0.025133
 -0.013107
 -0.019209
  0.011130
  0.010401
 -0.012411
 -0.050188
  0.000088
 -0.052001
 -0.031471
  0.006709
  0.091385
  0.011790
 -0.102475
 -0.111705
 -0.084035
 -0.045840
  0.028933
 -0.125852
 -0.059156
 -0.054680
 -0.118592
  0.036048
  0.089719
  0.032430
 -0.015376
 -0.118881
 -0.009533
  0.104159
  0.008781
 -0.021923
  0.048431
  0.135173
  0.106610
  0.225598
  0.007051
 -0.088221
 -0.041716
 -0.122008
  0.049041
 -0.030340
 -0.039956
 -0.043369
  0.023507
  0.001382
  0.067507
  0.025057
  0.065918
 -0.024870
 -0.098237
 -0.056322
  0.104902
 -0.073624
 -0.099641
  0.065785
  0.125011
  0.125935
  0.090732
 -0.099127
  0.126007
 -0.017567
 -0.043047
  0.041173
  0.024777
 -0.001308
  0.052303
  0.038846
  0.202934
  0.067679
 -0.053181
 -0.021316
 -0.064273
  0.074707
 -0.055494
  0.124263
  0.105804
  0.032008
  0.004670
 -0.042523
  0.067667
  0.105628
 -0.023517
  0.061051
 -0.017305
 -0.005008
 -0.040964
  0.041132
 -0.007049
  0.088070
  0.085681
 -0.097819
  0.050078
 -0.052718
  0.210521
 -0.033543
  0.027927
  0.038616
  0.128346
  0.112350
  0.079959
  0.048552
  0.111937
 -0.120778
 -0.060293
  0.147578
  0.062091
 -0.005555
  0.116169
  0.028114
 -0.001557
 -0.060244
  0.007009
 -0.094767
  0.009007
 -0.122727
  0.107731
  0.075896
  0.028988
 -0.106150
 -0.054195
  0.079383
 -0.024816
  0.020650
  0.022382
 -0.096188
 -0.117902
 -0.011958
  0.077513
  0.068570
 -0.025460
  0.026181
  0.109663
  0.005611
 -0.004367
  0.020472
  0.099930
 -0.026473
  0.078475
  0.019571
 -0.043077
  0.111183
 -0.021596
 -0.052181
  0.114813
  0.014046
 -0.085444
  0.002396
  0.012495
  0.025701
  0.126513
 -0.011032
  0.076034
 -0.091647
  0.039081
  0.070456
  0.190795
 -0.016717
  0.024622
  0.008620
  0.077870
  0.036896
 -0.134784
  0.084467
 -0.006488
  0.061456
 -0.016371
  0.094214
  0.097918
  0.035857
  0.091342
  0.038022
  0.092916
  0.002044
 -0.100086
  0.001751
  0.056537
 -0.031553
  0.069706
  0.089435
  0.089200
 -0.032764
  0.004751
  0.158834
  0.107783
 -0.035654
 -0.061952
 -0.073748
 -0.062148
 -0.006541
  0.006075
 -0.025250
  0.071419
  0.135892
  0.111986
 -0.049921
  0.046338
 -0.010705
 -0.025053
 -0.156702
 -0.018290
  0.193276
  0.116396
 -0.043662
  0.035601
  0.177923
  0.132321
 -0.160965
 -0.016191
 -0.024188
  0.019317
  0.017066
 -0.062992
 -0.018984
 -0.035579
 -0.187828
 -0.127768
  0.034542
  0.056741
 -0.131669
 -0.015742
  0.142203
  0.010571
 -0.007323
 -0.058129
 -0.024820
 -0.071264
 -0.024536
 -0.009647
 -0.152602
 -0.165419
 -0.167932
  0.119825
  0.091808
 -0.007628
  0.052681
 -0.096008
 -0.063884
  0.071073
  0.012604
  0.064511
 -0.009445
  0.078242
  0.064928
  0.186326
 -0.122266
 -0.133108
  0.003734
  0.088526
  0.083231
 -0.007846
  0.043932
  0.027052
  0.082774
  0.016264
 -0.102113
 -0.103052
 -0.041779
  0.154015
 -0.043949
 -0.130760
 -0.044184
  0.064081
  0.133469
  0.120681
 -0.057982
 -0.124693
  0.057616
 -0.073754
 -0.012707
 -0.161126
 -0.010525
 -0.117286
 -0.103878
  0.048819
 -0.036951
 -0.105369
 -0.083981
 -0.146509
 -0.023422
  0.016959
  0.056640
 -0.067956
 -0.039289
  0.047166
 -0.098606
 -0.087443
 -0.021660
  0.024150
 -0.062877
 -0.007894
 -0.039888
 -0.053087
  0.052103
  0.155485
  0.058151
  0.069233
  0.072736
 -0.109662
  0.092481
 -0.233085
 -0.014616
  0.043760
 -0.215196
 -0.138360
  0.030392
  0.065901
 -0.160240
  0.091796
  0.097645
  0.104553
 -0.008109
 -0.037868
  0.051985
  0.094144
  0.010361
 -0.058032
 -0.068148
 -0.017190
  0.156120
 -0.041051
 -0.012554
 -0.042842
  0.023291
  0.011555
  0.004156
  0.020864
  0.050674
  0.053344
 -0.048940
 -0.012382
 -0.036108
 -0.093072
 -0.028501
  0.037795
 -0.000147
 -0.057093
  0.054168
  0.027070
 -0.105826
  0.094030
 -0.019080
  0.011381
  0.076840
 -0.103431
 -0.026278
 -0.043043
 -0.079855
 -0.091438
 -0.051713
  0.036245
 -0.011964
 -0.109710
 -0.034114
  0.046042
 -0.139579
  0.038798
 -0.019209
  0.122514
  0.052336
  0.049737
  0.065922
  0.101826
 -0.045997
 -0.038124
  0.085000
 -0.036068
  0.007023
  0.008628
  0.026608
 -0.087004
  0.094457
  0.022740
  0.048064
  0.055161
 -0.035793
 -0.069474
  0.073343
  0.007319
 -0.055646
 -0.065337
  0.048554
 -0.081362
  0.037034
 -0.081115
 -0.008220
  0.116105
  0.162398
  0.079321
  0.094141
 -0.110340
 -0.247846
  0.032503
  0.075869
 -0.123359
 -0.040025
 -0.088752
  0.099344
 -0.124993
 -0.011503
 -0.014691
  0.050385
 -0.129092
 -0.109044
 -0.072056
  0.098712
  0.180052
 -0.079954
  0.101611
  0.072064
 -0.086520
  0.098093
  0.108091
  0.064828
  0.084725
  0.062398
 -0.022870
 -0.033209
 -0.044032
  0.058076
  0.030271
 -0.009642
 -0.115924
 -0.224659
  0.045178
 -0.061406
 -0.010313
 -0.038233
 -0.036914
  0.074154
  0.095776
 -0.009832
  0.008454
 -0.023380
 -0.082983
  0.101886
 -0.109185
 -0.088430
 -0.067145
  0.062821
 -0.014044
  0.037644
 -0.022224
 -0.017002
  0.024819
 -0.000913
  0.088615
 -0.095273
  0.120785
 -0.081872
  0.156391
  0.070714
  0.067211
  0.001677
  0.027188
  0.052759
  0.125332
 -0.148425
 -0.015379
 -0.042516
  0.029424
 -0.031504
 -0.098093
  0.085527
  0.032157
  0.019128
  0.077839
  0.063664
 -0.038382
  0.015359
 -0.007163
  0.042456
 -0.034017
 -0.016759
  0.014985
  0.031440
 -0.070235
  0.043264
  0.063859
  0.265741
 -0.019967
  0.043488
 -0.034665
  0.072561
 -0.014057
 -0.112286
 -0.060826
  0.038993
  0.020531
 -0.027055
  0.181196
 -0.000764
 -0.049799
  0.080390
  0.083366
  0.086443
  0.116652
  0.082822
 -0.028021
 -0.084394
  0.021731
 -0.010258
 -0.018503
 -0.056409
  0.092798
 -0.106699
 -0.097268
 -0.024608
 -0.012852
  0.054157
 -0.069518
 -0.048825
  0.058044
  0.023139
 -0.039837
 -0.044059
  0.081032
 -0.101389
 -0.034120
  0.032776
 -0.023471
  0.235315
 -0.103633
  0.079636
 -0.006843
 -0.010203
  0.057456
  0.096197
  0.089418
  0.023335
 -0.038122
 -0.072037
 -0.084384
 -0.033802
 -0.122938
 -0.019773
 -0.060511
  0.031434
 -0.022392
  0.003400
 -0.145494
 -0.079963
 -0.003720
  0.038649
 -0.015186
 -0.101535
 -0.057094
 -0.181632
 -0.163743
 -0.108657
 -0.081747
 -0.057911
 -0.089946
 -0.061206
 -0.048664
 -0.113281
 -0.010763
  0.020126
 -0.043097
 -0.021981
 -0.072439
 -0.060602
  0.117657
  0.035590
  0.056178
  0.021086
  0.033218
  0.091453
  0.052277
  0.060301
 -0.007016
 -0.030801
 -0.034057
 -0.160384
  0.044692
 -0.068761
 -0.081219
  0.143888
 -0.121031
 -0.032666
 -0.002892
 -0.004521
 -0.043162
 -0.055317
 -0.118498
  0.015816
  0.011767
 -0.020938
  0.035049
 -0.060626
  0.066300
 -0.106997
  0.034259
  0.078363
  0.051129
  0.012165
  0.024319
  0.057125
 -0.000564
 -0.048233
  0.009627
 -0.027270
  0.125072
  0.010181
 -0.096237
 -0.144616
 -0.001117
  0.015204
  0.105695
  0.100347
 -0.081456
 -0.057753
  0.037126
  0.179908
 -0.042351
  0.085934
 -0.133307
  0.025839
  0.008834
 -0.079836
 -0.049092
  0.070155
 -0.074243
 -0.075703
  0.019106
  0.088000
  0.002348
 -0.052173
  0.026798
 -0.022998
  0.132807
 -0.038880
  0.080561
 -0.037766
  0.129709
 -0.129393
 -0.075838
  0.085757
 -0.120469
  0.034455
  0.053619
 -0.029216
 -0.028956
 -0.013697
 -0.046627
  0.200022
  0.064297
 -0.037978
  0.000583
  0.075041
 -0.097230
 -0.108245
  0.076451
 -0.033673
 -0.045923
 -0.000490
 -0.120021
 -0.130765
 -0.069736
 -0.020050
 -0.001981
  0.114929
  0.112025
 -0.074842
  0.010857
  0.021239
  0.074739
  0.141267
  0.094417
  0.025670
  0.105737
  0.093625
  0.103801
 -0.044389
 -0.022828
 -0.157787
  0.016060
 -0.071243
  0.034215
  0.133627
  0.069918
 -0.016547
  0.051718
 -0.033037
  0.063231
  0.076637
  0.070337
 -0.114346
 -0.089555
 -0.005096
  0.084800
  0.134712
  0.039692
  0.033781
  0.149474
  0.076745
 -0.028571
  0.062613
 -0.040040
  0.102871
  0.044884
 -0.022818
  0.119188
 -0.006512
 -0.054791
 -0.032681
  0.115659
  0.003684
  0.034223
  0.061175
  0.008789
 -0.094024
  0.038475
  0.042312
  0.078961
  0.027728
 -0.026383
 -0.076626
  0.070668
  0.111629
  0.037844
  0.015732
 -0.047457
 -0.060972
 -0.027729
  0.024527
  0.129781
  0.040500
  0.056861
 -0.100749
  0.090132
  0.155922
  0.106850
  0.049650
  0.049952
 -0.122472
  0.009683
 -0.057008
 -0.048089
  0.091423
 -0.032692
  0.024506
 -0.056450
  0.019182
 -0.107944
 -0.126752
  0.050686
 -0.051830
  0.017892
 -0.013941
  0.048212
  0.073770
  0.001474
  0.022817
  0.202985
 -0.019702
 -0.154277
  0.069538
  0.051739
  0.070673
  0.046272
 -0.059809
  0.088502
  0.020218
 -0.010371
 -0.025475
 -0.043436
  0.016401
 -0.107652
 -0.062745
  0.047064
 -0.099687
  0.089672
  0.089574
  0.043555
 -0.076334
  0.167277
 -0.019983
 -0.067813
 -0.151584
  0.036633
  0.024914
 -0.025269
 -0.103601
 -0.038722
  0.021346
  0.083776
 -0.067760
  0.014299
  0.029443
  0.095963
  0.008784
  0.055713
 -0.107255
  0.032619
  0.114953
  0.017057
 -0.069130
 -0.060114
 -0.074831
  0.047580
  0.048357
 -0.090790
 -0.043006
  0.042573
  0.104526
  0.135882
 -0.028584
 -0.078802
 -0.076423
 -0.026487
  0.094214
  0.031440
 -0.036870
 -0.129059
 -0.156047
  0.077944
 -0.048000
 -0.072808
 -0.033301
  0.069601
 -0.072621
 -0.041820
 -0.005390
  0.054810
 -0.073197
 -0.005913
 -0.070326
  0.040406
 -0.123728
  0.093209
  0.033770
 -0.107995
 -0.037570
 -0.012508
 -0.078640
 -0.090527
  0.042453
  0.084026
  0.009090
  0.051031
  0.083362
 -0.030247
 -0.008879
  0.096251
 -0.020817
 -0.199963
  0.062693
  0.037897
 -0.093654
  0.109343
  0.075547
 -0.104547
 -0.010216
  0.014391
  0.029675
 -0.105368
  0.054184
  0.009022
 -0.034219
  0.091970
 -0.016939
  0.034161
  0.127677
 -0.016822
  0.111262
 -0.071923
 -0.070698
 -0.004942
 -0.000724
  0.043825
  0.099653
 -0.010066
  0.141664
 -0.040507
 -0.162592
 -0.127142
 -0.072089
  0.039127
 -0.071270
  0.026268
 -0.056297
 -0.056932
 -0.048265
 -0.025109
  0.017888
 -0.002945
  0.009358
  0.131299
 -0.041450
  0.053145
  0.098636
  0.034007
 -0.036394
 -0.080981
 -0.066167
 -0.038733
  0.013747
 -0.041135
  0.095968
 -0.057514
 -0.067235
  0.038271
  0.015305
 -0.021773
 -0.066677
  0.108397
 -0.038111
  0.036614
 -0.022123
 -0.151134
  0.148748
  0.104752
  0.029778
 -0.050227
 -0.069884
 -0.053696
 -0.083164
  0.024498
  0.023703
 -0.199730
  0.070566
 -0.114489
  0.028675
  0.008959
 -0.049329
  0.026863
 -0.075884
  0.088460
  0.112901
 -0.006813
  0.056829
  0.009088
  0.101528
  0.096167
  0.094144
 -0.030203
  0.115096
  0.070410
  0.014149
 -0.061486
 -0.065668
  0.126728
  0.175470
  0.021399
 -0.071722
  0.053254
 -0.000248
  0.074943
  0.068108
  0.001901
  0.066079
 -0.207311
  0.124322
 -0.039736
  0.103269
 -0.105253
  0.103452
  0.118322
 -0.054838
 -0.060362
  0.138085
  0.048711
 -0.044092
 -0.034499
  0.164999
 -0.053054
 -0.047834
 -0.043244
  0.081788
 -0.051764
 -0.027143
 -0.011304
  0.116350
 -0.017106
  0.009009
  0.206692
 -0.003764
  0.003998
 -0.068760
 -0.023090
 -0.069932
  0.100880
 -0.051593
 -0.003038
  0.089948
 -0.095091
  0.004787
  0.053099
  0.016857
 -0.019072
 -0.037910
  0.056227
 -0.019367
  0.118665
  0.023564
  0.125343
 -0.150000
 -0.042660
 -0.154806
 -0.032747
  0.085462
 -0.053953
 -0.045772
  0.067412
 -0.016956
  0.068798
 -0.008466
  0.023732
  0.013804
 -0.002442
 -0.025408
  0.195951
 -0.016056
 -0.009272
  0.044775
 -0.068508
 -0.063515
 -0.063048
 -0.050208
 -0.045414
 -0.021215
  0.030961
  0.014593
 -0.003893
 -0.028290
  0.054836
 -0.125960
  0.006025
 -0.105927
  0.071424
 -0.156780
  0.002794
  0.081445
  0.053990
  0.149758
  0.090605
 -0.118392
 -0.041638
 -0.159738
  0.005209
  0.111829
  0.061392
  0.015754
 -0.075855
  0.002933
  0.024786
 -0.119048
  0.075026
  0.053152
 -0.042790
 -0.020638
 -0.045704
 -0.172236
 -0.039060
 -0.081766
 -0.038166
  0.066068
 -0.097545
 -0.020860
  0.032540
 -0.013226
  0.010464
 -0.012311
 -0.097363
 -0.026518
 -0.062109
  0.007817
  0.169169
  0.058775
 -0.028000
  0.008069
  0.089910
  0.077385
 -0.060096
  0.011232
 -0.079426
 -0.075938
  0.069674
 -0.023253
 -0.027038
  0.035065
  0.029769
 -0.041268
 -0.121885
  0.155375
  0.167591
  0.088095
  0.103629
 -0.074977
 -0.023717
 -0.041693
  0.048836
 -0.065440
 -0.046686
  0.001529
  0.035670
 -0.117951
 -0.028273
  0.013204
  0.060848
 -0.090251
  0.041998
  0.148557
 -0.073916
  0.025640
  0.067035
  0.079556
  0.165764
 -0.017707
 -0.137722
  0.076991
 -0.196176
 -0.014297
  0.043739
  0.003798
  0.039034
  0.036014
 -0.106326
 -0.085427
 -0.027550
  0.077543
 -0.072043
  0.068446
 -0.036189
 -0.002184
  0.025835
  0.062016
 -0.004938
  0.142010
 -0.078919
 -0.124803
 -0.072449
 -0.022234
 -0.074178
  0.002942
 -0.138369
  0.047905
 -0.054480
 -0.007343
  0.047246
  0.063708
  0.066371
  0.146283
 -0.037082
  0.084186
  0.061579
  0.118094
 -0.068372
 -0.060122
 -0.060157
 -0.055952
 -0.083060
 -0.018811
  0.010433
  0.014763
  0.069135
 -0.118934
 -0.052783
  0.179044
  0.086670
 -0.117005
  0.093072
  0.124364
  0.076144
  0.013697
  0.034777
  0.067997
  0.059523
  0.009376
  0.088322
 -0.158174
  0.038580
  0.060022
 -0.036479
 -0.054726
  0.030484
  0.087174
 -0.094977
  0.017926
  0.073784
 -0.003640
 -0.019610
 -0.093815
 -0.013977
 -0.035963
  0.022563
 -0.104132
 -0.016083
  0.068702
  0.090136
 -0.011048
 -0.029884
  0.032873
 -0.091759
 -0.039356
  0.036646
  0.077841
  0.001406
 -0.028554
 -0.150444
 -0.019454
 -0.016831
 -0.127961
 -0.039240
  0.018454
  0.040436
 -0.112388
 -0.020684
  0.109728
  0.033675
 -0.012472
 -0.043097
  0.053492
  0.060194
 -0.052598
  0.016247
  0.034528
 -0.075068
 -0.085897
  0.075132
  0.010000
  0.106426
 -0.032714
  0.101288
  0.017281
  0.046352
 -0.148026
  0.000912
 -0.015055
  0.041625
 -0.061797
  0.012641
 -0.028372
 -0.066805
 -0.043769
 -0.038943
  0.008881
 -0.039597
  0.134741
  0.043217
 -0.032752
  0.004364
 -0.147580
  0.016297
 -0.021638
  0.050973
  0.049209
 -0.063040
 -0.040093
 -0.002512
 -0.000674
  0.087994
  0.084580
 -0.013205
 -0.096382
 -0.043991
 -0.121470
  0.036584
 -0.075543
 -0.101667
  0.128669
 -0.009883
 -0.004829
 -0.027020
 -0.109968
 -0.098328
  0.060738
 -0.199152
 -0.033540
 -0.035726
  0.131141
  0.113670
  0.021685
 -0.023755
  0.036702
 -0.036464
 -0.067223
 -0.035193
 -0.132660
 -0.002763
 -0.015383
  0.003627
  0.046883
 -0.130721
 -0.070755
 -0.166610
  0.003339
 -0.146326
 -0.065309
  0.035206
 -0.063744
 -0.036761
  0.009558
 -0.009872
  0.038812
  0.015315
  0.033354
  0.032242
  0.181647
 -0.003892
 -0.033262
  0.052319
 -0.040934
  0.019801
 -0.062371
 -0.034174
 -0.067657
 -0.137583
 -0.095223
 -0.054799
 -0.041682
 -0.079275
 -0.055578
  0.062856
  0.031563
  0.008042
 -0.084617
  0.076281
  0.160374
  0.053966
  0.068951
 -0.051149
 -0.029233
 -0.064432
  0.018679
  0.088532
 -0.017976
 -0.023704
  0.038819
  0.006789
  0.062141
  0.037918
 -0.103928
 -0.009603
 -0.092935
  0.109624
  0.129835
  0.013463
 -0.019275
 -0.102236
 -0.049764
 -0.057024
  0.008482
 -0.046101
 -0.053189
  0.034911
 -0.028395
  0.138090
  0.056991
 -0.050879
 -0.099453
  0.007034
 -0.117075
 -0.083828
 -0.089546
 -0.027420
 -0.073539
 -0.041126
  0.132199
 -0.139730
 -0.039204
 -0.030120
 -0.026728
 -0.047901
  0.015566
 -0.117358
 -0.050461
 -0.045893
 -0.058862
 -0.037847
  0.144472
 -0.067177
  0.018718
  0.017755
  0.094411
 -0.126205
  0.055919
  0.027886
 -0.120245
 -0.139651
 -0.034708
 -0.000909
  0.193415
 -0.006725
 -0.136978
  0.098132
 -0.031161
 -0.026382
  0.197298
 -0.088511
  0.065248
 -0.096848
  0.074473
  0.040210
  0.058263
 -0.070050
 -0.045043
  0.024065
  0.036030
 -0.027301
  0.021903
  0.144713
 -0.090477
  0.014992
  0.058398
 -0.127985
 -0.031900
  0.033921
  0.103733
 -0.062093
 -0.056877
  0.108292
  0.064638
 -0.008111
  0.118920
  0.062522
  0.033640
 -0.225843
  0.072433
 -0.114872
 -0.132454
  0.049460
  0.005830
  0.127828
 -0.013873
  0.143579
 -0.100601
 -0.004315
 -0.044056
  0.128337
  0.209581
 -0.029453
  0.076375
 -0.042080
 -0.134846
 -0.051019
 -0.047782
 -0.002094
  0.063045
 -0.088170
 -0.079906
  0.041448
  0.023761
 -0.068322
  0.119160
  0.045253
  0.059769
 -0.084405
 -0.130010
  0.035616
  0.003158
  0.074343
 -0.090888
  0.009591
 -0.025295
  0.048652
 -0.069654
  0.039748
  0.023369
 -0.075484
  0.071747
 -0.041908
  0.105886
 -0.052032
  0.053591
  0.017294
 -0.184741
 -0.030890
 -0.098610
 -0.085706
  0.058877
  0.040388
  0.103895
 -0.117392
  0.077576
 -0.040516
 -0.054275
  0.004711
 -0.122547
 -0.010012
 -0.068356
  0.091844
  0.010637
 -0.033851
 -0.017234
  0.056414
 -0.018839
 -0.003139
 -0.034431
 -0.021759
 -0.122228
  0.021789
  0.013596
  0.064503
 -0.079662
  0.107371
  0.077207
  0.068420
 -0.044871
  0.024252
 -0.119586
 -0.053750
 -0.074281
 -0.004604
  0.035511
  0.029483
  0.026754
  0.069299
  0.080722
  0.021489
 -0.066977
  0.111805
 -0.026267
 -0.021378
  0.040050
  0.045919
 -0.036128
 -0.015089
 -0.170861
 -0.006262
 -0.069429
 -0.006945
 -0.112617
  0.035961
 -0.002304
  0.045095
 -0.026372
  0.074129
  0.024753
  0.077750
  0.117728
 -0.019102
  0.048353
 -0.011269
 -0.145048
 -0.109391
 -0.028617
 -0.110760
 -0.063890
  0.049243
  0.086036
 -0.088613
 -0.095847
 -0.153581
 -0.120219
 -0.129100
 -0.043678
  0.086726
  0.053968
 -0.001859
  0.197353
  0.035188
 -0.063037
  0.092973
  0.023381
 -0.061562
 -0.077509
  0.082339
 -0.045587
 -0.214450
  0.008724
  0.073483
  0.046382
  0.095006
  0.055480
 -0.028237
  0.104437
  0.099471
  0.048626
 -0.038391
  0.096325
  0.232523
  0.091188
  0.012902
 -0.053311
  0.059675
  0.065489
  0.100246
  0.121267
 -0.105544
 -0.109345
 -0.040159
  0.121566
 -0.037102
 -0.041921
 -0.068687
  0.030642
  0.006752
  0.039096
 -0.054192
  0.017976
  0.155641
  0.100082
 -0.119917
 -0.020628
  0.043306
  0.083313
  0.084973
 -0.003638
  0.018506
  0.074052
  0.063928
 -0.131378
 -0.055961
  0.026526
  0.145676
  0.019978
  0.073477
  0.143084
 -0.024363
  0.109371
  0.106295
  0.082775
 -0.002610
  0.193147
  0.010690
 -0.010779
  0.022109
  0.117281
  0.088662
 -0.027130
 -0.020375
  0.106893
  0.039270
  0.087679
 -0.092413
  0.048468
  0.117191
  0.053262
 -0.062886
  0.164657
  0.045944
  0.005231
 -0.145199
  0.000210
  0.033807
  0.040862
 -0.032333
  0.089461
 -0.031186
 -0.061195
 -0.108542
 -0.018708
  0.098077
 -0.020104
  0.050746
  0.014597
  0.109666
 -0.012914
 -0.010121
 -0.007460
 -0.007088
 -0.068757
  0.071413
  0.099693
 -0.043108
  0.150181
 -0.114793
  0.105782
 -0.090747
 -0.058684
 -0.132457
  0.059469
  0.143076
 -0.180755
  0.145355
  0.032485
 -0.036731
  0.024477
 -0.035719
 -0.027593
 -0.041909
 -0.121431
 -0.041779
  0.000896
 -0.019692
  0.161778
 -0.012732
  0.092958
 -0.058594
  0.187850
  0.006919
 -0.089052
 -0.044932
 -0.110751
  0.038489
  0.035507
  0.093106
  0.075243
 -0.016531
 -0.056546
 -0.089179
  0.145910
 -0.024406
 -0.042245
  0.016774
 -0.083765
 -0.050249
 -0.065025
 -0.000715
  0.048946
 -0.001121
  0.043106
 -0.140176
  0.009865
  0.039075
  0.020342
  0.111696
  0.048707
 -0.100195
 -0.165766
  0.011690
 -0.030149
  0.157900
 -0.101521
  0.089456
 -0.034798
 -0.101787
  0.180411
 -0.090747
  0.075573
 -0.077041
 -0.083458
  0.003446
 -0.075206
 -0.155151
  0.108893
 -0.128115
  0.089843
  0.071260
  0.036275
  0.080391
  0.046620
  0.119725
 -0.070639
 -0.024013
 -0.086636
  0.109091
 -0.096330
  0.148548
  0.059123
 -0.097081
 -0.014426
  0.010960
 -0.033296
 -0.031954
  0.070880
 -0.067642
 -0.042293
  0.131856
 -0.018534
  0.045241
  0.114788
 -0.041347
 -0.084880
  0.138053
  0.032121
 -0.087942
 -0.134789
  0.030336
 -0.181110
 -0.005475
 -0.107936
 -0.045755
  0.171973
  0.181309
 -0.004270
  0.048296
 -0.010141
 -0.022652
  0.084785
  0.126164
  0.115229
 -0.035082
 -0.021052
  0.152734
 -0.008143
  0.034725
  0.101692
 -0.002855
 -0.032646
  0.003504
  0.034977
 -0.048572
  0.000127
  0.144339
  0.052505
  0.108331
 -0.089002
  0.126032
  0.082977
  0.032110
 -0.032565
  0.001661
  0.148898
  0.034140
  0.003555
 -0.023797
 -0.047585
  0.078191
 -0.013053
  0.132262
  0.018771
  0.039539
 -0.066473
 -0.054459
 -0.010918
 -0.072644
  0.000856
  0.085551
 -0.015302
  0.030635
 -0.178450
  0.006354
 -0.002398
 -0.102705
 -0.038166
  0.034932
 -0.034392
  0.045718
  0.162593
  0.096502
  0.003081
 -0.096219
 -0.032287
  0.068285
 -0.042947
  0.030353
 -0.032307
 -0.035179
  0.011578
  0.004899
  0.111569
  0.119821
  0.127228
  0.054306
  0.107522
  0.336507
  0.102117
  0.259459
  0.229880
  0.251066
  0.093699
  0.196766
  0.130462
  0.114420
  0.273746
  0.202790
  0.092415
  0.154077
 -0.006261
  0.044107
 -0.014233
  0.185284
  0.052266
  0.234432
  0.102534
  0.147084
  0.270569
  0.119975
  0.162232
  0.104457
  0.178259
  0.067251
  0.021338
  0.094198
  0.194899
  0.117330
  0.289443
  0.153725
  0.096110
  0.123225
  0.118808
  0.051472
  0.168938
  0.140785
  0.287656
  0.122041
  0.410646
  0.376532
  0.354262
  0.440572
  0.677770
  0.587334
  0.651972
  0.502210
  0.657980
  0.757180
  0.634007
  0.711397
  0.675728
  0.822237
  0.894950
  0.844887
  0.851134
  0.928443
  1.000000
  0.845974
  0.840279
  0.868435
  0.952917
  0.935819
  0.769243
  0.838108
  0.884055
  0.852952
  0.906808
  0.958342
  0.947741
  0.815422
  0.858049
  0.743709
  0.541829
  0.569471
  0.529208
  0.509116
  0.295692
  0.190962
  0.067143
  0.154618
  0.212083
  0.035190
  0.060965
  0.191144
  0.080342
  0.142145
  0.080971
  0.058620
  0.038603
  0.133753
 -0.009190
  0.081318
 -0.095011
  0.056182
 -0.009711
 -0.030351
 -0.069088
 -0.123192
 -0.043452
 -0.097734
 -0.096631
  0.006424
 -0.032113
  0.084419
 -0.023605
  0.070492
 -0.001689
  0.024992
  0.176889
 -0.073717
  0.013419
 -0.013404
  0.145503
 -0.006982
 -0.170420
  0.074162
  0.171737
 -0.031770
 -0.099419
 -0.045002
  0.109214
 -0.012921
 -0.031043
  0.003722
  0.002930
  0.119929
  0.016736
 -0.093935
  0.090887
 -0.096124
  0.043796
  0.046541
 -0.039467
 -0.096015
  0.001284
  0.007739
  0.000459
  0.073406
 -0.006332
 -0.033023
 -0.014683
  0.015544
  0.033443
 -0.042338
 -0.027827
  0.015986
 -0.003184
  0.120353
 -0.013724
 -0.036990
 -0.089859
 -0.053194
 -0.081446
 -0.031226
 -0.083703
 -0.011173
  0.040928
  0.023382
 -0.048637
 -0.057673
  0.026362
  0.013007
  0.073649
 -0.006241
 -0.033905
  0.045284
  0.086167
  0.049231
  0.020876
  0.097067
  0.039527
  0.002930
  0.047608
 -0.083590
  0.014248
 -0.040355
 -0.037424
 -0.076435
 -0.002627
 -0.078908
 -0.072075
  0.071682
 -0.073600
 -0.047221
 -0.010118
  0.053374
  0.160375
  0.095407
 -0.045457
 -0.044064
  0.023528
 -0.097108
 -0.093520
  0.022096
 -0.087128
  0.101879
  0.095192
 -0.072347
  0.024945
 -0.115821
 -0.047713
 -0.069930
  0.092149
  0.026714
 -0.172744
 -0.054050
  0.010673
 -0.116145
 -0.000120
  0.028476
  0.154499
 -0.024481
  0.077189
 -0.025575
  0.042011
 -0.128935
 -0.031732
 -0.054027
  0.098012
  0.031344
 -0.006791
 -0.096014
 -0.009103
  0.014564
 -0.016229
 -0.065154
  0.166857
 -0.014204
  0.010377
 -0.058649
  0.046004
 -0.027346
  0.074343
  0.007350
 -0.143099
 -0.035259
 -0.037867
  0.124164
  0.027745
  0.092944
 -0.021376
 -0.113914
  0.005535
 -0.072644
  0.110677
 -0.077749
 -0.151478
  0.011414
 -0.002271
 -0.085611
 -0.081984
 -0.002865
 -0.032911
  0.051841
 -0.035607
  0.052778
 -0.069250
 -0.041206
  0.034617
 -0.104199
 -0.048796
  0.134288
 -0.072063
 -0.017284
 -0.001747
 -0.041604
  0.140733
 -0.011306
 -0.011936
 -0.009404
  0.010206
 -0.045729
  0.086854
  0.076385
  0.060939
  0.041199
  0.027625
 -0.204068
 -0.163227
  0.079725
  0.017328
  0.054079
 -0.066402
 -0.010496
  0.046667
 -0.094385
 -0.023594
  0.074662
 -0.213497
  0.048085
  0.155342
  0.057717
  0.107094
 -0.041418
  0.051548
 -0.017390
 -0.006056
  0.065812
  0.102606
  0.111212
 -0.056884
 -0.033564
 -0.052536
 -0.087818
 -0.099044
 -0.120111
 -0.061763
 -0.008455
  0.160403
  0.136653
  0.023928
  0.072697
  0.081009
 -0.016210
  0.088528
  0.090973
  0.095506
  0.228207
  0.125443
  0.020620
  0.018551
  0.125854
  0.080083
  0.132325
  0.112998
  0.006346
  0.082807
 -0.161720
 -0.063409
 -0.059911
  0.035835
  0.023324
  0.027091
 -0.049244
  0.047846
 -0.006224
 -0.005100
 -0.023644
  0.027293
 -0.004313
 -0.062285
 -0.077900
 -0.006263
 -0.045086
 -0.098233
  0.010596
  0.118690
 -0.129873
  0.089389
  0.058297
 -0.064130
 -0.112000
 -0.004448
  0.077895
  0.079010
  0.064339
  0.088156
 -0.011823
 -0.058287
 -0.086764
  0.074248
  0.043849
 -0.053373
 -0.060782
 -0.028804
 -0.034414
 -0.055343
  0.051509
 -0.022353
  0.041210
 -0.033137
  0.173735
 -0.205396
 -0.004416
 -0.019586
  0.130718
  0.084491
 -0.171879
  0.181858
  0.033927
  0.005202
  0.034831
 -0.072662
  0.019711
 -0.030598
  0.043897
 -0.181490
  0.019150
  0.048670
  0.059305
 -0.062214
  0.013326
 -0.039884
 -0.059710
 -0.053167
 -0.044074
 -0.045684
  0.033189
 -0.066648
 -0.067538
  0.061791
  0.045797
 -0.027233
 -0.019152
 -0.058154
 -0.024548
  0.102512
 -0.000247
 -0.114340
  0.132857
 -0.042032
 -0.015387
 -0.041800
 -0.076805
 -0.126001
 -0.088176
 -0.050131
 -0.018661
 -0.058079
  0.014285
  0.016599
  0.114614
  0.082131
 -0.041570
  0.011033
  0.052762
  0.025069
  0.044433
 -0.116528
  0.075801
  0.075038
  0.032510
 -0.091788
  0.102152
 -0.024905
  0.023292
  0.051796
  0.086678
 -0.024283
 -0.017896
 -0.108046
 -0.025434
  0.104667
 -0.054791
 -0.163612
  0.011899
  0.018093
 -0.030434
 -0.075552
  0.064497
 -0.002382
  0.006133
  0.109012
  0.079804
 -0.068128
 -0.069388
  0.020636
  0.032680
  0.067974
  0.075972
 -0.070077
 -0.025383
  0.014891
 -0.195552
 -0.094380
  0.002180
  0.009258
 -0.124013
 -0.040899
  0.036146
  0.122436
  0.089118
  0.051075
 -0.097691
  0.041284
 -0.060722
  0.063951
 -0.006119
 -0.048515
  0.072265
  0.119942
  0.090198
 -0.023866
 -0.082542
  0.047686
 -0.116851
  0.040748
 -0.003813
 -0.045506
 -0.073871
 -0.011004
 -0.198837
 -0.045974
  0.000860
  0.013661
  0.117014
 -0.060308
 -0.082635
  0.096700
  0.049291
  0.052638
  0.048672
  0.003742
 -0.104996
  0.122802
  0.034050
  0.056373
 -0.128163
  0.107890
 -0.093126
 -0.065706
 -0.080775
 -0.068946
 -0.010947
  0.052456
 -0.044584
  0.014418
  0.010548
  0.026999
 -0.001717
 -0.025194
  0.064924
 -0.037598
 -0.023818
 -0.062260
 -0.022056
 -0.175968
  0.008525
 -0.076717
 -0.146089
  0.041554
  0.058426
 -0.014171
  0.186942
  0.233815
 -0.018563
  0.088382
 -0.082196
 -0.100234
  0.008382
 -0.185138
 -0.031472
  0.070481
  0.083470
 -0.027637
  0.005813
  0.113993
 -0.022768
 -0.125651
  0.003921
  0.073519
 -0.090887
  0.006973
  0.025294
 -0.012807
 -0.133804
 -0.023405
  0.052740
  0.037456
 -0.069345
 -0.037032
 -0.243350
  0.061375
 -0.081283
  0.074019
  0.009101
  0.023961
  0.179983
  0.090232
  0.132289
  0.039979
 -0.029544
 -0.003203
  0.032333
 -0.022779
  0.036424
  0.098187
 -0.142095
 -0.055732
  0.102891
  0.092235
 -0.057489
  0.036206
  0.008343
  0.120128
  0.006771
  0.002827
 -0.002186
  0.057477
 -0.140091
 -0.223706
  0.061022
  0.004885
 -0.067041
  0.061320
  0.038272
  0.054049
 -0.025377
  0.006712
 -0.043751
 -0.015867
 -0.039755
 -0.078846
  0.026038
  0.107384
 -0.044664
 -0.011862
 -0.107807
  0.045714
  0.155070
  0.080001
  0.047742
  0.032203
 -0.054849
 -0.079058
  0.061560
 -0.017788
 -0.041677
  0.022839
  0.020466
  0.102172
 -0.101691
 -0.053930
  0.008560
  0.046010
  0.050151
 -0.024459
  0.059996
 -0.049885
  0.040127
  0.074577
  0.158827
 -0.038797
 -0.056493
  0.045388
  0.069108
  0.130517
 -0.039489
 -0.049799
 -0.131794
 -0.141111
  0.008160
  0.031921
 -0.119737
  0.095049
  0.048153
 -0.012225
 -0.077574
 -0.067395
  0.101318
  0.097985
  0.012234
 -0.001217
 -0.028859
  0.048926
 -0.082030
 -0.089316
  0.045751
 -0.073206
 -0.026119
  0.008320
  0.035547
  0.073193
 -0.081512
  0.000374
 -0.051275
  0.097516
 -0.003735
  0.054275
  0.029276
 -0.086275
  0.204122
 -0.011935
 -0.036081
  0.095406
 -0.026509
 -0.017408
 -0.110871
 -0.050833
  0.057046
 -0.055318
  0.006221
 -0.035115
  0.032407
  0.048379
 -0.023486
  0.083357
 -0.060550
  0.049724
  0.022046
  0.058482
 -0.095141
  0.062577
  0.143985
 -0.030801
 -0.001578
  0.113418
  0.001928
 -0.035447
 -0.031747
  0.020262
  0.013648
  0.004818
  0.032591
  0.032406
 -0.117279
  0.102144
 -0.021970
 -0.033144
  0.035758
  0.031280
  0.049517
  0.146205
 -0.063236
 -0.069726
 -0.111205
 -0.025937
  0.056432
 -0.097145
 -0.062918
  0.060454
  0.007245
  0.010407
  0.017245
  0.032189
 -0.142150
 -0.013962
  0.041447
  0.086537
  0.009779
  0.043441
 -0.118902
 -0.113633
  0.004015
  0.029410
 -0.002056
 -0.076108
 -0.046323
  0.042652
  0.022393
  0.042060
  0.049728
 -0.025060
 -0.070069
  0.062723
 -0.045907
 -0.182281
  0.037396
  0.009573
 -0.020970
 -0.056859
 -0.080806
  0.087180
 -0.055702
  0.200629
 -0.182657
 -0.107964
  0.061501
  0.035579
  0.062643
  0.019654
 -0.025547
 -0.042449
 -0.105275
 -0.218148
 -0.044244
  0.102172
  0.020952
 -0.053700
 -0.064432
 -0.031586
  0.032172
  0.018868
  0.059097
 -0.002316
 -0.000197
 -0.001812
 -0.141750
  0.023034
  0.025107
 -0.053833
 -0.004555
  0.114116
 -0.220050
  0.093183
  0.049472
 -0.020543
 -0.029155
 -0.038983
  0.095834
 -0.083059
 -0.114014
 -0.214015
  0.153080
 -0.041110
 -0.153093
 -0.000920
 -0.032604
 -0.081329
  0.035739
 -0.074092
 -0.082335
 -0.125848
 -0.072240
  0.219249
 -0.058082
  0.189940
 -0.052479
  0.122382
  0.036186
 -0.009233
  0.056507
  0.009664
 -0.048131
  0.145657
  0.023508
 -0.017370
  0.108680
  0.074289
 -0.082710
 -0.005563
  0.166587
 -0.075972
  0.018686
  0.067906
 -0.140569
  0.079984
  0.060630
  0.043161
 -0.035684
 -0.006085
  0.024146
  0.081622
 -0.080635
 -0.049866
 -0.030333
  0.019328
 -0.062784
  0.055773
  0.125911
  0.035771
  0.168559
  0.141126
 -0.074048
  0.029189
 -0.078107
  0.041811
  0.032467
  0.033799
 -0.057300
  0.018270
  0.028913
 -0.021146
 -0.076588
 -0.042653
  0.100317
  0.036459
 -0.272888
 -0.036860
  0.161035
  0.115750
  0.250518
  0.036029
 -0.052225
  0.090714
 -0.015619
 -0.111110
  0.064449
 -0.010380
  0.045477
  0.043207
 -0.078524
  0.023190
  0.012348
 -0.081510
 -0.151453
  0.023016
 -0.062554
  0.039718
 -0.046794
 -0.067151
  0.025068
  0.028759
 -0.067900
 -0.058534
  0.137949
 -0.098728
 -0.015995
 -0.084935
 -0.004957
 -0.007016
  0.072996
  0.099767
  0.062101
  0.106106
 -0.072886
 -0.022454
 -0.092156
  0.108672
 -0.168896
  0.023852
  0.106210
 -0.052249
 -0.062322
  0.168457
  0.126000
 -0.018469
  0.052374
 -0.152901
  0.104072
  0.054883
 -0.108691
 -0.031332
  0.089417
 -0.082353
 -0.099615
 -0.086293
  0.058651
  0.039484
  0.047683
  0.068449
 -0.070464
 -0.048646
  0.048629
 -0.139788
  0.051068
  0.013531
 -0.008649
  0.011777
  0.263352
 -0.006715
 -0.094534
 -0.013534
 -0.071090
  0.006494
 -0.046398
 -0.026134
  0.086439
  0.090480
 -0.134695
  0.088029
 -0.010066
  0.074755
 -0.025342
 -0.098359
 -0.010364
  0.062144
  0.123031
 -0.020594
 -0.038065
  0.212737
  0.007387
 -0.084506
 -0.088680
 -0.105611
  0.004267
 -0.069127
  0.070931
 -0.119361
 -0.013339
  0.098436
 -0.002286
  0.061822
  0.060557
 -0.037606
 -0.090751
 -0.114039
 -0.050734
 -0.008419
 -0.019322
 -0.012400
  0.092315
 -0.040336
  0.010547
  0.007714
  0.012619
  0.011168
 -0.093422
  0.084550
  0.047774
  0.012761
 -0.101105
  0.032719
  0.102809
 -0.062393
 -0.113798
  0.011844
  0.027667
  0.055154
 -0.100053
 -0.045591
  0.044326
 -0.098885
  0.078629
  0.070778
  0.129043
 -0.047895
  0.048512
 -0.097728
 -0.099472
  0.148642
 -0.030208
 -0.143438
  0.135923
  0.041144
  0.036380
  0.031258
  0.017572
 -0.074647
  0.029597
 -0.132233
  0.128883
 -0.020360
 -0.080420
  0.004082
  0.257901
 -0.037039
 -0.042631
 -0.114980
  0.088893
  0.027833
  0.076278
 -0.094257
 -0.115982
 -0.076887
  0.054145
  0.058209
 -0.088547
 -0.017971
 -0.007098
 -0.036236
 -0.058918
  0.071182
 -0.012273
 -0.043768
  0.106615
  0.032446
  0.005235
 -0.018427
 -0.027011
  0.048976
 -0.068216
  0.148409
 -0.093828
  0.113320
 -0.149085
  0.085170
 -0.087886
 -0.081628
 -0.084335
  0.056815
 -0.060193
 -0.008123
 -0.021950
 -0.104941
 -0.158222
 -0.061621
 -0.100441
  0.049292
 -0.016457
 -0.018071
  0.036443
  0.021942
  0.060753
  0.039328
  0.105776
 -0.038831
 -0.001151
  0.037122
 -0.088272
 -0.040915
 -0.020841
  0.105092
  0.044654
 -0.075779
  0.049990
  0.032588
 -0.066374
 -0.005047
 -0.015917
  0.009204
  0.114127
  0.097292
 -0.026352
  0.043563
  0.081771
  0.070362
 -0.018247
  0.006931
  0.045249
 -0.003096
 -0.034406
 -0.084001
  0.040129
  0.022590
  0.050790
  0.077282
 -0.019428
 -0.025259
  0.019929
 -0.042125
 -0.088234
  0.027616
 -0.034596
  0.049031
  0.061319
 -0.049425
 -0.026975
  0.051627
 -0.048174
  0.002606
  0.179297
  0.080733
 -0.035817
 -0.098433
 -0.045601
 -0.064270
  0.008081
  0.012166
  0.046207
 -0.064345
 -0.005658
 -0.066393
  0.074578
  0.009978
 -0.021494
  0.006698
  0.041117
 -0.070935
  0.115404
  0.053219
  0.138684
 -0.045417
  0.054480
  0.071229
  0.038690
 -0.077762
 -0.036008
  0.047799
 -0.021913
  0.041649
 -0.016971
 -0.015564
 -0.038159
 -0.041523
  0.044913
  0.113486
  0.016381
 -0.116887
  0.020047
  0.127905
  0.049650
 -0.155823
  0.095450
  0.023318
  0.049589
 -0.097256
 -0.063162
  0.009190
  0.027123
 -0.098355
  0.081707
 -0.123798
  0.032048
 -0.008044
 -0.005182
  0.129076
 -0.000508
 -0.056315
  0.064815
 -0.029607
  0.060720
  0.178624
  0.108564
 -0.007649
  0.061535
  0.075535
  0.159960
 -0.222888
 -0.190309
 -0.069657
  0.086241
 -0.070233
 -0.072260
 -0.024624
 -0.010509
  0.073853
 -0.017160
  0.063453
  0.085442
  0.096505
  0.035878
  0.035568
  0.164359
  0.178037
 -0.121251
  0.043224
 -0.092413
  0.115056
 -0.020570
  0.111759
 -0.002305
  0.051960
 -0.044236
 -0.018461
  0.072769
 -0.088802
 -0.015794
 -0.027549
 -0.008806
 -0.000633
 -0.074089
 -0.093232
 -0.108647
  0.090434
  0.111396
 -0.046979
  0.076317
 -0.106414
 -0.000842
 -0.005463
 -0.009170
 -0.109392
 -0.028027
  0.060467
  0.039087
 -0.065668
 -0.000958
  0.137887
 -0.144142
  0.061754
 -0.040026
  0.093226
 -0.095854
  0.071002
 -0.073360
  0.040798
 -0.036051
 -0.049930
  0.016544
  0.097744
 -0.012132
 -0.047226
  0.010051
  0.008291
  0.077653
 -0.050581
  0.001575
 -0.034497
 -0.017287
  0.001471
  0.054182
 -0.121720
 -0.006404
  0.066922
 -0.090282
  0.017392
 -0.138567
  0.033764
 -0.025923
 -0.058177
  0.036701
  0.131398
 -0.041579
  0.052516
 -0.069542
 -0.114167
  0.045092
 -0.130968
  0.027604
  0.145603
 -0.034122
  0.021036
  0.131916
  0.058590
 -0.103501
 -0.004792
  0.020559
 -0.068785
  0.008899
  0.063921
  0.107782
  0.015277
 -0.021142
 -0.029552
 -0.136341
 -0.023447
 -0.067520
  0.014011
  0.061655
  0.060001
 -0.119998
 -0.060210
  0.035248
  0.059751
  0.167705
  0.038294
 -0.046289
  0.071721
  0.035392
 -0.051370
  0.119842
 -0.057796
 -0.051216
  0.014443
 -0.057154
 -0.108626
  0.048245
  0.026484
 -0.019036
  0.100013
  0.039121
 -0.120863
 -0.090615
  0.092423
 -0.100537
 -0.070007
 -0.037402
  0.125683
  0.058370
  0.158619
 -0.084902
 -0.008005
  0.028073
  0.048286
  0.030915
  0.079729
 -0.128514
  0.021197
  0.077512
  0.131159
 -0.058574
 -0.062595
  0.013775
  0.031831
  0.004090
  0.033284
  0.008245
 -0.088129
  0.042491
  0.042408
  0.031979
  0.051831
  0.003776
 -0.018104
 -0.003973
 -0.064917
 -0.044997
 -0.115126
 -0.014081
 -0.092312
  0.040598
 -0.169596
  0.008795
 -0.026852
  0.120560
  0.034962
 -0.013836
  0.036315
  0.153075
 -0.091500
 -0.023124
  0.051866
  0.099602
 -0.080458
 -0.048002
 -0.175075
 -0.043931
  0.059002
 -0.032769
 -0.044078
 -0.064940
 -0.029746
  0.025905
  0.019860
 -0.001326
 -0.123720
  0.132031
 -0.150090
 -0.047953
 -0.029932
 -0.078044
 -0.168072
 -0.046776
 -0.053343
  0.067181
  0.032172
  0.009018
  0.011836
 -0.002527
 -0.029173
 -0.014664
 -0.031709
 -0.090330
 -0.075555
  0.126080
  0.016510
 -0.022955
 -0.068390
 -0.103683
 -0.002504
 -0.001705
 -0.073183
  0.108246
 -0.081179
  0.081433
 -0.003316
  0.048137
 -0.024971
  0.005524
 -0.051338
  0.001859
  0.043725
  0.041796
  0.041260
 -0.015632
  0.019034
 -0.044074
 -0.090845
 -0.074834
  0.062568
  0.067838
 -0.028760
 -0.024371
 -0.017836
 -0.072571
  0.053030
  0.099735
 -0.084219
  0.023340
  0.101678
 -0.091142
 -0.035347
 -0.058580
 -0.039814
 -0.045125
  0.107111
 -0.000900
  0.027639
 -0.074968
 -0.055516
  0.020445
 -0.064777
 -0.105543
 -0.047015
 -0.015727
  0.094168
  0.037193
  0.172933
 -0.088690
 -0.052579
 -0.142549
 -0.062254
  0.112376
  0.004460
  0.012385
  0.071292
  0.011032
 -0.001834
  0.030676
  0.056184
  0.066287
  0.037668
  0.049360
 -0.147122
 -0.159757
 -0.011097
 -0.006383
 -0.069128
  0.056675
  0.054436
 -0.036119
  0.013943
 -0.032535
 -0.043310
 -0.026930
  0.004542
  0.080456
  0.005217
 -0.066510
  0.069915
  0.025317
 -0.065190
 -0.071693
 -0.010537
 -0.048619
 -0.021012
  0.024022
  0.158836
  0.064655
 -0.049143
  0.108448
  0.033127
  0.049324
  0.025801
  0.041731
  0.040030
  0.137401
  0.032602
  0.008078
 -0.143413
  0.004533
  0.010475
 -0.114860
  0.023056
  0.022368
  0.024961
 -0.073235
  0.025997
 -0.010019
  0.096330
 -0.147973
  0.093312
  0.063845
  0.009001
 -0.022899
  0.172973
 -0.168387
  0.007401
 -0.123763
 -0.005224
  0.043958
  0.045975
 -0.034678
  0.090995
  0.108549
  0.018285
  0.158918
 -0.039182
  0.002282
 -0.078551
  0.112936
  0.064585
 -0.010790
  0.136268
 -0.011665
  0.105347
  0.197324
 -0.037367
  0.029159
  0.070742
  0.099337
  0.094105
 -0.033100
  0.064947
  0.015805
  0.050359
 -0.040829
 -0.064544
  0.107515
 -0.057989
  0.019868
 -0.084292
 -0.005560
  0.005090
  0.077330
 -0.014264
 -0.074930
  0.041941
  0.041410
  0.027890
  0.037720
 -0.096023
 -0.056428
  0.028857
 -0.039473
 -0.040379
  0.120885
 -0.055930
 -0.050279
 -0.084206
  0.063397
 -0.043250
  0.003065
 -0.042538
 -0.028206
 -0.068823
  0.078247
 -0.101575
 -0.159477
 -0.027249
  0.010823
 -0.043347
  0.022084
 -0.032077
  0.067619
  0.129502
 -0.138759
 -0.132816
  0.032156
  0.000999
 -0.095523
  0.093502
 -0.034737
  0.016739
 -0.007204
  0.123553
  0.058534
  0.035825
 -0.138605
  0.043053
  0.147937
 -0.020070
  0.099779
  0.133690
 -0.094910
 -0.002693
  0.113981
  0.065550
 -0.029108
  0.027311
  0.044952
 -0.034054
 -0.090428
  0.079682
  0.186111
 -0.139620
 -0.076633
 -0.076260
 -0.008189
 -0.032110
 -0.148253
 -0.020553
 -0.125299
  0.097424
 -0.006265
  0.000644
  0.059994
 -0.099833
  0.027489
 -0.014924
  0.034610
 -0.109894
 -0.065295
  0.065381
 -0.048549
 -0.097572
 -0.059883
  0.014046
  0.052166
  0.055753
  0.101900
  0.041128
 -0.153543
  0.038553
  0.097921
  0.020491
  0.007012
 -0.056999
 -0.046898
 -0.103219
 -0.048600
 -0.123718
  0.011285
  0.038408
  0.029356
 -0.075772
  0.085378
 -0.041017
  0.109008
 -0.075060
 -0.133976
 -0.148150
 -0.005406
  0.063071
 -0.137058
 -0.121852
 -0.025703
  0.120554
  0.030399
 -0.086474
 -0.086726
  0.049584
 -0.133347
 -0.104506
 -0.000209
 -0.015920
  0.055590
  0.021997
 -0.036287
 -0.015574
  0.024794
 -0.058952
 -0.057219
 -0.073824
 -0.054261
 -0.092301
 -0.053615
 -0.079338
  0.015775
 -0.126289
  0.003934
 -0.105615
  0.015478
  0.148613
  0.041069
 -0.119647
  0.152689
  0.146935
  0.135181
 -0.035057
  0.167966
 -0.180065
 -0.065865
  0.031952
  0.034703
 -0.104545
  0.030923
 -0.193004
  0.101674
  0.022195
  0.051689
  0.099631
 -0.024162
  0.005884
  0.110833
  0.020352
 -0.024102
 -0.040814
 -0.104047
  0.110020
  0.034041
 -0.106899
 -0.115777
  0.027983
 -0.094849
 -0.136632
 -0.026110
  0.011165
 -0.038317
 -0.015412
  0.019669
 -0.146539
  0.000156
  0.133603
  0.092274
  0.071747
  0.025665
  0.047478
  0.142759
  0.048930
  0.010380
  0.033504
  0.063859
  0.028117
 -0.101055
 -0.175061
  0.143245
 -0.080443
  0.045069
 -0.022942
  0.064868
 -0.134243
 -0.026593
  0.095132
  0.012053
 -0.036852
  0.087041
 -0.067213
 -0.017101
  0.007473
  0.044916
  0.023227
  0.042666
  0.028539
 -0.034398
 -0.051580
  0.124146
  0.108403
 -0.063179
  0.040861
 -0.032699
  0.029438
 -0.019076
  0.075415
  0.024438
  0.101841
  0.131112
  0.064554
 -0.034382
  0.104641
  0.052862
 -0.019998
 -0.066513
  0.106276
  0.024518
 -0.062594
  0.048882
 -0.020857
  0.076928
 -0.027309
  0.057409
 -0.030121
  0.152508
 -0.029727
 -0.141277
 -0.096237
 -0.009514
  0.053528
 -0.033354
  0.019895
 -0.084534
 -0.101704
 -0.093476
  0.102519
 -0.015584
 -0.018571
 -0.065556
  0.124520
  0.015378
 -0.076551
 -0.105741
  0.083710
  0.016731
 -0.123733
 -0.012171
  0.000586
 -0.067818
 -0.129939
 -0.118418
  0.030845
 -0.039845
  0.039607
  0.084785
  0.092012
  0.016096
 -0.016442
 -0.087407
 -0.005587
 -0.075478
  0.108153
  0.100308
 -0.094556
  0.076679
  0.024310
  0.074759
 -0.139702
  0.147480
  0.058257
 -0.094304
  0.000560
 -0.044582
  0.048372
 -0.017973
  0.171309
 -0.119102
 -0.153618
 -0.063099
  0.058375
  0.048741
  0.159018
  0.011696
  0.035815
 -0.063131
 -0.018112
 -0.026176
  0.047425
 -0.120268
 -0.055441
  0.014633
  0.044660
  0.081425
 -0.048194
 -0.044848
 -0.006547
 -0.062938
 -0.043085
 -0.006118
  0.031667
 -0.031788
  0.158596
 -0.065865
 -0.060262
  0.137391
 -0.002772
 -0.068167
  0.045506
  0.044832
  0.009738
  0.164966
  0.091589
  0.103643
 -0.045754
 -0.219123
  0.002107
  0.074855
  0.072383
  0.055210
 -0.054709
 -0.107803
 -0.031819
 -0.008631
 -0.036566
 -0.044111
  0.154537
 -0.039090
 -0.120935
  0.118785
  0.035862
  0.043684
 -0.060579
 -0.075072
 -0.016689
  0.076813
  0.001985
 -0.026920
  0.089014
  0.123114
 -0.010866
  0.008925
  0.191764
 -0.158749
 -0.085806
  0.204935
  0.041273
 -0.018262
  0.058873
 -0.011491
  0.015180
  0.135773
  0.005664
  0.042725
  0.107443
  0.068037
  0.109662
  0.024535
  0.073271
  0.071509
  0.078003
 -0.140019
 -0.068177
 -0.045173
  0.122777
 -0.107531
  0.049098
 -0.039972
 -0.030093
 -0.201529
  0.008429
  0.038002
 -0.011314
  0.049105
  0.078106
  0.032539
 -0.087407
  0.007435
  0.068710
  0.072393
 -0.070288
 -0.136670
 -0.055508
  0.103284
 -0.047081
  0.171648
 -0.033038
 -0.027152
  0.111102
 -0.122604
  0.011132
  0.002755
  0.016257
  0.072925
 -0.041784
 -0.049404
 -0.086495
  0.169116
 -0.025169
  0.059737
 -0.046894
 -0.028721
  0.014569
 -0.026439
 -0.054600
  0.086711
 -0.003201
  0.045115
  0.004276
 -0.016717
  0.124834
  0.055824
  0.013892
  0.108984
  0.055346
 -0.074389
 -0.014116
 -0.099441
  0.062130
  0.056027
 -0.038275
 -0.000304
 -0.052495
  0.054971
 -0.034081
 -0.061597
 -0.083891
 -0.114762
 -0.031167
  0.024353
  0.012037
  0.058955
  0.077011
 -0.031172
  0.013856
 -0.042970
 -0.006722
  0.045020
 -0.086167
 -0.098370
 -0.152173
 -0.090209
 -0.104841
 -0.007306
 -0.056789
 -0.090695
  0.023761
 -0.022212
 -0.016130
 -0.072069
  0.074445
  0.079863
 -0.108810
 -0.010617
  0.008907
 -0.001741
  0.002026
  0.193020
  0.091524
 -0.050319
 -0.103756
  0.029301
  0.033252
 -0.145883
 -0.025946
  0.078104
  0.004998
 -0.231651
  0.004113
 -0.059480
 -0.041260
  0.154138
 -0.154832
  0.004145
  0.087152
  0.020508
 -0.136807
 -0.088665
 -0.009684
  0.027649
 -0.041732
 -0.053263
  0.091154
 -0.035336
  0.016541
 -0.072309
  0.015006
 -0.062868
 -0.176715
  0.010547
 -0.122390
  0.067631
 -0.056266
 -0.028916
  0.006433
 -0.029441
  0.051230
 -0.028623
  0.205412
  0.050116
 -0.055393
  0.090763
 -0.000739
  0.046116
  0.023475
 -0.059210
 -0.027786
 -0.079073
  0.160361
  0.015954
  0.029115
  0.022364
 -0.011793
  0.142507
  0.091729
 -0.006159
  0.131137
  0.055445
  0.066585
 -0.114931
 -0.119351
  0.249346
  0.056856
 -0.069999
 -0.015641
  0.055545
 -0.013098
 -0.061385
  0.080273
 -0.108368
 -0.002041
 -0.045361
  0.173248
  0.024043
 -0.063432
  0.116461
 -0.024520
  0.049077
 -0.039472
  0.032215
 -0.068276
 -0.049167
  0.021882
 -0.083580
 -0.029254
 -0.015857
  0.044371
 -0.059194
 -0.194595
  0.084407
 -0.063458
 -0.086999
 -0.096806
 -0.059147
 -0.054844
  0.063648
  0.003911
  0.158726
 -0.041670
 -0.094654
  0.022040
  0.054920
 -0.002234
 -0.091824
 -0.131063
  0.018747
  0.202793
 -0.017052
  0.053943
  0.039408
 -0.143865
 -0.017827
  0.022927
  0.051187
  0.046144
  0.114095
 -0.117561
 -0.093455
 -0.101045
  0.052332
  0.003348
  0.071606
 -0.019868
 -0.064184
  0.050838
 -0.074574
 -0.004171
  0.157585
 -0.072985
 -0.047247
 -0.067927
  0.014519
 -0.067377
  0.014601
  0.017106
  0.085349
  0.045643
  0.014034
 -0.036451
  0.031603
  0.028749
  0.009906
  0.081676
  0.097682
 -0.132279
  0.030590
  0.017208
 -0.096195
  0.028834
 -0.080213
 -0.070711
  0.053789
  0.026359
  0.098881
 -0.066041
 -0.134458
  0.089222
 -0.000530
 -0.145669
 -0.090224
 -0.049686
 -0.059080
  0.046823
  0.092893
 -0.012114
 -0.002310
 -0.161850
 -0.081078
 -0.088324
  0.007606
 -0.090629
 -0.041243
  0.004829
 -0.140473
 -0.089393
  0.010245
  0.177874
  0.012934
 -0.001433
 -0.046033
  0.103466
  0.069240
 -0.126449
 -0.123247
  0.021888
 -0.019182
  0.077187
 -0.055668
 -0.002084
 -0.092936
 -0.011380
 -0.142991
 -0.065016
 -0.130992
  0.010501
  0.024823
 -0.031102
  0.042395
  0.080880
 -0.069540
  0.011342
 -0.012058
 -0.132866
  0.098273
 -0.049062
 -0.013966
 -0.055559
 -0.096635
 -0.154902
 -0.182891
  0.034148
 -0.015165
 -0.025295
  0.095857
 -0.016754
  0.011490
 -0.152207
  0.011386
  0.050383
 -0.017656
 -0.074599
  0.073822
  0.013866
 -0.052374
  0.005948
 -0.070436
 -0.189965
  0.203408
  0.043637
  0.027303
 -0.100623
  0.078506
 -0.061005
  0.043752
 -0.042078
 -0.068438
 -0.010639
 -0.015469
 -0.067290
  0.016099
 -0.155938
 -0.085072
  0.069117
  0.009179
 -0.309235
  0.034472
  0.029360
 -0.048569
 -0.131617
 -0.067612
 -0.074004
 -0.048932
  0.025302
 -0.077458
 -0.225671
 -0.009366
 -0.132788
 -0.037695
 -0.085683
 -0.175897
 -0.047159
 -0.060362
 -0.215662
 -0.078365
 -0.051156
 -0.049905
  0.045905
 -0.106042
 -0.060153
 -0.181536
 -0.005974
 -0.096395
  0.033794
  0.034922
 -0.218771
 -0.035148
 -0.151468
 -0.010629
 -0.075017
 -0.012912
  0.037028
 -0.027186
 -0.024827
  0.021832
 -0.006998
 -0.002435
 -0.120559
 -0.080071
 -0.079709
 -0.029844
 -0.195285
 -0.039422
****
