PROJECT: W75X_2015Dec08
NCH:     4096
BW:   2.50000e+07
VELOCITY:       0.00000
PV:      0.480000
FREQ:    2.2235080e+09
DATE:     2015      12       8
TIME:       14      52      33
POSITION:       309.654      42.6272
INTEGRATION TIMES:       60.0000      60.0000
MAX VALUE:      0.039238926
 -0.026079
 -0.024031
  0.095079
  0.069012
 -0.020383
  0.012358
  0.045347
 -0.055157
 -0.010701
 -0.018238
 -0.081170
  0.049080
 -0.081141
 -0.032841
 -0.026013
 -0.084984
 -0.019890
 -0.034656
 -0.029366
 -0.004507
 -0.088464
  0.043333
  0.036566
 -0.131837
  0.058918
 -0.040294
 -0.072845
  0.025909
  0.049559
 -0.048353
 -0.072643
 -0.033104
 -0.059920
  0.072421
 -0.128237
  0.007339
 -0.078310
 -0.002066
 -0.094462
 -0.034539
 -0.044993
  0.054659
 -0.031104
 -0.028825
 -0.056855
  0.011312
 -0.051294
  0.021272
 -0.069842
  0.038099
 -0.040819
 -0.091013
 -0.107324
 -0.083670
  0.018001
 -0.005648
  0.041293
 -0.069369
 -0.062894
 -0.057084
  0.038090
 -0.019261
  0.025863
 -0.045851
  0.004900
 -0.106767
 -0.058105
 -0.071785
  0.021872
 -0.063394
  0.051018
 -0.133922
 -0.042004
  0.054104
  0.020672
 -0.005642
  0.021043
 -0.022500
  0.017647
 -0.020425
  0.004223
 -0.012964
  0.028132
  0.018723
  0.066958
  0.002691
  0.005436
  0.000326
 -0.038819
  0.033579
 -0.011449
  0.088035
 -0.022512
  0.010801
  0.008584
 -0.037456
  0.024828
  0.004235
 -0.012754
 -0.007340
 -0.047078
  0.042451
 -0.043744
  0.064686
 -0.042502
  0.040723
  0.061754
 -0.063912
  0.006039
  0.025288
  0.031512
 -0.043901
  0.056622
 -0.018149
  0.007600
  0.003535
  0.025714
  0.021488
  0.020131
 -0.022386
  0.056777
 -0.017262
  0.045166
 -0.027953
 -0.096906
  0.100467
  0.089299
  0.041231
 -0.023262
  0.001122
  0.012132
 -0.015062
 -0.009829
 -0.006782
 -0.027183
  0.047080
  0.021858
  0.040089
 -0.000787
  0.010235
 -0.015363
 -0.007455
  0.010209
 -0.026632
 -0.016246
 -0.088803
  0.079627
  0.011746
 -0.113660
 -0.103174
  0.067242
 -0.053366
  0.022171
  0.088865
  0.052682
  0.033291
 -0.032095
 -0.000818
 -0.025949
  0.017814
  0.000750
 -0.052553
 -0.007204
  0.065242
 -0.097447
 -0.000345
 -0.007832
 -0.063559
  0.079589
 -0.021891
  0.052175
 -0.073334
  0.022891
 -0.006390
 -0.066114
 -0.086558
  0.024495
  0.099546
 -0.027087
 -0.052274
 -0.076424
 -0.029810
  0.024570
  0.017855
 -0.035060
  0.024057
 -0.006134
 -0.000281
 -0.001433
  0.028594
 -0.060593
 -0.049653
  0.051736
  0.053747
 -0.085026
 -0.031439
 -0.094952
  0.017177
 -0.052919
 -0.019378
  0.020051
 -0.007005
  0.050430
 -0.048894
  0.051326
 -0.020127
  0.015526
 -0.001805
  0.072882
  0.006708
  0.026506
  0.068720
  0.058668
 -0.055808
  0.082955
 -0.043184
 -0.125778
  0.039297
 -0.101689
 -0.009167
  0.044290
 -0.040855
 -0.007095
  0.062532
 -0.050360
  0.057015
  0.071700
  0.040300
  0.037950
  0.011841
 -0.078929
 -0.016518
 -0.034400
  0.017097
 -0.038864
 -0.146362
 -0.087244
 -0.032595
 -0.034887
 -0.002775
 -0.003769
  0.020447
  0.021850
  0.041885
  0.077555
 -0.024431
 -0.069831
  0.066646
  0.023345
 -0.012151
  0.065984
  0.011471
  0.032583
  0.003904
  0.019462
  0.053966
 -0.019375
 -0.029261
  0.022514
  0.026613
 -0.013645
  0.034115
  0.026510
  0.040906
 -0.002266
 -0.015679
 -0.024535
  0.079125
 -0.128336
  0.055210
  0.041585
  0.013714
  0.019272
 -0.020191
  0.022656
 -0.003039
  0.027237
  0.000269
 -0.021869
 -0.068868
  0.078808
 -0.060477
  0.003545
  0.032062
 -0.069615
 -0.039838
 -0.001852
 -0.068542
 -0.093722
 -0.066936
 -0.030799
 -0.084930
 -0.016595
 -0.038938
  0.018090
  0.057557
 -0.060358
  0.066968
  0.011835
  0.067589
  0.038387
 -0.044958
 -0.001771
 -0.007807
 -0.005702
  0.031487
 -0.024045
  0.027569
 -0.031488
  0.005929
 -0.006748
  0.049893
 -0.028415
  0.014827
 -0.076599
 -0.028029
 -0.046173
 -0.054516
  0.031707
  0.008615
  0.018461
 -0.001787
 -0.042123
  0.020371
 -0.013963
  0.011240
  0.035428
 -0.014161
  0.010549
  0.056818
  0.013156
 -0.060150
  0.019326
 -0.016036
 -0.004171
  0.041344
 -0.030399
  0.083310
  0.073667
  0.008657
 -0.044571
 -0.002437
 -0.086287
 -0.028011
 -0.022736
 -0.010696
  0.059470
  0.073535
  0.031202
 -0.019276
  0.003891
  0.009776
  0.019814
  0.002658
 -0.011376
  0.030774
  0.055727
  0.035892
  0.013489
  0.013047
 -0.049441
 -0.020635
  0.031630
  0.046327
  0.009110
 -0.015120
 -0.072628
 -0.022211
 -0.020863
  0.124083
 -0.058731
 -0.045883
  0.009716
  0.022954
  0.045993
 -0.031689
 -0.018609
  0.035459
 -0.024167
 -0.048914
 -0.020301
 -0.027677
  0.020595
  0.058070
  0.037196
 -0.016947
 -0.008534
 -0.009507
 -0.019999
 -0.038600
  0.032206
  0.023487
  0.051071
  0.043818
  0.039045
  0.009072
 -0.046943
 -0.039601
 -0.017532
  0.096887
 -0.048391
  0.122981
 -0.014369
  0.044381
  0.036529
 -0.000835
  0.062645
 -0.022694
 -0.023671
 -0.018679
  0.005222
 -0.043779
  0.061031
 -0.020676
  0.033069
  0.029726
  0.018591
  0.013886
 -0.004690
  0.075609
 -0.068155
  0.000944
  0.059931
  0.012984
 -0.031046
  0.036663
  0.043945
 -0.098553
  0.039546
  0.025368
  0.023346
  0.014632
  0.029868
  0.015752
  0.032241
  0.009305
 -0.065550
 -0.011312
  0.037690
 -0.064811
 -0.035875
  0.017612
 -0.008642
  0.085684
  0.016440
 -0.007658
 -0.032423
  0.014434
 -0.122600
  0.054694
 -0.050836
  0.024467
  0.059098
 -0.050573
  0.030428
  0.009132
  0.029448
 -0.013281
  0.062929
  0.020621
 -0.016382
 -0.086827
 -0.023608
  0.023809
 -0.039316
 -0.019860
  0.066646
 -0.010658
  0.001250
  0.045510
  0.035234
 -0.032915
 -0.024700
  0.034862
 -0.073412
 -0.029837
 -0.033660
 -0.020568
 -0.002030
  0.042685
 -0.059103
  0.026013
  0.015551
  0.064036
 -0.003324
 -0.046904
 -0.022529
 -0.051770
  0.053537
  0.111969
 -0.003900
 -0.038398
  0.007301
 -0.048347
 -0.057278
  0.062866
  0.033294
  0.032934
 -0.012377
 -0.060653
  0.041648
  0.028841
 -0.035138
 -0.064141
  0.006900
  0.041539
 -0.008249
 -0.008580
 -0.056977
  0.019912
  0.005976
  0.002078
  0.073113
 -0.049462
 -0.044624
 -0.001736
  0.007382
  0.010144
  0.050987
  0.028232
  0.022172
  0.002883
  0.026163
 -0.014179
 -0.047561
 -0.045237
 -0.020431
  0.080958
  0.083790
 -0.025576
 -0.005018
 -0.019659
 -0.031592
  0.007062
  0.049973
  0.001814
 -0.005687
 -0.016417
 -0.067710
  0.068401
 -0.008874
  0.003662
 -0.013077
  0.014623
 -0.051283
  0.000333
 -0.033580
  0.007042
 -0.078699
 -0.007922
  0.024134
 -0.085915
  0.045771
 -0.017066
  0.027550
 -0.043170
 -0.071108
  0.010437
  0.006414
  0.005626
  0.015463
 -0.088405
  0.075597
  0.049541
  0.024524
 -0.046692
 -0.002164
 -0.020932
 -0.043102
  0.025498
 -0.032304
  0.006659
  0.141205
  0.028800
 -0.024958
 -0.004360
 -0.037610
  0.000293
 -0.064907
 -0.077738
 -0.009450
 -0.006234
  0.041841
 -0.014986
  0.010589
  0.000733
 -0.035872
 -0.049223
 -0.044678
 -0.069146
 -0.021026
  0.011514
  0.052913
 -0.039674
  0.025820
 -0.088344
  0.055035
 -0.018252
  0.003586
  0.021762
  0.006761
  0.060404
 -0.153559
  0.079441
 -0.005759
  0.095689
 -0.035863
 -0.023118
  0.092595
 -0.026539
  0.037098
 -0.010673
  0.022077
  0.056680
  0.008539
 -0.002829
  0.093304
 -0.020528
  0.075312
 -0.041152
 -0.042391
 -0.044059
 -0.031707
  0.019939
  0.005824
  0.037004
 -0.028408
 -0.006091
 -0.022303
  0.049599
  0.029438
  0.012488
 -0.005061
  0.026047
  0.011560
 -0.020999
 -0.099466
  0.071569
  0.030110
 -0.019652
 -0.006192
  0.017423
 -0.004146
  0.005241
  0.064551
 -0.029187
 -0.018045
  0.045175
  0.013263
  0.013837
 -0.004489
  0.121495
  0.084208
 -0.044663
 -0.000913
  0.019549
  0.008880
  0.006644
 -0.021003
  0.000823
 -0.031973
  0.032451
  0.039278
 -0.059501
 -0.090230
  0.068496
 -0.012175
  0.002167
  0.010486
  0.038473
 -0.028640
  0.018879
  0.064090
  0.026594
  0.014125
  0.035006
 -0.027675
  0.064647
 -0.026388
  0.033593
  0.008685
 -0.023484
  0.038342
  0.025149
 -0.011917
 -0.089829
  0.009139
  0.000363
 -0.151125
  0.026465
 -0.010683
  0.000126
  0.036847
 -0.079286
  0.034827
 -0.012248
 -0.056602
 -0.031869
 -0.007922
  0.027505
  0.110443
 -0.021905
 -0.111460
  0.010454
  0.054551
  0.023019
 -0.046678
 -0.015191
  0.017276
  0.006181
 -0.091425
 -0.015502
  0.056639
  0.050391
  0.053165
 -0.029089
 -0.027537
  0.002710
 -0.009786
 -0.003821
 -0.059625
 -0.004666
  0.043430
 -0.005905
 -0.036071
  0.076115
 -0.009625
 -0.021819
 -0.028060
  0.031243
 -0.077867
 -0.021638
 -0.014742
 -0.111169
  0.070069
 -0.074386
  0.055956
  0.046096
 -0.092702
  0.080026
  0.047360
 -0.014111
 -0.002109
 -0.045765
 -0.013739
  0.031823
 -0.035162
  0.137121
 -0.008195
  0.075776
  0.027239
  0.044881
  0.059874
 -0.030504
  0.000411
 -0.029502
 -0.040127
 -0.021980
  0.046687
 -0.009806
  0.042293
 -0.081763
 -0.000310
 -0.057889
  0.048337
  0.109549
  0.012605
  0.063224
  0.026373
 -0.051899
  0.071721
 -0.102618
 -0.026108
  0.075970
 -0.034534
  0.049916
  0.107108
 -0.026369
 -0.040172
 -0.010797
 -0.004032
 -0.001005
 -0.042696
 -0.054767
 -0.012045
 -0.010254
  0.012831
  0.033650
  0.049549
 -0.004143
 -0.040396
  0.051131
  0.015201
 -0.022164
 -0.017810
  0.025360
 -0.032076
  0.016333
  0.000310
  0.086179
 -0.050665
  0.045873
  0.060987
  0.015991
 -0.010461
 -0.065971
  0.006120
  0.012651
 -0.115903
  0.047212
 -0.048426
  0.067912
  0.046654
 -0.022495
  0.036913
  0.008568
 -0.013679
 -0.036711
  0.005666
  0.101030
 -0.023790
 -0.068544
 -0.005781
 -0.014862
 -0.069746
 -0.010188
 -0.029074
  0.069921
  0.004958
 -0.021332
  0.022954
  0.033366
  0.031361
 -0.032543
  0.079054
 -0.065169
 -0.049218
 -0.046639
  0.044543
 -0.076077
  0.002644
 -0.050000
  0.028429
 -0.043049
  0.053605
 -0.051217
  0.014186
  0.036919
 -0.087204
  0.050851
 -0.105976
 -0.014766
 -0.020316
  0.000012
 -0.001922
  0.036990
 -0.069164
  0.012681
 -0.114188
 -0.041280
 -0.016151
  0.034813
 -0.029972
  0.054019
  0.004020
  0.017502
 -0.018408
 -0.038567
 -0.029775
 -0.055328
 -0.027599
 -0.022646
 -0.063663
  0.094911
 -0.019759
  0.021752
 -0.018191
  0.021593
 -0.016692
 -0.065433
 -0.034436
  0.043183
  0.013277
  0.013049
 -0.034998
  0.004160
 -0.048010
  0.018181
 -0.017967
  0.005953
  0.014375
 -0.010727
 -0.032168
  0.056283
  0.002517
 -0.043062
  0.058219
 -0.032146
 -0.103226
 -0.056536
  0.014255
  0.021717
  0.019963
 -0.078988
  0.012395
  0.012621
  0.075974
 -0.036822
  0.079336
  0.019887
  0.009672
 -0.098228
 -0.041529
  0.079450
  0.055299
 -0.015633
 -0.040599
 -0.008295
 -0.033515
  0.027141
 -0.052180
 -0.094827
  0.018547
 -0.008761
 -0.029640
  0.003912
 -0.000761
 -0.027690
  0.004258
 -0.032040
  0.065778
  0.064237
 -0.016773
 -0.033891
  0.039940
  0.025111
 -0.019990
 -0.054093
  0.014958
 -0.008185
 -0.029341
  0.029895
 -0.004284
  0.024669
 -0.023345
  0.010160
  0.007860
  0.020940
  0.002053
  0.018117
  0.004971
  0.056528
 -0.092075
 -0.017384
 -0.055554
  0.091298
 -0.079549
  0.021828
  0.039982
  0.009654
 -0.043803
 -0.067436
 -0.042123
  0.029412
  0.048974
 -0.009733
 -0.130491
  0.047911
  0.011610
  0.011714
  0.028510
  0.082085
 -0.012400
 -0.103200
  0.038255
  0.001937
  0.023806
  0.053081
 -0.019152
 -0.022535
  0.033428
 -0.041121
  0.041181
 -0.045396
 -0.134871
 -0.022950
 -0.021898
  0.051296
 -0.031537
 -0.029388
  0.044274
 -0.070961
  0.001290
  0.040893
 -0.044673
  0.019733
  0.030639
  0.058067
  0.052036
 -0.018827
  0.075452
  0.042201
 -0.089864
 -0.041569
 -0.034909
  0.028636
 -0.036415
  0.037715
  0.048050
  0.016440
 -0.046672
  0.097549
 -0.140097
 -0.007115
  0.041759
 -0.021018
 -0.051319
  0.030870
 -0.000521
 -0.033013
 -0.000842
  0.124226
  0.063171
 -0.036973
 -0.068614
 -0.046280
 -0.113299
  0.027682
 -0.002025
  0.026462
 -0.008447
 -0.058404
 -0.042769
  0.020820
 -0.015080
 -0.079124
  0.003702
  0.083686
  0.018781
 -0.031646
  0.075577
  0.053259
 -0.005948
  0.052615
 -0.020033
  0.019671
 -0.006543
  0.076171
 -0.029872
 -0.005689
 -0.000261
 -0.022794
 -0.046381
 -0.037592
  0.101270
  0.042875
 -0.016253
 -0.047899
 -0.077919
  0.017427
  0.046954
  0.042081
  0.030774
  0.072781
  0.012653
 -0.002467
 -0.015967
 -0.028748
 -0.008309
 -0.036475
  0.020306
 -0.037129
 -0.033946
  0.019906
 -0.035571
  0.007676
  0.088149
 -0.026121
  0.032629
 -0.035277
  0.009390
 -0.014346
  0.004819
 -0.060380
 -0.111732
 -0.032089
 -0.024693
  0.033594
  0.005133
 -0.026660
 -0.051014
  0.037132
 -0.053060
  0.061189
  0.002255
 -0.002682
  0.040696
 -0.029769
 -0.014546
  0.103783
  0.061965
  0.008443
  0.030391
  0.080591
 -0.018469
  0.007254
  0.025499
  0.030481
 -0.055343
 -0.053447
  0.000629
  0.047943
 -0.033144
  0.015591
  0.039009
 -0.027960
 -0.048849
 -0.036442
  0.045986
 -0.062228
 -0.063081
  0.020515
  0.038651
 -0.046045
  0.001869
 -0.047011
  0.058844
 -0.040521
 -0.011470
 -0.110918
  0.061130
 -0.027103
  0.110627
  0.069534
  0.057079
 -0.023074
  0.003639
 -0.073744
 -0.080038
 -0.050573
  0.060531
 -0.057735
  0.028927
 -0.040870
  0.014059
 -0.034078
 -0.066321
  0.012093
 -0.036016
  0.040626
 -0.025881
 -0.070850
  0.024861
  0.053477
 -0.017305
  0.019415
 -0.067394
 -0.016276
 -0.059629
  0.005824
 -0.029754
  0.004437
  0.033935
 -0.059948
 -0.007799
 -0.028299
 -0.065269
  0.036065
  0.013848
  0.030892
  0.093375
  0.054801
  0.025189
 -0.015612
 -0.000239
 -0.002494
  0.019694
 -0.075570
 -0.017819
  0.014334
  0.088472
  0.011092
  0.010777
  0.004768
  0.050923
  0.014610
  0.046293
 -0.019980
 -0.039040
 -0.003725
  0.019410
  0.020355
  0.016065
  0.057275
  0.015029
  0.040930
  0.028583
 -0.028955
 -0.003277
  0.031870
  0.031049
  0.033899
  0.026421
 -0.014273
  0.016206
 -0.058574
  0.036211
  0.028710
  0.016290
 -0.011658
 -0.069828
  0.070640
  0.047276
  0.066504
 -0.047424
 -0.012502
  0.005374
 -0.004712
  0.018135
  0.045306
  0.055074
  0.018645
 -0.080095
  0.067434
 -0.088897
  0.055117
 -0.033176
  0.027278
  0.000330
  0.074840
  0.051817
 -0.066300
 -0.033159
  0.063520
 -0.082421
 -0.014796
 -0.023649
  0.038906
  0.074826
 -0.001998
 -0.036295
 -0.071282
 -0.018426
  0.037024
  0.029994
  0.034770
 -0.055905
 -0.032556
  0.014817
 -0.026745
  0.065526
  0.013320
 -0.067970
  0.062389
  0.044991
 -0.057780
 -0.090873
  0.109609
  0.004893
 -0.027223
 -0.022088
 -0.001745
  0.001257
 -0.043572
  0.063539
 -0.018550
  0.066400
  0.010055
 -0.032097
  0.009820
 -0.011145
  0.065547
  0.042179
  0.025962
  0.087338
 -0.012815
  0.075279
  0.016772
 -0.060672
 -0.001643
  0.002027
 -0.060349
 -0.003493
 -0.015696
  0.018065
  0.037403
  0.016748
 -0.031421
  0.032210
  0.019901
 -0.001921
  0.004142
  0.026273
 -0.024624
 -0.036494
 -0.027878
  0.052478
  0.058214
  0.073783
  0.062782
 -0.069724
 -0.040661
  0.036923
  0.026273
  0.023472
  0.072016
  0.070233
  0.073970
  0.055381
 -0.053569
  0.059290
  0.050777
 -0.064116
  0.021183
  0.036433
  0.021978
  0.030304
 -0.019986
  0.048859
 -0.028286
 -0.072592
 -0.001192
  0.027296
  0.052279
  0.014061
  0.100131
  0.022057
 -0.010309
  0.003135
 -0.002455
  0.002874
  0.028878
 -0.056421
  0.020840
  0.080365
 -0.016853
  0.120016
  0.004730
  0.012375
 -0.037457
 -0.035070
 -0.067916
  0.063280
 -0.028748
  0.051613
  0.015807
 -0.008364
 -0.016050
  0.039803
 -0.054873
  0.000067
 -0.013906
  0.007797
  0.033352
  0.020969
  0.006360
 -0.018592
 -0.062851
  0.005451
 -0.060876
 -0.009969
 -0.001512
  0.010538
  0.046328
 -0.006816
 -0.068481
  0.056705
  0.074385
 -0.005170
  0.046169
 -0.049596
 -0.085416
  0.044583
 -0.041167
 -0.017333
  0.075216
 -0.002717
 -0.048501
  0.023886
  0.045651
 -0.041691
 -0.053238
  0.009631
 -0.049121
  0.009718
 -0.064379
  0.017436
  0.050369
  0.058884
 -0.043984
  0.012598
  0.050746
  0.007107
 -0.065981
  0.001650
 -0.018780
  0.012110
  0.040739
  0.080579
 -0.007666
  0.074040
 -0.041024
  0.021568
 -0.005540
 -0.032081
  0.006423
 -0.024302
  0.029655
  0.011723
  0.010793
  0.001389
 -0.072260
 -0.064523
 -0.002673
 -0.039978
 -0.004609
  0.009606
 -0.038482
 -0.062736
 -0.064733
  0.008430
 -0.020695
 -0.102753
  0.047856
  0.031096
 -0.032053
 -0.036107
 -0.016688
  0.024217
 -0.006566
 -0.017063
 -0.052746
  0.030553
 -0.021279
  0.015349
  0.040257
 -0.017581
 -0.036950
 -0.014277
 -0.041167
 -0.001961
  0.021456
  0.030585
 -0.047905
  0.026514
  0.058696
 -0.015496
  0.034154
 -0.067523
  0.040402
  0.007493
 -0.035734
 -0.009642
 -0.020627
 -0.064985
  0.021335
  0.025753
  0.021137
 -0.039121
 -0.033989
  0.050902
 -0.021303
  0.020417
 -0.021667
 -0.055831
  0.001776
 -0.017871
  0.062648
  0.003426
 -0.001005
  0.068399
 -0.020894
 -0.021940
  0.061521
 -0.077806
 -0.011826
 -0.001209
 -0.067918
 -0.066253
 -0.005392
  0.051425
  0.022028
  0.016351
 -0.047072
  0.070608
  0.008911
 -0.027768
  0.009746
 -0.025727
  0.043603
 -0.006939
 -0.020978
  0.050094
 -0.055235
 -0.000311
 -0.039485
 -0.053564
 -0.005964
 -0.008004
 -0.001149
 -0.084475
 -0.016059
  0.052343
 -0.118487
  0.009306
 -0.067977
 -0.022539
 -0.014488
  0.036520
 -0.008933
  0.012754
 -0.014100
 -0.066863
  0.083169
  0.014502
  0.038148
  0.024155
 -0.009195
 -0.042164
  0.049707
 -0.008900
  0.048638
  0.001974
 -0.039771
 -0.006732
  0.108474
  0.003830
  0.009794
 -0.000110
  0.025972
  0.035918
  0.026661
  0.056824
  0.104090
  0.059805
  0.050148
  0.073604
  0.022254
 -0.033797
 -0.062587
 -0.052055
 -0.046768
  0.021339
 -0.046070
  0.107598
 -0.005204
  0.107565
 -0.039612
  0.012198
  0.013658
  0.069464
  0.080126
  0.088536
 -0.073012
  0.067953
  0.005973
 -0.048650
 -0.024851
  0.002896
  0.037716
  0.075190
 -0.069300
  0.017042
  0.007590
  0.017864
  0.037919
  0.009041
 -0.027892
 -0.001880
  0.014971
  0.047240
  0.010437
  0.005566
 -0.149226
  0.040779
 -0.019192
  0.052369
  0.016065
 -0.004974
 -0.004385
  0.071215
 -0.018015
  0.015150
 -0.007405
  0.022300
  0.030664
 -0.015048
  0.048870
  0.044510
 -0.018025
 -0.006083
  0.017793
  0.030726
  0.052756
  0.024162
 -0.033747
 -0.099716
  0.072205
 -0.013183
  0.011172
 -0.027916
 -0.074239
 -0.076418
 -0.062303
 -0.052201
 -0.035699
 -0.034568
 -0.032672
 -0.080218
  0.015948
  0.032158
 -0.043445
 -0.030764
 -0.021595
 -0.011702
 -0.034734
 -0.033654
 -0.012725
  0.020332
 -0.083919
  0.042880
 -0.035477
 -0.038634
  0.029141
 -0.049674
  0.003776
 -0.051669
  0.018052
  0.046453
 -0.046678
  0.062228
 -0.029810
  0.021735
  0.048440
 -0.058569
 -0.052360
  0.050091
  0.024917
  0.009405
  0.021302
  0.046986
 -0.079068
  0.043892
  0.087428
 -0.056173
 -0.036219
  0.061389
  0.021711
  0.036197
 -0.016034
 -0.017990
 -0.099595
  0.000279
 -0.041166
 -0.080940
  0.056658
 -0.032684
 -0.036222
  0.064211
 -0.023771
  0.107521
  0.043888
 -0.040938
  0.106177
 -0.007494
  0.016356
 -0.007358
 -0.039480
 -0.046979
  0.062445
 -0.030744
 -0.002218
 -0.003454
 -0.003181
  0.032603
 -0.017582
 -0.005609
 -0.054023
  0.076302
  0.071997
 -0.041203
  0.005937
  0.023266
  0.017885
 -0.026241
  0.082658
 -0.060411
 -0.018282
 -0.003051
 -0.052385
 -0.084176
 -0.092454
 -0.004069
 -0.006418
  0.024140
  0.011673
 -0.050837
 -0.046536
 -0.068691
 -0.047893
  0.042901
 -0.082304
 -0.026829
 -0.001141
 -0.011191
  0.007388
  0.023878
 -0.028252
 -0.046427
 -0.072011
 -0.059483
  0.057483
 -0.039558
  0.006543
  0.027893
 -0.018480
 -0.082407
  0.008773
  0.032926
 -0.037389
  0.107762
 -0.122705
 -0.012028
  0.005312
 -0.027705
  0.065225
  0.003921
 -0.043820
  0.013330
 -0.063373
 -0.107307
 -0.034076
  0.023764
  0.030268
  0.007305
 -0.000501
 -0.069744
 -0.029586
 -0.073483
  0.066044
  0.028347
 -0.059389
 -0.035753
  0.008533
  0.022089
  0.008483
 -0.044288
 -0.009878
  0.038820
  0.093979
 -0.028251
  0.012550
  0.002729
 -0.059598
  0.002506
 -0.019984
 -0.009706
  0.059000
 -0.021853
  0.008748
  0.005847
 -0.031784
  0.016485
 -0.025910
 -0.013704
  0.036233
 -0.043631
 -0.060037
 -0.003783
 -0.053952
  0.004009
 -0.026453
 -0.048185
 -0.036054
  0.107504
 -0.012723
  0.059070
  0.001989
  0.102171
 -0.013046
  0.062257
 -0.073164
 -0.007064
  0.028893
 -0.014721
 -0.058332
  0.009766
  0.027724
  0.072595
  0.100246
  0.054674
  0.072092
  0.016894
  0.022758
 -0.007830
  0.075213
  0.039808
  0.113149
  0.007723
  0.152552
  0.257901
  0.365941
  0.423611
  0.417212
  0.424242
  0.376841
  0.353969
  0.313755
  0.307549
  0.276354
  0.234259
  0.259488
  0.335058
  0.356432
  0.309292
  0.383990
  0.345950
  0.278535
  0.196299
  0.335334
  0.254181
  0.265130
  0.265583
  0.243991
  0.157822
  0.290750
  0.275010
  0.339925
  0.229719
  0.373507
  0.388281
  0.446637
  0.485932
  0.428461
  0.554524
  0.551474
  0.463523
  0.429910
  0.456481
  0.471843
  0.525485
  0.535112
  0.538829
  0.601234
  0.592034
  0.651095
  0.767359
  0.773995
  0.732864
  0.649794
  0.571934
  0.507008
  0.432029
  0.301226
  0.312236
  0.250812
  0.187222
  0.111962
  0.177723
  0.140309
  0.126602
  0.132126
  0.159092
  0.069713
 -0.051509
 -0.049087
  0.107158
 -0.029710
  0.032053
  0.009139
  0.022689
 -0.035126
  0.030240
 -0.025731
 -0.002066
 -0.037698
  0.024816
 -0.023703
  0.030882
 -0.010257
  0.030086
  0.068677
 -0.009737
  0.031684
  0.045616
  0.042266
 -0.029995
  0.010303
 -0.042722
 -0.012508
  0.058524
 -0.040475
  0.175874
 -0.017144
  0.028660
  0.105986
 -0.008690
 -0.054226
  0.010443
 -0.009817
  0.003751
 -0.034254
 -0.004562
 -0.006438
  0.034567
 -0.017890
 -0.058804
  0.016293
 -0.095680
  0.000690
 -0.040388
  0.092332
 -0.041585
  0.001028
 -0.011600
  0.033017
 -0.003372
 -0.000684
 -0.041749
 -0.016144
  0.049021
  0.095840
 -0.006641
  0.002057
 -0.030321
 -0.101487
 -0.016544
  0.045240
  0.012464
  0.026654
 -0.053521
 -0.033049
  0.027422
 -0.018657
 -0.007997
 -0.015516
 -0.085519
 -0.042066
 -0.055007
 -0.029775
  0.026001
  0.003433
  0.001450
 -0.007626
 -0.008374
  0.063921
  0.012781
 -0.001876
 -0.009777
 -0.043556
  0.000333
  0.083697
 -0.012635
 -0.014282
  0.000356
 -0.084677
 -0.000880
 -0.008230
  0.022483
  0.048388
  0.018498
 -0.026660
  0.011452
  0.048658
 -0.017715
  0.041732
 -0.053567
 -0.004535
  0.011354
  0.013060
 -0.023730
  0.018671
  0.003030
 -0.001563
 -0.002273
 -0.020071
  0.022843
 -0.059417
  0.059546
 -0.036042
 -0.022750
 -0.047955
  0.031062
 -0.060670
 -0.093732
  0.014077
  0.019873
 -0.017146
  0.022510
 -0.008424
 -0.063233
 -0.047489
 -0.033037
 -0.014448
 -0.024763
 -0.006538
 -0.029198
  0.019061
 -0.023387
 -0.056364
  0.025322
 -0.094658
 -0.032428
  0.051274
  0.020135
 -0.006802
 -0.029686
  0.031227
 -0.030866
 -0.012785
 -0.030248
 -0.029581
  0.011877
 -0.004180
  0.131908
  0.004240
  0.013026
  0.027660
  0.033539
 -0.049631
  0.033732
  0.027714
 -0.041124
 -0.009221
 -0.003426
 -0.065264
 -0.007051
 -0.038421
  0.033416
  0.004583
 -0.026275
 -0.027543
  0.005794
  0.004355
  0.044375
 -0.033091
  0.074580
  0.050533
 -0.087533
 -0.001953
 -0.040458
 -0.017118
  0.062105
  0.049174
  0.093067
  0.081888
  0.145224
  0.050078
  0.064248
  0.006446
  0.001282
  0.068302
 -0.033300
 -0.093797
  0.004111
  0.009110
 -0.042265
  0.057670
  0.028290
  0.073525
 -0.022696
  0.018134
  0.024420
  0.008733
 -0.042511
 -0.015537
 -0.049423
 -0.023650
 -0.043292
  0.010882
 -0.077664
 -0.030788
  0.090633
  0.095711
 -0.051316
 -0.010270
  0.063880
 -0.016444
  0.024496
 -0.009371
  0.004244
  0.034181
 -0.035838
 -0.086269
  0.017767
 -0.090262
  0.001974
  0.011506
  0.035046
 -0.073166
  0.041799
 -0.036841
 -0.076480
 -0.002083
  0.047781
  0.063471
 -0.015571
 -0.031637
 -0.009625
 -0.073296
  0.091388
  0.060227
  0.018034
 -0.001012
  0.021521
 -0.062380
  0.076383
 -0.001034
 -0.034572
 -0.009534
  0.039238
  0.026906
  0.041991
  0.038868
  0.060822
 -0.055468
 -0.019865
  0.008717
 -0.038369
  0.009126
 -0.044225
 -0.061485
 -0.035357
 -0.008217
  0.059129
 -0.041651
  0.049622
 -0.019684
  0.009166
  0.047382
  0.043900
  0.071276
 -0.004457
  0.057488
 -0.021895
 -0.023264
  0.015711
  0.001392
  0.033698
  0.035553
 -0.018826
  0.064385
 -0.026906
  0.024200
 -0.056596
 -0.012320
  0.027258
 -0.039917
 -0.065496
 -0.005406
  0.018951
 -0.022341
  0.004253
  0.045286
  0.040214
 -0.042943
 -0.009306
 -0.042448
  0.033459
  0.015384
 -0.039384
 -0.039941
  0.007574
 -0.039833
  0.007811
 -0.077204
  0.033505
 -0.002585
  0.051048
  0.042123
  0.043233
  0.011906
 -0.033847
 -0.086996
  0.033194
 -0.032075
 -0.032560
  0.048306
 -0.027592
  0.007441
 -0.020298
 -0.058280
 -0.016849
 -0.043524
  0.020306
  0.025456
 -0.041448
 -0.077966
 -0.044061
  0.019472
 -0.023214
 -0.053884
  0.035462
 -0.013014
  0.066327
  0.098308
  0.052899
  0.058239
  0.025387
  0.063142
 -0.021352
 -0.062711
 -0.009693
 -0.026730
  0.069716
 -0.084956
 -0.029450
 -0.025939
 -0.018524
  0.050764
  0.037476
  0.101497
  0.042436
  0.045781
  0.054633
 -0.021526
  0.042385
 -0.086387
 -0.030200
 -0.016863
 -0.052558
  0.046787
  0.071437
  0.001316
  0.019397
 -0.051083
  0.073957
  0.043847
 -0.027805
  0.057932
 -0.011696
 -0.032164
 -0.106720
  0.063487
 -0.060387
 -0.018379
  0.028384
 -0.002577
  0.047262
 -0.040273
 -0.031649
  0.079226
 -0.042552
 -0.051617
 -0.057065
  0.035614
 -0.037046
 -0.068103
  0.117297
 -0.016478
 -0.042430
  0.027411
 -0.070342
 -0.041427
 -0.016082
 -0.050095
 -0.001703
 -0.014714
  0.066386
  0.036841
 -0.088682
 -0.064343
 -0.038821
 -0.080241
 -0.006278
  0.026490
 -0.004667
  0.060454
  0.065058
 -0.028776
  0.011483
  0.042295
  0.026908
  0.032557
 -0.030767
  0.044739
  0.003524
 -0.083710
 -0.052815
 -0.042376
  0.027012
  0.042955
  0.002728
 -0.001421
 -0.069388
  0.006962
  0.046807
 -0.004932
  0.080682
 -0.026246
  0.005798
  0.013271
 -0.067474
 -0.002131
 -0.039885
 -0.003660
 -0.021211
  0.044476
  0.001446
  0.027104
 -0.001029
  0.065461
  0.037735
 -0.059748
  0.024096
  0.025609
 -0.056456
 -0.021577
  0.020260
  0.023235
 -0.004021
  0.026959
 -0.012178
  0.024369
  0.035734
  0.032782
 -0.050008
 -0.025426
  0.083179
  0.041016
 -0.042458
  0.020910
 -0.019503
  0.031239
  0.007991
  0.069362
 -0.009018
  0.012157
 -0.016101
  0.061352
 -0.059776
  0.029940
  0.035265
  0.044832
  0.014933
 -0.038232
 -0.079502
 -0.019183
  0.046396
  0.053263
 -0.058221
  0.070831
  0.070642
 -0.031476
  0.062001
  0.038199
  0.023650
  0.007261
 -0.042219
  0.024458
  0.007560
 -0.042836
  0.041438
 -0.103708
  0.019491
  0.047134
  0.041226
  0.011591
 -0.044394
 -0.036808
 -0.012254
  0.018705
 -0.077414
 -0.034183
  0.021174
  0.048213
 -0.025680
 -0.034184
 -0.004266
  0.068319
 -0.047377
  0.041907
  0.035780
 -0.034698
 -0.053765
 -0.040749
 -0.017281
  0.030530
 -0.036213
  0.049660
 -0.006111
  0.001628
 -0.100637
  0.032437
 -0.073930
  0.021417
  0.019461
 -0.049554
 -0.036761
 -0.005029
  0.030978
 -0.062898
 -0.023834
  0.137285
  0.006870
 -0.058208
 -0.007255
 -0.049059
 -0.075388
  0.081527
  0.032222
  0.024358
 -0.006550
 -0.011820
 -0.005060
 -0.032375
  0.039138
  0.030522
 -0.014606
  0.021965
  0.004803
  0.034219
  0.048096
 -0.111657
 -0.000231
 -0.016523
 -0.038503
  0.012575
 -0.009944
  0.018023
  0.002972
  0.035520
 -0.053854
  0.033747
 -0.031376
  0.048227
  0.105914
 -0.059339
 -0.000035
 -0.060451
  0.068134
 -0.035994
 -0.033494
 -0.057168
  0.071343
  0.046083
  0.017211
  0.004574
  0.001594
  0.023139
 -0.086214
  0.034017
  0.008448
  0.018912
 -0.089571
  0.008288
  0.015815
  0.044930
 -0.065612
 -0.009154
 -0.018450
  0.004188
 -0.078975
 -0.026762
 -0.043822
  0.000026
 -0.017682
 -0.097361
  0.000612
  0.062073
  0.022116
  0.050616
 -0.023835
  0.031552
  0.032596
  0.036583
  0.000299
 -0.031046
  0.053673
 -0.056826
 -0.028287
 -0.030896
 -0.015722
 -0.030279
  0.002032
  0.017645
  0.068962
  0.061036
 -0.013318
  0.049475
  0.052740
 -0.031986
  0.012424
  0.065741
  0.033037
 -0.076135
  0.013072
  0.018040
 -0.010340
  0.047559
 -0.002152
  0.000238
  0.007494
 -0.020556
 -0.006775
 -0.006576
  0.075629
  0.012301
  0.021494
  0.081208
  0.028727
  0.053202
 -0.071387
  0.018483
  0.081207
  0.012745
 -0.016852
  0.011308
  0.028212
  0.001876
  0.057657
  0.025483
 -0.069338
  0.087251
 -0.064835
 -0.009397
  0.076065
  0.007451
  0.050785
  0.041665
  0.021448
  0.039124
 -0.026032
 -0.053688
 -0.018677
 -0.048363
 -0.009283
  0.031050
  0.037235
 -0.048459
 -0.034097
 -0.082113
 -0.099889
 -0.079534
  0.037644
 -0.002070
  0.056433
 -0.076319
 -0.020708
  0.012492
  0.069063
  0.026155
 -0.049121
  0.013853
  0.041109
 -0.010650
 -0.071925
 -0.013571
 -0.109626
  0.068173
  0.057099
 -0.043547
  0.012872
  0.040458
  0.005938
 -0.018678
 -0.013053
  0.008779
 -0.043802
 -0.002343
 -0.008455
  0.079678
 -0.036007
  0.014823
  0.045549
 -0.015392
 -0.056926
 -0.036887
 -0.016267
 -0.074533
  0.000389
  0.022887
  0.054571
 -0.011490
 -0.008972
  0.014625
  0.030273
 -0.004329
  0.038375
  0.093812
 -0.108833
  0.056353
  0.062463
  0.037114
  0.027921
 -0.081163
 -0.000394
  0.011301
  0.025486
  0.065124
 -0.020072
  0.016494
  0.002157
  0.110755
 -0.046588
  0.021427
 -0.047015
 -0.047180
  0.030981
  0.007127
 -0.083725
 -0.053098
  0.007439
  0.084056
 -0.026598
  0.018796
 -0.053885
 -0.032566
 -0.003317
 -0.013107
  0.065978
  0.040376
 -0.039145
  0.171480
  0.099954
 -0.006426
 -0.009743
  0.053824
  0.096279
  0.024780
 -0.040527
 -0.109211
 -0.028789
  0.044813
  0.072278
 -0.018123
 -0.012459
  0.092382
 -0.021715
  0.044875
  0.013658
 -0.006495
 -0.073764
  0.021355
  0.000699
  0.100968
  0.061515
  0.006506
  0.034249
  0.001696
 -0.036069
 -0.014037
 -0.062971
 -0.038291
  0.043329
  0.018827
  0.047368
 -0.025460
  0.007529
  0.055332
  0.062888
 -0.006779
 -0.027848
  0.033329
  0.068162
  0.009335
 -0.033171
  0.054169
  0.043158
 -0.072707
 -0.008168
  0.032850
 -0.004764
 -0.095307
  0.002219
  0.085955
 -0.064536
  0.014569
 -0.050777
  0.043661
  0.021378
 -0.040561
  0.015862
  0.060359
 -0.015122
 -0.024721
  0.004313
 -0.032011
 -0.150046
 -0.020169
  0.015624
 -0.044654
 -0.004354
 -0.080624
 -0.046746
  0.048990
 -0.022886
  0.021519
  0.024191
  0.022311
  0.068823
  0.076444
  0.040370
 -0.050509
  0.040271
 -0.021546
  0.048000
 -0.016604
  0.011017
 -0.051544
 -0.063521
  0.019263
 -0.130639
  0.042676
 -0.016060
  0.039287
 -0.019358
 -0.071485
 -0.055439
  0.032388
 -0.037177
 -0.010639
 -0.067966
  0.056499
 -0.112259
 -0.113521
 -0.081791
 -0.023994
  0.037487
  0.009312
  0.007104
  0.052970
 -0.020495
  0.048528
  0.010781
 -0.018396
 -0.027933
 -0.094049
  0.081027
 -0.073517
  0.070187
  0.010459
 -0.042680
  0.087807
 -0.016797
  0.035121
 -0.007607
 -0.032205
  0.024349
 -0.045296
 -0.050702
  0.029599
 -0.025029
  0.029037
  0.006509
  0.039640
  0.017966
  0.010157
 -0.000503
 -0.012010
 -0.025104
  0.003571
  0.099212
 -0.000743
  0.055926
 -0.084701
 -0.067750
  0.025597
 -0.025004
  0.055892
 -0.005750
  0.008818
  0.035368
 -0.034697
 -0.023409
 -0.011443
  0.075406
 -0.040204
  0.068340
  0.052445
  0.031818
  0.041192
  0.044767
 -0.006384
  0.002035
 -0.016626
 -0.057435
 -0.063664
  0.012840
  0.018554
 -0.043473
  0.022495
 -0.037370
  0.018753
  0.060920
 -0.052026
 -0.043636
  0.057483
 -0.001230
 -0.014610
  0.001478
 -0.047298
 -0.073296
 -0.040217
 -0.011418
 -0.019251
  0.025789
 -0.017402
 -0.088483
 -0.095723
  0.045757
  0.008293
 -0.067569
  0.072156
  0.022877
  0.027435
 -0.022781
 -0.011035
  0.056447
  0.006641
 -0.013770
  0.008332
 -0.026737
 -0.021507
 -0.030917
  0.021393
  0.056822
 -0.092102
 -0.013878
  0.081807
 -0.057417
  0.041603
  0.014042
 -0.059084
 -0.041149
 -0.011766
 -0.019324
 -0.006315
  0.030479
  0.036900
  0.016547
 -0.058560
  0.034076
 -0.018382
 -0.102757
 -0.045253
 -0.015104
  0.011841
  0.037233
  0.073333
  0.037150
  0.074855
  0.005010
 -0.022246
  0.006688
  0.017037
  0.062803
 -0.033479
 -0.053481
 -0.045161
 -0.023929
  0.079800
  0.015703
  0.000557
 -0.024307
 -0.041968
  0.024788
  0.035856
  0.063458
 -0.054964
  0.015772
 -0.014491
 -0.024090
  0.024598
  0.039310
 -0.028948
  0.073224
 -0.001186
  0.090717
 -0.001154
  0.003507
  0.004671
 -0.029203
  0.010972
 -0.044802
 -0.011781
 -0.008379
 -0.028110
 -0.033835
  0.036153
  0.026959
 -0.019814
  0.003617
 -0.012580
 -0.028966
  0.018696
 -0.054104
 -0.030436
 -0.053445
  0.000129
  0.014852
  0.031857
 -0.048955
 -0.014918
  0.077998
  0.032540
  0.104821
  0.006042
  0.084475
  0.090264
 -0.030052
 -0.002272
  0.055057
 -0.048535
  0.012832
  0.088059
  0.000406
  0.017301
  0.032736
  0.017667
 -0.022410
 -0.028066
 -0.019163
  0.015117
 -0.098297
 -0.029633
  0.030628
  0.001170
  0.062810
 -0.006899
  0.061191
 -0.041894
  0.103936
  0.003334
 -0.113639
 -0.068839
 -0.038836
  0.000559
 -0.037139
 -0.011107
 -0.124042
  0.020892
 -0.028952
  0.038054
 -0.017655
 -0.060360
 -0.089958
  0.017613
  0.061517
 -0.029814
  0.061429
 -0.003457
  0.062331
  0.046966
 -0.074334
 -0.094659
 -0.020328
 -0.047704
 -0.027708
 -0.017846
  0.025203
  0.021398
  0.017771
 -0.027385
 -0.017059
  0.008308
 -0.025185
  0.124390
  0.027105
 -0.050997
 -0.004649
  0.095283
 -0.005711
  0.018239
 -0.055868
 -0.034892
 -0.013198
  0.013423
  0.030537
 -0.055496
  0.054384
 -0.024122
 -0.079974
  0.054564
  0.017396
  0.011367
 -0.021399
 -0.084507
 -0.028740
 -0.027395
 -0.032206
  0.178649
  0.086964
  0.126636
  0.057652
  0.054676
 -0.058201
 -0.058948
 -0.025305
  0.038407
 -0.011028
  0.037865
  0.031176
  0.014666
 -0.052160
 -0.002137
  0.086770
 -0.003024
 -0.089080
  0.038811
 -0.030139
 -0.054575
  0.025880
 -0.035965
 -0.024865
 -0.054327
  0.013550
  0.048047
  0.006992
  0.078756
 -0.031839
  0.002651
 -0.021987
 -0.012993
 -0.077023
 -0.061777
  0.028722
  0.037138
  0.033050
 -0.041941
  0.016726
  0.046295
  0.040876
 -0.008285
  0.020808
 -0.031944
  0.034879
 -0.037830
 -0.115086
  0.032449
  0.007315
  0.056496
 -0.095259
 -0.009397
  0.036150
 -0.045112
  0.003287
 -0.022878
 -0.016413
  0.045200
 -0.024406
 -0.053118
 -0.026184
 -0.077805
  0.002379
  0.042784
 -0.011688
  0.036384
 -0.009621
 -0.029548
 -0.056136
 -0.036083
  0.045003
  0.062783
  0.029065
  0.107031
 -0.017470
 -0.029950
  0.012895
 -0.006237
 -0.006895
 -0.075074
  0.070642
 -0.019737
  0.021353
  0.074030
 -0.029142
  0.070515
 -0.098754
 -0.038078
  0.066997
 -0.049007
  0.095864
 -0.047736
 -0.130402
  0.007551
 -0.060542
  0.051316
 -0.046128
 -0.022763
 -0.044590
 -0.028082
 -0.058359
  0.043829
  0.020778
 -0.013378
 -0.040243
 -0.005328
  0.081491
  0.059695
  0.020394
 -0.009092
  0.044834
  0.018086
  0.060713
 -0.075018
  0.055078
  0.005446
 -0.012898
 -0.028401
  0.049336
 -0.071865
 -0.028354
 -0.009923
 -0.053456
 -0.036133
  0.035806
  0.002424
 -0.062897
 -0.035424
 -0.013867
  0.013807
 -0.030403
 -0.036092
 -0.032029
 -0.064897
  0.045114
  0.057934
 -0.053439
  0.035014
 -0.016653
 -0.113941
 -0.049315
  0.019440
  0.017908
 -0.100130
 -0.022172
 -0.031610
 -0.014980
 -0.022881
  0.035775
 -0.047411
 -0.004795
 -0.016694
 -0.044177
  0.041519
  0.055414
 -0.023823
 -0.011262
  0.026877
  0.056500
 -0.073222
  0.083413
  0.026071
 -0.049142
 -0.002300
 -0.024456
  0.028398
  0.023479
 -0.086490
 -0.040557
  0.005254
  0.035907
  0.036093
  0.012400
 -0.054484
 -0.007723
  0.017868
 -0.004842
 -0.091650
  0.035752
  0.021182
 -0.008593
 -0.046342
 -0.010343
 -0.049460
  0.037648
  0.010288
 -0.046566
  0.013105
  0.022509
 -0.050265
 -0.018002
 -0.028642
  0.044378
  0.048740
 -0.013269
 -0.028265
  0.086928
  0.014099
 -0.012494
 -0.058011
  0.028798
  0.039620
  0.014613
 -0.027321
  0.045875
  0.136535
  0.027182
  0.048533
  0.024746
 -0.069355
  0.044652
 -0.002238
 -0.058263
 -0.033673
  0.032952
 -0.013862
  0.003016
  0.035295
  0.057126
 -0.013826
  0.031099
 -0.035127
  0.019747
 -0.003384
 -0.015982
 -0.055472
 -0.040807
  0.062456
 -0.003917
  0.041608
  0.041942
 -0.058800
  0.024318
 -0.002991
  0.028161
 -0.034297
  0.006998
  0.017129
  0.015446
 -0.013986
  0.003001
  0.100541
  0.045890
 -0.024819
 -0.020592
 -0.042963
  0.065987
 -0.002667
  0.051205
  0.028406
 -0.033926
  0.114666
 -0.023885
  0.054284
 -0.038727
  0.074923
  0.013688
 -0.009262
  0.098622
  0.006682
 -0.048909
 -0.001012
 -0.001641
 -0.024960
  0.024278
  0.045310
 -0.019313
  0.065433
  0.013823
 -0.081950
  0.032327
  0.005365
  0.058582
  0.069045
 -0.018815
  0.032372
 -0.045798
  0.009613
  0.046300
 -0.000711
 -0.001992
 -0.029119
 -0.091005
  0.007548
  0.003413
 -0.011548
 -0.053769
  0.000007
  0.047017
  0.041084
  0.072002
  0.033538
 -0.053463
  0.008156
 -0.077468
  0.082108
  0.010325
 -0.017644
 -0.027845
 -0.001406
 -0.015357
 -0.013012
  0.038473
  0.058957
 -0.080377
 -0.012452
  0.014224
  0.022274
 -0.076888
 -0.031546
  0.017008
 -0.040518
 -0.083450
 -0.029643
 -0.030638
 -0.040821
 -0.011970
  0.013368
 -0.031167
 -0.052639
  0.023819
 -0.069404
  0.000447
 -0.037871
  0.036391
  0.100837
  0.040000
 -0.009179
 -0.046329
  0.016683
  0.003051
  0.009551
  0.043542
  0.020601
 -0.004470
  0.009647
  0.049316
  0.021772
  0.007539
 -0.048751
 -0.094820
 -0.001536
 -0.033472
  0.029126
 -0.089156
  0.017156
 -0.046386
  0.038891
  0.051424
 -0.017612
  0.000636
 -0.000982
 -0.005882
  0.059623
 -0.016115
 -0.033975
  0.007156
  0.011874
 -0.007960
  0.020477
  0.000643
 -0.020566
 -0.050629
 -0.025698
  0.066769
  0.072563
  0.022425
 -0.013867
  0.002356
  0.013291
 -0.050950
 -0.055105
  0.011345
 -0.048856
  0.064131
 -0.022461
 -0.009826
  0.040340
  0.007761
 -0.057581
  0.002158
  0.029658
 -0.010832
 -0.041585
 -0.012089
  0.045815
 -0.046271
  0.055353
  0.004134
  0.021284
  0.027750
 -0.014797
  0.014674
  0.036371
  0.080365
  0.068223
  0.046828
  0.012517
  0.047600
  0.076029
 -0.013065
 -0.092918
 -0.017876
  0.038709
 -0.003185
  0.027933
 -0.079017
  0.086823
  0.039540
  0.051835
  0.036871
 -0.009995
  0.007792
 -0.003474
 -0.009069
  0.039046
  0.094641
  0.014649
 -0.087244
 -0.027451
  0.022039
 -0.049843
 -0.083391
  0.022897
  0.013177
  0.048998
 -0.041624
  0.069216
  0.045127
  0.031906
  0.026177
  0.015426
 -0.005139
  0.022138
 -0.041828
  0.067968
  0.013616
 -0.047723
 -0.011035
 -0.044031
 -0.021195
 -0.046285
  0.025491
 -0.023681
  0.019504
  0.005800
  0.004650
 -0.051198
  0.010162
 -0.070542
 -0.012833
 -0.054135
  0.039158
  0.053716
 -0.020432
  0.044905
  0.050802
  0.018783
 -0.021613
  0.029511
 -0.037200
  0.071210
 -0.009179
  0.023046
 -0.051892
 -0.032899
 -0.059978
 -0.052546
 -0.084047
  0.007126
 -0.103113
  0.035480
  0.038443
  0.049929
 -0.035394
  0.032192
  0.032360
 -0.018216
 -0.056076
  0.037922
 -0.054084
  0.002619
  0.009091
 -0.044831
 -0.080047
 -0.040405
 -0.034550
 -0.059801
 -0.021897
  0.013563
 -0.012769
  0.049907
 -0.064946
  0.081491
  0.077689
  0.053930
  0.059649
 -0.006558
 -0.051882
  0.063249
  0.011382
  0.033427
 -0.022039
 -0.071625
 -0.011757
  0.049385
 -0.056401
 -0.055856
 -0.020450
 -0.045410
  0.037576
  0.015645
 -0.013666
  0.009608
 -0.065426
 -0.026616
 -0.109811
 -0.003995
 -0.005806
 -0.062363
  0.069684
  0.038094
  0.043697
  0.080275
 -0.015320
  0.087335
 -0.018491
 -0.013590
  0.006776
  0.004980
  0.056506
 -0.033602
 -0.012805
 -0.022875
 -0.012979
  0.035741
 -0.024037
 -0.018008
 -0.068671
  0.037189
  0.052802
 -0.071165
 -0.032956
 -0.037470
 -0.056736
 -0.004957
 -0.064890
  0.020026
  0.028079
 -0.008451
  0.045097
 -0.026416
  0.056863
 -0.037043
 -0.050737
  0.025488
  0.002165
 -0.037337
 -0.066623
  0.013863
  0.079046
  0.002241
  0.022853
  0.027606
  0.063351
 -0.012870
 -0.016448
  0.019933
 -0.017484
 -0.067642
 -0.023807
  0.046718
  0.040101
 -0.074792
  0.026844
 -0.031965
  0.064205
 -0.005098
  0.055028
 -0.053339
  0.021035
  0.025268
 -0.034796
  0.074863
 -0.043130
  0.006254
  0.001097
 -0.008335
 -0.051521
  0.014151
 -0.002261
  0.057332
 -0.066165
  0.058756
  0.013250
 -0.037398
 -0.050094
  0.037410
  0.012732
  0.047679
  0.062020
  0.060136
  0.028809
 -0.018741
 -0.068200
  0.004566
  0.019983
  0.031609
 -0.008165
 -0.087418
 -0.068859
  0.054629
 -0.043599
  0.065488
 -0.102315
 -0.026451
  0.009874
 -0.041937
 -0.035848
  0.061789
  0.115033
 -0.103845
  0.036965
 -0.040251
 -0.058750
  0.050811
 -0.124328
  0.010067
  0.047700
 -0.047930
  0.022527
  0.014252
  0.080233
 -0.014708
  0.069743
 -0.003723
  0.000784
  0.034261
 -0.063086
 -0.038155
 -0.002983
  0.042009
 -0.014448
 -0.003017
  0.039682
  0.029282
 -0.033306
  0.021496
 -0.013649
  0.088412
  0.052581
  0.017456
  0.021484
  0.063876
 -0.014322
  0.065244
 -0.034923
 -0.011722
 -0.111900
 -0.001069
  0.032900
 -0.019421
  0.043402
  0.063158
 -0.027665
  0.017942
 -0.026718
 -0.024013
  0.009274
 -0.066904
  0.003180
 -0.046988
 -0.042657
 -0.026901
  0.023730
  0.013591
  0.033479
  0.043521
 -0.028429
  0.082879
  0.014989
 -0.055867
 -0.034580
 -0.048675
  0.041007
  0.046905
  0.076094
  0.021180
 -0.005090
  0.027790
 -0.037832
 -0.002011
 -0.033128
  0.069861
  0.015611
  0.051005
  0.007462
 -0.042837
  0.028265
  0.008232
  0.059030
 -0.012611
 -0.059301
  0.025661
  0.015116
  0.075323
  0.054008
  0.018678
  0.097568
 -0.067682
 -0.035460
  0.066192
 -0.063445
 -0.038209
 -0.091517
  0.054130
 -0.042496
 -0.030629
  0.014754
  0.106075
  0.034716
 -0.049817
  0.046221
  0.010986
  0.018558
 -0.050704
 -0.010419
  0.058071
  0.020023
 -0.010051
  0.032603
 -0.041589
 -0.038305
 -0.022596
 -0.057905
 -0.003368
  0.039908
 -0.059523
  0.010909
 -0.055534
  0.052155
  0.020132
 -0.038020
  0.049928
 -0.031708
 -0.041933
 -0.041413
  0.020123
 -0.012508
 -0.006527
 -0.018442
 -0.000966
 -0.062946
 -0.004376
 -0.065893
  0.034046
  0.036534
 -0.011394
 -0.009598
 -0.012589
  0.011734
 -0.026040
  0.092959
 -0.021958
  0.059567
  0.033147
 -0.005246
  0.030623
 -0.022933
 -0.078178
 -0.043178
 -0.049837
 -0.037210
  0.077093
 -0.037497
 -0.025607
 -0.029861
  0.020136
 -0.018567
 -0.057051
 -0.093275
 -0.023035
  0.011651
  0.064242
  0.063371
 -0.059504
 -0.019810
 -0.024144
  0.007757
 -0.025423
 -0.052742
  0.009330
  0.081327
 -0.024019
  0.041286
 -0.013473
  0.038473
 -0.006529
 -0.029624
  0.092139
  0.080179
  0.082230
  0.012834
  0.016855
 -0.038072
 -0.094584
 -0.113456
  0.031921
  0.001316
  0.035148
 -0.012310
  0.043854
 -0.021174
  0.108886
 -0.014976
  0.079030
 -0.037222
 -0.045192
 -0.069887
 -0.007784
  0.049026
  0.041899
  0.032637
 -0.015872
  0.075970
 -0.006902
  0.026287
  0.045506
 -0.054149
  0.003363
  0.014385
  0.053099
 -0.008807
 -0.058813
 -0.047106
  0.057010
 -0.019201
  0.070289
  0.038401
  0.034420
 -0.009551
  0.013921
 -0.025767
 -0.000357
 -0.078241
 -0.035016
 -0.020579
  0.027107
  0.004647
  0.008164
  0.001199
 -0.038766
 -0.011044
 -0.061940
  0.034769
  0.010795
 -0.014247
 -0.007834
  0.000067
  0.052339
 -0.026073
 -0.123244
 -0.049238
  0.029393
 -0.035821
  0.030318
  0.061528
 -0.137359
 -0.029734
 -0.042974
 -0.062447
  0.035333
 -0.037529
 -0.047331
 -0.116969
 -0.005553
 -0.102799
 -0.086565
  0.053300
 -0.006151
  0.042387
  0.060855
  0.035569
  0.012828
  0.104711
  0.113505
 -0.029962
  0.039491
 -0.010910
 -0.001708
  0.019812
  0.003099
 -0.050308
 -0.045937
 -0.008932
  0.018183
 -0.036831
 -0.023466
  0.023040
 -0.001246
  0.092967
 -0.036146
 -0.054631
  0.005334
  0.005380
 -0.010452
 -0.037228
  0.043402
 -0.086251
 -0.029506
 -0.008271
  0.007283
 -0.036091
  0.023415
 -0.021089
 -0.059515
  0.052003
 -0.012050
 -0.028009
 -0.046123
 -0.031948
  0.049286
  0.017811
  0.042219
 -0.064163
  0.005049
 -0.066072
 -0.082179
 -0.031639
 -0.039115
  0.021038
 -0.007739
 -0.072067
  0.049528
 -0.036243
  0.047438
 -0.023641
  0.100312
 -0.004831
 -0.074273
  0.049992
  0.027263
 -0.022171
 -0.051019
  0.015063
 -0.030115
  0.045455
 -0.002072
 -0.140763
  0.007981
 -0.011863
 -0.043364
 -0.045985
 -0.043529
  0.052532
 -0.021016
 -0.014331
  0.056879
 -0.076482
  0.002533
  0.079237
  0.057486
 -0.066878
  0.039288
  0.018249
  0.061232
  0.010845
  0.004290
  0.048113
 -0.031730
  0.083149
 -0.030841
 -0.040889
  0.044026
 -0.005244
 -0.036033
  0.104398
  0.007253
  0.007322
  0.006219
  0.076014
 -0.042306
 -0.031388
  0.018533
 -0.109820
  0.018104
 -0.012141
  0.002480
 -0.021870
 -0.036109
 -0.033680
  0.019704
 -0.004737
  0.010688
  0.014760
  0.066658
  0.010685
 -0.019374
  0.065226
  0.030805
 -0.041526
 -0.061669
 -0.007497
  0.027806
 -0.088667
  0.022642
 -0.018498
 -0.011414
 -0.001883
  0.103733
  0.008666
 -0.010992
  0.041327
 -0.034341
  0.034482
 -0.060058
 -0.069263
  0.040999
  0.058370
  0.008755
 -0.001717
  0.001128
 -0.000918
  0.004879
  0.055197
 -0.005339
  0.056271
 -0.074852
 -0.093176
  0.084520
 -0.019682
 -0.055819
 -0.008403
 -0.025636
  0.058102
 -0.043960
  0.035704
  0.045329
  0.005961
 -0.003081
  0.029350
 -0.001446
  0.013768
  0.002486
  0.021564
  0.102695
  0.026596
  0.028351
  0.048583
 -0.057985
  0.052994
 -0.022082
 -0.039881
  0.036856
 -0.037897
 -0.081852
  0.045881
  0.066352
  0.031531
 -0.029269
 -0.013343
  0.002600
  0.051924
  0.056058
  0.008298
  0.017228
  0.027715
 -0.002975
 -0.020245
  0.010726
  0.024399
 -0.019854
 -0.026367
  0.057258
 -0.068711
  0.050645
  0.017354
 -0.010746
  0.000663
  0.050832
 -0.021059
  0.043612
 -0.010375
  0.023955
  0.041343
 -0.016354
  0.048799
  0.014809
  0.014510
 -0.047910
 -0.033823
  0.046312
  0.067048
 -0.026889
 -0.046626
  0.030101
  0.050421
 -0.014693
 -0.047913
 -0.025627
 -0.061764
  0.065269
  0.027388
  0.103124
 -0.061940
  0.057402
 -0.028956
 -0.034922
  0.050300
  0.074857
  0.155904
  0.026563
 -0.069433
  0.044144
 -0.602001
 -0.213969
  0.046639
  0.014426
 -0.004617
  0.098972
  0.065983
  0.010493
  0.022080
  0.038891
 -0.033163
 -0.057083
  0.104702
 -0.076277
 -0.072402
 -0.028422
 -0.010907
 -0.034258
  0.005933
  0.098587
  0.085316
 -0.035540
 -0.000069
  0.081129
  0.006462
 -0.020144
  0.039353
  0.057453
  0.028837
 -0.032167
 -0.017431
 -0.032073
  0.019149
 -0.032345
  0.009157
  0.012577
  0.018259
  0.049801
 -0.029450
  0.078377
 -0.001726
  0.033761
  0.009022
  0.044106
 -0.072285
  0.019467
  0.061795
 -0.038546
 -0.009363
  0.039889
  0.052895
 -0.042462
  0.016770
 -0.065942
  0.075488
 -0.036023
  0.050497
  0.074414
  0.032156
 -0.008655
 -0.015913
  0.012185
  0.032799
 -0.011042
 -0.090979
  0.062358
  0.039654
 -0.020343
  0.052083
  0.047665
 -0.047464
 -0.074855
  0.016834
  0.003933
  0.071023
  0.056526
  0.023511
 -0.015109
 -0.031876
  0.091567
 -0.061504
 -0.018583
  0.085340
 -0.001361
 -0.008430
  0.042517
 -0.017711
  0.008896
  0.002548
 -0.005444
  0.054349
 -0.035805
 -0.061924
 -0.003507
  0.003602
  0.005575
  0.017332
 -0.054044
  0.034238
 -0.013887
 -0.052630
 -0.036784
  0.025704
 -0.013156
  0.033053
  0.076206
  0.064290
  0.024578
 -0.046957
 -0.108835
 -0.038165
  0.083559
 -0.003289
 -0.000408
 -0.006824
  0.013916
 -0.014461
  0.004430
  0.062194
 -0.003224
 -0.031036
  0.043632
  0.017405
  0.063838
 -0.002592
 -0.049753
  0.023460
  0.067366
 -0.046479
 -0.020218
  0.105233
 -0.005012
  0.065814
 -0.061246
  0.045078
  0.050699
 -0.020172
 -0.039119
  0.022653
 -0.035342
 -0.066837
 -0.028700
 -0.030054
  0.047044
  0.033602
  0.075858
 -0.022860
 -0.043564
 -0.053613
 -0.089370
  0.009817
 -0.045086
 -0.003613
  0.016435
 -0.060640
 -0.022654
  0.010516
  0.062062
 -0.014106
  0.034049
 -0.055146
  0.098291
  0.013456
  0.070469
  0.028814
 -0.047595
  0.079836
  0.020987
  0.035527
  0.081950
  0.003915
  0.008246
  0.016071
 -0.103846
  0.007884
  0.043592
 -0.023208
 -0.009267
  0.033243
 -0.003372
 -0.007384
  0.028471
  0.036112
 -0.007706
 -0.060483
 -0.018682
  0.037903
  0.033618
  0.028199
 -0.034982
 -0.104908
 -0.049850
  0.069092
 -0.057965
  0.008537
  0.035560
 -0.032499
  0.034715
  0.048186
 -0.012682
 -0.016673
  0.015043
  0.034971
  0.046521
 -0.019488
 -0.067960
 -0.017791
  0.003222
 -0.060440
 -0.054269
 -0.026135
 -0.015396
 -0.046156
  0.041744
 -0.010286
 -0.024546
  0.013618
  0.097199
 -0.033189
  0.016028
 -0.053598
 -0.030007
  0.039909
  0.015972
 -0.039775
 -0.073464
 -0.033358
  0.013816
  0.034494
 -0.032430
 -0.005132
  0.053323
  0.051456
  0.002331
  0.035904
  0.078035
 -0.021577
 -0.037481
 -0.106525
 -0.039142
 -0.062442
 -0.073375
 -0.055325
 -0.043826
  0.108159
  0.024419
  0.054422
  0.033913
  0.052446
 -0.060978
 -0.007693
  0.043392
  0.011791
 -0.029815
 -0.017535
  0.032099
 -0.026859
 -0.038254
  0.034895
 -0.010865
  0.015453
  0.049304
 -0.025707
  0.035196
 -0.040202
  0.010945
 -0.021452
  0.011840
 -0.033388
 -0.004441
 -0.080998
 -0.132433
  0.043231
 -0.045942
 -0.008675
 -0.029714
  0.043707
  0.006675
  0.014519
 -0.021867
  0.061686
 -0.042724
  0.056767
  0.004007
 -0.039856
  0.012742
 -0.044660
 -0.045812
 -0.109468
 -0.024549
  0.005495
  0.047701
  0.029096
  0.061599
  0.057179
 -0.024181
  0.031163
 -0.048730
  0.002762
 -0.009061
  0.079269
  0.020862
 -0.016138
  0.011613
 -0.031597
  0.064236
  0.010888
 -0.099257
 -0.017115
  0.043715
 -0.021442
 -0.057558
  0.040363
  0.010811
  0.018517
  0.063556
  0.028526
  0.046838
  0.023638
 -0.037095
  0.024966
  0.002937
  0.031297
 -0.026721
 -0.027377
  0.011993
 -0.040465
  0.012191
  0.036254
 -0.052346
  0.019988
  0.109317
 -0.023110
  0.045607
 -0.020618
  0.061978
  0.047650
 -0.026552
 -0.043248
 -0.046224
 -0.035371
  0.066364
  0.030389
  0.022295
 -0.094065
 -0.026757
  0.003043
  0.029759
 -0.015834
  0.063565
  0.047423
  0.003836
  0.005276
  0.027419
  0.003536
  0.000116
 -0.028913
 -0.080844
 -0.045202
 -0.005520
 -0.009229
  0.024291
  0.062246
 -0.020988
  0.023122
 -0.119032
  0.035277
 -0.011301
  0.083663
  0.012777
 -0.022389
 -0.041675
 -0.010362
  0.070402
 -0.018635
 -0.113413
  0.014979
  0.045238
  0.064996
  0.054940
 -0.044032
  0.011870
 -0.033686
 -0.055000
  0.007636
 -0.043557
 -0.011627
  0.000210
  0.087745
  0.024156
  0.056919
 -0.037688
 -0.108618
  0.068482
 -0.022017
  0.045979
 -0.024280
 -0.028777
  0.079325
  0.007651
 -0.028019
  0.006744
 -0.002556
 -0.067330
 -0.028570
  0.022367
  0.026438
  0.017335
 -0.044656
 -0.028465
  0.061501
  0.022775
  0.011698
 -0.007769
 -0.027412
 -0.050299
 -0.007287
 -0.055487
  0.046032
 -0.070203
 -0.075260
 -0.055751
  0.021545
  0.004268
 -0.018941
  0.023933
  0.015580
 -0.088288
 -0.024023
  0.025782
  0.005097
 -0.007398
  0.053463
 -0.074117
 -0.050688
 -0.045353
 -0.059060
  0.031821
  0.085176
  0.001552
  0.006016
 -0.041163
  0.045329
  0.052149
  0.078898
 -0.082543
  0.015505
 -0.065303
 -0.009464
  0.015380
  0.021947
  0.032018
 -0.005978
 -0.024070
 -0.100426
 -0.013268
 -0.024531
 -0.031080
  0.040284
  0.040791
  0.045769
  0.039384
 -0.051113
 -0.065011
  0.003257
  0.014536
 -0.070214
  0.061735
  0.014214
 -0.000696
  0.003578
  0.030379
  0.036549
 -0.066561
 -0.026506
  0.039025
 -0.054317
  0.008437
  0.004297
 -0.016736
 -0.075123
  0.012946
 -0.055402
  0.008941
 -0.058546
 -0.018653
  0.020171
 -0.043459
  0.037598
  0.012215
  0.021728
 -0.031041
  0.020506
  0.043078
  0.030361
 -0.014196
  0.003643
 -0.016105
  0.008672
  0.047811
  0.081226
 -0.020554
 -0.030617
  0.006722
  0.073941
 -0.012629
  0.004551
  0.039390
  0.054577
 -0.036293
  0.040111
  0.029145
  0.041015
  0.055053
  0.002043
 -0.001987
 -0.021477
 -0.116134
 -0.126729
 -0.028179
 -0.050112
 -0.051435
 -0.021033
 -0.003077
  0.027017
 -0.063248
  0.001938
  0.068620
  0.012366
  0.003421
 -0.010009
  0.008463
 -0.071260
  0.107634
  0.007934
  0.009015
  0.075220
  0.126297
 -0.037417
 -0.054075
  0.021557
  0.005187
 -0.060463
 -0.001256
  0.014662
  0.059966
  0.087390
 -0.000363
 -0.078067
  0.031647
 -0.065131
 -0.039291
  0.009959
  0.024716
 -0.008634
  0.035116
 -0.055176
  0.013447
 -0.107877
  0.013897
  0.009984
  0.001942
  0.023209
  0.001190
 -0.035930
  0.024043
  0.012157
 -0.060053
 -0.027239
 -0.011731
  0.065831
  0.044391
 -0.001043
 -0.039037
 -0.048769
 -0.014259
 -0.107494
  0.014425
 -0.070165
  0.072952
  0.045337
 -0.000456
  0.002590
 -0.031577
  0.031429
 -0.032340
  0.030226
  0.037817
  0.036103
  0.118466
  0.033393
 -0.018388
  0.002832
 -0.030891
  0.035412
  0.034729
 -0.027633
  0.038567
 -0.032674
  0.023667
 -0.062898
  0.015359
  0.036157
 -0.039940
  0.034159
 -0.013150
 -0.071227
 -0.046082
 -0.056948
  0.002649
 -0.020293
 -0.061042
  0.026760
  0.005948
 -0.030169
  0.017175
 -0.047726
  0.048614
 -0.076010
  0.010606
 -0.078516
  0.038515
  0.029463
  0.024516
  0.005858
 -0.045878
  0.037512
  0.068913
  0.000353
 -0.018258
  0.013251
 -0.019506
  0.039800
 -0.019934
  0.019689
  0.082030
 -0.009917
 -0.096479
  0.013699
 -0.042778
  0.055759
  0.035297
 -0.000237
  0.005348
 -0.024729
 -0.023821
 -0.011527
 -0.059314
  0.007565
 -0.016661
 -0.005684
  0.021587
  0.007566
 -0.018198
 -0.034017
 -0.011335
  0.052307
 -0.020054
 -0.031894
  0.050648
  0.037711
 -0.028360
  0.052283
  0.087865
  0.039453
 -0.025654
 -0.010679
 -0.008243
  0.030858
  0.019891
  0.023439
 -0.013879
  0.026694
 -0.070970
  0.136618
 -0.069014
 -0.023515
  0.063761
 -0.016249
  0.027087
 -0.056725
  0.010191
 -0.039622
 -0.039819
  0.022713
 -0.063857
  0.069075
 -0.134796
 -0.074809
 -0.073543
 -0.017299
  0.079800
  0.012364
  0.070145
  0.058145
 -0.068287
  0.051806
 -0.023750
  0.061244
  0.060976
  0.115503
 -0.046043
  0.062170
  0.050935
  0.006142
  0.006158
 -0.119143
 -0.085078
  0.026476
  0.032556
  0.096399
  0.002805
  0.043354
 -0.118332
 -0.115109
  0.046250
  0.052617
 -0.093932
 -0.012998
  0.060284
 -0.067320
 -0.004764
  0.037443
 -0.020515
 -0.025464
 -0.033633
 -0.008244
  0.051340
 -0.091663
  0.013120
 -0.001626
 -0.005962
  0.068105
  0.005944
 -0.031680
  0.017464
  0.021655
 -0.005102
 -0.061243
 -0.008318
  0.022129
  0.035350
  0.034166
  0.011339
  0.019630
  0.053919
  0.051991
 -0.040669
  0.045569
  0.056779
 -0.016084
  0.062037
 -0.003939
 -0.023649
 -0.025749
  0.077582
 -0.063655
  0.013574
 -0.024013
 -0.079673
 -0.058817
  0.015944
 -0.011048
  0.121456
  0.001217
  0.014851
  0.037990
  0.063351
 -0.066717
  0.029345
  0.034069
 -0.052749
  0.006079
 -0.013582
  0.018408
  0.025046
 -0.032857
 -0.091483
  0.069489
 -0.043495
 -0.048670
  0.018139
  0.004002
  0.031130
 -0.042858
 -0.018127
 -0.027147
 -0.019616
  0.038731
 -0.067190
  0.032899
  0.051419
  0.017341
 -0.056297
  0.024430
 -0.026623
  0.038197
 -0.039223
  0.022188
  0.033026
  0.101725
  0.041081
  0.005945
  0.065441
  0.094488
 -0.046381
  0.052403
  0.109649
  0.057016
  0.027489
  0.019677
  0.098502
 -0.014877
 -0.000132
  0.040537
  0.037858
  0.019825
 -0.018263
 -0.045776
  0.027505
 -0.000332
  0.013276
  0.042103
  0.054008
  0.006373
  0.073762
  0.000091
 -0.064633
 -0.027771
 -0.000648
  0.001552
  0.001154
  0.036336
 -0.013916
 -0.090409
  0.028363
  0.014196
  0.009359
 -0.027352
 -0.067542
 -0.054104
  0.015269
 -0.021485
  0.028677
  0.103811
  0.047705
 -0.014831
 -0.004571
 -0.038193
  0.044011
  0.045977
  0.039829
 -0.029681
 -0.165315
  0.045641
  0.006505
 -0.000872
 -0.004590
 -0.034050
  0.019254
 -0.006124
  0.026849
 -0.008298
 -0.015487
  0.021738
 -0.022568
 -0.103944
 -0.006136
  0.024252
  0.013785
  0.102748
 -0.033391
 -0.041681
  0.060394
  0.030367
  0.040370
 -0.016981
  0.005121
  0.045222
 -0.043207
  0.090190
  0.050931
  0.024590
  0.080836
 -0.031551
  0.018449
  0.042803
 -0.003139
 -0.068786
 -0.132444
 -0.012949
  0.008688
  0.093056
 -0.064233
 -0.027358
  0.059229
  0.079416
 -0.087952
 -0.021798
 -0.022535
 -0.027508
 -0.006320
  0.002373
 -0.044981
 -0.014548
  0.022751
 -0.097324
  0.029345
  0.020316
 -0.009374
 -0.017915
 -0.028301
 -0.012024
 -0.013382
  0.011508
  0.098329
  0.045831
 -0.057269
 -0.055826
 -0.009888
 -0.001962
 -0.053832
  0.021294
  0.064201
  0.055986
 -0.022771
  0.026636
 -0.037833
 -0.061556
  0.051716
  0.073494
  0.011896
 -0.021221
  0.028886
 -0.047132
 -0.034337
  0.027788
 -0.054014
 -0.020799
  0.008898
  0.027322
  0.051332
  0.029621
  0.037652
  0.051446
  0.015252
  0.083002
  0.014439
 -0.008842
 -0.016328
  0.006550
  0.046370
  0.004175
 -0.040791
  0.103026
 -0.041413
  0.014699
  0.053945
 -0.071250
 -0.045289
  0.019536
  0.030684
  0.067902
 -0.011913
 -0.046943
  0.006418
  0.087587
 -0.006179
 -0.043902
  0.056859
 -0.050037
  0.041462
 -0.003172
 -0.003924
  0.003751
 -0.037138
  0.013182
 -0.017709
  0.008471
  0.010533
 -0.030164
 -0.022615
  0.023806
 -0.046010
  0.012994
  0.015658
 -0.014870
  0.036251
  0.001697
 -0.069212
 -0.034317
 -0.041695
  0.039832
 -0.056540
 -0.016686
  0.026716
 -0.004756
  0.020188
  0.009287
 -0.010147
  0.082285
  0.034481
 -0.065216
  0.061070
 -0.012963
  0.060039
  0.051389
 -0.019298
 -0.025831
 -0.067082
  0.067407
 -0.006874
  0.010838
 -0.033252
 -0.152793
 -0.012860
 -0.006970
 -0.039847
  0.033928
 -0.039245
 -0.043865
  0.002060
  0.038138
 -0.005546
  0.021980
  0.033837
  0.027680
  0.006173
 -0.001609
 -0.032092
  0.054154
  0.024010
  0.017527
  0.034708
  0.006335
  0.035576
 -0.047222
  0.042092
 -0.041148
 -0.049863
  0.024388
  0.035319
 -0.001930
  0.026975
  0.039717
 -0.042254
 -0.062479
  0.046350
 -0.055287
 -0.012473
 -0.018862
  0.113345
 -0.010558
 -0.079244
  0.027279
 -0.001274
 -0.041470
 -0.037979
  0.035153
  0.039324
  0.055956
  0.051686
 -0.036321
 -0.109571
 -0.023960
 -0.003382
  0.000364
 -0.005694
 -0.086135
  0.042825
  0.001244
 -0.009392
  0.022117
 -0.036645
 -0.027852
 -0.074088
 -0.089086
 -0.022019
  0.013001
 -0.029598
 -0.052966
 -0.015307
 -0.042870
 -0.054555
 -0.048358
  0.024361
 -0.034482
 -0.012744
  0.025869
  0.047483
  0.033627
 -0.078662
 -0.002786
 -0.000183
  0.059745
  0.007415
  0.052713
 -0.065234
  0.071484
  0.038817
 -0.107005
 -0.064048
  0.020324
  0.027269
  0.043206
 -0.088192
  0.073599
 -0.021640
  0.087552
  0.005942
 -0.011777
  0.010404
  0.014784
  0.072136
  0.026198
 -0.042283
 -0.017443
 -0.011890
  0.036961
  0.073583
  0.031424
  0.084652
  0.018762
  0.047267
  0.047040
  0.015450
  0.069668
  0.032832
  0.000662
 -0.044091
  0.007178
  0.098849
  0.008613
 -0.021547
 -0.006206
  0.049120
 -0.005500
 -0.049734
  0.036748
 -0.090135
 -0.013765
 -0.095390
 -0.026859
 -0.015842
 -0.009659
 -0.046004
  0.020082
  0.009083
 -0.114289
 -0.067483
 -0.008739
 -0.014958
  0.004442
  0.024582
 -0.031784
  0.032401
  0.008547
 -0.002968
 -0.062414
  0.033739
  0.034991
 -0.053351
 -0.031103
  0.016073
  0.001390
 -0.019963
 -0.017952
  0.007277
 -0.005366
 -0.027792
 -0.050013
  0.070597
  0.024408
  0.019330
 -0.077266
  0.047603
 -0.029731
  0.055456
 -0.039091
 -0.056753
 -0.031769
 -0.047266
  0.061687
  0.039743
  0.029999
 -0.069770
 -0.092294
  0.017551
 -0.004769
 -0.034742
  0.088379
  0.016648
 -0.050764
 -0.046152
  0.013458
  0.053429
  0.038873
  0.014091
 -0.020812
 -0.032144
 -0.072803
  0.015509
  0.023308
 -0.054657
 -0.043916
 -0.058707
  0.080503
 -0.051484
 -0.015431
 -0.014072
  0.057680
  0.044933
  0.063264
 -0.015592
  0.037626
 -0.007709
  0.016104
  0.018784
 -0.022334
 -0.093271
 -0.042132
  0.062824
  0.009139
  0.101632
 -0.076268
 -0.013487
 -0.082598
 -0.034775
 -0.033611
 -0.077966
  0.029258
  0.070436
  0.026533
 -0.038998
  0.024745
 -0.064640
  0.044344
 -0.009978
 -0.027735
 -0.051906
 -0.106121
 -0.019503
  0.066144
 -0.045984
  0.007808
  0.026819
 -0.052017
 -0.011167
 -0.009050
  0.048490
 -0.042461
  0.007802
 -0.004329
  0.007866
 -0.012265
  0.009221
 -0.035051
 -0.021600
 -0.012930
 -0.043587
  0.034782
  0.087920
 -0.052001
 -0.042120
  0.003722
  0.004894
 -0.005763
  0.103437
  0.083621
  0.064779
  0.095790
  0.049961
 -0.010709
 -0.001978
 -0.056175
  0.044248
 -0.018995
 -0.050890
  0.017539
  0.007302
  0.031317
  0.020167
  0.015010
 -0.094273
 -0.047525
  0.039275
 -0.033445
 -0.108608
 -0.015386
  0.042399
 -0.056816
  0.033665
  0.009817
 -0.061357
  0.045477
  0.050938
 -0.153684
  0.005374
  0.018972
  0.053087
 -0.050157
 -0.002944
  0.038627
 -0.039317
  0.072183
 -0.050695
  0.030649
 -0.005965
  0.023850
  0.039343
  0.016533
 -0.006077
  0.056010
 -0.006964
 -0.061676
  0.022350
 -0.019154
 -0.003856
  0.025957
  0.073987
  0.070137
  0.081931
 -0.054997
  0.082100
  0.019718
 -0.001429
  0.011375
  0.014009
 -0.028581
 -0.074744
 -0.053762
  0.051771
  0.008836
 -0.020731
  0.021873
 -0.061327
  0.066200
  0.012671
  0.029371
  0.033678
  0.061488
  0.005457
  0.034534
 -0.074162
  0.015730
 -0.049330
 -0.053526
 -0.083046
  0.031150
 -0.090035
  0.052606
 -0.002691
 -0.061351
  0.024730
  0.036181
 -0.052978
  0.035255
  0.032576
 -0.007454
  0.018956
  0.010755
 -0.045180
  0.046543
  0.003556
 -0.036557
  0.080935
  0.001943
 -0.015979
 -0.024755
  0.046488
 -0.040232
  0.025996
 -0.070035
 -0.000419
 -0.031120
 -0.013477
  0.025715
 -0.019613
 -0.008861
 -0.053288
 -0.088923
  0.061513
 -0.026536
  0.060310
 -0.050943
  0.117686
 -0.036604
  0.008430
 -0.028589
  0.035341
  0.032366
  0.013412
 -0.076484
 -0.073298
 -0.021094
  0.051924
 -0.021532
  0.068891
  0.020304
  0.083172
 -0.023519
  0.009530
 -0.007972
  0.037881
  0.061329
  0.039502
 -0.012730
  0.004178
  0.020382
 -0.054004
  0.037052
 -0.000828
 -0.029558
  0.028470
  0.025801
 -0.032725
  0.093502
  0.051130
 -0.000696
 -0.060817
 -0.014699
  0.026465
  0.028643
 -0.015206
  0.016074
 -0.021479
 -0.028673
 -0.030409
 -0.032689
  0.006959
 -0.001263
  0.006558
  0.033900
 -0.100145
 -0.047479
 -0.040455
  0.024165
 -0.033299
 -0.036073
 -0.044387
  0.025462
 -0.045588
 -0.054346
  0.038471
 -0.068019
 -0.026117
  0.033275
  0.030983
 -0.008169
 -0.079773
  0.020191
  0.000709
 -0.070173
  0.032017
 -0.056573
  0.021433
 -0.082501
 -0.038524
  0.021048
 -0.048637
  0.008028
 -0.105768
  0.081985
 -0.040040
  0.011610
  0.019148
  0.041384
  0.093224
 -0.044923
 -0.084138
 -0.039227
  0.004292
 -0.071700
 -0.023069
  0.038117
  0.042795
 -0.004419
 -0.005393
 -0.037670
  0.004706
  0.027553
  0.014857
  0.026376
  0.066292
 -0.059839
 -0.022176
 -0.013352
 -0.002140
  0.013560
 -0.040511
  0.023826
 -0.007439
 -0.013068
 -0.051382
  0.015729
 -0.027208
 -0.005440
  0.012409
 -0.105962
 -0.039097
  0.069675
 -0.005848
  0.000280
 -0.053693
  0.011550
 -0.013146
 -0.088401
  0.042892
 -0.029127
  0.008657
  0.062285
 -0.099707
  0.007653
  0.072013
 -0.004227
 -0.023280
 -0.033530
  0.014581
 -0.028480
  0.077967
 -0.064386
  0.045729
  0.011135
 -0.024777
 -0.029150
  0.116876
  0.088101
 -0.001268
  0.010498
  0.044818
 -0.048435
  0.053132
  0.018076
 -0.003644
  0.026622
  0.093396
  0.049379
  0.027633
  0.002597
  0.058794
 -0.047889
 -0.063915
  0.008995
  0.059800
 -0.010699
  0.027466
  0.029052
 -0.106274
  0.048689
  0.017964
 -0.069928
 -0.003699
  0.121046
  0.096757
  0.049258
  0.050680
 -0.021720
 -0.026007
  0.044860
  0.014997
 -0.048075
  0.061109
 -0.115112
  0.017156
 -0.018066
 -0.043773
 -0.027526
  0.028905
 -0.074391
 -0.066044
 -0.032565
 -0.000319
  0.023766
 -0.026196
  0.027318
  0.005267
 -0.004447
 -0.041149
 -0.064859
 -0.001608
  0.073238
 -0.014995
 -0.069361
 -0.034452
 -0.045938
 -0.007961
 -0.013654
 -0.001832
  0.011505
 -0.076906
 -0.041640
  0.065806
 -0.054818
  0.009939
  0.069904
  0.019694
 -0.037236
 -0.008913
  0.027859
 -0.035349
  0.031370
  0.017958
  0.036931
  0.010958
 -0.058227
 -0.033822
 -0.063945
  0.052887
  0.039267
  0.022675
  0.046265
  0.057194
 -0.028774
  0.053258
 -0.080226
 -0.056919
  0.093796
  0.015722
 -0.038203
  0.088879
  0.044891
  0.036644
  0.008250
 -0.020746
 -0.001985
  0.042017
  0.020192
 -0.042663
 -0.066212
  0.023548
 -0.105656
 -0.074611
 -0.080742
  0.000852
  0.001375
  0.047795
 -0.051383
 -0.029509
  0.048657
 -0.035898
  0.027099
 -0.092779
 -0.045257
  0.029843
  0.010079
 -0.055609
  0.066272
  0.038191
  0.005669
 -0.000285
 -0.050086
 -0.002348
  0.087998
 -0.039375
  0.039619
  0.056495
 -0.005118
 -0.014036
 -0.031717
 -0.050929
 -0.027459
  0.072156
  0.023436
 -0.063027
  0.049526
  0.009005
  0.039434
 -0.022492
 -0.010817
 -0.024945
 -0.014177
 -0.006873
  0.069181
 -0.009950
  0.028524
  0.115937
  0.054223
 -0.045261
 -0.026783
 -0.029176
 -0.098871
  0.016910
 -0.094066
 -0.033058
  0.008713
  0.013583
 -0.045409
 -0.011473
  0.035643
 -0.054062
 -0.023918
 -0.040105
  0.047668
 -0.003353
 -0.035014
  0.059633
  0.059061
 -0.136326
 -0.027719
 -0.056044
 -0.016648
 -0.001871
 -0.064539
 -0.029036
 -0.066551
  0.006938
 -0.029901
  0.024970
  0.008368
  0.017466
  0.014730
  0.000067
  0.002284
 -0.016451
  0.038453
  0.059525
  0.005905
 -0.050310
 -0.034762
  0.027295
 -0.010662
  0.037639
  0.016782
 -0.051116
  0.023323
 -0.028590
 -0.059274
 -0.070728
 -0.022030
 -0.068258
 -0.098592
  0.029464
 -0.015505
 -0.108580
  0.019893
 -0.042626
 -0.047465
 -0.035977
  0.020392
  0.020706
  0.041359
 -0.048412
  0.039442
  0.020068
 -0.047220
 -0.065517
  0.045879
 -0.045349
  0.007916
  0.023419
  0.016792
  0.001467
  0.111643
 -0.046305
 -0.065745
 -0.041775
 -0.033246
  0.071018
  0.042140
  0.060371
  0.004428
  0.033399
 -0.009163
  0.067797
  0.019693
  0.009946
  0.000975
 -0.025354
  0.015767
  0.087343
  0.038876
  0.039714
  0.009655
  0.052405
  0.034261
  0.088905
  0.038743
 -0.006617
  0.151781
  0.205497
  0.099229
  0.141266
  0.065251
  0.079830
  0.050808
  0.067758
  0.075670
  0.016579
  0.023824
  0.066668
  0.073741
  0.103226
  0.033332
  0.120771
  0.060371
  0.076946
  0.119278
  0.147858
  0.240608
  0.236450
  0.314408
  0.348295
  0.460704
  0.530956
  0.495911
  0.458916
  0.475497
  0.469711
  0.361236
  0.427937
  0.430078
  0.325060
  0.416927
  0.437578
  0.364821
  0.419031
  0.355974
  0.517655
  0.538169
  0.447711
  0.488771
  0.415728
  0.375485
  0.448746
  0.293615
  0.244005
  0.320513
  0.322027
  0.553666
  0.459767
  0.473404
  0.658511
  0.621945
  0.634054
  0.664814
  0.650894
  0.677765
  0.613236
  0.600399
  0.619140
  0.564636
  0.654736
  0.685067
  0.843095
  0.736640
  0.929973
  0.946674
  1.000000
  0.889642
  0.890499
  0.828210
  0.676242
  0.516881
  0.502697
  0.385903
  0.335728
  0.329563
  0.321495
  0.209060
  0.235948
  0.118732
  0.094162
  0.110709
  0.150312
  0.121525
  0.127570
  0.028570
  0.023343
 -0.022328
  0.028037
  0.030657
  0.060580
  0.080243
 -0.013625
  0.015943
 -0.012447
  0.018775
  0.074196
 -0.053159
 -0.058725
  0.039360
  0.064077
 -0.041208
  0.052321
  0.032224
  0.027644
 -0.029110
 -0.059496
  0.017658
  0.023536
 -0.045487
  0.034341
 -0.011975
  0.009127
  0.035690
  0.123483
  0.030414
  0.054495
  0.048861
  0.019871
  0.061971
 -0.019286
  0.053278
  0.005433
  0.056356
  0.000459
 -0.025153
  0.040475
 -0.057538
 -0.026348
  0.070278
  0.004719
  0.049532
 -0.047355
  0.092508
 -0.006778
  0.007519
 -0.024277
 -0.031089
  0.021930
  0.045537
  0.036431
 -0.049467
  0.008588
 -0.011010
  0.032349
 -0.029090
  0.128651
 -0.011491
 -0.076690
 -0.016887
  0.031216
 -0.001468
  0.070417
 -0.000769
  0.039147
  0.026402
  0.014655
  0.075469
 -0.000308
 -0.063700
  0.055816
  0.108079
 -0.025008
 -0.021227
  0.104088
 -0.063939
 -0.080503
 -0.024393
  0.001910
  0.057185
  0.020277
  0.087751
  0.053345
 -0.098052
 -0.048952
 -0.029853
 -0.075986
  0.008835
  0.014115
  0.002931
 -0.055433
 -0.024732
  0.022918
 -0.019291
  0.045241
 -0.080279
 -0.009127
  0.023348
 -0.037313
 -0.024371
  0.002340
  0.032414
 -0.024687
 -0.075912
  0.001275
  0.038959
 -0.035745
 -0.028124
  0.108176
 -0.057628
 -0.001919
 -0.076699
 -0.075780
 -0.051813
 -0.042372
  0.027729
 -0.039518
 -0.025500
  0.148058
  0.101514
  0.082011
  0.115233
 -0.067486
  0.001140
 -0.088570
  0.000643
  0.052727
 -0.083294
  0.042834
  0.003086
  0.041791
 -0.000574
  0.093412
  0.087753
 -0.016594
  0.017353
 -0.023767
  0.002133
 -0.040932
 -0.041544
 -0.072988
 -0.027287
  0.054356
 -0.057217
 -0.099148
 -0.034277
 -0.006508
  0.056061
  0.131978
  0.074518
  0.041748
  0.064476
 -0.060965
 -0.015267
  0.042486
  0.032956
  0.076939
  0.043878
 -0.033870
 -0.007161
  0.008793
  0.075686
  0.125274
  0.051284
  0.056503
  0.037443
  0.029491
 -0.018981
 -0.001438
  0.039477
  0.019244
  0.150324
  0.088389
  0.101706
  0.020569
  0.108506
  0.033338
  0.067670
  0.016089
  0.048829
  0.012237
 -0.022783
 -0.027878
  0.029399
 -0.024315
  0.024793
  0.140673
 -0.000562
  0.002669
  0.060006
  0.028392
 -0.019686
 -0.071413
 -0.104398
  0.000643
  0.079139
 -0.007157
  0.005271
  0.016416
  0.052796
  0.014331
 -0.087400
 -0.055543
  0.015458
 -0.039994
 -0.001868
 -0.018305
  0.030950
  0.001624
 -0.059113
  0.015330
  0.059175
  0.007911
  0.050983
  0.118115
  0.094728
  0.032935
  0.078102
 -0.096920
 -0.024088
  0.034318
 -0.010219
 -0.055155
 -0.059515
  0.057771
  0.057836
  0.016455
 -0.063565
 -0.032042
 -0.118005
 -0.033135
  0.036794
 -0.028507
  0.014991
  0.005259
  0.005360
 -0.014426
 -0.028672
  0.042666
 -0.014652
  0.035635
 -0.039549
 -0.013525
 -0.064619
  0.033434
 -0.049632
 -0.013375
  0.031011
 -0.016622
  0.017756
 -0.033637
  0.079229
  0.087787
 -0.044557
 -0.046976
 -0.074178
 -0.012722
 -0.053331
  0.102407
 -0.013445
 -0.020673
  0.038903
  0.112134
  0.002271
 -0.095210
 -0.074454
  0.036964
  0.012577
 -0.059939
 -0.050291
 -0.021712
  0.028446
  0.026606
  0.027019
 -0.072227
  0.035612
 -0.087942
  0.038120
 -0.028119
 -0.002498
 -0.024381
  0.047997
 -0.097450
 -0.062778
  0.029801
  0.073713
  0.061125
  0.032620
 -0.047136
  0.088621
  0.015124
  0.056521
 -0.070953
 -0.013822
 -0.032913
 -0.068083
  0.023967
  0.015336
 -0.099614
  0.034661
 -0.000228
  0.017313
  0.030819
 -0.001078
 -0.041647
  0.017903
 -0.020915
  0.007014
  0.018784
 -0.013888
 -0.013743
  0.021772
 -0.055011
 -0.034742
  0.032238
  0.003650
 -0.008807
 -0.019221
  0.070308
  0.036583
 -0.037191
 -0.043168
 -0.010400
 -0.027943
 -0.007676
  0.005341
  0.019645
  0.033971
  0.018054
  0.058517
 -0.052994
 -0.035556
  0.014979
 -0.042069
  0.022292
  0.016885
 -0.059881
 -0.012780
  0.022789
  0.022642
  0.012018
  0.059101
 -0.062660
  0.002832
  0.009391
  0.015893
  0.056818
 -0.013952
 -0.047868
  0.005997
 -0.020890
  0.021493
 -0.002727
 -0.008226
 -0.100552
  0.046537
 -0.031849
 -0.023453
  0.033658
 -0.004739
  0.058166
 -0.052630
  0.019794
 -0.034952
  0.029281
  0.002521
 -0.024056
 -0.026772
 -0.000842
 -0.008371
 -0.039014
 -0.018765
  0.074658
 -0.028480
 -0.000734
 -0.012853
  0.004771
  0.048910
 -0.008851
  0.008418
  0.047013
 -0.011132
 -0.079124
 -0.042027
  0.022853
  0.039110
  0.011387
  0.001399
 -0.065639
  0.053987
  0.062649
  0.050311
 -0.035938
  0.012035
 -0.012535
  0.023984
  0.095195
  0.054577
  0.000987
  0.044521
  0.033089
 -0.080913
  0.030267
 -0.046158
 -0.000550
  0.087520
  0.041407
 -0.032612
 -0.051670
 -0.043408
 -0.036729
 -0.008544
 -0.024051
 -0.106400
  0.083575
  0.017781
 -0.009206
 -0.049303
  0.004974
  0.056932
  0.054492
  0.012738
  0.012993
  0.024649
  0.043364
 -0.019135
  0.089924
  0.028303
 -0.088318
 -0.002516
 -0.004408
  0.009294
 -0.032253
  0.025738
  0.047904
  0.014002
 -0.022401
 -0.020619
 -0.027559
 -0.063885
  0.063266
 -0.068636
 -0.078738
  0.091521
  0.052369
  0.040636
  0.011836
  0.039703
  0.035421
 -0.024727
  0.017859
  0.010520
 -0.034013
 -0.060380
 -0.067792
  0.043921
  0.064437
 -0.039587
  0.000873
 -0.074901
 -0.055587
 -0.041499
 -0.079489
 -0.082482
  0.008999
  0.041271
  0.058056
 -0.085598
 -0.048584
 -0.018622
 -0.009723
 -0.010428
  0.018513
  0.037958
 -0.019821
  0.060675
  0.028007
  0.092205
 -0.023266
  0.038455
 -0.050853
  0.033822
  0.005913
 -0.063251
  0.040020
  0.001500
  0.000825
 -0.008725
 -0.046994
 -0.014228
 -0.018702
  0.035438
 -0.007968
 -0.018604
  0.099612
  0.060700
  0.002255
  0.016947
  0.024098
 -0.040879
 -0.023678
  0.023996
 -0.058023
 -0.048414
  0.025447
 -0.035159
  0.006748
  0.112976
  0.012957
  0.004584
  0.065085
  0.005897
  0.027994
 -0.032074
  0.036862
  0.044799
  0.006301
 -0.103847
 -0.007208
 -0.005135
  0.049234
 -0.018790
  0.021153
 -0.094560
 -0.110718
  0.002031
 -0.002533
 -0.018940
  0.043455
 -0.016654
 -0.022888
 -0.059012
  0.069501
 -0.090965
 -0.060885
 -0.029315
  0.022928
 -0.000018
 -0.036084
  0.067662
 -0.004527
 -0.035347
 -0.063756
 -0.000716
  0.040388
 -0.002697
  0.024462
  0.053512
  0.072699
 -0.073315
 -0.005119
  0.030092
  0.021241
  0.011834
 -0.012387
 -0.080872
 -0.007374
 -0.029921
 -0.024225
 -0.023989
  0.057962
  0.024864
 -0.057187
  0.111967
  0.006535
  0.051724
 -0.006691
  0.004697
  0.007128
  0.036738
  0.028620
  0.020968
  0.062242
  0.017799
 -0.059590
 -0.006998
 -0.009598
 -0.017791
  0.013811
  0.019005
 -0.029291
  0.009982
 -0.048876
 -0.019764
 -0.049060
  0.028959
 -0.004657
 -0.016766
  0.053432
  0.022361
 -0.004931
 -0.066321
  0.004515
  0.017340
  0.026167
 -0.065525
 -0.044735
  0.046256
 -0.039991
  0.010235
 -0.054979
  0.008580
 -0.092747
  0.016082
  0.035579
 -0.019076
 -0.002760
 -0.010359
 -0.019211
  0.025543
 -0.038598
 -0.061919
 -0.075887
 -0.059300
  0.040578
  0.014027
  0.037421
 -0.020426
  0.004307
 -0.055902
  0.022412
  0.006919
  0.006823
 -0.062751
 -0.075508
 -0.071965
 -0.098554
 -0.041928
  0.044910
 -0.125551
 -0.096705
  0.028489
 -0.098874
  0.010940
 -0.036368
 -0.006533
  0.017611
 -0.032806
 -0.004882
 -0.020679
 -0.057975
  0.055516
  0.005684
 -0.009144
 -0.037613
  0.056871
  0.017507
 -0.002265
 -0.034398
 -0.036086
  0.014567
 -0.053256
  0.056789
 -0.040535
 -0.018766
  0.020660
 -0.015919
 -0.001837
  0.010664
  0.010205
 -0.013570
  0.011529
 -0.105100
 -0.009022
  0.023013
 -0.045181
 -0.084203
  0.060492
  0.067702
  0.072761
 -0.021565
 -0.005809
  0.073632
  0.056917
 -0.006321
  0.026409
 -0.064314
 -0.046907
 -0.059067
 -0.012537
  0.050536
  0.033656
  0.042405
  0.035165
 -0.002337
  0.090890
  0.034404
  0.122194
  0.071124
  0.006189
  0.049341
  0.072575
 -0.064818
 -0.021422
  0.018647
  0.005277
 -0.010013
  0.058826
 -0.064500
 -0.001662
  0.016915
 -0.020247
  0.001572
 -0.052123
  0.161197
 -0.075222
  0.032634
 -0.033406
 -0.054804
  0.013870
  0.039311
  0.006092
  0.009258
  0.005526
  0.050477
  0.003718
  0.012917
  0.034780
 -0.030348
  0.051814
 -0.028653
 -0.060588
 -0.051580
 -0.031242
 -0.048726
 -0.025830
  0.009211
 -0.006047
  0.013346
  0.048948
  0.030953
  0.003683
  0.018374
 -0.021182
  0.004477
 -0.025677
  0.066430
  0.073777
 -0.008132
 -0.007561
 -0.015878
 -0.043930
 -0.001542
 -0.042956
 -0.029671
 -0.000376
  0.037405
  0.001623
 -0.068153
 -0.048042
 -0.043098
 -0.056921
  0.013004
  0.009464
 -0.027995
  0.096623
  0.051531
  0.038852
 -0.042656
  0.005018
 -0.004252
  0.009951
  0.018899
 -0.023578
  0.022188
  0.039963
 -0.039100
 -0.067615
  0.024560
 -0.099460
  0.005283
  0.001075
 -0.014350
  0.054448
  0.003158
  0.017080
  0.077279
 -0.002228
  0.025026
  0.004817
  0.009065
  0.043564
  0.000121
 -0.039978
 -0.101647
 -0.004158
 -0.041561
 -0.064774
 -0.076307
 -0.024686
  0.011236
 -0.014093
  0.024343
  0.102612
 -0.000866
  0.008498
  0.006986
 -0.006161
 -0.083131
  0.026868
  0.043493
  0.034697
 -0.007245
 -0.020105
  0.016153
  0.006470
 -0.051611
  0.048860
  0.002898
  0.038651
  0.027114
 -0.024115
  0.053892
 -0.011810
  0.071222
  0.020577
  0.054339
 -0.042486
  0.020319
 -0.062935
 -0.005885
 -0.029796
 -0.010831
 -0.062248
  0.011516
 -0.103492
 -0.060086
 -0.010894
  0.036874
  0.083161
 -0.033518
 -0.008476
  0.002936
 -0.015979
  0.018808
 -0.021685
 -0.101792
 -0.083327
  0.106098
 -0.051553
 -0.006691
 -0.088966
 -0.082325
 -0.003139
  0.017757
 -0.054250
 -0.041847
  0.076573
 -0.038449
 -0.093854
  0.100611
 -0.002486
  0.089435
  0.042464
  0.002952
 -0.026159
 -0.037190
  0.091379
 -0.037696
 -0.015402
 -0.028398
 -0.062215
  0.007585
  0.087184
 -0.038465
 -0.068555
  0.009670
  0.023001
 -0.018404
 -0.013984
  0.078583
 -0.044696
 -0.031502
 -0.085684
 -0.025837
  0.016937
  0.046036
  0.010860
 -0.108776
 -0.025549
 -0.011542
  0.024032
 -0.030309
  0.083587
  0.003408
  0.051795
  0.007135
  0.017311
  0.058665
  0.061475
 -0.047381
 -0.107622
 -0.059519
 -0.074723
  0.032457
  0.047395
 -0.016417
 -0.031669
 -0.050363
 -0.029105
  0.022396
  0.030443
  0.034453
 -0.022813
  0.027574
  0.048783
  0.012386
  0.014130
 -0.031085
  0.002598
  0.015634
  0.034030
  0.025372
 -0.011180
 -0.026214
  0.017304
 -0.011741
  0.012943
  0.001356
 -0.041706
 -0.094258
 -0.054306
 -0.015836
  0.070567
 -0.004494
  0.006782
  0.022395
  0.124797
  0.007938
 -0.070538
 -0.045255
  0.081220
 -0.045064
  0.003471
 -0.041474
  0.037092
 -0.010635
  0.085289
  0.063397
 -0.041588
 -0.001155
 -0.022289
  0.052177
  0.004207
 -0.070447
 -0.045518
  0.028599
  0.025437
  0.047882
 -0.046134
  0.052331
  0.045522
  0.024665
 -0.013435
 -0.000819
 -0.068242
 -0.042592
  0.105387
 -0.057926
  0.080740
  0.014949
  0.004209
  0.008890
 -0.050482
 -0.011936
 -0.005217
  0.011701
 -0.006768
 -0.028808
 -0.069139
  0.019167
 -0.090478
  0.019447
 -0.049775
 -0.003799
 -0.057138
  0.001155
  0.037740
 -0.044259
  0.040162
  0.049919
  0.059629
 -0.090061
  0.028309
 -0.048278
  0.022991
 -0.006036
  0.012770
 -0.025043
 -0.047056
  0.005371
 -0.055629
  0.026820
 -0.051236
 -0.045054
  0.045106
 -0.078703
 -0.088035
  0.019933
 -0.062409
 -0.035361
  0.057104
  0.022176
  0.076034
  0.079343
 -0.046101
  0.003050
  0.034308
 -0.046542
  0.105139
 -0.062871
  0.008242
  0.001795
  0.016806
 -0.032886
  0.012149
 -0.006340
  0.078699
  0.078524
 -0.001805
 -0.135072
 -0.061832
  0.015625
  0.016296
 -0.033551
  0.018818
 -0.016817
  0.094020
 -0.080629
  0.087510
 -0.001332
 -0.040813
  0.034685
 -0.043944
  0.018562
 -0.006966
 -0.025935
 -0.032691
 -0.031481
  0.055578
 -0.046686
  0.029297
  0.039115
  0.022165
 -0.128123
 -0.023442
 -0.031835
  0.039556
 -0.054589
  0.062842
 -0.046877
  0.086129
 -0.041937
 -0.057505
  0.071725
  0.018296
 -0.026377
 -0.009105
  0.047271
 -0.015738
  0.011035
  0.010975
 -0.017268
 -0.018917
 -0.022581
 -0.030637
  0.049604
 -0.072308
  0.026312
 -0.000763
  0.051575
  0.078435
  0.013619
 -0.005014
  0.052346
 -0.004114
  0.020829
  0.089546
 -0.022106
  0.009139
 -0.064567
 -0.000401
  0.104018
  0.077674
  0.062018
 -0.058470
 -0.007956
  0.017551
  0.019578
  0.123789
 -0.003625
 -0.051601
  0.059809
 -0.020824
  0.037744
  0.004436
  0.013949
 -0.082272
  0.024587
  0.000890
  0.008053
 -0.009966
 -0.056892
  0.017670
  0.055026
 -0.095788
 -0.042045
 -0.010238
  0.039086
 -0.079576
  0.004078
  0.069790
  0.104742
 -0.028824
  0.005707
  0.055310
  0.045184
 -0.013716
  0.015498
  0.088878
  0.017933
  0.022745
  0.095360
 -0.016259
 -0.030913
  0.039929
  0.010613
 -0.004220
  0.055267
 -0.018209
  0.085822
 -0.066504
  0.026457
  0.003386
  0.027975
 -0.007064
 -0.062270
  0.007541
 -0.103655
  0.034409
 -0.036284
  0.044475
 -0.065605
  0.001460
 -0.039664
  0.067651
  0.133733
  0.034383
  0.084013
  0.022132
  0.025841
  0.022242
  0.010808
 -0.016443
  0.133367
 -0.031885
  0.044057
  0.012743
  0.011734
 -0.008701
 -0.019919
 -0.137227
 -0.012898
  0.026998
  0.090807
 -0.027311
  0.083106
  0.023774
 -0.000147
 -0.040082
 -0.018914
 -0.052226
 -0.018718
  0.011172
 -0.021849
 -0.021538
  0.012765
 -0.006344
 -0.070812
  0.052893
 -0.040997
  0.037453
  0.002840
 -0.055384
 -0.002825
  0.047688
 -0.041873
  0.002426
  0.016137
 -0.064467
 -0.053303
  0.066770
 -0.009143
  0.001495
 -0.019318
 -0.018336
 -0.036533
  0.098417
 -0.002432
  0.008899
  0.072134
 -0.044330
  0.010175
 -0.018877
 -0.019232
 -0.037823
 -0.003153
 -0.066919
  0.003439
  0.010412
 -0.090578
 -0.098279
  0.014498
  0.002159
  0.042087
 -0.000275
 -0.048212
  0.012980
 -0.007764
 -0.033158
 -0.018199
  0.043382
 -0.091333
  0.037276
 -0.079520
  0.001547
  0.019617
 -0.019033
 -0.055176
  0.055005
  0.026198
  0.011067
  0.027009
  0.019856
 -0.006568
  0.047172
  0.134374
 -0.012186
  0.035558
  0.024802
 -0.094586
  0.038235
  0.075110
  0.106945
 -0.023601
 -0.068674
  0.003543
  0.040054
 -0.010729
 -0.016672
 -0.014890
 -0.027369
 -0.039798
 -0.016113
 -0.016785
  0.003710
 -0.050028
 -0.070910
  0.016714
  0.033329
  0.007624
  0.035798
  0.013766
  0.022600
  0.046108
  0.019576
  0.007962
  0.019115
  0.063892
  0.017327
 -0.088496
 -0.018914
 -0.063583
  0.029318
 -0.023259
  0.003994
 -0.046072
  0.015728
 -0.008808
  0.003698
 -0.038601
 -0.004495
  0.016847
 -0.018435
 -0.116817
 -0.028372
 -0.009869
  0.012340
 -0.052484
 -0.056651
 -0.061001
  0.041858
 -0.017199
  0.021193
  0.020634
 -0.025868
 -0.033453
  0.019840
  0.032535
  0.010370
  0.017843
  0.115747
 -0.048131
  0.033291
  0.011931
  0.018278
 -0.006680
 -0.053313
  0.008429
 -0.057740
  0.004392
  0.077516
  0.014072
  0.094853
  0.027569
  0.023829
 -0.039983
  0.052023
  0.046902
 -0.049230
 -0.053284
  0.001287
  0.072508
  0.018009
 -0.056247
  0.005036
 -0.005723
 -0.004574
  0.023054
 -0.035353
  0.014190
 -0.056700
 -0.069543
 -0.009397
  0.105517
  0.002476
  0.018924
 -0.018130
  0.055713
 -0.004622
  0.026988
 -0.024716
  0.054378
  0.012119
 -0.042834
  0.046130
 -0.019036
  0.046448
 -0.011520
 -0.086220
 -0.026822
 -0.002487
  0.027526
  0.075306
 -0.021290
  0.033298
  0.024415
  0.059657
 -0.001899
  0.025566
 -0.059723
  0.091965
 -0.032448
 -0.063008
 -0.027764
  0.031029
 -0.020158
  0.016763
  0.015786
 -0.106330
  0.110166
  0.056223
  0.093305
  0.005234
 -0.025474
  0.066209
  0.032421
 -0.033865
 -0.004461
  0.018607
  0.081073
 -0.071933
 -0.004108
 -0.048569
  0.062921
  0.034746
 -0.065356
 -0.025790
 -0.094475
  0.050654
 -0.054072
 -0.021901
 -0.055823
  0.025245
 -0.060001
  0.027753
 -0.076500
 -0.056309
  0.077944
  0.074093
  0.011641
 -0.014672
  0.018398
  0.019546
 -0.018939
 -0.082746
 -0.012936
  0.076452
  0.070756
  0.058227
  0.051768
  0.011381
  0.059581
 -0.075190
 -0.017363
  0.002241
  0.032752
  0.023176
  0.085722
  0.046075
 -0.034988
  0.042361
 -0.065671
  0.019568
  0.025493
  0.053981
 -0.069485
 -0.020715
 -0.054940
  0.032326
  0.045076
 -0.025466
 -0.014639
 -0.024315
  0.033203
  0.072249
  0.007357
 -0.013889
 -0.015571
 -0.029596
  0.048276
  0.025225
  0.061286
 -0.019464
 -0.028728
 -0.034420
 -0.005159
 -0.016110
 -0.043036
  0.005783
  0.001134
 -0.070797
  0.026842
  0.016092
 -0.006227
 -0.103313
  0.008951
 -0.046991
 -0.000052
  0.013320
 -0.089935
  0.002700
 -0.049555
 -0.021694
  0.052147
 -0.034399
  0.059202
 -0.035858
  0.019771
 -0.004583
  0.037276
 -0.049950
  0.007832
 -0.005396
 -0.082340
 -0.073973
  0.085485
  0.001049
 -0.016644
 -0.041888
 -0.026677
  0.018816
 -0.007093
  0.006683
 -0.050951
 -0.035613
  0.008805
 -0.068334
  0.090925
  0.023388
 -0.027027
 -0.060336
  0.045106
 -0.052386
  0.037772
  0.020089
  0.008291
 -0.015623
 -0.026948
  0.050355
  0.004356
  0.010020
  0.020776
  0.081216
 -0.047839
  0.046741
  0.053942
  0.057316
  0.002987
  0.028583
  0.042190
  0.007335
  0.000511
 -0.053725
  0.113946
  0.021095
  0.021977
  0.022546
 -0.017758
 -0.029703
  0.086896
 -0.047110
  0.034182
  0.021694
 -0.016948
  0.035799
 -0.041333
 -0.043914
 -0.046620
  0.043079
  0.021968
  0.103817
 -0.035499
 -0.006408
  0.061077
 -0.041291
  0.015445
 -0.019395
  0.020647
 -0.033701
  0.029958
 -0.035070
  0.016540
  0.071363
  0.098452
 -0.041093
 -0.058038
 -0.070337
  0.010630
  0.007748
 -0.049708
 -0.022392
  0.048873
  0.012728
 -0.031624
 -0.048065
 -0.107559
  0.010204
 -0.001040
 -0.011813
 -0.009750
  0.040752
 -0.009827
  0.059443
 -0.041666
  0.019096
 -0.014242
  0.074686
 -0.065893
  0.071696
  0.044703
  0.041438
  0.008913
 -0.030457
  0.033341
  0.043094
  0.062072
  0.002468
  0.043808
 -0.007005
 -0.016020
  0.001876
  0.028431
 -0.041435
  0.061076
  0.013193
 -0.129568
 -0.008953
 -0.083529
  0.109153
  0.023321
  0.006478
  0.066078
 -0.042834
  0.004968
  0.025479
  0.015481
  0.080982
  0.056942
  0.067628
  0.005123
 -0.082166
 -0.075899
 -0.003665
 -0.048480
 -0.012536
 -0.002670
 -0.031753
  0.038323
  0.021242
 -0.007504
  0.053393
 -0.038269
 -0.038544
  0.032474
 -0.017892
 -0.038992
  0.068206
  0.044676
 -0.027552
 -0.052394
 -0.002754
 -0.043352
 -0.036606
 -0.057625
 -0.034635
  0.048325
  0.056584
 -0.050810
  0.048674
  0.010102
 -0.042853
 -0.009998
  0.024001
 -0.126387
 -0.041143
  0.005818
 -0.018071
 -0.065483
  0.030450
  0.007705
 -0.068865
 -0.062914
  0.099172
 -0.089906
 -0.006122
 -0.062633
  0.048093
 -0.080080
  0.084066
 -0.073944
 -0.086377
  0.024137
  0.000532
  0.064599
  0.026754
  0.030144
 -0.021061
  0.036699
 -0.043357
  0.041368
 -0.062205
 -0.037332
  0.009437
  0.058569
 -0.007392
 -0.048554
  0.077719
 -0.019078
  0.064897
 -0.063581
  0.006579
 -0.052912
 -0.001387
 -0.001363
  0.024067
  0.026018
 -0.003978
 -0.029468
  0.005918
 -0.053139
 -0.041048
 -0.059945
 -0.062726
 -0.017478
  0.009259
 -0.042895
  0.003322
  0.034317
 -0.111365
  0.031960
  0.017943
 -0.015601
 -0.030772
 -0.088302
 -0.016851
  0.088652
 -0.042285
  0.024604
  0.056330
 -0.003669
 -0.118684
 -0.070310
  0.047696
 -0.038708
 -0.029270
  0.008133
  0.035661
  0.021330
  0.013340
  0.039066
 -0.031174
 -0.003413
 -0.009775
 -0.007365
  0.006377
 -0.000316
 -0.009594
 -0.004376
 -0.055668
 -0.052891
  0.038256
 -0.022289
  0.019141
 -0.094661
  0.039481
  0.002424
 -0.001041
 -0.019202
 -0.040702
 -0.014504
  0.043784
 -0.079309
  0.042890
  0.035008
 -0.102072
  0.023176
 -0.004055
 -0.053956
  0.088289
  0.011559
  0.034010
  0.044117
  0.035316
 -0.008625
  0.058372
 -0.089785
  0.009019
 -0.003179
  0.100787
  0.002920
 -0.001918
  0.000790
  0.000189
 -0.004380
 -0.070576
 -0.068849
  0.008475
  0.016449
  0.007664
  0.020240
  0.009151
  0.067737
  0.050523
  0.009748
  0.056530
  0.021148
  0.005865
 -0.022996
 -0.017770
 -0.035582
 -0.016980
 -0.054565
 -0.006551
 -0.059317
 -0.015944
  0.021106
  0.024766
  0.040485
  0.048263
  0.020947
  0.098599
 -0.018019
 -0.044684
 -0.074589
  0.081968
 -0.004051
  0.024120
 -0.035203
 -0.053252
 -0.000473
  0.036922
  0.050604
  0.018633
  0.030382
 -0.017450
  0.016036
  0.026460
  0.010781
  0.009635
 -0.002366
 -0.047725
  0.022473
  0.016972
  0.052332
 -0.055758
  0.044598
 -0.049449
 -0.006488
  0.012128
  0.052472
 -0.038878
  0.004663
 -0.088364
 -0.018444
 -0.050694
  0.057297
  0.082038
 -0.008782
 -0.029175
  0.011358
  0.020995
 -0.004200
  0.023070
  0.045079
  0.014788
  0.012982
 -0.018535
 -0.006552
 -0.020053
 -0.060155
 -0.090216
  0.008474
  0.127541
 -0.012894
  0.038620
  0.038819
 -0.011815
 -0.019390
  0.041322
 -0.028313
  0.076645
 -0.031692
  0.032734
  0.001174
  0.005192
  0.092682
  0.002518
 -0.005649
  0.055830
  0.027827
 -0.021750
 -0.048918
 -0.010904
  0.003954
 -0.011597
  0.010682
 -0.051280
 -0.040733
 -0.003177
 -0.012310
 -0.031882
 -0.013866
 -0.027977
 -0.045468
 -0.005474
 -0.057586
  0.025880
  0.049073
 -0.003904
 -0.038485
  0.025419
 -0.054630
  0.017802
  0.012811
  0.034051
  0.041899
  0.046583
  0.036237
  0.072941
  0.039640
 -0.003775
 -0.071388
 -0.000043
  0.012461
 -0.069658
  0.010079
 -0.014163
 -0.006339
 -0.047697
  0.018595
 -0.071262
 -0.010610
 -0.035220
  0.015334
  0.025441
  0.010044
 -0.057439
 -0.072781
  0.058171
 -0.042671
  0.051618
 -0.047584
 -0.029784
  0.028107
 -0.030389
 -0.005991
  0.059530
  0.013492
  0.022111
  0.012829
 -0.034013
 -0.056895
  0.007730
 -0.069327
 -0.028888
  0.039161
  0.015550
  0.015037
 -0.008358
  0.011419
 -0.052166
 -0.000802
 -0.019297
  0.061226
  0.066164
  0.172613
  0.045137
  0.002428
 -0.052804
  0.037975
  0.021664
  0.037710
 -0.093443
  0.146653
  0.041522
 -0.029256
  0.068168
 -0.097138
 -0.021126
 -0.025413
 -0.000828
  0.038039
 -0.059336
  0.104427
 -0.037392
 -0.028948
 -0.005388
 -0.047185
 -0.074708
 -0.009592
  0.000710
  0.012582
  0.006574
 -0.040209
  0.019524
 -0.034867
  0.054175
  0.022139
 -0.021805
 -0.037453
 -0.095309
 -0.008983
  0.016690
  0.007893
  0.031392
 -0.034765
  0.012021
  0.054338
 -0.025463
  0.012124
  0.008409
 -0.043338
  0.052188
  0.043510
 -0.000222
  0.129429
  0.040710
  0.035600
 -0.046527
 -0.059560
  0.050218
  0.003484
 -0.039363
 -0.024000
 -0.037510
 -0.041025
  0.002153
 -0.003758
  0.008628
  0.051900
 -0.122508
  0.011483
 -0.009077
 -0.045007
  0.055757
 -0.006997
  0.016413
 -0.035923
 -0.025492
  0.006423
 -0.014760
 -0.081072
  0.015512
  0.014205
 -0.025643
  0.047038
  0.064433
 -0.049277
  0.104734
 -0.028225
  0.006753
 -0.008489
 -0.009139
 -0.015277
 -0.031552
 -0.003958
 -0.008163
 -0.053750
 -0.021400
  0.066541
 -0.028935
  0.017839
  0.072217
 -0.056113
 -0.070480
  0.126191
  0.035240
  0.108452
 -0.102848
  0.061947
  0.062512
  0.006748
 -0.004553
  0.023544
  0.107013
 -0.028257
  0.051470
  0.052206
  0.013586
 -0.009450
 -0.017232
  0.024044
 -0.040632
 -0.021093
  0.029929
 -0.008719
  0.040209
 -0.004552
  0.026434
  0.063966
  0.024945
 -0.025630
  0.064998
  0.088115
 -0.016901
  0.044017
 -0.005450
  0.060834
  0.092994
 -0.018507
  0.022775
  0.001699
  0.108256
  0.042453
  0.039648
  0.017950
 -0.006078
  0.001290
 -0.071050
  0.084493
 -0.001626
  0.008675
  0.031425
 -0.039006
  0.055116
 -0.026994
  0.017750
  0.050337
  0.042079
  0.028708
  0.017841
 -0.007548
  0.047791
 -0.003036
  0.043404
 -0.029406
 -0.017902
  0.132420
 -0.022310
  0.051155
  0.044124
  0.030897
  0.028614
  0.059406
  0.000991
  0.049923
 -0.011596
  0.012889
  0.068669
 -0.002992
  0.041761
  0.100566
 -0.002869
  0.030006
 -0.001552
  0.073221
  0.046725
 -0.009684
 -0.033578
 -0.058382
  0.125998
  0.035658
 -0.001443
  0.115246
  0.025613
  0.076292
 -0.006182
  0.048741
  0.074579
  0.065095
  0.067397
 -0.004697
  0.014507
  0.083966
  0.067039
  0.132648
  0.045012
  0.024401
  0.062095
  0.031703
  0.077372
  0.052251
  0.045721
 -0.066438
  0.071376
 -0.006368
  0.008491
  0.059814
  0.029504
  0.042895
  0.062177
  0.033075
  0.089553
  0.005850
  0.024612
  0.077132
  0.098008
  0.047140
  0.068022
  0.028441
  0.032174
  0.068605
  0.078021
  0.086515
  0.052289
  0.008523
 -0.012857
  0.111551
  0.080222
  0.022956
  0.027266
  0.101706
  0.142345
  0.010770
  0.044706
  0.044922
  0.099636
  0.132886
  0.102460
  0.008876
  0.028550
  0.039553
  0.064726
  0.028447
  0.046039
  0.055834
  0.090489
  0.184700
  0.155807
  0.090228
  0.052093
  0.071604
  0.031257
 -0.000465
  0.065541
  0.027456
  0.137254
  0.080844
  0.135007
  0.130865
  0.006225
  0.041566
  0.000381
  0.101675
  0.148934
  0.050616
  0.019076
  0.091888
  0.135350
  0.086891
  0.014422
  0.112775
  0.130472
  0.093910
  0.069614
  0.061066
  0.175598
 -0.000484
  0.124878
  0.220126
  0.072270
  0.046662
  0.066968
  0.085298
  0.125899
  0.034022
  0.085406
  0.026192
  0.132765
  0.025806
  0.105435
  0.018603
  0.131264
  0.100763
****
