PROJECT: W75X_2013Aug18
NCH:     4096
BW:   2.50000e+07
VELOCITY:       0.00000
PV:      0.480000
FREQ:    2.2235080e+09
DATE:     2013       8      19
TIME:        1      16      29
POSITION:       309.654      42.6272
INTEGRATION TIMES:       30.0000      30.0000
MAX VALUE:      0.028732850
  0.138340
  0.026793
 -0.001932
  0.090193
 -0.025485
  0.004106
 -0.056603
 -0.115323
 -0.183529
 -0.014683
 -0.069906
  0.072501
 -0.126793
  0.082252
 -0.064771
  0.096666
  0.014435
  0.086716
  0.043054
 -0.008095
 -0.265180
 -0.107131
 -0.132911
 -0.091742
 -0.184614
 -0.061851
 -0.036806
 -0.082437
 -0.047351
  0.032543
  0.070242
 -0.009705
 -0.075125
 -0.073615
 -0.006313
 -0.003155
 -0.246156
  0.069086
 -0.046963
  0.056407
 -0.073598
 -0.033146
  0.014261
 -0.048937
  0.131632
 -0.032027
 -0.001352
 -0.113463
 -0.002642
  0.028249
  0.068582
 -0.087054
 -0.007907
 -0.083806
  0.185608
 -0.020187
 -0.149080
  0.020280
  0.156920
 -0.050421
 -0.071183
 -0.056093
 -0.042741
  0.026371
 -0.068275
  0.022508
 -0.075896
  0.023661
  0.045167
 -0.037407
 -0.056255
 -0.027088
  0.218255
  0.029736
  0.006461
 -0.131939
 -0.040760
  0.071751
 -0.009201
 -0.060087
 -0.039540
 -0.188463
 -0.229105
 -0.019871
 -0.044516
 -0.105225
  0.109684
 -0.095089
 -0.229034
  0.035717
  0.018594
  0.016713
 -0.073811
 -0.015563
  0.016416
 -0.063746
  0.158244
  0.019655
 -0.133023
  0.024869
 -0.055673
 -0.081776
 -0.027023
 -0.030810
  0.126287
  0.121590
 -0.187001
 -0.054036
  0.069791
  0.040133
 -0.024275
  0.026950
 -0.106990
  0.001650
  0.026216
  0.077306
 -0.141719
 -0.052863
 -0.065941
  0.017764
 -0.023278
  0.186722
 -0.119985
 -0.309605
 -0.158457
 -0.068569
  0.084491
 -0.046361
 -0.055330
  0.065993
 -0.025960
 -0.170692
  0.055762
 -0.022281
 -0.094421
 -0.038684
  0.077466
 -0.084060
  0.020168
 -0.017338
  0.005028
  0.047464
 -0.165016
 -0.023731
  0.016051
 -0.127977
  0.115286
  0.114220
 -0.063187
  0.013944
  0.015371
  0.061688
 -0.004121
  0.090634
 -0.019560
  0.064652
 -0.087257
 -0.019356
  0.000464
  0.068745
  0.017951
 -0.184954
 -0.154724
 -0.164923
  0.066263
 -0.035799
 -0.006301
 -0.100973
 -0.030855
  0.107295
  0.037744
 -0.078089
  0.112709
 -0.019582
 -0.003121
  0.087019
 -0.017150
  0.042876
 -0.018656
 -0.093141
  0.074481
  0.174322
 -0.075969
 -0.050197
  0.262240
  0.021023
  0.058431
  0.012852
 -0.028676
  0.121904
  0.006764
 -0.066233
 -0.086110
 -0.030418
  0.076907
  0.159526
 -0.067863
 -0.021615
 -0.011946
  0.020875
  0.052719
  0.179567
  0.192974
 -0.093242
 -0.000527
 -0.063825
 -0.080268
  0.025797
 -0.098397
  0.043437
  0.190118
  0.039696
 -0.025983
  0.095714
  0.157988
 -0.112381
 -0.129300
 -0.094004
  0.054104
  0.079033
  0.094797
 -0.036963
 -0.119225
  0.012247
  0.069501
 -0.062306
  0.049634
  0.141636
  0.232067
 -0.134031
  0.006269
  0.009411
  0.028417
 -0.145197
  0.061966
  0.069138
 -0.020627
  0.114715
 -0.055677
  0.051326
 -0.214957
  0.128892
 -0.002497
  0.177382
  0.092628
 -0.136063
  0.009772
 -0.149010
  0.110125
  0.081065
  0.000688
 -0.153140
  0.099076
  0.031121
  0.145069
 -0.049167
  0.030448
  0.006475
  0.151412
  0.017068
 -0.103379
 -0.032582
  0.076603
  0.002646
  0.083507
  0.149891
 -0.058961
  0.006927
 -0.084853
 -0.082703
  0.001974
  0.053877
 -0.084996
 -0.150948
 -0.013623
 -0.060928
 -0.117450
 -0.215597
  0.005836
  0.067952
  0.010883
 -0.025288
 -0.087008
 -0.071341
 -0.010956
  0.103597
 -0.127345
  0.068104
  0.103370
 -0.044718
 -0.041860
 -0.126327
 -0.034656
  0.074368
  0.119224
  0.095647
 -0.059510
  0.090723
 -0.052093
  0.073815
 -0.014955
 -0.055252
  0.074649
  0.066691
 -0.031587
  0.090408
 -0.098114
  0.110086
  0.171941
  0.057008
 -0.050877
  0.247177
  0.052055
 -0.001383
  0.082927
 -0.005906
  0.102595
 -0.016799
 -0.074550
  0.053193
  0.116696
  0.085606
  0.028670
  0.083682
  0.034591
  0.077377
  0.059594
  0.088993
  0.084068
  0.094190
  0.110562
  0.002254
  0.188600
 -0.113245
 -0.066858
  0.116118
  0.023524
 -0.022881
 -0.079763
  0.030652
  0.038746
  0.047508
  0.194951
 -0.071338
 -0.038569
 -0.088964
  0.045171
  0.120310
 -0.008736
 -0.037091
 -0.081494
  0.235566
 -0.075142
  0.064850
  0.114838
  0.026875
 -0.014506
  0.071315
  0.017033
 -0.022684
  0.003523
  0.126467
 -0.151775
  0.084959
  0.097606
 -0.028144
  0.037507
  0.061129
 -0.083397
 -0.059464
  0.132047
  0.121403
  0.038491
  0.005783
 -0.054909
 -0.123826
  0.178590
  0.058455
  0.056316
 -0.008421
 -0.074513
  0.001269
 -0.075797
 -0.144240
 -0.032147
  0.063294
 -0.113172
 -0.114324
  0.000234
 -0.174740
 -0.045247
 -0.060673
 -0.008489
 -0.084674
 -0.053676
 -0.073322
 -0.080576
 -0.080478
  0.109864
 -0.069872
 -0.133079
 -0.059406
  0.074508
 -0.046348
  0.025134
 -0.168925
  0.012176
  0.009579
  0.105633
 -0.150870
  0.059301
  0.098495
  0.040744
 -0.047156
 -0.090363
  0.074553
  0.106545
  0.027226
  0.004277
 -0.072340
 -0.045695
  0.051410
 -0.019375
 -0.083149
  0.114380
 -0.103995
 -0.135455
  0.051477
  0.032135
  0.141658
  0.140650
 -0.135692
 -0.136891
  0.047097
 -0.118359
 -0.113381
 -0.033521
  0.022323
  0.132382
  0.036012
 -0.021707
 -0.065266
 -0.012399
 -0.029515
 -0.088928
 -0.111291
  0.027657
  0.115727
 -0.094998
 -0.016063
  0.129879
 -0.055725
 -0.011267
 -0.013994
  0.084165
 -0.041495
 -0.046882
  0.127089
  0.102226
 -0.166987
  0.091157
 -0.124095
 -0.007561
 -0.089835
 -0.142200
  0.105732
 -0.134382
  0.020339
  0.005497
  0.029900
  0.146794
 -0.026564
 -0.128638
 -0.040956
 -0.017813
  0.052867
 -0.039052
 -0.061178
 -0.072739
 -0.142414
 -0.047784
  0.036712
 -0.027134
 -0.058566
  0.045062
  0.105496
 -0.002529
  0.051882
 -0.125526
  0.022766
 -0.103042
  0.023976
  0.081295
  0.058296
  0.198086
 -0.057711
 -0.072274
  0.034722
  0.012496
  0.181448
 -0.079335
  0.072044
 -0.096874
  0.059236
  0.004328
  0.075119
  0.073295
 -0.023868
 -0.052798
  0.040473
 -0.022878
  0.103061
 -0.120785
 -0.068342
 -0.118399
  0.023284
  0.112243
 -0.045988
 -0.035864
  0.237196
 -0.062247
  0.105734
  0.030005
 -0.018154
  0.232133
  0.016969
  0.080131
 -0.049579
  0.168747
 -0.064056
  0.002978
 -0.049135
 -0.051939
 -0.229369
 -0.065091
 -0.049493
 -0.089766
  0.133437
 -0.015868
  0.131194
 -0.004306
 -0.042846
 -0.040438
 -0.087036
  0.025097
 -0.066202
 -0.090315
 -0.063673
  0.156733
  0.044292
  0.038391
 -0.004938
 -0.115477
 -0.040787
 -0.052422
 -0.051515
 -0.060498
 -0.111195
 -0.093520
 -0.047334
 -0.027737
 -0.067615
  0.086765
 -0.109939
  0.027686
 -0.129354
 -0.008303
  0.028082
 -0.119512
  0.070724
  0.058640
 -0.113976
 -0.095861
 -0.048559
 -0.066662
  0.059484
  0.187802
  0.055718
 -0.015199
  0.051993
  0.113456
 -0.079226
 -0.265224
 -0.017427
 -0.024415
  0.073301
  0.088897
 -0.004371
  0.167930
  0.013332
  0.001234
 -0.177345
  0.019385
  0.039206
 -0.130213
  0.051879
  0.021788
 -0.067971
  0.062962
 -0.181674
 -0.110784
 -0.073907
  0.065463
  0.010994
  0.160453
  0.042475
  0.014491
  0.111789
 -0.204880
 -0.049353
 -0.056833
  0.094477
 -0.209957
 -0.065197
  0.094914
  0.081368
 -0.179833
  0.009613
 -0.055795
  0.036664
  0.033262
  0.018543
 -0.072038
  0.063858
  0.182145
  0.029622
 -0.075248
 -0.026627
  0.011134
 -0.023757
  0.041960
 -0.010796
  0.061030
 -0.006484
 -0.153202
  0.059623
 -0.106956
 -0.096189
  0.051299
  0.005412
 -0.136894
  0.065709
  0.119723
  0.117472
  0.201350
  0.144064
 -0.029388
 -0.018496
  0.056777
 -0.003280
 -0.070925
 -0.091385
 -0.043390
  0.007489
  0.182277
 -0.018938
 -0.003452
 -0.154273
 -0.110293
  0.015874
 -0.049622
 -0.249280
 -0.105414
  0.045695
 -0.084291
  0.108728
 -0.034065
  0.137788
  0.074041
  0.113172
  0.227115
 -0.080143
  0.227686
 -0.108384
  0.142711
 -0.255937
 -0.046952
 -0.054561
 -0.033214
 -0.115169
  0.066822
 -0.032093
  0.044036
 -0.047423
  0.133273
 -0.047443
  0.020917
 -0.113441
  0.115089
  0.075786
 -0.096910
 -0.071306
 -0.152964
 -0.079654
 -0.146706
  0.056627
 -0.002879
  0.089670
  0.077653
 -0.106271
  0.109616
  0.089737
  0.029467
  0.001881
 -0.133827
 -0.002324
 -0.065444
 -0.008851
  0.022451
  0.022374
  0.089979
 -0.044180
  0.015804
 -0.020856
 -0.041842
 -0.074720
 -0.094911
 -0.139369
  0.137501
 -0.006643
 -0.048922
 -0.054696
  0.034011
  0.217922
 -0.088726
 -0.191599
 -0.096588
 -0.010573
  0.177039
  0.053166
 -0.076570
 -0.031057
  0.060195
 -0.166526
  0.069936
 -0.206598
 -0.104253
 -0.137186
 -0.148427
 -0.114809
 -0.036874
 -0.085098
  0.003745
 -0.050296
  0.001675
  0.011711
 -0.035017
  0.056302
 -0.014014
 -0.002042
 -0.260024
  0.059836
 -0.101590
  0.041786
 -0.049285
 -0.021176
  0.054040
 -0.045345
  0.020693
 -0.227122
  0.043950
  0.122589
 -0.190992
 -0.026320
  0.078259
  0.085891
  0.048427
  0.011985
 -0.159721
  0.011895
  0.208320
 -0.007529
 -0.127578
 -0.021473
  0.066271
 -0.095902
  0.019819
 -0.069703
 -0.143593
  0.011420
  0.093090
  0.028230
  0.045646
 -0.228658
  0.122103
  0.151923
  0.007537
 -0.104011
 -0.017262
  0.027317
 -0.015393
 -0.043891
  0.119792
 -0.098221
 -0.063324
 -0.010919
 -0.030052
 -0.028213
  0.040301
 -0.032774
  0.056876
 -0.044771
  0.021145
  0.052825
  0.121505
  0.191317
  0.113030
 -0.046803
 -0.213862
 -0.025763
 -0.125756
 -0.150708
 -0.017404
 -0.072792
  0.069417
 -0.057120
  0.250395
  0.009868
 -0.089943
  0.064151
  0.110745
 -0.012855
 -0.104005
  0.212082
 -0.172036
 -0.096564
  0.141754
  0.025091
  0.011737
  0.008198
  0.047162
 -0.004492
  0.063204
  0.009713
 -0.008228
 -0.003657
  0.065869
 -0.043513
  0.067779
 -0.145962
  0.075839
 -0.034024
  0.007412
  0.012169
  0.137861
  0.087857
  0.026795
 -0.000991
  0.141949
  0.077815
 -0.190180
 -0.022877
 -0.037313
  0.110969
  0.003717
 -0.052463
 -0.152377
  0.030983
  0.003164
  0.045174
  0.000930
 -0.026660
  0.114281
  0.041799
 -0.045918
  0.065256
 -0.035457
  0.086429
  0.282791
  0.029470
 -0.055169
  0.190895
  0.047762
  0.052232
 -0.008202
  0.147984
 -0.001227
  0.065539
 -0.044389
 -0.037255
 -0.057831
  0.140695
 -0.014264
 -0.080636
  0.134040
  0.014300
  0.003118
 -0.021549
 -0.156465
  0.067820
 -0.086740
  0.055802
  0.073501
 -0.004026
  0.048616
 -0.041702
  0.013170
  0.075247
 -0.155405
  0.062587
  0.053127
  0.096135
 -0.054945
 -0.014396
 -0.022695
  0.072210
 -0.028931
  0.033535
 -0.093545
  0.101369
  0.031624
 -0.183966
 -0.041719
 -0.071366
 -0.030969
  0.152065
  0.085314
  0.271053
 -0.022721
  0.079452
  0.095857
  0.104638
 -0.008897
 -0.174208
  0.044882
 -0.126920
  0.080819
 -0.019103
  0.070079
  0.180318
  0.127218
  0.139819
  0.093029
  0.119052
  0.072527
  0.031477
 -0.041157
 -0.115096
 -0.041764
 -0.185654
  0.025798
  0.090004
  0.001725
 -0.017435
  0.050420
 -0.060386
  0.043633
  0.212864
  0.144364
  0.078177
 -0.109107
  0.147287
  0.035058
  0.136415
 -0.033349
  0.031388
  0.163842
  0.248441
 -0.072360
  0.093540
  0.165951
  0.161094
  0.022675
 -0.098062
  0.008537
 -0.012975
 -0.160555
  0.003381
  0.024198
 -0.054071
  0.169914
 -0.143624
  0.059503
 -0.118474
  0.013779
  0.033494
  0.155528
 -0.107337
 -0.020609
 -0.196449
  0.051201
  0.041897
  0.032073
  0.021960
  0.043639
 -0.026524
 -0.216642
  0.094718
 -0.017192
  0.034445
 -0.013160
 -0.067877
 -0.098023
 -0.057683
  0.025316
 -0.092900
 -0.168012
 -0.046801
 -0.033051
 -0.149514
  0.052317
 -0.178466
 -0.026180
  0.087348
 -0.064413
 -0.222944
  0.088693
  0.060474
  0.034902
  0.027993
 -0.116425
  0.010797
 -0.072387
 -0.010668
 -0.017476
  0.019834
 -0.044195
  0.042449
  0.030090
 -0.064988
 -0.080453
 -0.087689
 -0.015648
 -0.076997
 -0.005313
 -0.045123
  0.242477
 -0.023066
  0.036681
 -0.132129
 -0.039335
  0.033164
  0.030264
 -0.035808
 -0.045362
  0.113461
 -0.015851
  0.031891
 -0.128259
 -0.046270
  0.052743
 -0.087432
 -0.007999
  0.132543
  0.109531
 -0.158999
 -0.004372
 -0.054180
  0.176249
  0.022128
  0.071267
  0.042784
 -0.017280
 -0.057877
 -0.031246
  0.064810
  0.103397
 -0.029117
  0.123489
 -0.008894
 -0.008531
  0.108423
  0.129853
 -0.084633
 -0.039379
  0.098351
 -0.078372
  0.020864
 -0.150609
  0.013859
 -0.067486
 -0.117196
 -0.024932
  0.023391
 -0.112161
  0.131276
 -0.003495
 -0.124832
  0.003613
  0.010657
 -0.112891
 -0.093523
 -0.060763
 -0.081142
 -0.054150
  0.017574
  0.044325
 -0.139790
 -0.028820
  0.126973
 -0.136967
 -0.101318
  0.173013
 -0.019443
  0.131444
 -0.089633
 -0.055362
  0.139272
  0.040281
 -0.044616
 -0.166614
  0.149183
 -0.001646
 -0.049409
  0.118978
 -0.034244
 -0.025116
  0.095587
  0.107777
  0.093518
  0.010081
  0.092828
  0.036810
 -0.060794
  0.030593
  0.019979
 -0.049504
 -0.107024
  0.020117
  0.072296
 -0.028557
  0.197838
 -0.037715
  0.196250
  0.026433
 -0.045280
 -0.030753
  0.036531
  0.040661
  0.221318
 -0.083650
  0.018684
  0.108395
  0.110797
  0.002933
 -0.067230
  0.007526
  0.037051
 -0.081465
  0.014162
  0.160517
 -0.031557
  0.101502
 -0.234461
  0.216906
  0.051248
 -0.082011
 -0.133046
 -0.178272
  0.014403
  0.095144
 -0.112514
 -0.085965
  0.098390
 -0.018038
  0.031837
  0.053636
  0.098669
  0.025114
  0.063989
 -0.184162
 -0.112960
 -0.120492
 -0.091849
  0.027957
 -0.044188
  0.119422
  0.019989
  0.002112
 -0.025263
 -0.015995
  0.126059
  0.027349
  0.074077
 -0.170249
 -0.008466
  0.028542
  0.109844
  0.017462
  0.002257
 -0.010537
  0.049979
 -0.059338
 -0.013251
 -0.072835
 -0.078678
 -0.039437
 -0.158021
 -0.006785
 -0.069067
 -0.058457
  0.185659
  0.151636
 -0.017650
  0.127427
  0.002822
 -0.080975
  0.027123
  0.006351
 -0.046713
 -0.014309
  0.117512
  0.065538
 -0.035797
 -0.009591
 -0.063361
  0.020305
  0.015262
  0.046932
  0.088778
  0.005706
 -0.044014
  0.038718
 -0.114782
 -0.176737
  0.096589
 -0.140657
  0.186437
  0.055873
  0.059687
 -0.119601
  0.067934
  0.088522
 -0.046304
 -0.015050
  0.033165
 -0.007910
 -0.065057
  0.031677
 -0.092376
 -0.079021
 -0.001636
 -0.119434
  0.138782
  0.028171
 -0.010115
  0.201029
 -0.152402
 -0.134682
 -0.050669
 -0.086425
 -0.134949
 -0.141944
 -0.013381
  0.084591
 -0.014375
 -0.012425
  0.130767
 -0.087821
  0.051450
  0.026969
  0.135746
  0.102393
 -0.065267
 -0.023713
  0.001485
 -0.020038
 -0.040044
  0.054523
 -0.022488
 -0.055917
 -0.118489
 -0.043745
  0.038746
 -0.002084
 -0.136195
  0.094797
  0.013418
  0.074746
 -0.086469
  0.005149
 -0.039043
  0.158696
 -0.024899
  0.113834
  0.098367
  0.052022
  0.089176
  0.021802
  0.082956
  0.002110
  0.078240
  0.064851
  0.070769
 -0.040281
 -0.148580
  0.229026
  0.012031
  0.125315
 -0.035109
  0.082500
 -0.049826
  0.031977
  0.089289
  0.025466
  0.168737
 -0.054013
 -0.006816
 -0.072063
 -0.027134
  0.055902
  0.001682
 -0.098093
  0.036448
 -0.071804
 -0.015084
 -0.010077
 -0.089337
  0.065136
 -0.029108
 -0.013636
 -0.092411
 -0.036016
 -0.073802
  0.004442
  0.226923
 -0.070744
  0.008474
 -0.038578
 -0.044153
  0.029902
  0.040296
 -0.096825
  0.136085
 -0.005323
 -0.017403
 -0.028184
 -0.175032
 -0.003221
  0.083937
  0.152501
  0.090058
  0.056216
 -0.052505
  0.089339
  0.062950
  0.061090
  0.013932
  0.130656
  0.066075
  0.034588
  0.068161
 -0.017009
  0.006167
  0.025057
 -0.097600
 -0.106952
  0.083825
  0.097457
 -0.103891
 -0.060854
 -0.152330
  0.130302
  0.008146
 -0.052109
  0.042093
 -0.019463
  0.100811
  0.125463
  0.111114
  0.047285
 -0.090838
  0.043783
 -0.017860
  0.216708
  0.143723
 -0.099317
  0.094824
 -0.073879
 -0.014567
 -0.031790
 -0.068884
  0.072145
 -0.018083
 -0.106933
 -0.047066
 -0.043318
  0.051575
 -0.097434
 -0.167969
 -0.054198
  0.021688
 -0.098223
 -0.092970
 -0.123022
 -0.144382
 -0.046968
  0.048204
 -0.220979
 -0.129633
  0.149026
  0.022183
 -0.075773
  0.042487
 -0.072522
  0.047166
  0.001070
 -0.078858
  0.034153
  0.070851
  0.015162
 -0.025617
 -0.048558
  0.031675
 -0.026963
 -0.007047
 -0.125295
  0.090296
  0.161773
 -0.082589
 -0.037071
  0.168769
  0.014989
 -0.093009
 -0.199397
  0.128581
 -0.067382
  0.117110
  0.141657
 -0.125069
 -0.057983
  0.027152
  0.117850
 -0.005648
  0.023496
 -0.031215
  0.030742
 -0.082151
  0.029492
 -0.043885
 -0.049116
 -0.020987
 -0.025754
 -0.000578
  0.041983
  0.013597
  0.054483
 -0.002815
  0.015079
  0.096272
 -0.029003
  0.093850
  0.028612
 -0.060738
 -0.057642
 -0.006725
 -0.064493
 -0.103429
 -0.067089
 -0.047177
 -0.052376
  0.080837
 -0.034850
 -0.065478
 -0.069666
  0.049669
  0.023942
  0.022246
  0.011444
 -0.108420
  0.011645
  0.002688
  0.026229
  0.036877
 -0.014440
 -0.070747
  0.027190
 -0.008744
 -0.131691
  0.044836
 -0.042472
  0.003760
  0.093241
 -0.035209
 -0.051242
 -0.007640
  0.054860
  0.030922
 -0.117378
 -0.027495
  0.137804
 -0.076175
  0.056688
  0.038609
  0.100685
  0.131058
  0.169159
 -0.023685
 -0.040653
  0.008024
 -0.107189
 -0.010386
  0.074435
 -0.093986
 -0.088631
 -0.038847
  0.047012
 -0.030872
  0.129837
  0.124236
 -0.000037
  0.007265
  0.140788
 -0.229902
  0.183593
  0.008054
 -0.014561
  0.015339
  0.050382
 -0.052016
  0.125576
 -0.103418
 -0.147369
 -0.033478
  0.066821
  0.004114
 -0.113289
  0.153342
 -0.008916
 -0.104916
  0.192532
  0.132684
  0.113172
  0.087097
 -0.058094
  0.129728
 -0.120899
  0.121332
 -0.071384
 -0.090342
  0.029053
 -0.071683
  0.114615
 -0.047275
 -0.229332
 -0.113895
 -0.011966
 -0.008641
  0.037641
 -0.035743
 -0.060282
  0.082064
  0.141523
  0.008195
  0.018768
 -0.207503
 -0.053684
  0.136810
  0.081652
 -0.058956
 -0.000152
 -0.176186
 -0.165624
 -0.085027
  0.088173
 -0.098887
 -0.058650
  0.117025
  0.041037
 -0.077275
  0.005939
  0.113985
  0.043487
  0.008859
 -0.056810
 -0.067916
 -0.116207
 -0.059778
 -0.122432
  0.052482
  0.034375
 -0.163853
 -0.036186
 -0.004651
  0.069909
 -0.059405
  0.111635
 -0.122467
 -0.064806
  0.078350
 -0.198252
 -0.112831
 -0.035195
  0.023371
 -0.006713
 -0.071775
  0.021564
 -0.282571
 -0.039867
 -0.058930
  0.076094
  0.057467
 -0.114692
  0.184816
  0.197081
 -0.075380
 -0.000258
  0.078930
  0.084339
  0.111707
 -0.077914
 -0.063403
 -0.047415
  0.003134
  0.051991
 -0.053826
  0.108850
  0.146780
 -0.111017
 -0.030212
  0.098496
 -0.007123
 -0.089246
 -0.042796
  0.141455
  0.088765
  0.036679
  0.021742
 -0.086390
 -0.081753
 -0.009501
 -0.042761
  0.024545
 -0.005584
 -0.010771
 -0.076856
 -0.026214
 -0.071651
  0.020469
  0.146499
  0.016924
  0.022716
 -0.053977
 -0.110307
 -0.137796
 -0.044210
  0.051356
  0.278423
 -0.024499
 -0.060412
  0.061406
 -0.079518
  0.076501
  0.020395
 -0.061481
 -0.147356
  0.056774
  0.058838
 -0.001579
 -0.113694
  0.064931
 -0.198471
  0.014315
 -0.023157
  0.100017
  0.198596
 -0.234667
 -0.101569
  0.002248
  0.108807
  0.067950
 -0.151309
  0.072177
 -0.079441
 -0.131274
 -0.094341
  0.014142
  0.147045
  0.000842
  0.019627
 -0.040932
 -0.071506
 -0.079148
 -0.082439
  0.163350
 -0.210946
  0.000545
 -0.143144
  0.023056
  0.106238
  0.056592
  0.219720
  0.155337
  0.004399
 -0.120694
  0.127561
  0.064499
  0.192507
  0.082606
 -0.126228
 -0.077234
 -0.015926
 -0.168607
 -0.164435
 -0.127467
  0.017127
 -0.260275
 -0.168922
  0.006043
  0.066352
  0.118774
  0.100733
  0.076344
 -0.053871
  0.022048
  0.013401
  0.146838
  0.004474
 -0.160631
  0.002297
 -0.035950
 -0.023980
 -0.061981
  0.228348
  0.109846
  0.036687
  0.111638
 -0.089114
  0.044165
 -0.047144
 -0.193955
 -0.037317
 -0.082822
  0.104251
 -0.010646
  0.051549
  0.075508
  0.031220
  0.054654
  0.065566
  0.078773
  0.007644
  0.111207
 -0.157641
  0.027012
  0.032859
  0.158182
  0.051287
  0.050319
 -0.053414
  0.021230
 -0.083472
 -0.121146
  0.232074
 -0.015655
  0.038610
  0.008860
 -0.073823
  0.006635
  0.031450
  0.207362
 -0.081706
 -0.090951
 -0.138871
 -0.038618
 -0.043272
 -0.011142
  0.018375
  0.049344
  0.004306
  0.110386
 -0.077985
 -0.096334
 -0.086073
 -0.057414
 -0.016289
 -0.017655
 -0.052203
  0.093057
 -0.014271
  0.143762
  0.137534
  0.225922
  0.241546
  0.117768
  0.025109
  0.312242
  0.126923
 -0.083340
  0.035941
  0.258206
  0.153948
 -0.006557
  0.137373
 -0.006448
 -0.011511
 -0.049743
 -0.180744
 -0.041108
 -0.014298
 -0.063852
  0.148698
  0.007381
  0.215315
 -0.137614
  0.050006
 -0.035817
 -0.016053
  0.128852
 -0.090132
 -0.046158
  0.004636
  0.150079
 -0.036835
  0.012805
 -0.045799
  0.070973
  0.168878
  0.002703
  0.087032
  0.109352
  0.232855
  0.105531
  0.149725
  0.110831
  0.273246
  0.096521
  0.447203
  0.302053
  0.420423
  0.297522
  0.497389
  0.462055
  0.507369
  0.595002
  0.653797
  0.641372
  0.486888
  0.724399
  0.742057
  0.546794
  0.611085
  0.719574
  0.502226
  0.526794
  0.554078
  0.476389
  0.526201
  0.419751
  0.349201
  0.304467
  0.342835
  0.144163
  0.280711
  0.212574
  0.001883
  0.090194
 -0.031470
  0.041121
 -0.062652
  0.065402
  0.137669
 -0.006209
  0.104831
  0.046082
 -0.216898
 -0.019732
 -0.139770
 -0.069131
  0.104711
 -0.009101
  0.032553
  0.063024
  0.130816
  0.098303
 -0.033337
  0.032602
  0.022691
  0.141989
  0.145017
  0.109577
 -0.151934
  0.167513
  0.152115
 -0.023295
  0.025521
  0.032238
 -0.042553
  0.197247
  0.036810
  0.013463
  0.053993
 -0.172562
  0.092038
 -0.135430
  0.068851
  0.125590
  0.014119
 -0.189064
  0.182458
  0.011726
 -0.176016
  0.017651
 -0.016944
 -0.127824
  0.061748
  0.053864
 -0.084345
 -0.024182
 -0.122593
  0.069060
  0.030879
  0.124787
  0.055236
 -0.033886
  0.095737
 -0.031091
  0.201822
 -0.190669
 -0.010661
  0.005860
 -0.095586
  0.057270
 -0.069772
 -0.006885
 -0.194863
 -0.009988
  0.063183
 -0.073314
  0.106967
  0.044319
 -0.046909
  0.053557
 -0.123154
  0.017340
  0.076170
 -0.012233
 -0.054919
 -0.025609
 -0.007304
  0.127025
  0.071042
 -0.282142
  0.140515
  0.016268
 -0.043820
  0.200985
  0.202326
  0.032772
  0.018650
 -0.093415
  0.040468
  0.018192
 -0.046355
  0.013752
 -0.014450
  0.038318
 -0.277843
  0.112408
  0.145965
  0.085969
 -0.242254
 -0.051110
  0.033275
  0.053464
 -0.015796
 -0.168189
 -0.159177
 -0.159045
 -0.049654
  0.124737
  0.021292
  0.035218
 -0.050482
  0.023711
 -0.084940
  0.100240
 -0.134808
 -0.160572
  0.198046
  0.082499
  0.006648
 -0.012168
 -0.085046
  0.026151
  0.030720
 -0.024288
 -0.033543
 -0.135916
  0.114047
  0.067961
 -0.028293
 -0.003321
 -0.008935
 -0.080941
  0.009802
 -0.237950
  0.207317
  0.077593
 -0.003948
  0.122148
 -0.237259
  0.134344
  0.019470
  0.063868
  0.181704
  0.021217
  0.082789
 -0.038216
  0.109184
  0.011956
  0.143119
  0.111287
  0.065857
 -0.025193
  0.005218
 -0.031853
  0.123351
 -0.039113
 -0.126933
  0.005765
 -0.015964
 -0.063608
  0.029938
 -0.044694
  0.094682
 -0.033113
 -0.141714
 -0.044701
 -0.039175
  0.055132
  0.090267
 -0.111134
 -0.246009
  0.113662
  0.142790
 -0.147713
 -0.008077
 -0.061299
  0.173582
  0.174785
 -0.043860
  0.055819
  0.098086
  0.148417
  0.165107
 -0.061163
  0.251729
 -0.007957
 -0.292292
 -0.070333
  0.043321
 -0.133663
 -0.088228
 -0.214052
 -0.140837
 -0.002340
 -0.136003
 -0.135481
 -0.026620
 -0.138154
 -0.013032
 -0.000025
  0.059795
 -0.031094
 -0.070555
  0.202853
  0.030055
 -0.025557
  0.000237
  0.070721
  0.037413
  0.056091
  0.031851
 -0.071383
  0.068162
  0.144351
 -0.098977
  0.111771
  0.209040
  0.092039
 -0.035821
 -0.096129
  0.049679
  0.044433
  0.138900
  0.196074
  0.125126
 -0.002072
  0.017482
  0.018119
  0.078466
  0.055868
  0.022041
  0.107183
  0.253435
  0.077385
  0.042710
  0.215783
  0.117299
  0.169515
  0.216926
  0.270845
  0.066188
 -0.000286
  0.029198
  0.023887
 -0.009500
  0.026425
 -0.014434
  0.004991
  0.034189
 -0.062624
 -0.126175
  0.104084
 -0.089088
 -0.090334
  0.123098
 -0.142497
 -0.047459
 -0.197290
 -0.051635
 -0.098590
  0.050370
 -0.020707
  0.037452
 -0.072704
 -0.113294
 -0.026282
 -0.189326
  0.013573
  0.003372
  0.029499
  0.148636
  0.076925
 -0.077140
  0.055372
 -0.035992
 -0.061315
 -0.108847
  0.171691
 -0.066158
 -0.079435
 -0.059771
  0.022345
 -0.028944
  0.047034
  0.106607
 -0.143085
 -0.079058
 -0.085942
 -0.082169
  0.093338
  0.018909
  0.058114
 -0.065333
  0.072556
  0.064344
  0.037242
  0.069258
 -0.092263
  0.102257
 -0.080688
  0.034856
 -0.111765
  0.080649
  0.008855
 -0.015127
  0.030412
 -0.009010
  0.088370
  0.009816
 -0.169789
 -0.094151
 -0.006291
 -0.005843
 -0.077431
  0.002791
  0.003406
  0.063996
  0.050391
  0.105170
 -0.071416
 -0.019406
 -0.029292
 -0.069840
 -0.053320
  0.029686
  0.230391
 -0.016041
 -0.078944
 -0.026972
 -0.081008
 -0.009691
  0.024298
  0.165894
 -0.023032
  0.146590
 -0.115709
 -0.075393
 -0.051909
  0.101822
  0.045664
 -0.035482
  0.039325
 -0.112405
  0.019331
 -0.034041
 -0.102425
 -0.228657
 -0.078353
 -0.041514
  0.000574
  0.146947
  0.061204
  0.065377
  0.125211
  0.021481
  0.040944
 -0.008870
  0.035852
 -0.058613
 -0.075883
  0.071874
  0.030053
 -0.052326
  0.043913
 -0.070923
  0.167463
 -0.022251
 -0.002124
  0.034426
 -0.099550
  0.053494
  0.141638
 -0.080056
  0.025323
  0.013278
 -0.234297
 -0.042082
 -0.103075
  0.105179
  0.005237
  0.043599
  0.074794
 -0.032767
 -0.029904
 -0.210512
  0.068612
  0.103583
  0.107225
 -0.057990
  0.067098
 -0.085482
  0.000776
 -0.015328
  0.036687
  0.010028
  0.042998
  0.030131
 -0.039760
  0.113986
  0.077060
 -0.209520
 -0.099403
 -0.066729
 -0.008395
  0.244969
  0.037400
 -0.080439
 -0.053012
  0.005221
 -0.059635
 -0.120236
 -0.080945
  0.115177
 -0.065543
  0.076988
 -0.101871
 -0.060601
 -0.092164
 -0.148418
 -0.032912
 -0.144295
 -0.064677
 -0.124559
  0.136483
 -0.057500
  0.189159
  0.034570
  0.045640
  0.026977
 -0.039333
  0.014766
 -0.034490
  0.030740
  0.023985
  0.005918
 -0.028040
  0.095985
  0.122421
  0.057441
 -0.083164
  0.019780
 -0.090207
 -0.077499
  0.054158
  0.130297
 -0.142244
 -0.019872
 -0.038059
 -0.000053
 -0.083989
 -0.025840
  0.079285
  0.161019
 -0.050002
  0.073119
  0.053089
  0.017516
  0.053198
 -0.121275
 -0.056812
 -0.014553
  0.007515
 -0.019304
 -0.079371
 -0.022680
  0.095875
  0.088771
 -0.032695
  0.083871
 -0.020138
 -0.044476
  0.154353
  0.035069
  0.055958
  0.096012
  0.067143
 -0.055240
  0.007339
 -0.082931
 -0.079448
 -0.106758
  0.022951
  0.057452
 -0.010223
 -0.165486
  0.087454
  0.004227
  0.079785
  0.009958
 -0.028379
  0.054526
  0.039910
  0.041562
 -0.001200
 -0.066726
  0.027762
 -0.205489
 -0.028120
  0.044128
  0.048920
 -0.027658
  0.113904
  0.082604
 -0.038677
 -0.001885
 -0.053497
  0.078167
  0.097180
  0.089424
  0.038121
 -0.058452
 -0.045887
 -0.006543
  0.079848
  0.063221
 -0.050234
 -0.150536
  0.120212
  0.066153
 -0.009532
  0.107749
  0.061753
  0.177789
 -0.102109
 -0.053418
  0.021266
 -0.062931
 -0.114129
 -0.022436
 -0.047449
 -0.100245
 -0.016121
  0.022553
 -0.119426
  0.053539
 -0.100762
  0.045328
  0.093894
  0.036065
  0.018269
 -0.138429
 -0.030512
  0.113958
  0.020593
 -0.128319
 -0.109681
 -0.145871
  0.011610
 -0.034683
  0.113277
  0.088147
  0.028515
  0.045813
 -0.013844
 -0.036908
  0.146218
  0.021978
  0.022317
  0.071234
 -0.099195
 -0.098441
  0.035296
  0.068078
 -0.072326
  0.002708
  0.006291
  0.035351
 -0.063875
 -0.027077
  0.009859
  0.083850
 -0.122646
 -0.014727
  0.080906
 -0.036648
 -0.143621
 -0.091891
  0.155176
 -0.089043
  0.030852
 -0.011719
  0.082207
 -0.106723
  0.088812
  0.007241
 -0.181047
 -0.192519
 -0.133537
 -0.082592
 -0.086393
  0.009183
 -0.066739
 -0.191219
  0.027518
  0.162026
  0.022148
  0.077742
  0.046488
 -0.064545
 -0.021846
  0.056221
  0.016789
 -0.189547
 -0.003214
  0.031433
 -0.046831
 -0.025566
 -0.060191
  0.170730
  0.032242
  0.049769
 -0.026349
  0.009894
 -0.115635
  0.108516
  0.011469
  0.064160
  0.073712
 -0.112178
 -0.033395
 -0.020349
 -0.053700
  0.134719
  0.051221
  0.031555
  0.096885
  0.004754
  0.039096
 -0.102428
  0.035520
  0.303309
  0.067250
  0.041462
  0.119161
  0.003201
  0.115991
  0.130052
  0.049517
 -0.096897
 -0.007483
 -0.059953
  0.094788
  0.015260
 -0.068942
  0.164415
 -0.001989
 -0.002595
  0.156531
  0.046455
 -0.138292
 -0.007751
  0.203130
  0.155424
  0.020047
 -0.224428
  0.135089
 -0.075718
  0.023045
  0.088854
 -0.117430
 -0.004435
 -0.106810
 -0.005967
  0.020592
  0.117180
  0.021954
 -0.142292
 -0.007450
 -0.057019
  0.098798
  0.026369
 -0.099880
 -0.071066
  0.013110
 -0.037713
  0.011697
  0.157932
 -0.041736
  0.056926
  0.026481
  0.273695
 -0.023900
  0.014588
  0.051871
 -0.116377
 -0.046864
 -0.038802
 -0.071502
  0.043464
 -0.145655
 -0.031413
 -0.069592
 -0.000949
 -0.085613
  0.087393
  0.081940
 -0.130769
  0.069301
  0.077563
  0.018880
  0.043768
 -0.000984
 -0.023295
  0.003228
 -0.225889
 -0.036640
  0.120864
  0.031891
 -0.139785
  0.135086
  0.028172
 -0.153263
  0.003023
  0.078282
  0.182754
 -0.040947
 -0.178700
 -0.008811
  0.088846
 -0.001059
 -0.132166
  0.075608
  0.002775
  0.055101
  0.068743
 -0.085836
  0.053473
 -0.185473
 -0.060877
  0.121191
  0.151482
  0.091549
  0.071805
 -0.047320
 -0.225320
 -0.094740
 -0.001995
 -0.053972
 -0.139445
  0.104664
 -0.102811
  0.078969
  0.151619
 -0.068067
  0.019923
  0.152294
  0.013483
 -0.021173
  0.060297
  0.054753
  0.082624
  0.012190
 -0.112923
  0.033779
 -0.041923
  0.162241
  0.077705
 -0.050164
 -0.101943
  0.037383
 -0.120340
  0.098736
 -0.078879
 -0.074179
 -0.004378
 -0.074409
 -0.036094
 -0.418234
 -0.094605
  0.114167
 -0.020253
  0.052366
  0.007829
 -0.139488
 -0.046570
 -0.124029
 -0.026651
 -0.031456
 -0.080025
 -0.202686
  0.022054
 -0.024645
  0.051971
 -0.000867
 -0.191148
 -0.101653
  0.196071
  0.062882
  0.017537
  0.011724
 -0.082220
  0.041765
 -0.039127
 -0.049630
  0.022056
 -0.001829
  0.015428
  0.012491
  0.036790
 -0.179289
 -0.111269
 -0.015938
  0.012929
  0.015610
 -0.028604
 -0.044006
 -0.017386
 -0.052332
 -0.002196
  0.105735
  0.063662
 -0.044343
 -0.185247
  0.081458
 -0.094398
  0.101034
 -0.040476
  0.047652
  0.036065
 -0.094681
  0.022919
  0.086745
  0.078508
  0.090872
  0.003720
 -0.013454
 -0.016040
 -0.053903
 -0.120102
 -0.117598
 -0.092296
 -0.018377
 -0.007566
  0.016319
 -0.291926
  0.044913
 -0.038463
  0.117356
  0.045985
  0.102947
 -0.103121
  0.002159
 -0.022970
 -0.067667
 -0.038715
  0.040598
  0.037064
  0.157814
  0.015753
 -0.042376
  0.091043
  0.041047
  0.058350
 -0.121052
 -0.000017
 -0.124408
  0.031678
 -0.073567
  0.035844
  0.033831
  0.010691
 -0.022801
 -0.101679
  0.145083
  0.020190
 -0.072753
  0.025616
  0.039986
  0.004675
  0.030956
  0.062516
  0.028945
  0.110905
  0.060816
  0.064441
  0.017883
 -0.066729
 -0.131922
 -0.070381
  0.150398
 -0.079576
 -0.021079
  0.023251
 -0.107210
 -0.045232
  0.138885
 -0.094639
  0.095116
  0.099154
 -0.115503
  0.126369
  0.090233
 -0.088568
  0.016932
 -0.043509
 -0.033287
  0.060134
  0.097144
  0.011980
 -0.055355
 -0.039218
 -0.026372
  0.070292
  0.103479
  0.010792
  0.068192
  0.099684
 -0.164726
  0.034120
  0.015894
 -0.041531
 -0.042195
  0.022776
 -0.176848
  0.061988
  0.006495
  0.219501
  0.107706
 -0.002083
  0.216092
 -0.026738
 -0.055479
 -0.146801
  0.101653
  0.115130
  0.009223
 -0.037687
 -0.151257
 -0.041987
  0.009779
  0.067015
  0.099228
  0.063914
  0.018112
 -0.058242
  0.049874
 -0.181751
  0.014429
  0.108359
  0.039960
 -0.120110
  0.073265
 -0.054375
 -0.117781
 -0.023126
  0.002212
  0.052895
  0.081770
 -0.039305
 -0.070648
  0.014776
  0.017566
  0.037581
 -0.033053
  0.002722
 -0.109487
 -0.057707
  0.017042
  0.057880
  0.146565
 -0.089681
  0.006104
  0.067657
  0.015160
 -0.053514
 -0.024329
 -0.012707
  0.053740
 -0.038808
  0.006459
  0.021778
 -0.021369
 -0.009375
 -0.006940
  0.013194
 -0.017425
 -0.059394
 -0.132742
 -0.089950
 -0.006192
  0.145495
 -0.088956
 -0.126919
 -0.025304
 -0.119731
 -0.074442
 -0.005068
 -0.041789
 -0.096001
  0.005288
  0.016686
  0.079379
 -0.041919
  0.035431
 -0.130523
  0.049639
 -0.020347
  0.025739
 -0.089924
  0.139599
 -0.048473
 -0.039309
 -0.092977
 -0.096070
 -0.030223
  0.082818
 -0.043033
 -0.048949
  0.033749
 -0.056706
 -0.082406
  0.116916
  0.013795
  0.058935
  0.251965
 -0.207875
  0.105885
  0.066093
 -0.048633
  0.098183
  0.038762
 -0.054528
  0.010678
  0.079660
  0.000056
  0.087786
 -0.031868
 -0.072455
  0.061597
 -0.132757
 -0.093556
 -0.120803
 -0.045331
 -0.093324
  0.081939
  0.213200
  0.067585
  0.016057
  0.129581
 -0.022399
 -0.079697
  0.030767
  0.124385
 -0.157482
 -0.110828
  0.091806
 -0.018942
  0.098279
 -0.174489
 -0.054661
  0.044817
  0.140759
 -0.092735
 -0.163067
  0.093665
 -0.002545
  0.027122
  0.036746
 -0.029534
 -0.027095
  0.030053
 -0.037140
  0.067454
  0.104354
 -0.064646
  0.039226
 -0.065224
 -0.013830
 -0.076908
  0.159283
  0.010909
  0.056672
  0.013661
  0.142270
 -0.192458
  0.000632
  0.021997
 -0.024248
  0.121730
 -0.024976
  0.227550
 -0.214580
 -0.132110
 -0.030891
 -0.079675
 -0.145029
 -0.107507
 -0.027468
 -0.060128
 -0.168592
  0.151651
 -0.064681
  0.058549
 -0.070070
 -0.096718
  0.093157
  0.232114
 -0.010076
  0.064159
 -0.213316
 -0.038666
 -0.020732
  0.088098
 -0.015695
 -0.003688
  0.092812
 -0.059544
 -0.013800
  0.248847
  0.085023
  0.106051
 -0.011110
  0.076062
  0.109962
  0.019494
 -0.194787
  0.080967
  0.078153
 -0.021428
  0.060735
 -0.154365
  0.086036
 -0.021209
  0.009182
 -0.045777
  0.089194
 -0.006916
  0.029520
 -0.077241
  0.027696
 -0.001301
 -0.020498
 -0.135282
 -0.007520
 -0.123717
  0.014318
  0.028337
  0.103537
  0.119500
 -0.207319
 -0.118855
  0.120754
 -0.008607
 -0.031095
  0.131678
  0.059910
  0.118536
  0.036867
  0.086623
 -0.069194
  0.001068
 -0.025090
 -0.079534
  0.035652
 -0.068162
  0.098486
  0.039621
  0.101261
 -0.055354
 -0.173788
 -0.060698
  0.119514
 -0.002477
 -0.101908
 -0.026465
 -0.030212
  0.085281
 -0.058062
 -0.053714
  0.160557
 -0.033235
  0.104566
 -0.052278
 -0.207892
 -0.058159
 -0.046605
  0.022462
 -0.027672
  0.139582
  0.106545
 -0.052553
 -0.039969
 -0.153239
  0.024902
  0.097215
  0.092667
 -0.008507
 -0.159643
 -0.135045
  0.041677
  0.062622
 -0.083439
  0.105031
  0.048824
 -0.087028
  0.078323
  0.105258
 -0.069083
 -0.053088
 -0.041712
  0.066836
 -0.102560
 -0.043404
 -0.048602
  0.017015
 -0.072825
  0.047881
  0.126316
  0.089481
  0.067882
 -0.090715
 -0.079637
  0.020029
 -0.050748
  0.079469
 -0.031047
  0.086208
 -0.023715
  0.055020
  0.003448
 -0.109835
  0.002928
  0.026368
 -0.022081
 -0.028286
  0.002115
  0.072685
 -0.046710
 -0.050457
  0.065142
  0.012618
 -0.034272
 -0.049063
 -0.019529
  0.049067
  0.168701
  0.026589
  0.174932
  0.071844
  0.032482
 -0.006790
 -0.134797
 -0.158586
  0.015554
 -0.046293
 -0.159442
  0.005649
  0.069183
  0.091027
 -0.024765
 -0.070504
  0.039345
 -0.079224
  0.034625
 -0.056059
 -0.122184
  0.170131
  0.074669
  0.006055
 -0.097479
  0.040864
  0.161031
  0.038263
 -0.053259
  0.067826
 -0.103177
 -0.049054
  0.091925
  0.070048
  0.090982
  0.094486
  0.100245
  0.145709
  0.060090
  0.160262
  0.005106
 -0.043182
  0.299181
  0.027421
 -0.050176
  0.036657
  0.037596
  0.023115
 -0.090987
  0.027667
 -0.047404
 -0.154422
  0.078116
  0.158235
  0.101926
  0.093350
  0.021619
 -0.214729
 -0.108180
 -0.024355
  0.007268
  0.061201
 -0.056012
 -0.027697
 -0.063149
 -0.032708
  0.003002
  0.085969
  0.005838
 -0.064812
  0.062993
  0.090764
  0.025880
 -0.008897
  0.007306
  0.070065
  0.033900
  0.048776
 -0.004932
  0.035252
 -0.087057
 -0.090760
 -0.093980
 -0.086620
 -0.064422
  0.158445
 -0.040705
  0.029902
 -0.043175
 -0.070895
 -0.008138
 -0.061427
 -0.063399
  0.035196
 -0.004485
 -0.029819
  0.053022
 -0.018454
 -0.012090
 -0.033863
 -0.119232
 -0.060983
  0.023084
 -0.010042
 -0.092672
 -0.090370
 -0.047466
 -0.010926
  0.012879
 -0.023545
 -0.003477
 -0.029628
 -0.130129
 -0.006450
  0.146289
 -0.083904
  0.038609
 -0.055480
 -0.028751
 -0.079587
  0.094908
  0.124724
  0.193734
  0.122044
  0.186854
  0.096790
  0.080686
 -0.035274
 -0.131818
 -0.035699
 -0.153534
 -0.075062
 -0.183879
 -0.145409
  0.216093
 -0.034849
 -0.053279
 -0.023554
 -0.022475
 -0.034710
  0.001935
  0.058427
  0.015324
 -0.156322
  0.104195
  0.114385
 -0.002517
  0.040705
 -0.101043
  0.051887
  0.116322
  0.064878
  0.041042
 -0.053206
  0.078781
 -0.080026
 -0.005775
  0.021190
 -0.078428
  0.011294
 -0.034650
  0.148233
 -0.027163
  0.025055
 -0.022428
 -0.048302
  0.119570
  0.125461
 -0.034114
  0.180207
 -0.033392
  0.019476
 -0.020644
  0.051126
  0.091182
 -0.148246
 -0.086540
 -0.031482
 -0.130220
  0.083882
  0.118486
 -0.191243
 -0.093828
 -0.103628
 -0.130073
  0.001318
  0.129036
  0.046995
 -0.108911
 -0.125249
 -0.095286
 -0.035671
  0.096397
 -0.061647
  0.050620
  0.075810
  0.052088
 -0.036381
  0.213510
  0.014507
  0.003177
 -0.125817
  0.139405
  0.108912
  0.124469
 -0.029203
 -0.036223
  0.066322
  0.031986
  0.103505
 -0.117838
  0.012658
 -0.018547
 -0.101872
 -0.108255
  0.010968
  0.017274
 -0.006524
  0.043575
  0.033576
  0.111909
  0.088546
 -0.131605
  0.035315
 -0.009401
 -0.102232
  0.033215
 -0.001370
  0.084868
 -0.087360
 -0.057699
 -0.132351
  0.054555
 -0.014457
  0.073146
 -0.010703
 -0.087479
  0.119849
 -0.095093
  0.012108
 -0.085101
 -0.019618
 -0.106219
  0.237601
  0.023224
  0.034365
  0.030153
  0.071217
 -0.090059
 -0.031907
  0.071005
 -0.165635
  0.003872
 -0.102615
  0.148270
  0.091064
 -0.096636
 -0.016788
 -0.027678
  0.030517
 -0.040738
  0.159274
 -0.025281
  0.000432
 -0.046788
  0.093756
 -0.047982
  0.054824
 -0.054768
 -0.058147
 -0.001244
  0.127077
 -0.072013
  0.120630
  0.084044
 -0.084706
 -0.015056
  0.044814
 -0.054598
 -0.181858
  0.095193
  0.024824
 -0.002749
 -0.033335
 -0.021907
  0.163829
  0.023668
 -0.008186
 -0.037632
  0.013239
  0.162499
  0.025599
  0.010939
 -0.034953
 -0.061224
  0.031626
  0.021292
 -0.111391
  0.056643
 -0.013846
  0.082520
 -0.043924
 -0.227061
  0.004231
 -0.062891
  0.176425
  0.169217
 -0.093337
 -0.094001
  0.112556
 -0.081399
 -0.007074
 -0.019397
  0.031887
  0.153990
  0.019660
 -0.183161
 -0.086932
 -0.003862
  0.020521
  0.071399
  0.055496
 -0.130801
 -0.082224
 -0.029079
  0.098650
 -0.042414
  0.120212
 -0.071008
  0.063711
  0.051497
  0.019481
  0.024555
 -0.003896
  0.115537
  0.053036
 -0.111194
  0.102347
 -0.157959
  0.155684
  0.115970
  0.061873
  0.166755
  0.043489
  0.057994
 -0.035306
 -0.071514
 -0.054276
  0.036950
 -0.054644
  0.147467
  0.082611
  0.033961
  0.057955
  0.123753
  0.066609
 -0.252132
 -0.007477
  0.078369
 -0.043917
 -0.025396
 -0.050331
  0.005032
  0.101826
 -0.068282
  0.120684
  0.082210
 -0.059600
 -0.072037
  0.034656
  0.045490
  0.024388
 -0.032400
 -0.010636
 -0.045247
  0.072321
 -0.016938
  0.021899
  0.147781
 -0.060617
  0.051742
  0.041734
  0.228681
  0.106018
  0.006083
  0.009028
 -0.100144
 -0.012916
  0.183632
  0.010933
 -0.125120
 -0.125654
  0.010269
 -0.111214
 -0.184401
 -0.001178
 -0.080942
 -0.149969
  0.023289
  0.120015
 -0.081739
 -0.019824
  0.008294
 -0.091761
 -0.025829
 -0.060600
 -0.182053
 -0.112256
 -0.009105
  0.139033
 -0.020879
 -0.029132
  0.102333
 -0.016433
 -0.026861
  0.104102
  0.069787
  0.045765
  0.331182
 -0.056312
 -0.011547
  0.064569
  0.088894
 -0.049768
 -0.226293
  0.031411
 -0.012776
  0.034439
 -0.016393
  0.041919
 -0.021818
 -0.139467
 -0.059365
 -0.072699
  0.046348
  0.095778
 -0.079662
 -0.042081
 -0.096563
  0.080505
  0.040828
 -0.116526
 -0.131146
  0.090072
  0.009532
  0.145569
 -0.059189
 -0.062654
 -0.026963
  0.098077
  0.059592
 -0.006379
 -0.125502
  0.041522
 -0.105228
  0.034195
  0.079313
 -0.082462
 -0.016200
  0.047843
  0.056346
  0.130486
  0.103241
  0.037590
 -0.021375
 -0.017097
  0.070023
 -0.091183
 -0.094493
 -0.050950
  0.000287
 -0.219237
  0.036607
  0.100569
 -0.039206
  0.117051
  0.112155
 -0.089825
 -0.056850
 -0.195451
 -0.065051
 -0.008584
 -0.023026
  0.175799
  0.175618
 -0.143161
 -0.020587
 -0.057117
  0.041151
  0.003504
  0.083051
 -0.045037
  0.061784
 -0.163464
 -0.062393
  0.038373
 -0.086455
 -0.029680
 -0.003918
  0.052055
  0.024103
 -0.057323
  0.038847
  0.025357
  0.004300
  0.017169
 -0.043467
 -0.009086
  0.002738
 -0.002687
  0.126395
  0.079663
 -0.043429
 -0.017088
 -0.174458
  0.023661
  0.069510
  0.071050
  0.132075
 -0.089224
 -0.148364
  0.021270
 -0.030060
  0.003224
  0.042629
  0.036962
 -0.106611
  0.087094
 -0.018965
 -0.033256
 -0.033185
  0.102652
  0.143086
 -0.018083
 -0.138804
  0.104391
 -0.054831
 -0.075621
  0.045610
 -0.189997
  0.074759
 -0.032057
  0.154759
  0.145787
 -0.076568
 -0.038052
  0.100077
 -0.036178
  0.018660
 -0.087207
 -0.079418
 -0.055568
  0.024418
  0.035703
  0.080698
 -0.036975
  0.014982
 -0.060230
  0.211943
 -0.220971
 -0.008696
 -0.113769
 -0.102710
 -0.037018
  0.029290
 -0.131924
 -0.066325
 -0.060939
 -0.099274
  0.003197
 -0.009021
 -0.041293
  0.144884
 -0.027002
 -0.097812
 -0.051473
  0.004062
 -0.182310
 -0.104555
  0.020456
  0.014876
  0.005201
 -0.040956
  0.038728
 -0.088671
  0.005855
 -0.153432
  0.122965
 -0.008968
  0.044366
 -0.029098
 -0.061634
 -0.078310
 -0.146270
 -0.154082
 -0.001136
 -0.029621
 -0.075620
  0.046749
 -0.053649
  0.049303
  0.072819
 -0.104542
 -0.028020
 -0.013897
 -0.007238
 -0.037024
 -0.085373
 -0.089053
 -0.041006
 -0.095734
  0.000877
 -0.027268
  0.056550
 -0.144654
 -0.176028
  0.046537
  0.005905
 -0.046638
 -0.034820
  0.115644
  0.212129
  0.063864
 -0.048324
  0.022363
 -0.054317
  0.203400
 -0.090047
  0.060325
  0.026808
 -0.037243
  0.186128
 -0.075384
  0.061475
  0.051035
 -0.010348
  0.194836
  0.100428
  0.073961
 -0.009790
  0.164164
 -0.081499
 -0.002075
 -0.006131
  0.048679
  0.065675
  0.056293
  0.042013
  0.050547
 -0.034493
 -0.024233
  0.114694
 -0.159068
 -0.029781
 -0.121916
  0.026566
  0.017762
 -0.009939
 -0.111038
  0.008083
 -0.073346
  0.070281
 -0.075955
 -0.065419
 -0.011032
  0.082521
 -0.147009
  0.214502
  0.081598
 -0.068661
 -0.052094
 -0.099238
  0.034560
 -0.022201
  0.173018
  0.017381
 -0.103303
  0.033205
 -0.141215
  0.033130
 -0.104541
  0.057022
 -0.096418
  0.017887
  0.134592
  0.045944
  0.177990
 -0.138643
  0.095902
  0.083991
 -0.086783
  0.019163
  0.064533
 -0.016050
  0.009212
  0.064952
 -0.150058
  0.208503
  0.217844
 -0.051093
 -0.093638
  0.108995
  0.041127
  0.068284
 -0.041227
 -0.037199
  0.038061
 -0.003205
  0.046513
  0.117417
 -0.074918
  0.076704
 -0.047533
 -0.067217
 -0.006470
  0.168049
  0.057270
 -0.033774
 -0.018511
  0.088808
 -0.081681
  0.064052
  0.023265
  0.048973
  0.054144
  0.065512
 -0.044151
 -0.038743
  0.014162
 -0.066988
 -0.104970
 -0.062575
  0.032575
 -0.117897
 -0.129839
  0.062461
 -0.080402
 -0.051394
 -0.077174
  0.018445
  0.080148
 -0.133325
 -0.002778
 -0.069812
  0.203984
 -0.024754
  0.009029
  0.044630
 -0.160963
 -0.009695
 -0.082184
  0.011133
  0.105329
  0.063805
  0.044456
  0.004084
 -0.058283
 -0.040759
 -0.115607
  0.067318
  0.134481
  0.111541
  0.070255
 -0.086576
 -0.005939
  0.088099
 -0.029372
 -0.059662
  0.081530
 -0.100365
  0.057522
 -0.147072
  0.117495
 -0.158326
 -0.163128
  0.019566
 -0.118162
  0.034928
 -0.132859
 -0.020412
  0.175886
  0.016784
  0.018736
  0.101338
 -0.077719
  0.035412
  0.087943
  0.033208
  0.165573
  0.110583
 -0.009869
 -0.036560
  0.063567
 -0.051824
 -0.037233
 -0.155860
 -0.195178
 -0.093184
 -0.106920
  0.084090
 -0.061091
 -0.064609
  0.003684
 -0.127384
  0.074993
  0.095410
 -0.134179
 -0.041592
  0.245189
 -0.008599
 -0.034550
 -0.082082
 -0.053416
 -0.024075
  0.020549
 -0.126370
  0.017560
  0.056053
  0.095104
  0.159389
 -0.006371
 -0.007963
 -0.020397
 -0.004897
 -0.163908
  0.105565
  0.053771
 -0.056914
  0.025644
 -0.211106
  0.047868
  0.197132
  0.080864
 -0.066599
  0.182653
  0.004173
 -0.085310
 -0.042229
 -0.176027
 -0.089933
 -0.062025
 -0.033370
 -0.269587
 -0.053863
 -0.101634
 -0.088491
 -0.116229
 -0.049708
 -0.123803
 -0.009576
 -0.074958
  0.057039
 -0.016370
  0.067745
  0.140445
  0.004235
  0.041057
 -0.064416
 -0.076150
 -0.137483
  0.047195
 -0.028103
 -0.211955
  0.020935
  0.117543
  0.006528
 -0.064406
 -0.211431
  0.137083
 -0.061497
  0.224900
  0.164754
  0.001475
 -0.131527
  0.031041
 -0.029834
 -0.112990
 -0.167744
  0.133176
 -0.154269
 -0.155698
 -0.050591
 -0.034681
  0.139081
  0.091129
 -0.019778
 -0.077233
 -0.108979
  0.022804
  0.170988
 -0.026211
  0.087371
 -0.035023
 -0.080918
  0.094698
  0.005305
  0.070956
 -0.111218
 -0.100924
  0.114423
  0.092255
 -0.001227
 -0.053386
  0.015333
 -0.032458
  0.041217
  0.026612
  0.237183
 -0.181100
  0.029257
 -0.178482
  0.043695
 -0.076551
 -0.163393
  0.012391
  0.030923
 -0.085785
 -0.051505
 -0.107105
 -0.071625
  0.063683
 -0.038911
  0.020192
 -0.156392
 -0.055559
 -0.023365
 -0.001420
 -0.088120
  0.029157
 -0.151067
 -0.025453
 -0.051011
 -0.138652
  0.108930
  0.042103
 -0.008469
 -0.062467
 -0.103402
 -0.209775
  0.126747
 -0.077427
 -0.080861
  0.047340
  0.035054
 -0.059648
  0.117512
 -0.060301
  0.017881
 -0.040014
 -0.065574
  0.001242
 -0.166280
 -0.157788
 -0.072050
  0.001238
 -0.201404
 -0.011051
 -0.061035
  0.102972
  0.080220
  0.027120
 -0.070495
  0.011506
  0.092769
 -0.116340
 -0.099558
  0.059666
  0.061458
  0.024208
 -0.064073
 -0.164856
  0.058974
 -0.202603
 -0.002820
 -0.048713
 -0.133490
 -0.050435
 -0.035854
 -0.007692
 -0.012774
 -0.006380
 -0.139147
 -0.065942
 -0.046217
 -0.117058
 -0.081813
  0.097238
  0.119215
 -0.018316
  0.009225
 -0.185358
 -0.112994
  0.069274
  0.138360
  0.000150
 -0.005205
  0.043164
 -0.006147
  0.025135
 -0.024799
  0.022746
 -0.008897
 -0.123328
  0.040781
 -0.051293
  0.098677
  0.066067
 -0.037354
  0.328486
  0.049389
  0.207631
  0.095076
  0.076117
  0.013714
 -0.174310
  0.065839
 -0.053990
 -0.056467
 -0.089724
  0.009710
 -0.010714
  0.028475
  0.080322
 -0.151653
  0.122497
  0.115119
  0.059860
  0.191239
 -0.049932
  0.056280
  0.198190
 -0.020620
  0.013882
 -0.081629
  0.041695
 -0.065485
 -0.006169
 -0.023447
 -0.087957
  0.127496
  0.113773
  0.006713
 -0.096168
 -0.026734
 -0.153084
 -0.080013
  0.162440
  0.198535
  0.145320
  0.119319
  0.089660
 -0.057742
 -0.131165
 -0.091580
  0.065999
 -0.015824
  0.108411
 -0.185653
  0.022755
 -0.052962
 -0.146832
 -0.013438
  0.080237
 -0.034395
 -0.021237
 -0.058710
  0.144992
 -0.075207
  0.173279
  0.090558
 -0.030518
 -0.127977
 -0.031263
  0.013396
 -0.061984
 -0.066317
 -0.058849
 -0.145346
  0.105091
  0.000601
 -0.133098
  0.029443
  0.156134
  0.102948
 -0.144957
 -0.003146
 -0.011693
 -0.079308
 -0.046376
 -0.056233
  0.124320
 -0.082380
 -0.017312
  0.101619
 -0.055822
 -0.021839
 -0.057426
 -0.090829
  0.043664
  0.198043
  0.016203
  0.024686
  0.033383
  0.045382
  0.035111
  0.157315
  0.037325
  0.013508
 -0.056610
 -0.129262
 -0.001435
 -0.069346
 -0.023317
  0.121149
  0.080913
  0.041830
 -0.063710
 -0.131813
  0.003877
 -0.016016
  0.119241
  0.123464
 -0.077305
  0.040377
  0.012458
  0.235001
  0.037487
  0.020823
 -0.029652
  0.052850
 -0.077321
 -0.116027
  0.250656
  0.000252
  0.145972
  0.045499
  0.009578
 -0.009029
 -0.028590
  0.243830
  0.025768
 -0.095241
 -0.025880
  0.035855
 -0.047563
  0.051408
  0.052382
  0.022269
 -0.091520
  0.054546
 -0.170017
  0.119972
 -0.039359
 -0.054945
 -0.087551
  0.062684
  0.028827
 -0.097937
 -0.030383
 -0.203272
  0.072095
 -0.011742
  0.042513
 -0.029824
  0.013157
 -0.107112
 -0.006592
  0.030333
 -0.140078
 -0.069296
 -0.037891
 -0.011332
 -0.023935
  0.101430
 -0.119071
  0.047899
  0.075929
  0.056555
 -0.082656
  0.137771
  0.006928
  0.033711
 -0.061735
 -0.005310
  0.029966
  0.087404
  0.088978
 -0.094513
  0.070549
 -0.150365
 -0.174072
  0.028789
 -0.133864
  0.133276
 -0.077058
  0.049842
 -0.008283
 -0.019266
 -0.048539
  0.028845
 -0.050985
  0.032266
  0.106157
 -0.026720
 -0.110012
  0.086775
  0.001116
 -0.089928
 -0.012902
 -0.140240
 -0.030149
 -0.157373
 -0.042260
  0.014608
  0.021130
  0.035308
 -0.013601
  0.090190
 -0.018652
  0.043335
 -0.020132
  0.034727
  0.244984
  0.111294
 -0.075333
 -0.083451
  0.008670
  0.066526
 -0.058555
  0.040214
 -0.170386
  0.013727
  0.096826
 -0.053290
  0.008302
 -0.013076
 -0.169248
 -0.064030
 -0.103989
 -0.123806
 -0.032821
  0.119239
 -0.011720
 -0.033124
 -0.176059
 -0.055861
 -0.024454
 -0.094884
  0.117923
 -0.107507
  0.021761
  0.009064
 -0.049531
  0.019052
 -0.110399
 -0.026587
  0.047507
  0.071752
  0.023504
 -0.051127
  0.182902
 -0.051302
  0.062883
  0.034805
 -0.001691
 -0.050453
  0.052859
 -0.068145
 -0.163593
 -0.146736
  0.214005
 -0.012546
  0.040281
 -0.236745
  0.014116
 -0.031317
  0.026588
 -0.031888
 -0.226282
 -0.073002
 -0.019423
  0.014505
  0.019834
  0.100471
  0.154067
  0.054526
  0.011331
 -0.052963
  0.001442
  0.030210
 -0.090587
  0.012627
  0.038655
  0.013708
  0.021217
  0.125371
  0.151664
  0.138568
  0.170624
  0.030227
  0.007395
 -0.040738
  0.048044
  0.054008
 -0.020919
  0.027893
 -0.034258
  0.001207
  0.076999
 -0.028490
  0.152002
 -0.012947
 -0.113823
 -0.155014
  0.046005
  0.182295
  0.164452
 -0.057229
  0.000258
 -0.068850
  0.073301
  0.030395
  0.155878
  0.048582
  0.073086
  0.050046
 -0.040718
  0.133993
 -0.058136
 -0.055302
 -0.014827
  0.007303
  0.215320
 -0.019004
 -0.060397
  0.005209
  0.078385
  0.102913
  0.072410
 -0.083880
 -0.019715
  0.044504
  0.032258
 -0.028818
  0.133499
  0.119839
  0.044134
  0.018443
  0.007501
  0.023860
 -0.041522
 -0.076310
  0.038353
 -0.045538
  0.048922
  0.113072
 -0.059203
  0.033271
 -0.135434
  0.002370
  0.110747
  0.043544
  0.179497
 -0.148481
 -0.080329
 -0.034824
  0.020030
  0.009846
  0.055966
 -0.007889
 -0.175649
  0.028695
  0.130055
 -0.095390
 -0.246790
 -0.051076
  0.032763
 -0.169569
  0.162704
  0.066380
 -0.102267
 -0.013112
  0.047329
 -0.013671
 -0.053760
 -0.010508
 -0.103697
  0.192093
 -0.176839
  0.032580
  0.092112
  0.045157
  0.011952
 -0.020904
 -0.103013
  0.030414
 -0.064715
 -0.085180
  0.100565
 -0.079131
 -0.019017
  0.002092
 -0.070362
 -0.033018
 -0.091152
 -0.126698
 -0.014592
  0.056794
 -0.086568
  0.190576
 -0.007624
 -0.084983
 -0.021395
  0.093733
 -0.010480
 -0.130333
 -0.096270
 -0.201190
 -0.054365
  0.058965
 -0.013614
 -0.134863
  0.029447
  0.155194
  0.090298
 -0.032688
  0.055556
 -0.010717
  0.005149
 -0.157394
 -0.115752
 -0.021417
 -0.049731
  0.108592
 -0.035071
 -0.078227
 -0.066774
  0.152884
 -0.013212
  0.020036
  0.074002
  0.053108
  0.054622
 -0.155844
  0.052588
  0.013114
  0.117802
  0.007218
 -0.032682
  0.086021
 -0.022024
 -0.020773
  0.091989
  0.119629
  0.032195
  0.088535
 -0.094960
 -0.046189
  0.062525
 -0.138982
  0.178438
 -0.139524
 -0.165847
  0.207885
 -0.128404
  0.117988
 -0.091693
  0.011842
  0.142456
 -0.150373
 -0.157642
  0.142780
  0.107019
  0.018289
  0.074834
  0.076404
  0.076971
 -0.057401
 -0.024190
 -0.026542
 -0.144525
 -0.049945
 -0.030648
  0.107380
  0.070037
  0.070051
 -0.019832
  0.091556
  0.060266
  0.046332
 -0.158047
  0.070233
 -0.012872
  0.020595
 -0.041573
 -0.062046
 -0.161686
 -0.058545
  0.028410
  0.002306
  0.055434
  0.029713
 -0.107514
 -0.213645
  0.151831
 -0.201310
 -0.104124
  0.155884
  0.020122
 -0.057572
 -0.023016
 -0.013187
 -0.074491
  0.013657
  0.164170
 -0.165730
  0.050701
 -0.119724
  0.138376
  0.165624
 -0.022428
 -0.096561
 -0.003404
  0.040220
  0.030160
  0.005688
 -0.153550
 -0.091545
  0.056748
  0.081097
 -0.069209
  0.037330
  0.178797
 -0.116310
  0.006135
 -0.188881
  0.137277
  0.013048
 -0.090065
  0.059583
  0.199770
 -0.122615
 -0.035959
  0.124366
 -0.033957
  0.026436
 -0.060555
  0.008142
  0.078188
 -0.022722
 -0.024409
  0.215125
  0.072867
 -0.063603
 -0.007463
  0.068888
  0.017595
 -0.079680
  0.118587
  0.022437
 -0.007577
 -0.055180
 -0.002549
 -0.094838
 -0.045711
 -0.026946
  0.135136
 -0.046646
  0.030220
 -0.014670
  0.045992
 -0.113664
  0.135629
 -0.137632
 -0.058364
  0.166827
 -0.021598
  0.055355
 -0.061748
  0.035024
 -0.025241
 -0.076956
  0.034379
 -0.083642
  0.113054
  0.045750
 -0.029819
  0.155857
 -0.122628
  0.061179
 -0.050966
  0.168067
  0.095903
 -0.015115
  0.132719
 -0.023319
  0.014224
 -0.053678
  0.115711
 -0.004236
  0.071844
 -0.009936
  0.034303
 -0.017484
 -0.139938
 -0.013948
 -0.114252
 -0.077381
 -0.023565
  0.027168
 -0.112001
  0.086756
  0.056520
 -0.072685
 -0.031722
  0.026886
  0.090039
  0.062477
  0.073692
  0.059230
 -0.210159
 -0.069330
 -0.013908
  0.021182
  0.028067
 -0.043012
 -0.047785
 -0.163237
  0.025701
 -0.025491
 -0.044486
  0.098085
  0.173950
 -0.033339
 -0.048534
  0.157326
 -0.023253
  0.000849
 -0.019548
  0.007172
 -0.045649
  0.094656
 -0.134652
  0.281696
 -0.015760
 -0.009079
  0.044203
  0.046364
  0.149826
 -0.045279
  0.024050
 -0.063680
  0.022807
  0.096026
 -0.075710
  0.008099
 -0.129055
  0.253607
 -0.173947
 -0.118771
  0.031088
  0.099194
 -0.077931
 -0.050759
  0.090213
  0.006190
 -0.027420
 -0.017749
  0.042658
  0.020530
 -0.103811
 -0.067035
 -0.105807
  0.062655
  0.002443
  0.000191
  0.062602
  0.069441
  0.048422
  0.080435
  0.050685
 -0.000226
  0.128737
 -0.188581
  0.114996
  0.019284
  0.118686
 -0.137512
 -0.078851
 -0.112775
  0.108741
  0.024961
  0.050539
  0.039892
  0.056997
  0.006259
  0.006557
 -0.173035
  0.099334
 -0.196871
 -0.039930
 -0.061893
  0.030163
  0.020297
 -0.142636
 -0.048331
 -0.040908
  0.088408
  0.077984
 -0.059286
  0.115310
  0.045293
 -0.054656
 -0.050817
 -0.149417
  0.173097
 -0.150554
  0.028432
 -0.057189
 -0.002765
  0.073866
  0.105747
  0.112794
 -0.050058
  0.074779
 -0.171409
  0.013836
  0.010540
  0.111427
 -0.037494
 -0.048978
 -0.057560
  0.060802
 -0.040828
  0.000474
  0.009605
 -0.008123
 -0.180292
 -0.035124
  0.038438
  0.000731
 -0.108735
  0.095551
 -0.018170
  0.031346
 -0.007632
 -0.076504
 -0.053207
  0.110845
  0.103166
  0.093562
  0.080614
  0.003276
  0.007958
 -0.022530
 -0.000899
  0.025433
  0.102329
 -0.053631
 -0.032629
  0.050895
 -0.053395
  0.064020
  0.013605
  0.017730
 -0.095682
  0.139075
  0.040987
  0.056690
 -0.062285
  0.067742
 -0.061144
  0.101338
 -0.199986
 -0.023959
 -0.188535
  0.094642
 -0.012517
 -0.099918
 -0.022509
  0.015135
  0.052439
 -0.058802
 -0.102222
 -0.086795
  0.037078
  0.025051
 -0.049953
  0.064505
 -0.045821
 -0.133804
 -0.121331
 -0.082139
  0.025304
  0.034597
 -0.038961
 -0.054482
 -0.042276
  0.024614
 -0.028954
  0.006773
  0.005877
  0.024338
 -0.049995
  0.103642
 -0.052459
  0.003981
  0.001474
 -0.127469
 -0.045648
  0.154582
  0.023200
  0.002419
  0.164662
  0.076746
  0.083787
 -0.005737
 -0.164931
  0.077816
 -0.043937
  0.006998
 -0.094404
  0.087557
  0.101435
 -0.056264
 -0.039534
  0.011564
  0.093637
 -0.036903
 -0.072892
  0.027873
 -0.022254
 -0.146398
 -0.170544
 -0.051096
  0.070602
 -0.083684
 -0.065488
  0.066195
  0.163318
  0.089805
 -0.084924
 -0.097178
  0.159111
  0.035359
  0.101296
  0.102132
 -0.020934
 -0.005201
  0.180713
  0.012077
  0.058292
  0.019182
 -0.036920
 -0.054268
  0.050718
  0.100800
  0.074640
  0.064603
  0.019509
 -0.120705
  0.095614
 -0.011285
 -0.029080
  0.170808
  0.130081
  0.131785
 -0.032475
 -0.151036
 -0.041068
  0.119570
  0.094358
  0.214567
  0.006967
 -0.037143
 -0.043099
  0.127522
 -0.031743
  0.140801
 -0.090872
 -0.152840
 -0.014655
  0.122909
  0.044457
  0.083750
  0.011105
  0.062839
 -0.103780
 -0.030366
 -0.155537
 -0.003561
 -0.277378
  0.080584
 -0.033686
 -0.015410
  0.067292
  0.336269
  0.073431
  0.000039
  0.038394
  0.088287
 -0.028235
  0.088155
 -0.018942
 -0.067976
 -0.034529
 -0.033414
  0.021048
 -0.100779
  0.096150
 -0.123200
  0.006506
  0.015398
 -0.045736
 -0.085566
 -0.013795
  0.002955
 -0.137832
  0.008204
 -0.044518
 -0.124309
 -0.077910
  0.004433
 -0.027210
 -0.006825
 -0.024905
 -0.058457
 -0.165784
 -0.059372
 -0.089440
 -0.049458
  0.105377
 -0.057831
  0.386763
  0.098841
  0.082884
 -0.075622
  0.004268
 -0.014183
 -0.039760
 -0.007490
  0.075394
  0.062334
 -0.032067
  0.087359
 -0.028349
  0.072472
 -0.052093
 -0.087412
 -0.056931
  0.005517
  0.052245
 -0.161263
 -0.069238
 -0.067983
 -0.042728
  0.053064
 -0.008350
 -0.093107
 -0.011563
  0.072289
  0.057330
 -0.063236
 -0.019051
 -0.006721
 -0.105973
  0.052501
 -0.006763
  0.020895
 -0.031130
 -0.101372
 -0.136390
 -0.143624
 -0.024277
  0.013972
 -0.003344
 -0.022899
  0.005901
 -0.040297
 -0.241812
  0.122712
 -0.005159
 -0.050931
  0.046477
 -0.066311
  0.102081
 -0.236661
 -0.044330
  0.045436
  0.036828
  0.073170
  0.081221
  0.102272
 -0.025277
 -0.049546
  0.018675
 -0.046598
 -0.128592
  0.076376
  0.105848
 -0.089484
  0.054450
  0.068432
 -0.023724
 -0.065197
  0.041761
  0.037100
 -0.090545
 -0.078091
 -0.001504
 -0.082824
  0.064304
  0.070464
  0.013317
  0.240730
 -0.205324
 -0.183153
 -0.095220
  0.093994
  0.121912
 -0.171641
 -0.190776
  0.034034
  0.083191
 -0.152144
 -0.000477
 -0.146348
 -0.104019
 -0.022123
  0.003349
 -0.006077
  0.113903
  0.061813
 -0.000010
  0.227985
 -0.017969
 -0.069358
 -0.142120
 -0.016051
 -0.044166
 -0.069797
 -0.107734
  0.031837
 -0.014440
  0.033322
  0.089328
 -0.013156
  0.001545
  0.168862
  0.075513
 -0.012263
 -0.060590
  0.092608
 -0.002613
 -0.042808
  0.010331
 -0.042983
 -0.072999
 -0.008870
  0.032320
 -0.030574
 -0.044991
 -0.244278
  0.015263
  0.033402
  0.006272
 -0.039315
 -0.078636
  0.080958
  0.028062
  0.065001
 -0.016181
 -0.001562
  0.192200
 -0.126962
  0.029545
 -0.099084
  0.095574
  0.025982
 -0.038596
 -0.094168
 -0.047095
 -0.158882
 -0.060554
 -0.059839
  0.038466
 -0.055534
  0.016789
  0.027276
  0.032843
  0.022398
 -0.045152
  0.047484
  0.039862
  0.043704
 -0.023028
 -0.091752
  0.080430
 -0.008190
  0.046000
 -0.126013
 -0.122474
  0.144287
 -0.011345
 -0.136299
  0.261906
 -0.039529
 -0.094880
 -0.031394
  0.137289
  0.009331
 -0.055823
 -0.086620
 -0.017129
  0.112388
 -0.041368
 -0.045704
 -0.025132
 -0.093341
  0.109300
 -0.055602
  0.072178
  0.030970
  0.023591
 -0.000467
 -0.134116
  0.016509
 -0.055111
  0.088157
  0.087433
  0.127660
 -0.120163
  0.015178
 -0.088555
  0.050555
  0.043868
  0.062830
 -0.036638
  0.005870
  0.032932
 -0.022904
 -0.080827
  0.016432
 -0.021670
  0.015652
  0.103152
  0.060390
  0.178383
 -0.043818
  0.126997
 -0.101040
 -0.113828
  0.078599
  0.081954
  0.079122
  0.019789
 -0.091051
 -0.134786
  0.001208
 -0.032667
  0.113276
  0.057285
 -0.025607
  0.152819
  0.029387
  0.010968
  0.071617
 -0.142544
  0.078092
 -0.031332
  0.000301
  0.057974
 -0.111527
  0.082961
  0.041656
  0.042543
 -0.109043
  0.068541
 -0.030004
 -0.023906
  0.098190
  0.039242
 -0.026605
  0.059738
  0.050853
 -0.000972
 -0.059474
 -0.059531
 -0.132467
  0.009145
 -0.054935
  0.052569
 -0.049193
  0.005395
 -0.028504
 -0.027414
  0.017199
 -0.048335
  0.015412
  0.037815
 -0.061442
 -0.004585
  0.109391
  0.163192
 -0.015333
  0.034238
  0.068770
  0.115283
  0.033228
  0.029358
  0.039771
 -0.013973
  0.104980
 -0.039269
  0.025527
  0.079970
  0.030330
 -0.030663
  0.028399
  0.079947
  0.009008
  0.036446
 -0.075215
  0.031311
 -0.059013
 -0.004442
 -0.139182
 -0.087097
 -0.182545
  0.029087
  0.023071
  0.018213
 -0.017749
 -0.004574
 -0.125401
  0.057528
  0.012078
  0.067403
 -0.174862
 -0.007996
 -0.094944
 -0.154637
 -0.061037
 -0.097900
 -0.019973
  0.094082
 -0.055519
  0.021310
 -0.151204
 -0.121679
 -0.020967
 -0.004339
 -0.095588
 -0.075042
  0.176626
  0.040353
  0.231213
 -0.102475
  0.108779
 -0.069062
  0.077476
  0.066149
  0.007136
  0.072875
  0.073270
 -0.043471
  0.075558
 -0.061121
 -0.076030
 -0.097093
 -0.013725
  0.061721
  0.079308
 -0.082756
 -0.034683
 -0.112940
  0.032779
 -0.017628
 -0.006208
  0.090413
  0.007064
  0.106106
  0.083867
 -0.148004
  0.032516
 -0.080196
  0.156957
  0.097126
  0.051635
  0.035270
 -0.028896
 -0.040342
  0.037756
 -0.179663
 -0.085751
  0.083243
  0.203734
 -0.057693
 -0.208254
 -0.033155
  0.015941
 -0.079228
 -0.062169
  0.002411
  0.013047
  0.024552
  0.107702
  0.030062
  0.081271
  0.045603
 -0.089913
  0.072359
  0.034869
 -0.267594
  0.037968
  0.012833
  0.028343
 -0.063506
 -0.014486
 -0.002976
  0.038107
 -0.155186
  0.045096
  0.016712
  0.127481
 -0.097699
  0.041759
  0.001966
  0.033118
  0.069225
  0.040209
 -0.008212
  0.060539
  0.152353
  0.000271
  0.165039
  0.065847
  0.070422
 -0.066132
  0.043900
 -0.105625
 -0.063139
 -0.077954
  0.053316
  0.035789
 -0.035670
 -0.132157
  0.063084
 -0.035890
 -0.135210
  0.027637
  0.034851
  0.004196
 -0.121774
  0.036758
  0.086511
 -0.017132
 -0.024081
  0.093973
  0.255957
  0.064233
  0.016722
  0.076096
  0.038099
 -0.020442
  0.094765
  0.037355
  0.048847
  0.020665
 -0.079457
  0.130973
  0.135648
 -0.075367
  0.068072
 -0.099825
  0.078641
  0.043660
  0.053323
 -0.087325
  0.052696
 -0.092580
  0.006763
  0.066420
 -0.060692
  0.047354
  0.113038
  0.000111
 -0.022677
  0.139948
  0.076480
 -0.056872
  0.004691
 -0.013806
  0.068088
 -0.011244
  0.092151
  0.008998
  0.131503
 -0.038846
 -0.046718
 -0.034197
  0.063991
  0.060085
 -0.085426
 -0.132989
  0.094923
  0.039578
 -0.045505
  0.017729
  0.054417
  0.139930
 -0.034454
  0.000578
  0.022590
 -0.001727
 -0.102328
  0.191372
  0.032416
  0.046391
 -0.029237
  0.056150
  0.102105
  0.061187
 -0.075580
 -0.106820
  0.010175
 -0.023210
 -0.016440
 -0.024055
  0.035555
 -0.077224
  0.010942
  0.154631
  0.005162
  0.033738
  0.005573
  0.075112
 -0.090918
  0.157105
 -0.011829
 -0.062331
 -0.085806
  0.028255
  0.074611
 -0.016034
 -0.041988
 -0.098367
  0.009254
 -0.104345
 -0.063609
  0.031418
 -0.039716
  0.062650
  0.172436
 -0.149921
  0.010109
  0.051667
  0.003885
  0.085941
 -0.046297
 -0.005420
 -0.067755
 -0.064541
  0.019331
  0.025727
  0.038968
  0.084972
  0.152885
  0.120961
  0.062267
  0.068836
 -0.057159
 -0.035837
 -0.123541
 -0.081941
  0.114534
 -0.119620
  0.047289
  0.099990
 -0.022229
 -0.122291
 -0.050186
 -0.039739
  0.084765
 -0.179499
  0.094670
  0.029260
 -0.128801
  0.025391
  0.075859
  0.118469
 -0.140391
 -0.151096
  0.052553
  0.038240
  0.013926
  0.127290
 -0.041043
  0.078263
 -0.004286
  0.012511
  0.194271
  0.109017
  0.076562
  0.071059
 -0.000582
 -0.110952
 -0.073984
 -0.075461
 -0.105020
 -0.135222
  0.020642
 -0.052301
  0.036007
 -0.051424
  0.126197
 -0.060114
  0.095094
 -0.032729
 -0.032016
  0.033822
  0.012373
 -0.075338
 -0.116462
  0.060885
 -0.133559
 -0.046274
 -0.080638
 -0.007245
 -0.081514
 -0.011240
  0.059304
 -0.096090
 -0.079554
 -0.026816
 -0.138705
  0.112985
 -0.012159
  0.063835
 -0.099773
 -0.035542
  0.041554
 -0.142971
 -0.023018
 -0.087481
 -0.002858
  0.000753
 -0.120998
  0.012927
  0.121372
 -0.187753
 -0.008541
 -0.025527
 -0.254930
  0.062807
  0.129875
 -0.000716
 -0.088505
 -0.034475
 -0.057870
 -0.207123
 -0.003150
  0.009987
 -0.023706
  0.116418
  0.113182
  0.076497
 -0.104017
 -0.050435
 -0.070270
 -0.009199
 -0.050376
 -0.014331
  0.130170
 -0.065621
 -0.125531
 -0.001984
  0.014237
 -0.090068
 -0.078505
 -0.016652
 -0.011129
 -0.034132
  0.034222
 -0.015813
 -0.068998
  0.165721
  0.118109
  0.066798
 -0.083096
  0.080168
  0.016194
  0.022948
 -0.038508
  0.028325
  0.087912
  0.062066
 -0.116582
 -0.026478
  0.001420
  0.040454
 -0.012497
  0.061377
  0.084941
  0.135236
 -0.038660
  0.120649
 -0.076369
  0.071114
 -0.031018
  0.126422
 -0.044099
  0.004606
 -0.127173
 -0.132510
 -0.034764
 -0.116030
  0.103091
  0.013421
 -0.024248
 -0.017711
 -0.030058
  0.045723
  0.026617
 -0.088294
  0.029291
  0.030284
  0.105794
 -0.034169
  0.056237
  0.017567
  0.113580
  0.132593
 -0.163379
  0.017186
  0.011425
 -0.086147
  0.096226
  0.008826
 -0.021141
  0.153070
 -0.035873
  0.116385
 -0.154023
  0.098874
 -0.033990
  0.010490
 -0.032761
  0.033698
 -0.080205
  0.016625
 -0.032257
 -0.186685
  0.073581
  0.116059
 -0.014808
  0.140719
 -0.123107
 -0.040078
  0.018010
 -0.002841
 -0.071099
  0.117196
 -0.148173
  0.031747
  0.033415
 -0.135751
  0.012532
 -0.013403
 -0.024571
  0.113977
  0.102861
  0.094601
 -0.138164
 -0.012562
 -0.027609
 -0.003001
 -0.032860
  0.153131
  0.128613
  0.048125
 -0.082677
  0.010682
  0.006563
 -0.002850
 -0.037494
 -0.076488
 -0.075604
  0.242571
 -0.227856
 -0.051763
 -0.065144
  0.081824
  0.106440
 -0.012727
 -0.272038
  0.020940
  0.095410
  0.160313
  0.094872
 -0.111465
 -0.170943
 -0.034818
 -0.052224
  0.034544
  0.115717
 -0.009493
  0.014715
  0.015623
 -0.169099
 -0.142004
 -0.007726
 -0.172207
 -0.054269
 -0.224724
  0.042247
 -0.008712
 -0.019981
  0.012179
  0.013874
  0.031233
 -0.070941
 -0.039931
  0.071489
 -0.175784
 -0.029512
  0.126839
 -0.077919
 -0.082844
  0.048370
  0.046598
 -0.121691
 -0.012321
 -0.129025
 -0.092328
 -0.043684
  0.001734
 -0.082494
 -0.133462
  0.010541
  0.050442
  0.130236
  0.031738
 -0.085087
  0.040107
  0.141474
 -0.040226
 -0.114239
  0.180407
  0.002927
 -0.115261
  0.162599
  0.069074
 -0.082639
  0.043141
  0.156115
 -0.014074
 -0.032209
  0.251034
 -0.085800
 -0.136452
 -0.015682
  0.225428
  0.133687
  0.225927
  0.076366
  0.164014
  0.110523
  0.024250
  0.161850
 -0.018988
  0.220243
  0.092300
  0.021091
 -0.068531
  0.156119
  0.002592
  0.190936
  0.012544
  0.203711
  0.109895
  0.336733
  0.069041
  0.284826
  0.116841
  0.149373
  0.375022
  0.207596
  0.207104
  0.216329
  0.212614
  0.177786
  0.105026
  0.148786
 -0.104129
  0.117520
 -0.031272
  0.207223
 -0.035168
  0.038403
 -0.022945
 -0.112566
 -0.072023
  0.080192
  0.046459
 -0.071172
 -0.085302
 -0.025895
  0.114913
 -0.044625
 -0.081104
  0.036578
 -0.075916
  0.070833
  0.162369
 -0.061178
  0.133360
 -0.066401
  0.018296
  0.241322
  0.212514
  0.300459
  0.324895
  0.257851
  0.431488
  0.528114
  0.647666
  0.639007
  0.730396
  0.665176
  0.702792
  0.653005
  0.722165
  1.000000
  0.887935
  0.791884
  0.970967
  0.782225
  0.889899
  0.715068
  0.579922
  0.603398
  0.614085
  0.724351
  0.766481
  0.617469
  0.387574
  0.396436
  0.445158
  0.309560
  0.366988
  0.097066
  0.210125
  0.173034
  0.154025
  0.058982
 -0.057925
 -0.149245
 -0.055389
  0.103351
  0.037932
 -0.031754
  0.009119
 -0.006604
  0.087256
  0.048669
 -0.018112
  0.061506
  0.089989
  0.030663
 -0.070327
 -0.094011
 -0.100392
 -0.116615
 -0.048886
 -0.004325
  0.001821
 -0.104758
 -0.082383
  0.019092
 -0.030673
 -0.139941
  0.138580
 -0.019903
 -0.040809
 -0.060805
 -0.054514
 -0.014205
  0.036705
 -0.148198
 -0.075088
  0.040510
 -0.051426
  0.087957
  0.162257
  0.054148
  0.066056
 -0.044096
 -0.021106
 -0.042768
 -0.160333
  0.078543
  0.080432
 -0.026947
 -0.006407
 -0.158274
  0.094331
  0.103947
  0.069020
  0.063745
  0.112568
  0.166135
  0.146384
  0.002169
 -0.003027
 -0.143839
 -0.012926
 -0.018946
 -0.007864
  0.111747
  0.089517
  0.007000
 -0.126095
 -0.169518
 -0.021957
 -0.051843
 -0.018638
  0.141769
 -0.112493
 -0.097410
 -0.013425
 -0.133423
 -0.030362
 -0.122655
  0.201144
 -0.234585
 -0.070083
  0.010460
 -0.108883
 -0.095518
 -0.036309
 -0.033382
 -0.028746
  0.053736
  0.010729
  0.040989
 -0.187473
  0.032250
  0.029672
 -0.105276
 -0.116163
 -0.085857
  0.130567
  0.116445
 -0.123650
 -0.067290
  0.143285
  0.185152
  0.021304
 -0.066642
  0.145170
  0.218154
  0.034360
 -0.210218
  0.092702
  0.029892
 -0.153881
  0.273407
 -0.096225
  0.042375
 -0.166482
  0.047886
 -0.026302
 -0.006444
  0.156371
 -0.043590
 -0.024853
  0.118239
  0.085637
  0.016159
 -0.071478
  0.179646
  0.135721
 -0.048724
  0.036992
 -0.083431
 -0.030636
  0.081131
  0.090859
 -0.084512
 -0.011681
 -0.045885
  0.063563
 -0.063258
  0.048124
 -0.010226
 -0.020877
  0.031377
 -0.002148
  0.055878
  0.007259
 -0.096202
  0.016732
  0.058431
  0.060703
 -0.020232
  0.086481
 -0.046502
  0.005710
 -0.185711
 -0.034265
 -0.118079
 -0.084649
  0.007930
 -0.071728
  0.147534
  0.010397
  0.015858
  0.003476
 -0.102323
  0.058937
 -0.063203
  0.139471
  0.011745
  0.074301
  0.120603
  0.058262
 -0.038919
  0.057463
  0.050656
 -0.024034
  0.033086
  0.033732
  0.051068
 -0.086833
  0.082026
  0.060266
  0.076843
  0.048336
  0.007831
 -0.032441
  0.033097
 -0.041014
  0.164485
 -0.086124
  0.058880
  0.109788
 -0.138859
 -0.072422
 -0.069331
 -0.070802
 -0.067119
 -0.096071
 -0.153744
 -0.025423
 -0.100134
  0.177175
 -0.147773
  0.012649
  0.146633
  0.020446
 -0.144482
 -0.055224
  0.013828
 -0.118966
 -0.130579
  0.057415
  0.067161
 -0.024024
  0.004675
  0.063609
  0.075977
  0.064077
 -0.013102
  0.099851
 -0.189231
  0.000073
 -0.169654
  0.008020
 -0.059676
  0.113087
  0.089893
 -0.217606
 -0.128198
 -0.030002
 -0.009509
 -0.056220
  0.195176
 -0.087427
  0.100496
 -0.002932
  0.215488
  0.129763
  0.124383
  0.184023
  0.289158
  0.138066
  0.146821
  0.080170
  0.171685
  0.214216
 -0.075831
 -0.051554
  0.076033
  0.015261
  0.144217
 -0.109898
  0.036196
 -0.052376
 -0.040264
 -0.035182
  0.008036
 -0.031167
 -0.018881
  0.061109
 -0.035232
  0.116479
  0.060403
 -0.004791
  0.161799
  0.071680
 -0.159124
  0.139574
  0.129519
 -0.043290
 -0.163297
 -0.082318
 -0.082953
 -0.073476
 -0.034034
  0.040090
 -0.057438
 -0.029147
 -0.067815
  0.152163
 -0.180211
 -0.009230
 -0.095611
 -0.064591
  0.021731
 -0.078762
  0.044675
 -0.030591
  0.069697
  0.018368
 -0.108549
 -0.099738
 -0.000498
 -0.056679
 -0.046253
  0.020210
 -0.019394
 -0.040258
 -0.007795
 -0.016154
 -0.060052
 -0.033852
 -0.106727
  0.186967
 -0.139773
  0.106014
  0.064889
  0.084295
 -0.043716
  0.028890
 -0.080968
 -0.089542
  0.032850
 -0.096153
 -0.044666
 -0.083782
 -0.101225
  0.011903
 -0.157456
  0.078912
  0.009895
  0.001801
  0.154241
 -0.139973
 -0.164579
  0.028856
 -0.132407
 -0.030167
 -0.019373
 -0.064250
 -0.016313
 -0.019750
 -0.132850
  0.033315
 -0.064056
 -0.008373
 -0.046596
 -0.077138
  0.023960
  0.057550
  0.025248
 -0.002253
 -0.032164
 -0.019078
  0.061321
 -0.148435
 -0.086465
  0.130424
 -0.015687
 -0.193060
 -0.022964
 -0.031684
  0.010752
  0.079078
  0.002024
 -0.045309
  0.068611
 -0.150812
  0.007697
  0.078963
  0.024073
  0.020942
  0.126592
 -0.010762
 -0.092020
 -0.094662
 -0.041524
 -0.067527
  0.025970
  0.061614
 -0.052717
 -0.023801
 -0.113341
  0.130939
 -0.000177
  0.027586
  0.106278
  0.086364
 -0.041301
 -0.009656
 -0.052551
 -0.020572
  0.027172
 -0.176638
 -0.063759
 -0.142727
 -0.181211
  0.061380
  0.053022
  0.083768
 -0.110286
  0.105071
  0.075042
 -0.106701
  0.199172
 -0.181266
 -0.182211
  0.066542
  0.058217
 -0.067405
 -0.006719
 -0.008434
  0.138806
  0.000831
  0.105435
  0.034160
  0.048349
 -0.048481
 -0.000504
  0.090018
 -0.053034
  0.007083
 -0.060656
 -0.001278
  0.008034
  0.087972
 -0.080600
  0.018394
 -0.161011
  0.175635
  0.033371
  0.132591
 -0.078213
  0.043937
 -0.054816
  0.171529
  0.049694
  0.116841
  0.087980
 -0.008594
 -0.020717
 -0.105502
  0.021366
 -0.000627
 -0.062327
  0.053056
 -0.093585
 -0.012769
 -0.149901
 -0.078107
  0.029017
 -0.023889
 -0.138116
 -0.033107
  0.061721
  0.157232
 -0.052976
  0.008085
  0.015527
  0.036340
  0.090476
  0.154825
  0.164542
  0.035065
 -0.090348
 -0.030194
 -0.132065
 -0.150379
 -0.042465
  0.069667
 -0.031989
  0.066939
 -0.126416
  0.021197
  0.056575
 -0.108771
 -0.076302
  0.075746
  0.166920
  0.019009
  0.097228
 -0.107681
  0.179969
 -0.200607
 -0.120890
  0.135031
  0.110918
  0.042679
 -0.066880
  0.059670
  0.060121
  0.071652
  0.108410
 -0.196018
 -0.211442
 -0.025087
  0.136527
  0.013620
  0.127955
  0.067504
  0.035629
  0.096383
 -0.037186
  0.080402
  0.035831
  0.119920
  0.090289
 -0.091068
  0.019813
  0.099709
 -0.071101
  0.012957
 -0.029543
 -0.062719
  0.147192
 -0.013758
  0.152426
  0.000088
 -0.096215
 -0.111099
 -0.035430
 -0.060920
  0.052743
 -0.122192
  0.029198
  0.130731
 -0.094362
  0.056888
 -0.020611
 -0.023686
 -0.112996
 -0.048410
  0.050881
 -0.023185
 -0.016603
 -0.025001
 -0.081239
 -0.015492
 -0.002761
  0.028330
 -0.034102
  0.020208
 -0.018361
 -0.028245
 -0.020279
 -0.088841
  0.131836
 -0.061442
  0.183589
  0.108541
 -0.055155
 -0.090240
 -0.011558
  0.153429
 -0.045117
  0.092939
 -0.044546
  0.074899
  0.081958
 -0.070096
 -0.039907
 -0.024343
 -0.077383
 -0.003664
  0.025255
  0.023336
  0.095456
  0.041241
 -0.043619
 -0.080590
 -0.037437
  0.030940
  0.062419
  0.010368
  0.028885
 -0.006837
  0.104815
  0.062469
 -0.025116
 -0.157823
 -0.079261
 -0.091581
  0.042914
 -0.061434
  0.031529
  0.077144
  0.179834
 -0.103403
 -0.133425
 -0.039775
  0.029227
 -0.002305
  0.107445
 -0.093092
  0.063148
  0.035184
 -0.175852
 -0.040397
  0.070643
 -0.258160
  0.110809
  0.062327
 -0.013757
  0.095347
 -0.099697
  0.157239
 -0.048109
 -0.028403
 -0.060382
 -0.091629
  0.137418
  0.007221
 -0.070673
  0.084115
  0.098784
 -0.051154
  0.054301
 -0.062994
  0.124418
  0.037112
  0.161059
 -0.080325
  0.141022
 -0.099265
 -0.000784
  0.013548
  0.020808
 -0.046345
 -0.191834
  0.087722
 -0.003699
  0.018377
 -0.003670
  0.031379
  0.001077
  0.187349
  0.000880
 -0.054614
  0.009433
  0.000922
  0.031990
 -0.052302
  0.117612
 -0.029943
  0.066755
 -0.071041
 -0.034485
 -0.049642
 -0.000586
  0.046771
 -0.011884
 -0.044397
  0.235767
  0.136105
  0.105504
 -0.138608
 -0.094575
  0.035391
  0.008884
  0.012821
  0.048254
 -0.187521
  0.029879
 -0.056124
 -0.202459
 -0.234670
  0.045741
  0.054332
  0.044288
 -0.083554
  0.077441
  0.057710
  0.224656
 -0.087448
 -0.029491
 -0.090086
  0.169254
 -0.213164
  0.113389
 -0.177397
  0.066070
  0.104442
  0.138206
  0.160779
 -0.098838
  0.084248
 -0.001564
 -0.061909
 -0.016478
  0.007603
  0.027905
 -0.064775
  0.013737
 -0.101834
  0.133722
  0.186201
 -0.098487
  0.016901
  0.035315
 -0.001436
 -0.096195
 -0.145977
  0.070668
  0.070605
  0.108029
 -0.091095
 -0.031802
  0.023257
  0.075628
 -0.007062
  0.065940
 -0.019533
  0.220143
  0.053695
 -0.083676
  0.141395
  0.031789
 -0.095985
  0.065238
 -0.042495
  0.019612
 -0.048516
 -0.023408
 -0.016007
  0.050244
  0.101307
 -0.239106
 -0.317640
 -0.018242
  0.064703
  0.022382
 -0.009486
  0.037636
 -0.105841
  0.085815
  0.005088
  0.003415
 -0.089603
  0.045382
 -0.117356
 -0.024335
  0.050639
 -0.144862
  0.102043
  0.212522
  0.044072
 -0.023613
 -0.065645
  0.004611
 -0.106390
 -0.007078
 -0.010192
 -0.020711
 -0.048924
  0.094611
 -0.017165
 -0.025489
  0.021996
 -0.036714
 -0.102982
 -0.030387
 -0.040527
 -0.226727
  0.039976
  0.022838
  0.017178
  0.112823
 -0.150183
 -0.094437
 -0.109427
  0.076069
  0.098042
 -0.037891
  0.085932
 -0.154548
 -0.063452
  0.204676
 -0.097123
 -0.140356
 -0.056891
 -0.030034
  0.034575
  0.051931
 -0.042893
 -0.059702
  0.154098
 -0.058194
 -0.096531
  0.070023
 -0.082282
 -0.061862
 -0.049853
  0.029054
 -0.187562
  0.035601
  0.013605
  0.064516
 -0.159208
  0.041965
  0.194961
 -0.006772
 -0.107391
  0.050935
  0.041739
  0.037831
 -0.008496
 -0.110475
 -0.029186
 -0.179174
  0.033642
  0.017029
 -0.158549
 -0.011517
  0.047167
 -0.037536
 -0.125680
  0.097622
  0.054756
 -0.002161
  0.056963
 -0.080640
 -0.007342
 -0.005190
  0.053485
 -0.179404
 -0.044974
 -0.020455
 -0.026398
 -0.031113
  0.082422
  0.091160
 -0.069306
  0.032082
  0.029032
 -0.176263
  0.037760
  0.184407
  0.168107
  0.006104
  0.062129
  0.084659
 -0.085425
  0.113054
  0.007982
  0.024187
  0.047038
  0.020608
  0.057052
  0.047157
  0.011321
 -0.044034
 -0.129675
  0.098516
 -0.039381
 -0.071558
  0.103864
 -0.170913
 -0.032016
  0.106013
 -0.105674
 -0.054115
 -0.039711
  0.059904
  0.060428
  0.026593
 -0.096911
  0.091383
 -0.045594
  0.054978
  0.017035
  0.029150
 -0.049747
 -0.031746
 -0.049805
  0.183530
  0.038259
  0.112611
 -0.014821
 -0.007850
 -0.129064
 -0.038684
  0.105801
 -0.030754
 -0.077493
 -0.058852
 -0.003940
  0.095845
 -0.053036
 -0.064862
  0.144430
 -0.009601
  0.063577
 -0.072911
  0.154668
 -0.051993
 -0.089657
  0.027565
  0.058741
 -0.111557
  0.121306
  0.036434
  0.179801
  0.031501
  0.139273
  0.137284
 -0.077769
  0.024728
  0.010906
  0.050687
  0.007581
 -0.036789
  0.046585
 -0.089437
  0.085119
  0.114352
 -0.049323
 -0.016220
 -0.013341
 -0.143129
 -0.075876
 -0.081980
 -0.107722
  0.026260
 -0.020627
 -0.007108
 -0.070498
 -0.023687
  0.061562
  0.115292
 -0.005597
  0.068742
 -0.041929
  0.107667
  0.047391
  0.029098
  0.140354
 -0.131565
  0.172189
 -0.044911
  0.037244
 -0.001880
  0.097637
  0.079873
  0.007631
 -0.024920
  0.000031
  0.037095
  0.017706
 -0.055038
 -0.032086
 -0.088131
  0.022206
 -0.013296
  0.109710
 -0.051068
 -0.143440
 -0.017389
 -0.035081
 -0.026698
 -0.053620
 -0.032834
 -0.175706
 -0.027265
 -0.030606
  0.140627
  0.019579
  0.018687
  0.116130
 -0.155816
 -0.030494
  0.038261
  0.046751
  0.004121
 -0.001793
  0.125353
 -0.036174
  0.083315
 -0.048133
  0.042472
 -0.064759
 -0.077649
  0.016720
 -0.012542
  0.063056
  0.221010
 -0.010211
  0.022282
  0.157633
 -0.045612
  0.049789
  0.060132
  0.081452
 -0.152651
 -0.053956
 -0.074595
 -0.114254
  0.113780
 -0.031005
 -0.122174
 -0.024548
  0.136611
 -0.113283
 -0.089725
 -0.064656
 -0.136234
  0.121266
 -0.072842
  0.052016
  0.020545
  0.003008
 -0.156084
  0.055253
  0.066598
 -0.016768
 -0.068688
 -0.009603
  0.095535
 -0.012708
  0.009241
  0.008133
 -0.109301
  0.226350
 -0.021482
  0.171199
  0.219794
 -0.067814
  0.005541
  0.102675
 -0.040000
 -0.031852
 -0.050846
  0.094318
 -0.062973
 -0.159102
 -0.033386
  0.123764
  0.012569
 -0.084302
 -0.038422
  0.063474
 -0.151838
 -0.020300
 -0.044406
 -0.203854
  0.081168
 -0.072844
 -0.041720
 -0.005406
 -0.017662
  0.099345
  0.083553
 -0.071231
 -0.023579
 -0.142884
  0.148277
 -0.295386
 -0.049576
 -0.072116
 -0.121623
 -0.096505
 -0.008074
 -0.114443
 -0.003803
  0.101664
  0.165434
 -0.031168
 -0.091915
  0.022822
  0.052764
 -0.183027
  0.015870
 -0.051653
  0.046252
 -0.030415
 -0.024860
  0.041115
 -0.019894
  0.003761
 -0.288692
 -0.014458
 -0.028828
  0.017421
  0.023075
  0.069705
 -0.041369
  0.005068
  0.042784
 -0.115382
  0.024856
  0.078043
  0.165007
 -0.136093
 -0.130689
  0.008791
 -0.004019
 -0.081693
  0.021514
 -0.028858
  0.068313
  0.072870
 -0.128459
  0.185209
  0.111245
  0.025392
 -0.029682
 -0.051540
  0.065129
  0.066521
 -0.040277
  0.127394
 -0.046289
  0.127041
  0.035084
  0.044110
 -0.012757
  0.027469
 -0.095874
 -0.069372
  0.111694
  0.069495
  0.072794
  0.150145
 -0.005978
 -0.014990
  0.154316
  0.098098
 -0.049179
  0.085366
  0.023281
  0.107126
 -0.017067
 -0.152167
 -0.025565
  0.095955
  0.093333
  0.025667
  0.059595
 -0.119159
  0.004252
 -0.054848
 -0.001031
 -0.135776
  0.007665
 -0.166135
 -0.001875
 -0.051051
  0.032169
  0.017247
 -0.032057
 -0.020171
 -0.029267
  0.164953
  0.044213
  0.016775
  0.084781
 -0.046042
  0.091091
  0.021206
 -0.051834
  0.103183
 -0.053281
  0.183861
 -0.022929
  0.019310
 -0.028859
 -0.074657
  0.002150
  0.003727
 -0.050683
  0.023658
 -0.062901
  0.049716
 -0.130670
  0.144173
 -0.144928
 -0.087649
 -0.000020
  0.020086
 -0.106019
 -0.129741
  0.061200
  0.075945
  0.043165
  0.046441
 -0.106865
 -0.062469
  0.061187
  0.039106
  0.197519
  0.104204
 -0.004925
  0.239133
 -0.135686
  0.044802
  0.155461
  0.035369
 -0.072836
  0.027362
  0.060562
  0.110733
  0.149300
 -0.057784
  0.091049
  0.028597
  0.035973
 -0.053226
  0.073871
 -0.033483
 -0.122287
  0.027214
 -0.059331
 -0.126449
 -0.089137
 -0.197860
 -0.070860
 -0.134577
  0.073292
  0.031800
 -0.050747
 -0.071796
  0.064059
 -0.002189
 -0.118086
 -0.075624
 -0.057368
 -0.017980
  0.070831
  0.164417
  0.064350
 -0.028459
  0.016394
 -0.116603
 -0.114464
  0.110859
 -0.004217
  0.015286
  0.063880
 -0.015556
  0.091885
 -0.005386
 -0.038771
 -0.050346
 -0.010427
 -0.193554
  0.067108
  0.047483
 -0.066839
 -0.119324
 -0.000865
  0.026714
 -0.109734
  0.064550
  0.094801
 -0.081120
  0.030346
  0.052258
 -0.012987
  0.120407
 -0.058124
 -0.029974
  0.026321
 -0.002853
  0.043653
  0.229884
  0.029245
  0.148892
  0.057193
 -0.054517
 -0.041997
  0.154071
 -0.061270
 -0.009566
  0.136198
 -0.105270
  0.101578
  0.127580
 -0.087087
 -0.046906
 -0.094063
  0.104717
 -0.046955
 -0.079459
  0.133577
 -0.028306
  0.210850
  0.016162
 -0.129441
 -0.071018
 -0.038596
  0.032090
 -0.023117
  0.030030
  0.069161
 -0.078637
 -0.207571
 -0.069805
  0.079962
 -0.036588
 -0.059144
  0.136105
  0.201099
  0.039503
 -0.227154
  0.008669
 -0.209765
  0.142202
  0.116138
 -0.009532
  0.001951
  0.116338
 -0.060468
 -0.006247
 -0.022852
  0.096713
  0.076083
 -0.062983
  0.015314
  0.021405
  0.060060
  0.109331
 -0.159997
 -0.036219
 -0.004851
 -0.039181
 -0.010987
  0.108934
  0.008119
  0.181306
  0.206054
 -0.110256
  0.097103
  0.089944
 -0.012288
 -0.109252
  0.038017
  0.028326
 -0.006121
  0.040658
 -0.110140
  0.061894
 -0.186416
 -0.126275
 -0.110700
 -0.113822
 -0.088602
 -0.006282
 -0.047780
  0.112462
 -0.096260
 -0.009245
  0.008965
 -0.080763
  0.091883
  0.065130
  0.014802
 -0.115935
 -0.197222
  0.063805
  0.060721
  0.024336
 -0.070213
  0.184170
  0.202503
 -0.072550
 -0.038208
 -0.315900
  0.036137
  0.063786
 -0.038419
  0.067589
  0.080217
 -0.065975
 -0.002919
  0.081547
  0.102801
  0.066463
  0.059819
 -0.194266
  0.022167
 -0.003853
 -0.038731
  0.057601
  0.024699
  0.062889
 -0.010122
 -0.004780
  0.140838
 -0.083800
 -0.022344
 -0.029532
 -0.040282
  0.030154
 -0.051140
 -0.050279
 -0.012141
 -0.000071
  0.155265
 -0.006807
 -0.037731
 -0.078647
  0.069600
  0.028840
  0.002137
  0.044179
 -0.070124
 -0.001209
  0.028227
  0.079205
 -0.080546
  0.090891
 -0.012846
 -0.071002
  0.074782
 -0.037926
  0.000142
 -0.071645
 -0.050933
  0.077441
 -0.103509
 -0.016420
 -0.177409
 -0.133977
  0.054187
 -0.010683
  0.035311
  0.034125
 -0.080010
 -0.134858
 -0.093422
  0.140798
 -0.068854
  0.166052
 -0.014156
 -0.045263
  0.020718
  0.022529
 -0.051534
  0.054141
 -0.042918
  0.108594
  0.065224
 -0.090162
  0.016694
  0.032078
 -0.027861
  0.093098
 -0.138746
 -0.031351
  0.224755
 -0.131315
  0.061976
  0.086104
  0.112704
 -0.061597
 -0.040790
 -0.056572
 -0.034261
  0.067336
 -0.068857
 -0.034525
 -0.065651
  0.063059
 -0.054438
 -0.030679
 -0.053066
  0.075447
 -0.120870
 -0.190286
 -0.132066
  0.287932
 -0.084701
 -0.080235
  0.043955
  0.111213
 -0.001300
 -0.069605
 -0.145450
 -0.035021
  0.004698
  0.058872
  0.176898
 -0.025175
 -0.189464
  0.034379
 -0.015267
 -0.088799
  0.139512
 -0.079181
  0.024942
 -0.012114
  0.152003
 -0.099093
  0.202052
  0.015330
 -0.068562
 -0.010907
 -0.038769
 -0.147268
  0.138316
  0.064307
 -0.057759
 -0.009188
  0.148679
 -0.066791
 -0.043198
 -0.183113
 -0.256565
 -0.004161
  0.082666
 -0.065841
  0.064771
  0.091618
  0.035811
 -0.016602
 -0.089848
  0.026928
 -0.024335
  0.056081
 -0.027805
 -0.085266
 -0.120040
  0.116017
 -0.153614
  0.056893
  0.003563
  0.182738
 -0.064119
  0.007542
 -0.202474
  0.059007
  0.258215
  0.040348
 -0.008294
  0.136919
 -0.000968
  0.072279
 -0.059353
  0.020234
 -0.059812
 -0.076426
  0.002025
  0.073948
 -0.068334
 -0.177046
 -0.060499
  0.028903
 -0.014358
  0.184907
 -0.037958
  0.066013
 -0.150206
  0.066626
 -0.048287
  0.058308
  0.204140
  0.147217
 -0.081796
  0.075080
  0.105780
 -0.047735
  0.164930
  0.195685
  0.020110
 -0.056103
 -0.055658
  0.066355
  0.029508
 -0.069249
 -0.061374
 -0.108878
  0.054893
 -0.156577
 -0.104979
  0.007114
  0.097792
 -0.131331
 -0.056603
 -0.091987
 -0.109346
  0.049269
  0.159838
  0.133362
  0.199517
 -0.086323
 -0.032944
  0.058246
 -0.073895
  0.143717
 -0.113119
  0.073587
  0.020951
 -0.013120
 -0.195309
  0.012361
  0.084262
  0.005881
  0.020955
  0.003081
 -0.024367
  0.057789
 -0.066588
 -0.013883
 -0.134678
 -0.065857
 -0.033463
 -0.152566
  0.129494
 -0.110701
  0.087303
  0.134486
  0.049960
  0.000566
  0.126785
  0.081803
 -0.021703
  0.093764
  0.155567
  0.127488
  0.022313
 -0.144374
 -0.011038
  0.013848
  0.082543
 -0.157044
 -0.007704
  0.030670
  0.017005
  0.014130
 -0.116481
 -0.147791
 -0.102799
 -0.000537
  0.019020
 -0.053769
 -0.053779
 -0.053097
  0.086869
  0.016879
  0.125680
 -0.029234
 -0.092482
  0.065735
  0.088437
 -0.048079
 -0.133587
 -0.048354
  0.019337
 -0.008198
  0.260558
  0.009797
  0.245306
  0.060693
  0.042267
  0.006831
 -0.075147
 -0.091670
 -0.032514
 -0.039555
  0.083452
  0.086251
 -0.031290
  0.070382
 -0.060005
 -0.166904
  0.008995
 -0.120557
  0.096683
 -0.030404
  0.066948
 -0.034752
  0.127517
 -0.019772
 -0.005952
 -0.114357
 -0.245927
  0.085853
 -0.078789
  0.014478
  0.052057
  0.020502
 -0.234852
  0.050126
  0.029537
 -0.122600
 -0.074298
 -0.010599
 -0.115002
 -0.038343
  0.082059
 -0.152552
  0.071010
 -0.117310
 -0.049726
 -0.063485
 -0.013462
  0.019553
  0.003999
  0.061017
  0.051422
  0.085497
  0.054039
  0.081972
  0.047391
 -0.105672
 -0.044966
 -0.173351
 -0.074423
 -0.145733
 -0.006944
  0.004629
  0.073064
  0.001318
  0.209182
  0.075846
 -0.104460
  0.121779
  0.109400
  0.069167
  0.019769
 -0.062886
 -0.055165
  0.047590
 -0.029358
  0.004760
  0.045493
  0.146323
 -0.027917
  0.137850
 -0.108959
 -0.012358
 -0.045898
  0.224892
  0.008904
  0.021264
 -0.028659
 -0.057025
  0.173734
 -0.147363
  0.241727
  0.019425
  0.002390
  0.118124
  0.196222
  0.074823
  0.021355
  0.126262
 -0.083000
  0.064205
 -0.192719
 -0.062433
 -0.213240
 -0.034915
 -0.053697
  0.023305
  0.113747
  0.124204
  0.070213
 -0.067644
 -0.073167
 -0.095382
 -0.042683
 -0.053040
 -0.005548
  0.156652
 -0.014813
 -0.118514
  0.057216
 -0.049860
 -0.099897
  0.009219
 -0.051734
  0.005633
 -0.025951
  0.041098
 -0.025883
 -0.036058
 -0.211006
 -0.112159
  0.085238
 -0.062478
  0.014497
 -0.110646
 -0.033042
  0.018070
  0.029158
  0.029472
  0.097125
 -0.091866
 -0.018382
  0.105119
  0.073681
 -0.056076
  0.018958
 -0.030783
  0.148067
 -0.155774
 -0.082929
 -0.072054
  0.032277
  0.031524
  0.054464
 -0.027028
 -0.124625
 -0.045504
  0.043212
  0.034347
 -0.029808
 -0.004586
  0.086301
  0.123565
  0.026776
  0.016285
 -0.120898
  0.144962
 -0.142145
  0.055181
  0.070034
  0.144811
  0.028788
 -0.053934
 -0.006468
 -0.026410
  0.106588
  0.023310
 -0.028447
  0.057163
 -0.036835
 -0.009145
 -0.028757
  0.167295
  0.015439
  0.011125
 -0.115407
  0.009954
 -0.186517
 -0.132353
  0.149941
 -0.043331
 -0.062317
  0.028091
  0.070889
  0.137104
 -0.070837
 -0.074066
 -0.113952
  0.062140
 -0.053732
  0.088554
  0.210286
  0.010885
  0.057937
  0.008899
  0.157212
 -0.060406
  0.066879
 -0.079055
 -0.041200
  0.032116
 -0.281014
 -0.081509
  0.137727
  0.008285
 -0.152843
  0.128405
  0.040427
  0.045150
  0.168125
 -0.004740
 -0.234641
 -0.053966
 -0.155966
  0.045889
 -0.117843
 -0.289774
  0.034552
  0.027970
  0.137175
  0.111867
  0.147975
  0.096935
  0.026267
  0.042965
 -0.000404
 -0.002192
  0.163151
 -0.025339
 -0.096413
 -0.017843
 -0.081152
  0.036049
 -0.041044
 -0.112346
 -0.195548
 -0.006863
  0.053705
  0.000410
 -0.080466
 -0.119343
 -0.014504
 -0.092368
 -0.055936
  0.165673
 -0.126989
  0.128283
 -0.043059
 -0.083566
  0.168551
  0.067161
  0.026461
  0.043778
  0.140951
  0.085640
 -0.152502
 -0.047998
  0.056002
  0.021624
  0.028641
 -0.087302
 -0.059588
 -0.052263
  0.075430
  0.085022
 -0.200733
 -0.105546
  0.044294
  0.190844
  0.032437
  0.053760
  0.066052
 -0.085756
  0.126335
  0.007551
 -0.088804
  0.037389
  0.066179
 -0.000748
 -0.097299
  0.029667
 -0.045183
 -0.188896
 -0.000307
 -0.140540
  0.151304
 -0.056187
 -0.167037
  0.023088
  0.138518
  0.013164
 -0.019230
  0.051531
  0.168966
  0.075386
  0.031109
  0.005176
 -0.049342
 -0.051092
 -0.100148
  0.038450
 -0.019279
  0.107213
 -0.128271
  0.012129
  0.060931
  0.089182
 -0.004319
 -0.006746
 -0.015951
  0.041197
 -0.095448
  0.161921
  0.101458
 -0.031661
  0.085546
  0.129921
  0.082852
  0.023781
 -0.060325
  0.091388
  0.117968
 -0.097893
 -0.006234
  0.047477
  0.073371
  0.052921
  0.044903
 -0.096097
 -0.023518
  0.015803
 -0.176542
  0.187728
  0.045477
  0.089027
  0.150900
 -0.166191
 -0.061190
  0.043352
  0.013373
  0.051573
 -0.049355
  0.113853
  0.012488
  0.081086
 -0.027195
  0.041250
 -0.049707
 -0.068464
  0.034296
 -0.172764
  0.131684
 -0.013760
  0.041468
 -0.066564
  0.097534
  0.169694
  0.016940
  0.005951
  0.100340
  0.024344
  0.076031
  0.028922
  0.030470
 -0.011718
 -0.004201
 -0.041754
  0.041335
  0.062060
  0.042217
 -0.082357
 -0.025996
  0.040535
  0.040164
 -0.023368
 -0.099093
  0.036400
  0.046030
  0.013888
 -0.042412
 -0.076498
  0.047601
 -0.045629
  0.008850
 -0.109686
 -0.100630
  0.048409
  0.124799
 -0.020869
 -0.013420
 -0.141880
  0.017565
 -0.116232
  0.001355
 -0.140538
  0.003175
 -0.073802
  0.050936
  0.001019
  0.204536
  0.004219
  0.050209
  0.208491
  0.076890
  0.139611
 -0.050734
 -0.000824
 -0.208135
  0.041658
 -0.026908
 -0.018191
  0.043785
  0.000068
 -0.077882
  0.101404
  0.095327
  0.146183
  0.071532
 -0.166562
  0.099407
 -0.024598
 -0.146538
  0.024600
 -0.111299
 -0.015749
 -0.038029
 -0.112203
  0.081109
  0.019326
  0.094251
  0.077723
  0.073397
  0.035341
 -0.075145
 -0.186631
  0.248621
  0.078059
  0.087899
  0.010939
 -0.060662
  0.159433
 -0.096378
 -0.129956
  0.147294
  0.078861
  0.018710
 -0.019362
  0.127908
 -0.093914
 -0.118771
 -0.052255
  0.078414
  0.129064
  0.022427
 -0.039593
 -0.009597
 -0.175142
  0.053884
 -0.006735
  0.030472
 -0.007379
  0.112852
 -0.018881
  0.100326
 -0.150323
 -0.099278
  0.048659
  0.152923
  0.115689
 -0.133950
  0.089821
  0.003383
  0.027445
  0.065969
  0.115603
 -0.030440
 -0.074028
 -0.023398
 -0.127111
 -0.013859
 -0.103666
 -0.153215
  0.127898
 -0.063057
  0.044878
  0.079915
  0.192092
  0.024889
 -0.031407
 -0.012830
  0.085577
 -0.070965
 -0.033693
 -0.058927
  0.104719
  0.063447
  0.123618
  0.170325
  0.090281
 -0.197867
  0.205735
 -0.119867
  0.181523
 -0.115141
  0.071174
  0.024743
  0.048361
  0.104077
 -0.020960
 -0.055774
 -0.025340
  0.072750
 -0.162950
  0.178465
  0.165266
  0.052015
 -0.362793
 -0.096346
 -0.018633
 -0.043967
 -0.058425
  0.043767
  0.082995
 -0.086985
 -0.052511
  0.064456
 -0.155306
 -0.001826
 -0.105167
  0.197474
 -0.010089
 -0.090244
 -0.119901
  0.054444
  0.076159
  0.130784
 -0.000329
  0.185193
 -0.001912
 -0.029671
 -0.041516
  0.135932
 -0.087094
  0.063408
 -0.005025
  0.004964
  0.053610
  0.023217
  0.141787
 -0.119895
  0.082181
  0.132297
  0.095046
  0.099738
 -0.000961
  0.078357
 -0.000722
 -0.055336
  0.095691
 -0.156319
  0.033347
 -0.034788
 -0.008561
  0.001948
  0.034575
 -0.173161
  0.073314
  0.061716
 -0.031862
 -0.053230
  0.058717
  0.045671
 -0.050277
 -0.091299
  0.156927
 -0.014982
  0.057938
  0.006142
  0.009999
 -0.237099
 -0.028360
 -0.008510
 -0.053064
  0.157315
  0.024917
  0.043973
 -0.092621
  0.209482
  0.025638
  0.118524
  0.033925
  0.048559
  0.033890
  0.167423
 -0.085604
  0.108956
  0.014655
  0.226766
 -0.027980
  0.010905
  0.146431
 -0.045376
****
