PROJECT: W75X_2014Jan04
NCH:     4096
BW:   2.50000e+07
VELOCITY:       0.00000
PV:      0.480000
FREQ:    2.2235080e+09
DATE:     2014       1       4
TIME:       17      33      59
POSITION:       309.654      42.6272
INTEGRATION TIMES:       30.0000      30.0000
MAX VALUE:      0.026185708
 -0.063827
 -0.378741
 -0.175851
 -0.074762
 -0.004965
  0.068989
 -0.256680
 -0.017884
  0.130683
  0.140255
 -0.060879
 -0.295303
 -0.029521
 -0.060392
 -0.052008
 -0.145982
 -0.045868
 -0.102523
  0.011500
  0.122733
  0.044343
 -0.040526
  0.143946
 -0.009876
  0.019047
 -0.049461
  0.029039
  0.084900
  0.098559
 -0.020377
 -0.136106
  0.078736
 -0.150549
 -0.111582
  0.057928
  0.145124
 -0.029036
 -0.052595
  0.045415
 -0.007004
 -0.103471
 -0.140151
 -0.008647
  0.015816
  0.341102
  0.018934
  0.109226
 -0.159382
 -0.002293
  0.001585
 -0.041827
  0.136500
  0.103690
 -0.003100
 -0.012965
 -0.030027
  0.051207
 -0.062289
 -0.097394
 -0.101205
  0.118695
  0.008117
 -0.019970
 -0.028432
 -0.016602
  0.080492
  0.076288
 -0.054831
  0.011421
  0.001768
 -0.024041
  0.067341
  0.013203
 -0.027667
  0.058114
  0.108564
 -0.052785
  0.187591
 -0.215880
 -0.208434
  0.015795
 -0.079404
 -0.045114
  0.151197
  0.022187
 -0.125085
  0.128091
  0.092374
  0.099924
 -0.120344
  0.099627
 -0.056715
  0.220557
 -0.239198
 -0.060734
  0.192007
 -0.079041
 -0.096470
  0.212414
 -0.002256
  0.094904
 -0.107937
  0.145933
 -0.000750
  0.098147
  0.039545
 -0.028347
  0.009627
 -0.161966
  0.039276
 -0.053251
  0.031090
 -0.092005
 -0.201590
 -0.101848
 -0.078586
 -0.171737
 -0.018816
 -0.010891
  0.060705
 -0.030433
 -0.089390
 -0.089508
  0.179630
 -0.025328
 -0.041055
  0.082327
  0.141041
 -0.006344
  0.048969
  0.062384
 -0.125420
 -0.040042
 -0.132200
  0.254095
  0.012207
  0.322011
 -0.028173
 -0.223905
  0.021364
  0.185018
  0.113544
 -0.020519
 -0.118698
  0.040489
  0.004930
  0.081981
 -0.162967
  0.053247
 -0.056000
  0.129910
  0.067257
  0.211894
 -0.095954
 -0.166303
  0.121754
 -0.118925
 -0.131767
 -0.101012
 -0.105573
 -0.006501
  0.072871
 -0.164883
  0.000533
 -0.000864
  0.032681
 -0.064187
  0.095112
  0.033022
  0.034829
 -0.083386
  0.105901
  0.003122
  0.114350
 -0.021995
  0.047023
  0.032647
  0.098907
 -0.025036
 -0.104061
 -0.017183
  0.178125
 -0.069026
  0.142711
  0.049633
 -0.014286
 -0.037457
 -0.065100
  0.141361
  0.069427
  0.053273
  0.092901
  0.036137
 -0.029501
  0.068561
 -0.040654
  0.002898
 -0.052991
 -0.098854
  0.107162
  0.089906
  0.045047
 -0.278456
  0.155521
  0.073163
  0.089956
  0.150667
 -0.086011
 -0.101031
  0.049550
  0.116721
  0.150157
  0.126332
 -0.128463
  0.108120
 -0.125471
 -0.023933
  0.281680
  0.022781
 -0.165901
  0.204493
 -0.072324
 -0.131992
 -0.184802
 -0.079348
  0.096227
 -0.072981
  0.144087
  0.101324
  0.074054
  0.030225
 -0.047888
  0.189967
 -0.224081
  0.059460
 -0.200040
  0.037533
  0.193745
  0.205691
 -0.025562
  0.025233
 -0.056325
 -0.090304
 -0.280145
 -0.086913
  0.083521
  0.133447
  0.061554
  0.083561
  0.042784
 -0.054411
  0.011172
  0.199187
  0.016684
 -0.054550
  0.007907
  0.035248
  0.055961
 -0.094090
 -0.013184
  0.009028
 -0.240337
  0.051003
 -0.118968
  0.028678
  0.125151
 -0.177585
  0.096949
 -0.063612
 -0.084834
 -0.017591
 -0.131984
 -0.030846
  0.210048
  0.061414
  0.101489
 -0.113212
  0.034970
 -0.130751
 -0.185329
  0.051043
  0.160939
 -0.022455
  0.027313
 -0.099939
 -0.125859
 -0.014541
 -0.112254
  0.026538
 -0.106015
 -0.007467
  0.078696
 -0.055872
  0.075928
  0.075270
 -0.041284
  0.085129
 -0.072496
  0.004877
 -0.031087
  0.040259
 -0.049228
 -0.216481
  0.030521
  0.014433
  0.098383
 -0.046645
 -0.198093
 -0.179403
 -0.036191
  0.113230
  0.233695
  0.005117
 -0.030802
 -0.211500
  0.047799
  0.117964
 -0.028943
 -0.071403
  0.148655
 -0.111768
 -0.178999
 -0.081739
  0.107226
 -0.022745
 -0.115927
 -0.138476
  0.181316
  0.088942
 -0.024190
  0.136040
  0.057049
 -0.196043
 -0.180765
  0.107103
 -0.147615
 -0.079707
  0.264222
  0.059624
 -0.079946
  0.179889
 -0.189229
  0.153339
  0.019964
 -0.069193
  0.106871
 -0.269759
 -0.040902
 -0.023857
  0.118508
 -0.059036
  0.089203
  0.030872
  0.043619
  0.100336
 -0.029864
 -0.071918
  0.005895
  0.100441
  0.032301
  0.076945
  0.001185
 -0.093245
  0.180357
 -0.093252
  0.050388
 -0.019024
 -0.004190
 -0.022763
 -0.136220
 -0.050008
  0.030633
 -0.221736
 -0.075964
  0.068276
 -0.067527
 -0.097064
 -0.163069
  0.066547
  0.042592
  0.043025
 -0.045066
  0.052778
 -0.024485
  0.055987
  0.102486
  0.034554
 -0.125134
  0.017908
 -0.194370
  0.158025
 -0.116872
 -0.006480
 -0.039568
 -0.037169
 -0.129368
 -0.115787
  0.043677
  0.037088
 -0.031423
 -0.003301
 -0.039183
  0.088441
  0.180803
  0.145542
 -0.100849
 -0.046943
 -0.053965
 -0.016818
  0.083179
  0.029628
  0.126442
  0.005148
 -0.184118
  0.017484
  0.120268
  0.080044
  0.099281
  0.080855
 -0.132046
  0.088348
  0.060806
  0.112299
 -0.012359
  0.085882
  0.147958
 -0.046433
  0.020902
 -0.175515
  0.122520
  0.056944
 -0.150184
 -0.172179
  0.006016
  0.059102
  0.138099
 -0.215826
 -0.037777
 -0.161676
 -0.086563
 -0.036257
 -0.016543
  0.098738
 -0.137777
  0.093193
 -0.026579
 -0.007660
 -0.027288
  0.032308
  0.190943
 -0.071784
  0.018966
  0.122688
 -0.161677
  0.020845
  0.056980
 -0.101929
  0.053005
  0.087243
  0.159697
 -0.039420
 -0.077388
 -0.027039
 -0.070990
  0.108600
  0.066011
  0.054439
  0.100217
  0.021982
 -0.019450
 -0.093042
  0.093965
  0.121423
 -0.067622
 -0.030563
 -0.156886
 -0.059370
 -0.052285
 -0.099232
 -0.014156
 -0.010890
 -0.052812
  0.003262
 -0.137110
 -0.031225
  0.114383
 -0.104085
  0.075077
  0.154472
  0.003202
  0.205402
  0.010552
  0.019970
 -0.285559
  0.012794
 -0.133626
 -0.152746
  0.064202
 -0.056247
 -0.059664
 -0.072143
 -0.064223
 -0.012985
 -0.060319
 -0.043521
  0.047190
  0.156609
 -0.026083
 -0.097343
  0.076040
 -0.034233
  0.068574
  0.065974
 -0.032070
 -0.086764
 -0.101794
 -0.021618
 -0.037315
 -0.062391
  0.135568
 -0.133064
  0.113407
  0.087511
  0.124956
  0.050075
 -0.039712
 -0.009129
 -0.079251
 -0.070724
 -0.006056
 -0.005754
  0.022063
 -0.021862
 -0.122720
 -0.049722
 -0.087189
 -0.030781
  0.029386
 -0.210123
 -0.069257
  0.015380
  0.065900
  0.066695
  0.192900
  0.068264
  0.010824
 -0.053176
  0.004245
  0.000172
 -0.107984
  0.044213
  0.021189
 -0.265663
  0.101234
  0.160396
  0.103425
 -0.046096
 -0.073350
  0.107209
  0.052864
  0.154848
  0.015005
 -0.030130
  0.072774
 -0.221565
 -0.085354
  0.164137
  0.028398
 -0.135229
 -0.045760
 -0.126095
 -0.129084
 -0.071387
  0.164106
  0.018240
 -0.135733
  0.062988
 -0.134452
 -0.046954
 -0.022051
 -0.046473
  0.036583
 -0.152206
 -0.137541
  0.088351
 -0.054122
  0.153940
  0.044409
  0.031170
  0.093266
  0.237138
 -0.012059
  0.067471
 -0.206690
 -0.027663
  0.059337
 -0.176926
 -0.200405
 -0.004478
 -0.081753
  0.067685
  0.019794
 -0.191934
 -0.072208
 -0.085676
  0.037125
 -0.059210
 -0.015787
 -0.297186
  0.197336
  0.123709
 -0.034419
  0.022150
 -0.037135
 -0.058923
 -0.009867
 -0.095077
  0.143106
  0.072312
  0.141082
 -0.115939
  0.101409
  0.072490
  0.224084
  0.036519
 -0.103135
 -0.123483
  0.125342
  0.084428
  0.096707
 -0.061113
  0.037950
 -0.029179
 -0.023659
  0.088253
 -0.126130
 -0.037759
 -0.018624
 -0.007816
 -0.000014
  0.130376
 -0.020989
 -0.128641
  0.001179
  0.123139
  0.051813
  0.023156
 -0.009276
 -0.069014
 -0.066599
 -0.196792
  0.179240
 -0.045890
  0.005510
  0.004318
 -0.132425
  0.027060
  0.200299
 -0.202305
  0.100453
  0.005524
 -0.063408
  0.022658
  0.090169
 -0.037952
  0.055619
 -0.202418
 -0.036928
  0.069968
 -0.057539
  0.090706
 -0.132893
  0.102829
  0.119576
  0.045710
  0.298332
  0.049899
  0.093741
 -0.030954
 -0.194570
  0.022088
 -0.168387
 -0.100031
  0.023023
 -0.031759
 -0.025078
 -0.001240
  0.030219
  0.061655
 -0.071263
 -0.218454
  0.027177
 -0.065440
  0.029772
  0.205778
 -0.180898
  0.045119
  0.042682
 -0.030310
 -0.165876
  0.076199
 -0.248945
 -0.068507
  0.077471
 -0.036815
  0.095722
 -0.046906
  0.087225
 -0.112051
  0.117871
  0.123796
  0.048177
  0.042036
 -0.007967
  0.032908
  0.119195
  0.039691
  0.055883
  0.093745
  0.023504
 -0.104100
 -0.009676
 -0.057877
  0.039828
  0.027124
 -0.058025
  0.147261
  0.033930
 -0.033617
  0.090047
 -0.031774
 -0.043822
  0.091225
 -0.072729
 -0.028991
  0.018575
 -0.106689
 -0.130343
 -0.096791
  0.025881
 -0.166665
  0.029672
 -0.001078
  0.080217
  0.124712
 -0.017415
  0.019381
  0.251785
  0.130214
  0.021681
  0.054995
  0.149159
 -0.120214
  0.097255
  0.040597
 -0.056545
  0.112346
  0.025736
  0.147140
  0.000685
 -0.160964
  0.058338
  0.062046
  0.107935
  0.080814
  0.039986
 -0.057558
  0.060215
 -0.047566
  0.040101
  0.052948
  0.131777
 -0.253389
  0.165035
 -0.140551
  0.174439
 -0.002997
 -0.019423
 -0.066137
 -0.120655
  0.066870
 -0.020437
 -0.076508
 -0.143536
  0.052725
 -0.263367
  0.046976
  0.181688
  0.025366
  0.092874
 -0.016778
  0.211055
 -0.146489
 -0.050623
  0.240396
  0.139875
  0.026610
  0.086597
 -0.075826
 -0.251489
  0.010655
  0.044895
 -0.050308
  0.087436
  0.112163
  0.143870
  0.108812
 -0.121065
 -0.085163
 -0.068798
  0.118134
  0.268938
  0.061501
  0.191233
  0.051853
 -0.058924
  0.094304
  0.148273
  0.028282
 -0.087679
 -0.199000
  0.089778
 -0.057988
 -0.029957
 -0.057561
  0.154641
  0.051138
 -0.062687
 -0.048548
  0.032116
  0.086227
 -0.180032
 -0.153444
 -0.019055
  0.177551
  0.138536
 -0.076015
 -0.132093
 -0.011209
  0.073537
  0.101251
  0.216496
  0.131104
  0.039415
  0.136438
  0.024132
 -0.204606
  0.131624
 -0.055048
  0.046741
  0.018262
 -0.130579
 -0.108459
 -0.012254
  0.019162
 -0.036030
 -0.030941
  0.061579
 -0.014245
  0.112367
  0.074243
 -0.116050
  0.124099
  0.007591
 -0.057507
 -0.042624
  0.125629
 -0.037673
 -0.059419
 -0.037837
  0.021755
 -0.003524
  0.193670
 -0.021339
 -0.060935
  0.008668
  0.123656
 -0.109369
 -0.001663
  0.052466
  0.008490
 -0.208589
 -0.210181
  0.127218
 -0.226573
  0.078967
 -0.075722
  0.137429
 -0.187870
 -0.023534
  0.029468
 -0.081950
 -0.038525
  0.020983
  0.114761
 -0.042975
 -0.241568
  0.051956
  0.157648
 -0.023829
  0.019125
 -0.000885
 -0.033078
 -0.060002
  0.171543
 -0.008054
 -0.106572
  0.004124
  0.075893
  0.013944
 -0.013904
  0.051651
  0.002354
  0.124125
 -0.050682
 -0.072589
 -0.046008
  0.121617
  0.103680
  0.136942
  0.096741
 -0.076035
 -0.033581
  0.019643
  0.070846
 -0.009528
  0.049940
 -0.099285
 -0.084255
 -0.042251
 -0.083923
  0.016141
  0.030493
  0.010801
 -0.010976
  0.061253
 -0.008500
 -0.039178
 -0.112680
 -0.137540
  0.048175
  0.012215
  0.107946
  0.146962
  0.079143
  0.058383
  0.051252
  0.070953
  0.121630
  0.010111
 -0.096963
 -0.082341
  0.041136
  0.136868
  0.061624
  0.066387
 -0.261467
  0.082330
  0.006509
  0.000189
  0.020223
  0.140884
 -0.047424
 -0.002132
 -0.003044
  0.034180
 -0.017934
 -0.074741
 -0.170736
  0.207071
  0.074063
  0.171700
  0.015812
 -0.083184
 -0.112584
 -0.164386
  0.073225
  0.034035
 -0.059989
  0.099485
 -0.006110
  0.106858
  0.095428
  0.124754
 -0.095516
  0.084978
 -0.120731
  0.255392
  0.098296
 -0.001707
 -0.025530
  0.058389
 -0.200762
 -0.000727
  0.054830
 -0.047173
  0.179384
 -0.011313
 -0.084649
 -0.042362
 -0.013118
  0.102662
 -0.080562
 -0.008189
 -0.144855
 -0.005855
  0.020039
 -0.072791
 -0.004779
 -0.064874
 -0.108956
 -0.033188
 -0.146989
  0.011432
  0.012879
  0.100885
  0.018135
  0.041082
 -0.142577
  0.040684
 -0.039856
 -0.025990
 -0.043479
 -0.003570
 -0.020876
 -0.280140
  0.146987
  0.072321
  0.123462
 -0.048477
 -0.159606
  0.194677
  0.084818
 -0.107328
 -0.147294
  0.017438
  0.027147
  0.134853
 -0.061513
 -0.033455
  0.052225
  0.161631
  0.012665
 -0.002521
  0.043007
  0.082546
  0.197638
  0.220921
  0.123511
  0.074330
 -0.046214
 -0.188412
 -0.148925
  0.125578
 -0.029275
 -0.038784
 -0.021455
 -0.196087
 -0.153448
 -0.008426
 -0.055804
 -0.137483
 -0.026434
 -0.116924
  0.108351
  0.001139
  0.026991
  0.091423
  0.003668
  0.012054
 -0.167932
  0.016075
 -0.060633
 -0.294602
 -0.065741
 -0.007702
  0.187948
 -0.107364
  0.118645
 -0.134383
  0.008108
 -0.049246
  0.104387
  0.108635
  0.030691
  0.135421
 -0.019497
 -0.091075
 -0.013506
 -0.064907
 -0.077206
  0.039226
 -0.102869
 -0.046961
  0.004789
 -0.096651
 -0.034331
  0.162234
  0.174545
  0.024704
  0.050298
 -0.019592
 -0.033457
 -0.030394
 -0.108084
 -0.046333
 -0.142884
  0.012341
 -0.104442
  0.086878
 -0.245182
  0.014433
  0.103701
 -0.023690
 -0.057639
 -0.036262
  0.171861
  0.008659
  0.098426
 -0.074660
 -0.009023
 -0.150224
 -0.007577
  0.019260
  0.062807
  0.036296
  0.076253
 -0.016086
  0.170621
 -0.196000
  0.026857
  0.007443
 -0.081946
  0.129131
 -0.232296
  0.204707
  0.159839
 -0.151711
 -0.048535
 -0.106994
  0.219085
 -0.093000
  0.013673
 -0.065751
 -0.001163
 -0.021785
  0.028262
 -0.149263
  0.070605
  0.071101
  0.099689
  0.048190
  0.113694
  0.157453
  0.100355
  0.006429
 -0.049879
  0.145467
  0.092274
 -0.084648
  0.052934
  0.044955
  0.085228
  0.057853
 -0.207123
  0.023799
 -0.069543
  0.001613
 -0.107496
 -0.020329
 -0.015577
  0.105854
 -0.181855
 -0.031009
 -0.161654
  0.019257
  0.070880
 -0.072144
  0.192741
  0.049127
 -0.057887
  0.064356
  0.064016
 -0.024198
  0.300147
 -0.246698
 -0.111101
  0.110953
  0.071823
 -0.031043
  0.168329
 -0.089669
 -0.103288
  0.041220
 -0.009649
 -0.019996
 -0.060273
  0.013845
  0.112561
 -0.025311
 -0.155509
  0.139645
  0.005345
  0.033310
 -0.124898
  0.283077
 -0.186949
  0.036567
 -0.012869
  0.009751
 -0.055931
 -0.048503
  0.099812
 -0.100238
 -0.055978
  0.155111
 -0.114223
 -0.004383
  0.156490
  0.121523
  0.032141
 -0.156646
 -0.216562
 -0.058323
 -0.009152
  0.065883
  0.024278
  0.024873
 -0.067249
 -0.135698
  0.034047
 -0.078117
 -0.166498
  0.038042
  0.113445
  0.177399
  0.049661
  0.094221
 -0.048869
 -0.101103
 -0.174616
 -0.066260
 -0.013538
  0.093460
 -0.060667
  0.002429
 -0.088659
 -0.155580
  0.059182
 -0.075105
 -0.151087
  0.126751
 -0.094615
 -0.082030
 -0.048999
  0.053206
  0.111242
  0.107034
 -0.004401
  0.090368
 -0.084890
  0.021873
 -0.108296
 -0.015721
 -0.171287
  0.063306
  0.084980
  0.067462
  0.076967
  0.112864
  0.004199
 -0.086971
 -0.065230
 -0.146719
 -0.172005
  0.075343
  0.027865
 -0.093314
  0.011532
  0.030111
 -0.029219
  0.037572
  0.047042
 -0.073116
  0.145445
 -0.064310
 -0.076293
  0.012565
  0.057494
 -0.068308
  0.023918
  0.009377
  0.023266
 -0.116046
 -0.027234
  0.032266
 -0.108931
 -0.145924
  0.127139
  0.038702
  0.182047
 -0.105170
  0.044918
 -0.069543
 -0.122409
 -0.004525
  0.060639
 -0.068343
 -0.061382
  0.213942
 -0.089488
  0.028763
 -0.059799
  0.104876
 -0.086360
 -0.213321
  0.115774
  0.245930
 -0.016432
  0.050966
  0.058858
  0.033315
 -0.210393
  0.089166
 -0.036575
 -0.119343
  0.039812
  0.182202
  0.151994
  0.111340
  0.056916
 -0.009711
  0.003417
  0.082352
 -0.072349
  0.099563
 -0.067106
 -0.047553
 -0.048911
  0.109004
 -0.138726
 -0.006544
  0.028931
 -0.105125
  0.077222
  0.035009
  0.021982
  0.112390
 -0.071748
  0.095708
 -0.092477
  0.041537
  0.159227
  0.018301
 -0.085862
 -0.128204
 -0.161468
 -0.091584
 -0.096719
  0.159032
 -0.012899
  0.177918
  0.097620
 -0.060291
 -0.088319
  0.005625
 -0.049376
  0.042863
 -0.094049
 -0.061623
  0.023722
  0.004490
  0.229516
 -0.017377
  0.015525
 -0.112053
  0.027088
  0.110820
 -0.142101
  0.195509
 -0.047046
 -0.037455
 -0.187544
 -0.047444
 -0.039162
 -0.021829
  0.005535
  0.188592
  0.094945
 -0.001105
  0.033880
  0.074315
  0.083627
  0.023189
 -0.129984
  0.085505
  0.103698
  0.164874
 -0.056357
 -0.197559
  0.009462
 -0.079139
  0.093651
 -0.160190
 -0.109965
 -0.079967
  0.239513
  0.103760
 -0.016317
 -0.223797
  0.053775
  0.004096
 -0.083393
 -0.020954
 -0.013794
  0.159933
 -0.142183
 -0.057820
  0.037462
  0.059917
  0.012647
  0.116545
  0.107711
  0.024576
 -0.158255
 -0.028219
 -0.007216
  0.057355
 -0.071628
 -0.039514
  0.033648
 -0.021363
  0.165417
  0.216647
  0.034108
  0.090094
 -0.069214
  0.057693
  0.084777
  0.099128
 -0.058417
 -0.045656
 -0.011795
 -0.143414
  0.067154
 -0.072001
 -0.093358
 -0.026200
 -0.104490
 -0.085158
 -0.070031
 -0.023906
 -0.200310
 -0.218588
 -0.010831
  0.029289
 -0.005844
  0.038641
  0.033642
 -0.029603
 -0.017396
 -0.145283
  0.193214
 -0.181723
  0.016106
  0.009197
  0.016007
  0.050932
 -0.008947
  0.150061
 -0.013861
 -0.040417
  0.009325
 -0.219779
 -0.069723
 -0.074416
 -0.046643
  0.018437
 -0.065839
  0.002458
  0.052926
  0.090928
  0.011297
 -0.060799
 -0.250796
 -0.032280
 -0.174688
  0.062829
  0.048815
 -0.078169
  0.122158
  0.211825
  0.193157
  0.141115
  0.034692
  0.073251
  0.042658
 -0.045642
 -0.148041
  0.035534
  0.012601
  0.127907
  0.003179
  0.124942
 -0.138062
  0.011803
  0.039212
  0.123418
  0.009934
 -0.148679
  0.099188
 -0.021682
  0.121895
  0.047480
 -0.046566
 -0.052926
  0.099494
 -0.056053
 -0.271542
  0.195099
  0.046766
 -0.047661
  0.093668
  0.028425
 -0.004202
  0.004162
 -0.040796
 -0.107121
  0.104529
 -0.021691
 -0.092527
  0.116042
 -0.038198
 -0.105447
  0.084407
  0.048006
 -0.063089
  0.029624
 -0.049014
  0.033493
 -0.098247
 -0.077663
 -0.026743
  0.108827
 -0.057641
 -0.050856
 -0.218437
 -0.025327
  0.056929
  0.043577
 -0.021677
 -0.017392
 -0.106730
  0.080568
 -0.097146
 -0.030278
 -0.004979
  0.083333
 -0.052993
 -0.085123
  0.086404
 -0.157183
  0.013751
 -0.021960
 -0.020752
  0.085576
 -0.145734
  0.006687
  0.128705
 -0.158411
 -0.068230
  0.085366
  0.125453
 -0.073026
 -0.032499
 -0.051922
 -0.047671
 -0.030529
  0.072532
 -0.136490
 -0.087595
  0.010652
 -0.084235
 -0.101014
 -0.219248
 -0.018874
  0.188644
  0.062145
 -0.155370
  0.067032
  0.100636
  0.034551
  0.067095
 -0.015857
  0.112329
  0.015579
 -0.079013
  0.064584
 -0.064473
  0.003874
 -0.080794
 -0.034125
 -0.064963
  0.152345
 -0.140790
 -0.021579
  0.124188
  0.085713
 -0.147335
 -0.104072
  0.047331
 -0.136501
  0.022206
 -0.033530
 -0.010219
 -0.047087
  0.036878
 -0.142539
  0.086827
  0.206032
  0.172453
 -0.038936
  0.060550
  0.102284
 -0.109601
  0.093113
 -0.055025
  0.115679
  0.047910
 -0.056796
 -0.065923
  0.089253
 -0.067142
  0.025008
  0.069114
 -0.081839
  0.003230
  0.073505
 -0.074046
 -0.019640
  0.056063
  0.032892
 -0.150961
  0.068897
  0.031173
  0.135923
  0.000038
  0.027243
 -0.094909
 -0.032862
 -0.048289
  0.015820
 -0.098021
 -0.010583
  0.024344
  0.023734
  0.053888
  0.112989
 -0.173180
 -0.019635
 -0.134206
  0.151893
  0.022063
  0.075773
  0.059477
 -0.206948
  0.001241
  0.093914
 -0.021633
 -0.134000
  0.035526
 -0.066595
  0.199599
  0.117768
 -0.027121
  0.037088
 -0.018678
 -0.034000
  0.138190
 -0.065878
  0.183806
  0.009649
 -0.136829
  0.150893
 -0.002489
 -0.123822
 -0.038312
 -0.002218
 -0.052182
  0.047687
 -0.036906
 -0.118404
  0.117599
  0.121131
 -0.080401
 -0.170355
 -0.195355
  0.016315
 -0.016112
  0.032756
  0.014703
 -0.014701
 -0.048177
  0.074664
 -0.051231
  0.097839
 -0.072663
 -0.127957
  0.061668
  0.039876
  0.234378
  0.043359
  0.031905
  0.041827
 -0.128387
 -0.176653
 -0.017255
 -0.005062
  0.037272
 -0.073378
  0.099541
 -0.078119
  0.051002
 -0.085073
 -0.018006
 -0.090304
  0.112088
 -0.176589
  0.072380
 -0.109728
  0.148925
 -0.115906
  0.095923
 -0.194534
 -0.114958
 -0.007922
 -0.131265
 -0.022242
 -0.084309
 -0.186822
  0.081587
 -0.004216
 -0.148652
  0.174817
  0.025014
 -0.046639
 -0.050120
 -0.173765
  0.034431
  0.041200
 -0.031901
 -0.077123
  0.031096
  0.024059
 -0.079962
 -0.048408
  0.039658
 -0.088546
  0.122524
 -0.036606
  0.054243
  0.058937
  0.099002
  0.023378
  0.015038
  0.110683
  0.099628
  0.237084
 -0.118825
  0.006059
  0.141346
  0.014273
  0.083283
 -0.005434
  0.002274
  0.145704
  0.068517
  0.252537
  0.087938
  0.053589
  0.053060
  0.088859
  0.235635
  0.074110
  0.067000
  0.092633
 -0.064767
  0.130122
 -0.079505
 -0.009069
 -0.064296
  0.064004
  0.088891
  0.085034
  0.252639
  0.369877
  0.226824
 -0.083076
  0.207246
 -0.079491
  0.054538
  0.151099
  0.211505
 -0.059033
  0.105825
  0.143836
 -0.113093
  0.011245
 -0.041632
  0.071111
 -0.022056
  0.206159
  0.181247
  0.254517
  0.243597
  0.212880
  0.345217
  0.284004
  0.577405
  0.562441
  0.537457
  0.395569
  0.256431
  0.640922
  0.532499
  0.598236
  0.367086
  0.674885
  0.461156
  0.599866
  0.587383
  0.571600
  0.667330
  0.765667
  0.785616
  0.638592
  0.822113
  0.571852
  0.585360
  0.651958
  0.590655
  0.580974
  0.688624
  0.719098
  0.770352
  0.587875
  0.569215
  0.604059
  0.524933
  0.343891
  0.621261
  0.337463
  0.176888
  0.442434
  0.103267
 -0.105239
  0.120900
  0.033550
 -0.022660
  0.063035
  0.018651
  0.253672
  0.117326
  0.061115
  0.007273
 -0.019720
  0.044769
  0.090745
 -0.099454
 -0.084459
  0.056374
 -0.016170
 -0.175451
  0.048877
  0.199374
 -0.090111
  0.246283
 -0.046509
 -0.043190
 -0.134933
 -0.013804
  0.121186
  0.082545
 -0.125677
 -0.064494
 -0.041097
 -0.010794
 -0.064534
  0.192579
 -0.037914
 -0.022853
  0.187395
  0.122248
  0.054957
 -0.046542
  0.007427
 -0.088569
  0.079260
  0.099904
 -0.072066
  0.087334
 -0.031977
  0.134770
  0.025853
 -0.032214
 -0.017115
  0.049950
 -0.148021
 -0.006678
  0.079887
 -0.157975
 -0.001921
  0.007677
 -0.098345
 -0.157376
 -0.017584
 -0.086288
  0.045115
 -0.066595
  0.040677
  0.187291
  0.109431
 -0.115050
 -0.123435
 -0.107430
 -0.004447
  0.086631
 -0.015867
  0.040883
 -0.036438
  0.237837
  0.238701
 -0.087381
  0.050508
  0.099132
  0.051355
 -0.134209
  0.096877
  0.070790
 -0.113848
  0.088607
 -0.109004
  0.090548
  0.197019
  0.072983
  0.128098
  0.135148
 -0.009475
 -0.091528
  0.240295
 -0.040125
  0.114455
 -0.030324
 -0.139468
  0.073779
 -0.039598
  0.156401
  0.023350
 -0.206627
 -0.010660
  0.000793
  0.056415
  0.000733
  0.025997
 -0.226284
 -0.134830
  0.000205
 -0.108444
 -0.030029
 -0.017119
 -0.150154
 -0.099040
 -0.003226
  0.165354
 -0.126482
 -0.048642
 -0.051988
  0.030273
 -0.068318
 -0.088442
 -0.067051
 -0.103727
  0.015999
 -0.070347
 -0.198064
  0.024435
 -0.288362
 -0.029268
 -0.042296
  0.078256
  0.073974
  0.032117
  0.085311
 -0.088243
 -0.074437
 -0.031116
  0.081620
  0.007740
  0.071930
 -0.019638
  0.104615
  0.195053
  0.093277
  0.229312
 -0.022066
  0.193470
  0.072503
 -0.115530
  0.016081
 -0.150810
  0.151471
  0.043491
  0.064528
 -0.020156
 -0.187596
 -0.183838
 -0.138325
 -0.074253
  0.131756
  0.071414
 -0.095176
  0.009258
  0.005675
  0.034440
 -0.096245
  0.111997
  0.118960
  0.063768
 -0.050666
  0.038177
 -0.002328
  0.115677
 -0.085191
 -0.076866
  0.008467
 -0.078588
  0.016214
 -0.006444
  0.029106
  0.038695
  0.158367
  0.011509
 -0.062558
  0.179991
 -0.038981
 -0.062123
  0.028423
 -0.082255
  0.063840
  0.082916
  0.158933
  0.016218
  0.053385
 -0.012062
  0.031653
  0.026152
 -0.023545
 -0.213076
 -0.039477
  0.020005
 -0.006019
 -0.036924
 -0.014401
  0.092552
 -0.012061
  0.016409
 -0.036199
 -0.034918
 -0.061400
  0.040965
 -0.010775
 -0.022460
 -0.036876
  0.133722
 -0.104370
  0.209785
  0.050721
  0.006439
  0.023543
 -0.155732
 -0.020532
 -0.205267
 -0.027359
 -0.086806
  0.093726
  0.065291
  0.018134
  0.219128
 -0.119084
 -0.102693
  0.139101
 -0.037337
  0.100251
  0.176512
  0.174948
  0.066969
  0.413105
 -0.173197
 -0.014140
 -0.140975
  0.081920
  0.211963
 -0.113768
 -0.048456
  0.073350
 -0.095336
  0.023072
  0.117694
  0.026654
 -0.194017
 -0.189844
  0.127990
  0.093911
  0.035697
 -0.048817
 -0.008053
 -0.057897
  0.111214
  0.114869
 -0.175756
 -0.147980
 -0.001379
 -0.118352
  0.104289
 -0.133742
  0.039080
  0.128552
  0.196813
  0.021874
  0.022152
 -0.011390
 -0.076212
  0.139581
 -0.008131
 -0.230454
 -0.114692
 -0.090835
  0.064227
 -0.028043
 -0.140409
 -0.030030
  0.119630
  0.031671
 -0.034016
 -0.023417
  0.150929
  0.061894
 -0.056038
  0.128847
  0.074444
  0.133824
  0.054417
  0.017016
 -0.085669
 -0.019747
  0.158997
  0.087473
 -0.028726
 -0.051993
 -0.052893
 -0.000371
 -0.048006
 -0.047894
 -0.027639
 -0.304733
  0.053206
  0.079176
  0.007364
  0.036791
 -0.009812
 -0.020659
  0.019397
 -0.075710
  0.150248
 -0.047293
  0.177032
 -0.004707
 -0.016635
  0.021722
  0.027412
 -0.083558
 -0.201072
 -0.064999
  0.013832
  0.109975
 -0.010787
  0.055170
  0.217056
  0.001183
 -0.053479
 -0.048603
 -0.162190
 -0.044639
 -0.038873
 -0.026327
 -0.138175
 -0.249476
 -0.128920
 -0.171046
  0.113976
  0.015551
  0.235417
  0.071970
 -0.031401
 -0.158156
  0.059766
 -0.176233
  0.085286
 -0.034891
  0.030988
  0.102233
 -0.129218
 -0.122604
  0.035358
  0.063737
 -0.113179
  0.146448
 -0.064171
  0.117825
  0.154854
  0.135992
 -0.159928
 -0.148987
 -0.015831
  0.087695
  0.002638
  0.047205
 -0.120372
  0.151341
  0.121557
 -0.120327
  0.022047
  0.046571
  0.065354
 -0.011920
 -0.100946
  0.027169
 -0.165071
  0.019533
 -0.114271
  0.019013
 -0.048707
  0.283044
  0.126752
 -0.106839
  0.024140
  0.110325
  0.245273
 -0.057508
 -0.079964
  0.261317
 -0.038969
 -0.032031
 -0.013217
  0.125812
 -0.056588
  0.025694
  0.028580
  0.057520
 -0.071297
  0.076506
 -0.307047
  0.017019
 -0.035169
  0.062465
  0.110636
  0.105727
 -0.188448
 -0.150153
 -0.079135
 -0.025752
 -0.154330
  0.174256
  0.244935
  0.061719
  0.057545
 -0.009348
  0.021518
  0.099864
 -0.059361
  0.078894
  0.114233
 -0.100231
 -0.053029
 -0.160811
  0.082428
 -0.041904
 -0.017828
 -0.127087
 -0.060901
 -0.189671
 -0.012965
 -0.020047
  0.034311
  0.036306
  0.084986
 -0.144317
 -0.158428
 -0.109260
  0.012126
  0.007073
  0.089894
 -0.033981
 -0.013050
  0.229030
 -0.039825
  0.026319
  0.104651
  0.247209
 -0.065863
 -0.037029
 -0.039680
  0.012722
  0.304323
  0.147717
 -0.096032
  0.034138
  0.039918
  0.082569
 -0.155466
  0.302520
  0.013044
  0.065192
 -0.155316
 -0.021189
 -0.010785
 -0.006357
  0.059491
 -0.034897
 -0.106509
 -0.095762
 -0.028220
  0.023295
 -0.070519
 -0.127209
 -0.095931
 -0.085129
  0.082655
  0.127281
  0.087436
 -0.107134
 -0.243935
 -0.050520
 -0.318197
  0.049199
  0.029640
  0.158112
  0.198777
  0.251504
  0.089133
  0.039648
 -0.021386
 -0.075490
  0.013979
 -0.013828
 -0.031662
 -0.018580
 -0.116121
  0.192375
 -0.012252
 -0.034115
  0.051296
  0.259375
 -0.022080
 -0.077751
  0.069791
 -0.025254
  0.242910
  0.034622
  0.012996
  0.072758
  0.101196
 -0.033641
 -0.020303
  0.086555
 -0.201458
 -0.018781
  0.049831
 -0.233929
  0.043072
  0.045060
  0.132380
  0.211417
 -0.084683
 -0.097352
  0.076398
  0.167101
  0.110399
  0.015261
  0.009341
 -0.045666
  0.026500
  0.141675
  0.084202
  0.160036
 -0.221149
 -0.011071
 -0.097051
 -0.034094
 -0.168612
  0.008205
 -0.082243
 -0.064882
  0.050653
 -0.033758
 -0.074236
  0.029968
 -0.082533
 -0.126942
 -0.157864
 -0.123123
 -0.075230
 -0.020858
  0.104694
 -0.182315
 -0.080060
  0.120364
  0.018730
 -0.031303
 -0.076114
 -0.090064
  0.036708
 -0.134316
 -0.069226
 -0.000677
 -0.154863
 -0.022694
 -0.022251
 -0.107940
 -0.040491
  0.061524
 -0.019048
  0.077392
 -0.042006
 -0.078272
 -0.016011
  0.104867
  0.025026
 -0.133801
 -0.228527
 -0.099080
  0.004923
  0.154940
 -0.040017
 -0.069857
 -0.065727
  0.030234
 -0.049192
 -0.026291
  0.017099
 -0.170897
 -0.056552
  0.016418
  0.100952
  0.237092
  0.049669
  0.023610
  0.006897
  0.027995
 -0.108439
  0.180111
  0.134008
 -0.055846
 -0.053567
 -0.068869
  0.115549
 -0.041828
  0.030626
 -0.138251
  0.045010
  0.131462
  0.029341
  0.224298
 -0.077011
 -0.027450
 -0.065444
 -0.084733
  0.008314
  0.160733
  0.008633
  0.082717
 -0.134456
  0.088148
  0.077748
  0.123482
  0.059493
 -0.071302
  0.006139
 -0.098012
 -0.118875
  0.262649
 -0.098137
 -0.190885
 -0.111171
  0.024575
  0.129592
  0.007292
 -0.126493
  0.028602
  0.094030
 -0.012704
 -0.062939
 -0.165554
 -0.180150
  0.057999
  0.082343
 -0.246762
  0.082420
  0.089002
  0.041680
  0.059720
 -0.023813
  0.031126
  0.073152
  0.052809
  0.162816
  0.011850
  0.060359
 -0.102640
  0.037523
  0.040819
 -0.113065
  0.023819
 -0.078018
 -0.063704
 -0.117691
  0.061935
  0.073772
  0.101091
 -0.050368
 -0.148422
 -0.126625
 -0.226598
 -0.161199
  0.018527
  0.051414
 -0.043707
 -0.047785
  0.296267
  0.067005
  0.064335
  0.160177
  0.071874
 -0.051962
  0.138978
 -0.006326
 -0.059627
  0.061119
 -0.189776
 -0.084438
 -0.246761
 -0.014647
 -0.162372
  0.020829
 -0.268328
 -0.067811
 -0.002549
 -0.055562
  0.083309
  0.118092
  0.051111
  0.105921
  0.228135
 -0.060256
  0.022581
  0.080418
  0.155053
  0.004691
 -0.107269
 -0.131788
 -0.009033
 -0.051660
  0.039922
  0.112498
  0.100578
  0.030740
  0.064826
 -0.090642
  0.053354
 -0.011108
 -0.270318
  0.109961
  0.022723
 -0.022943
  0.130870
  0.042137
 -0.168546
 -0.064397
  0.059530
  0.115376
  0.076704
 -0.159275
 -0.121924
 -0.071683
  0.067324
 -0.131780
 -0.003260
  0.015908
 -0.143090
  0.014375
  0.060690
  0.025252
  0.039832
  0.031673
 -0.069022
  0.304912
 -0.158513
  0.027868
 -0.156574
  0.096229
  0.018086
  0.152893
  0.054158
  0.005781
  0.062395
 -0.013410
 -0.045923
  0.113117
 -0.147233
  0.040303
  0.046576
  0.064888
 -0.007981
 -0.016703
 -0.007313
  0.076200
  0.100100
 -0.060477
 -0.076448
  0.114421
  0.087141
 -0.014332
  0.075737
 -0.099608
  0.014739
  0.152421
 -0.055031
 -0.109178
  0.011951
  0.078852
  0.116926
 -0.009102
 -0.097987
 -0.011951
  0.011561
  0.055807
  0.133031
  0.101598
 -0.040906
 -0.091205
  0.116137
 -0.025402
  0.119033
  0.139115
 -0.029080
 -0.074543
 -0.158150
 -0.184639
  0.037084
  0.070476
 -0.128754
 -0.088808
  0.033720
  0.017993
 -0.032767
  0.070202
 -0.032880
  0.093537
 -0.120385
  0.052621
  0.030578
  0.160024
 -0.031998
 -0.030941
  0.197136
 -0.058702
 -0.069013
 -0.156584
  0.209223
  0.020143
 -0.141127
 -0.004618
 -0.114268
 -0.098076
 -0.232346
 -0.105907
  0.224035
 -0.045596
 -0.100677
  0.073980
  0.024395
  0.080628
 -0.277729
 -0.040807
 -0.088869
  0.178672
 -0.042821
 -0.081587
 -0.078814
 -0.160022
 -0.002729
  0.072110
  0.021670
  0.036234
  0.085318
 -0.108468
 -0.139366
 -0.062926
 -0.046855
  0.195362
 -0.011553
 -0.035956
 -0.057963
 -0.062747
  0.010512
  0.055134
 -0.112799
 -0.133980
  0.090372
 -0.196630
  0.014196
 -0.033700
  0.082232
 -0.147572
 -0.061948
  0.000708
 -0.038982
  0.054742
  0.242899
  0.049478
 -0.057924
 -0.092785
  0.062375
  0.234632
  0.058592
  0.108163
  0.077582
 -0.006416
 -0.061569
  0.015110
  0.205605
 -0.097137
  0.026242
  0.052158
 -0.006597
  0.154685
  0.099427
  0.205155
  0.057037
  0.096418
 -0.165815
  0.068952
  0.130918
  0.097107
  0.067793
  0.172992
 -0.045474
 -0.172605
 -0.037609
 -0.007794
  0.183381
 -0.181230
 -0.059389
  0.218657
  0.096035
 -0.060891
 -0.011096
 -0.062461
 -0.224382
  0.072566
  0.006406
  0.130142
 -0.203113
 -0.047101
  0.012113
  0.067027
  0.221997
  0.081327
  0.123956
 -0.037313
 -0.038513
  0.040406
  0.046855
 -0.215605
  0.038725
 -0.050536
 -0.024072
 -0.027356
  0.046877
  0.061942
 -0.033837
  0.071467
 -0.036927
 -0.003453
  0.035591
 -0.026238
  0.143375
 -0.109398
 -0.043494
 -0.047056
  0.059856
  0.168336
 -0.028915
  0.030689
 -0.112791
  0.034687
  0.085219
  0.037772
  0.104989
  0.106019
 -0.110907
 -0.000744
  0.140048
 -0.240258
 -0.156761
  0.102726
 -0.101816
 -0.111121
 -0.133650
 -0.020179
 -0.046559
  0.094251
 -0.104789
 -0.016113
  0.116118
 -0.002081
 -0.145143
  0.108300
 -0.080166
 -0.052111
 -0.161783
  0.064659
 -0.009406
  0.022610
  0.004280
 -0.091028
 -0.029692
  0.027211
  0.086625
  0.040631
 -0.086689
  0.143151
  0.089888
  0.105233
 -0.095220
  0.116577
 -0.067241
  0.038588
  0.073530
  0.064340
 -0.094881
  0.231991
 -0.000626
 -0.165713
 -0.067917
  0.190288
 -0.038285
  0.043792
  0.000588
 -0.045800
  0.095085
 -0.043096
 -0.165562
  0.014649
  0.047105
 -0.087388
  0.001725
  0.263087
 -0.130950
  0.099956
 -0.049140
  0.255756
  0.245499
 -0.069800
  0.040154
 -0.080477
 -0.194328
  0.137746
 -0.061384
 -0.032780
 -0.012783
 -0.003390
  0.141795
  0.000971
  0.041282
 -0.215330
 -0.012166
  0.092752
 -0.044111
 -0.198569
  0.020568
  0.130526
  0.011059
  0.197972
 -0.151499
  0.066015
 -0.047557
  0.051084
 -0.020817
  0.064965
 -0.021851
  0.007820
  0.091238
  0.178879
  0.019309
  0.062485
  0.018977
 -0.225335
  0.072730
  0.041941
 -0.117621
  0.142392
  0.102789
  0.011059
 -0.044712
 -0.187113
 -0.085470
  0.020572
 -0.001843
  0.074518
  0.102965
 -0.012890
 -0.207942
 -0.091605
 -0.068064
 -0.030681
 -0.068075
 -0.045163
  0.096499
  0.257525
  0.036730
  0.097829
  0.063475
 -0.072702
  0.081343
 -0.108685
 -0.140239
 -0.040137
  0.105255
  0.006996
  0.093603
 -0.176537
  0.098657
 -0.017354
 -0.249261
  0.068254
  0.108974
 -0.037681
 -0.102479
  0.035766
 -0.099385
 -0.083578
  0.110885
 -0.018856
  0.047649
 -0.131215
 -0.079945
  0.036210
 -0.045597
  0.086747
  0.173485
 -0.073117
  0.134214
  0.073714
 -0.096898
 -0.072222
  0.034960
  0.004013
 -0.017645
 -0.145657
  0.006430
 -0.133875
 -0.059343
  0.070279
  0.087873
  0.066039
 -0.063087
  0.033718
 -0.033345
  0.035082
  0.079542
 -0.067502
  0.081290
 -0.060267
  0.013938
  0.059869
  0.106176
  0.037318
  0.009845
 -0.052915
  0.185678
  0.081998
  0.053958
  0.104460
  0.300140
 -0.094047
 -0.065712
  0.154979
 -0.064530
  0.033199
 -0.123839
 -0.127572
 -0.057593
 -0.089441
 -0.076375
 -0.058075
 -0.049477
  0.031112
 -0.081580
  0.185678
 -0.025559
 -0.079505
  0.098935
 -0.069086
 -0.013512
  0.178032
 -0.014830
 -0.010764
  0.018367
  0.186080
  0.046624
  0.038199
 -0.099060
  0.042395
 -0.010180
  0.032933
  0.056238
 -0.072378
 -0.020567
 -0.042880
 -0.095630
  0.088782
  0.059762
 -0.065241
 -0.002400
 -0.128471
 -0.041262
 -0.134262
  0.085339
  0.183260
 -0.106539
  0.273135
 -0.152825
  0.097585
 -0.134419
 -0.112886
  0.101006
  0.096553
 -0.037309
 -0.019436
  0.121746
 -0.047859
  0.032797
  0.094009
 -0.022501
  0.176363
 -0.159446
  0.094076
 -0.143972
 -0.085557
 -0.240986
 -0.105607
  0.069470
 -0.008627
  0.066780
  0.210339
 -0.018641
  0.236067
 -0.208157
 -0.161310
 -0.090042
 -0.031143
 -0.032850
 -0.076051
 -0.077750
 -0.180822
  0.044637
  0.049728
  0.106668
 -0.081427
  0.008803
  0.142466
 -0.057501
  0.117453
 -0.053881
  0.159284
 -0.091865
 -0.084189
 -0.053522
  0.057556
  0.047895
  0.142785
 -0.005307
 -0.069354
  0.064914
 -0.003639
 -0.178813
 -0.007233
 -0.001606
 -0.174121
 -0.004789
 -0.045415
  0.107739
  0.003308
  0.073336
  0.052210
 -0.079484
  0.021460
 -0.137288
  0.020797
 -0.136437
  0.118212
  0.114640
  0.014959
  0.079938
  0.130243
 -0.111374
 -0.078593
  0.083889
  0.064490
  0.010050
  0.134684
 -0.014285
 -0.050076
  0.133690
 -0.164735
  0.218664
 -0.109851
 -0.027019
 -0.029416
  0.064578
 -0.141436
 -0.152016
  0.089680
 -0.103743
 -0.141520
  0.023486
 -0.131998
 -0.136383
  0.035435
  0.012628
 -0.011388
 -0.110639
  0.147707
  0.060238
 -0.042315
 -0.107229
 -0.038301
  0.011855
 -0.054365
 -0.068257
 -0.053887
  0.047139
  0.024860
 -0.055274
 -0.008210
  0.047926
 -0.220303
 -0.123921
  0.045172
 -0.131299
 -0.055489
  0.109584
  0.024842
 -0.099070
  0.326991
  0.004198
 -0.065771
 -0.002075
  0.043065
  0.032650
 -0.041797
 -0.156324
 -0.056957
  0.093706
 -0.039980
 -0.060506
 -0.052862
  0.056583
 -0.102321
  0.100454
  0.005859
 -0.182932
  0.076801
 -0.023537
 -0.098431
 -0.160142
 -0.007992
 -0.054886
 -0.077532
 -0.187511
 -0.018001
  0.002925
 -0.049156
  0.079149
  0.001695
  0.053463
  0.177765
  0.107427
 -0.057369
 -0.039562
  0.096317
 -0.271230
 -0.054822
 -0.116043
 -0.231380
  0.052556
  0.084027
  0.007821
  0.036961
  0.020840
  0.053291
  0.023630
  0.014457
  0.215586
  0.150980
  0.043134
  0.267413
  0.050073
 -0.133919
 -0.172716
 -0.046966
 -0.117959
  0.002268
 -0.048899
  0.068035
  0.053074
  0.161683
  0.023118
 -0.085458
  0.150752
  0.061190
  0.095656
 -0.078690
  0.027847
  0.070729
  0.045175
  0.042275
 -0.096710
 -0.091018
 -0.240672
  0.178784
 -0.116949
  0.107038
  0.212247
  0.076801
 -0.002010
 -0.039072
 -0.002479
 -0.043190
  0.046230
 -0.130242
 -0.065298
 -0.087314
 -0.062195
  0.109378
  0.129527
 -0.096990
  0.094651
 -0.051197
 -0.085286
 -0.038632
 -0.013077
 -0.124604
  0.108421
  0.097068
 -0.263999
  0.028379
  0.040385
 -0.080707
  0.035969
  0.068169
 -0.037812
 -0.045715
  0.165951
  0.045312
  0.163637
 -0.076742
 -0.057655
  0.014671
  0.027632
 -0.023600
  0.041875
 -0.042536
 -0.039823
  0.031418
 -0.109183
  0.050437
 -0.055372
 -0.007831
 -0.045437
  0.074362
  0.007727
 -0.066527
 -0.000890
 -0.147431
 -0.070816
 -0.080547
  0.070904
 -0.035899
 -0.143513
  0.190405
  0.010840
  0.049858
 -0.027840
  0.060561
 -0.020137
  0.044936
 -0.124654
 -0.091989
 -0.091741
 -0.106728
  0.002774
  0.178330
  0.042671
  0.037357
  0.003490
 -0.110972
 -0.102199
  0.039890
 -0.098986
 -0.105221
  0.091665
  0.044243
 -0.315502
 -0.161220
 -0.000151
 -0.044938
 -0.040938
 -0.192430
 -0.102802
 -0.076345
  0.038674
 -0.045918
  0.032973
 -0.122725
  0.117562
  0.012822
 -0.001552
 -0.056790
 -0.045546
 -0.104693
 -0.072690
  0.188752
  0.122330
 -0.021125
 -0.018965
 -0.094339
  0.126009
  0.053062
 -0.110730
 -0.069381
 -0.031098
  0.118187
  0.061653
  0.084829
  0.118094
  0.115976
  0.121968
 -0.064346
  0.114078
  0.049427
 -0.085711
 -0.028678
 -0.200873
 -0.027525
  0.058729
 -0.061296
  0.062294
  0.056153
  0.218979
 -0.047249
 -0.027273
 -0.083282
 -0.041032
 -0.101252
  0.084456
 -0.134372
 -0.057853
 -0.078454
  0.054724
  0.019965
 -0.151354
  0.023007
 -0.088991
 -0.001731
 -0.000948
 -0.113070
  0.031391
 -0.076962
  0.033983
  0.066267
  0.145761
 -0.147262
  0.088855
  0.063455
 -0.044319
 -0.009225
 -0.098461
 -0.025067
  0.161749
 -0.103350
  0.123953
 -0.045189
 -0.175952
 -0.207055
  0.172814
 -0.151393
 -0.113410
  0.111085
 -0.237481
 -0.008119
  0.002834
 -0.143419
 -0.241552
  0.011998
  0.039068
  0.093317
  0.046655
  0.170921
 -0.043942
  0.060916
 -0.141673
  0.090978
 -0.033317
  0.059794
 -0.072949
  0.056191
  0.006387
  0.248154
 -0.122278
 -0.014129
 -0.038310
  0.042031
 -0.021734
  0.060116
  0.050119
  0.055644
  0.029556
 -0.028613
  0.020386
  0.011908
  0.146389
  0.176003
 -0.093372
 -0.064130
 -0.040053
  0.161857
 -0.077395
  0.142257
  0.009932
  0.066354
  0.002646
 -0.055532
  0.046584
  0.138179
  0.036945
 -0.036737
 -0.007425
  0.205837
 -0.068310
 -0.006906
  0.204578
  0.048515
 -0.144115
  0.158555
 -0.147957
  0.122638
  0.106697
  0.063607
  0.119893
 -0.029327
  0.003777
 -0.035915
 -0.034487
 -0.132954
 -0.018911
 -0.010858
  0.208885
 -0.209753
 -0.106964
  0.147221
  0.088298
  0.018139
  0.138374
  0.096495
  0.076421
 -0.017247
 -0.005081
 -0.081473
  0.093664
 -0.008557
  0.022550
 -0.001533
  0.037389
 -0.188868
 -0.048889
  0.005175
  0.128204
  0.092871
  0.026200
  0.085423
 -0.267630
  0.255472
  0.055535
  0.163681
 -0.013644
 -0.061277
 -0.003560
  0.067085
 -0.174566
  0.077525
  0.046814
  0.098327
 -0.043462
  0.048750
 -0.055118
 -0.139465
 -0.045408
  0.117978
 -0.306849
 -0.095459
 -0.155462
  0.096830
 -0.133463
 -0.013702
  0.045833
 -0.037737
  0.029249
  0.066530
 -0.035614
  0.133564
 -0.001802
 -0.090351
  0.128286
 -0.081435
  0.029462
 -0.157674
 -0.173278
  0.079640
  0.047693
 -0.142253
  0.079731
 -0.051355
 -0.030634
  0.070944
 -0.015008
 -0.023902
 -0.044073
  0.144989
  0.146923
 -0.021171
  0.079246
  0.028351
 -0.033462
  0.025545
 -0.031681
  0.066292
  0.013420
  0.098595
  0.115283
  0.069109
 -0.059527
 -0.127714
  0.098737
  0.019016
  0.018172
 -0.052370
 -0.104712
  0.037941
  0.020007
  0.138897
  0.027958
  0.052374
  0.074185
  0.159907
 -0.073720
 -0.024810
  0.039055
 -0.122229
 -0.081601
 -0.195587
  0.017032
  0.134905
 -0.094949
 -0.018649
  0.144290
 -0.121673
  0.016551
  0.101507
 -0.026565
  0.089511
  0.135650
  0.011929
  0.102343
 -0.088153
 -0.126808
  0.082755
 -0.103751
  0.233702
  0.064556
  0.120259
 -0.203550
 -0.005038
  0.184313
  0.050114
 -0.137534
 -0.147668
  0.121956
  0.048005
  0.086311
  0.060927
 -0.051070
 -0.038474
 -0.121070
  0.020141
 -0.093248
  0.058624
  0.002573
 -0.020496
  0.058520
  0.052007
  0.003046
  0.084597
  0.148484
  0.040602
  0.017439
  0.182343
 -0.036554
  0.228004
 -0.070425
 -0.103672
  0.038489
  0.034875
 -0.007820
  0.019301
 -0.065935
 -0.033282
  0.024856
  0.000691
  0.002547
 -0.082773
 -0.080176
  0.089160
 -0.104695
  0.091787
 -0.065369
 -0.062231
 -0.007003
  0.101655
 -0.072054
  0.107122
 -0.078046
 -0.051760
 -0.039572
  0.227003
 -0.071800
  0.067875
  0.064155
  0.047610
  0.164748
 -0.077155
 -0.027545
 -0.135993
 -0.051312
 -0.024881
 -0.015483
 -0.087339
  0.012280
 -0.044157
  0.031271
  0.078475
 -0.060862
  0.079774
  0.022749
 -0.032493
  0.085568
  0.051098
 -0.066856
 -0.114763
  0.022112
  0.033013
  0.067022
  0.006379
  0.039756
 -0.045102
 -0.164750
  0.253844
 -0.025868
 -0.020374
  0.073155
 -0.064735
 -0.061517
 -0.158637
  0.230414
 -0.018332
  0.193790
 -0.086611
 -0.051353
 -0.030822
  0.215944
  0.070241
  0.029739
 -0.065952
 -0.006024
 -0.031303
  0.078811
 -0.020578
  0.040414
 -0.083641
  0.184679
  0.230183
 -0.068978
 -0.018054
 -0.069517
 -0.104305
  0.102871
 -0.048370
 -0.031826
 -0.012207
 -0.061835
 -0.098251
  0.002190
  0.100010
 -0.037655
 -0.056643
 -0.099270
  0.099210
  0.130938
  0.174751
 -0.137011
 -0.124988
  0.239006
  0.053996
  0.085579
 -0.163334
 -0.052930
  0.064530
  0.085237
 -0.072567
 -0.043250
 -0.000477
 -0.084634
 -0.120862
 -0.005093
  0.017942
  0.032840
  0.084057
 -0.130535
  0.034065
  0.021920
 -0.120262
 -0.004368
 -0.170997
  0.027104
 -0.121837
  0.033957
 -0.067275
 -0.119710
  0.050281
 -0.110748
  0.120784
  0.126467
 -0.168797
 -0.084903
 -0.006143
 -0.055346
  0.153266
  0.046596
  0.015625
 -0.042583
 -0.052513
  0.006580
  0.077217
  0.076605
 -0.166218
  0.118391
  0.047677
 -0.057198
 -0.051447
 -0.015362
 -0.189174
 -0.007195
 -0.051643
 -0.147722
 -0.139343
  0.082032
 -0.001041
  0.124538
  0.129186
 -0.075060
  0.054491
  0.052984
 -0.104945
  0.088642
  0.023263
 -0.314971
  0.061119
 -0.089853
 -0.060745
  0.065645
  0.131944
 -0.089028
  0.019323
 -0.104142
  0.021153
 -0.040279
 -0.199535
 -0.051931
 -0.030766
  0.210740
  0.039680
  0.016586
 -0.063251
  0.105378
 -0.007875
  0.033955
 -0.003314
  0.188331
  0.161676
 -0.041577
  0.037593
  0.021493
  0.036390
 -0.009714
 -0.027007
 -0.034663
  0.030380
  0.025100
  0.035382
  0.269226
  0.069970
 -0.171041
 -0.012055
 -0.133250
 -0.086175
  0.097704
  0.148301
  0.156559
 -0.161236
 -0.013487
  0.003291
 -0.028997
 -0.095168
  0.006775
  0.106720
 -0.178245
  0.001818
  0.011672
 -0.129980
 -0.040555
 -0.161243
 -0.193013
 -0.164440
  0.173357
 -0.038065
 -0.069566
 -0.214710
 -0.022127
 -0.031242
 -0.011018
 -0.158925
  0.125075
 -0.045296
  0.077800
 -0.011856
 -0.183163
 -0.066907
 -0.217955
 -0.061992
 -0.035208
  0.220993
 -0.083751
 -0.006063
 -0.035997
 -0.116505
 -0.054850
 -0.052167
  0.031927
  0.082441
 -0.161014
  0.085866
  0.007636
 -0.046609
 -0.071901
 -0.126602
 -0.220205
 -0.116444
  0.097131
 -0.214293
 -0.002446
  0.043884
  0.076675
  0.061662
  0.055622
  0.082776
  0.032604
  0.110500
  0.051707
 -0.063040
 -0.059513
  0.026359
  0.101739
  0.206191
 -0.135554
  0.069080
 -0.241073
 -0.036470
 -0.139381
 -0.040671
 -0.014714
  0.005974
 -0.061126
 -0.032178
 -0.058667
 -0.068614
  0.002298
  0.003311
 -0.139404
 -0.041619
  0.201377
  0.089818
  0.014204
 -0.028529
 -0.021286
 -0.012730
 -0.122842
  0.064181
 -0.079690
 -0.005546
 -0.128580
 -0.084293
 -0.020097
  0.110349
 -0.046094
  0.024675
 -0.052823
  0.011926
 -0.057628
  0.108659
  0.017311
  0.036000
 -0.002948
 -0.001345
  0.034263
 -0.030759
  0.072908
 -0.038215
  0.049222
 -0.050262
 -0.054638
  0.037633
 -0.142132
  0.088195
 -0.021019
 -0.175230
  0.159184
  0.010562
 -0.003908
 -0.018648
 -0.059791
  0.216941
 -0.025899
 -0.036232
  0.022990
 -0.061231
 -0.031635
 -0.018823
 -0.029791
 -0.010880
 -0.125274
  0.046952
 -0.294007
  0.151443
  0.036125
 -0.093302
 -0.074599
 -0.123763
  0.109371
 -0.090674
 -0.011311
 -0.210959
  0.029581
 -0.048697
 -0.122715
 -0.059468
 -0.076211
 -0.102772
 -0.057666
  0.098222
 -0.085664
  0.252034
  0.022035
 -0.227724
 -0.107337
  0.073085
 -0.041267
  0.012282
  0.055421
 -0.235962
  0.119547
 -0.023325
  0.014317
  0.126549
 -0.095151
 -0.080428
  0.052061
 -0.000961
 -0.137734
 -0.137281
  0.115266
 -0.166984
 -0.025598
 -0.119371
 -0.027328
 -0.072290
  0.033875
  0.087950
  0.044397
 -0.116360
  0.052898
 -0.001877
 -0.040790
 -0.099999
 -0.013005
  0.108526
 -0.061416
 -0.021959
  0.020856
 -0.230191
  0.112246
  0.166563
 -0.005115
  0.116094
  0.051869
  0.149606
 -0.145542
  0.059856
  0.039484
  0.262868
  0.041893
  0.086450
 -0.049721
 -0.113386
 -0.007568
 -0.010904
 -0.010943
  0.029764
  0.124177
 -0.042175
 -0.079871
  0.015852
  0.004820
 -0.220065
  0.021641
 -0.066265
 -0.223880
  0.068573
 -0.134401
 -0.184736
  0.130190
  0.095573
 -0.105217
  0.014140
  0.043505
 -0.048744
  0.053508
  0.146469
  0.030036
  0.046876
  0.135462
  0.028465
  0.174838
 -0.071978
  0.218341
  0.042080
 -0.016050
  0.000083
 -0.077511
  0.087419
 -0.070489
 -0.173737
  0.150314
  0.038427
  0.025715
 -0.031955
 -0.007493
  0.017112
 -0.076112
 -0.131808
 -0.237367
 -0.087908
 -0.070843
  0.000241
 -0.210580
 -0.185151
  0.258406
 -0.034161
  0.328924
 -0.015691
  0.282447
  0.053832
 -0.043830
  0.062973
  0.014843
  0.116318
 -0.034821
  0.149329
  0.175834
  0.002476
  0.092598
  0.047985
 -0.148629
  0.101481
  0.268232
 -0.031736
  0.095088
 -0.016400
  0.024777
 -0.031186
  0.115692
  0.023979
  0.100045
  0.209888
  0.109888
  0.107102
  0.287173
 -0.046396
 -0.025893
  0.024388
  0.010059
 -0.096638
  0.170712
 -0.056845
  0.115067
  0.081378
 -0.085442
  0.018438
  0.007669
 -0.177292
  0.045166
 -0.046923
  0.066898
  0.135106
  0.191352
  0.150744
  0.168637
  0.224172
  0.044283
 -0.008007
 -0.098789
 -0.022786
  0.022217
  0.179630
  0.032644
 -0.137350
  0.107753
 -0.025218
  0.034335
 -0.103627
  0.128021
  0.075327
  0.090504
 -0.102620
 -0.019748
  0.193463
  0.103936
  0.046388
 -0.069837
 -0.107046
 -0.011830
  0.092309
 -0.010917
  0.084686
 -0.074313
  0.073201
 -0.035673
 -0.048062
 -0.082420
 -0.114168
 -0.053815
  0.164581
  0.173265
 -0.006208
  0.268627
 -0.049041
 -0.200237
 -0.067893
  0.206984
  0.004564
 -0.071767
  0.130221
  0.004185
 -0.156922
  0.050088
  0.221428
  0.136297
 -0.163281
 -0.096388
 -0.042613
  0.089932
 -0.078333
  0.010813
 -0.062268
 -0.004497
 -0.000989
  0.090539
  0.138207
  0.181391
 -0.055473
 -0.192512
 -0.138405
 -0.084539
 -0.143461
  0.024063
  0.048033
 -0.058560
 -0.001735
  0.043373
  0.070785
 -0.093466
 -0.179841
  0.141283
 -0.029794
  0.023024
 -0.133992
  0.117478
  0.002663
 -0.050108
 -0.069028
  0.026047
  0.098269
  0.066594
 -0.013684
 -0.067038
  0.049447
  0.002334
 -0.022301
  0.093948
  0.141648
  0.011123
  0.001628
 -0.015046
 -0.118510
 -0.020574
  0.016443
  0.062031
  0.012097
  0.070389
  0.208906
 -0.054619
  0.029134
  0.227198
 -0.035665
  0.098770
  0.014586
 -0.014768
  0.061618
  0.027684
  0.007944
  0.014401
  0.233287
  0.034503
  0.074687
 -0.048327
 -0.054908
  0.033363
 -0.030154
  0.026498
  0.109079
  0.040151
  0.035757
 -0.082849
  0.061738
  0.233047
  0.235526
 -0.040913
  0.037080
 -0.034478
  0.168310
 -0.092563
  0.108324
 -0.006841
 -0.198023
  0.010447
  0.042415
 -0.053605
 -0.103099
 -0.097328
  0.169947
 -0.078566
  0.012464
 -0.116037
 -0.022359
 -0.126293
 -0.141169
 -0.071929
  0.032292
 -0.107942
 -0.018422
 -0.096670
 -0.128842
 -0.022444
 -0.209182
 -0.004742
  0.037352
  0.151616
  0.056623
  0.067406
 -0.003785
 -0.140665
  0.233002
  0.057223
  0.051088
 -0.155059
 -0.033139
  0.031483
  0.014941
  0.101727
 -0.036198
 -0.079591
 -0.082117
 -0.051283
  0.131544
  0.079941
  0.138198
 -0.102823
  0.065241
 -0.020572
 -0.054383
 -0.083665
 -0.077889
 -0.069276
 -0.009019
 -0.008817
 -0.082524
  0.133485
 -0.038942
 -0.129404
 -0.028449
  0.202876
 -0.055510
  0.041142
  0.046894
  0.000584
 -0.101582
 -0.059047
  0.134484
 -0.066419
 -0.023358
 -0.093649
  0.081732
 -0.092841
 -0.035259
  0.118378
 -0.203486
 -0.050930
 -0.086181
 -0.166531
 -0.010074
  0.130663
 -0.203806
  0.070427
  0.143808
 -0.019653
 -0.039392
 -0.130567
 -0.171653
  0.072777
 -0.036586
 -0.082256
 -0.126310
 -0.269516
 -0.135487
 -0.122536
  0.042814
  0.085998
  0.043176
  0.086715
 -0.051451
 -0.074002
 -0.080505
  0.123196
 -0.072427
  0.036963
 -0.071853
  0.214368
  0.099150
  0.018954
  0.316893
 -0.023104
  0.052891
  0.039341
 -0.032026
  0.006632
 -0.137351
 -0.115158
  0.195798
 -0.107190
  0.072581
  0.045673
 -0.183177
  0.014181
  0.073943
  0.155697
  0.108930
 -0.166438
 -0.088190
 -0.055365
 -0.126248
  0.014850
 -0.097912
 -0.033200
 -0.134585
 -0.017937
  0.047022
 -0.007442
  0.033994
  0.023907
 -0.100915
  0.129369
  0.265606
  0.217134
  0.028046
 -0.069302
  0.060594
 -0.051406
  0.053630
  0.016612
 -0.083882
  0.141659
  0.016833
 -0.162685
  0.032689
  0.005348
  0.014947
  0.017335
 -0.161057
 -0.022235
 -0.047374
  0.105931
 -0.024096
  0.021252
 -0.013493
  0.159606
 -0.028032
  0.065353
  0.053776
 -0.049178
 -0.033647
  0.055452
 -0.002345
  0.140165
 -0.088810
 -0.098059
 -0.007847
 -0.036160
 -0.043956
 -0.080374
  0.257673
  0.058670
 -0.049568
 -0.182840
  0.142885
 -0.086906
 -0.018229
 -0.013015
 -0.114409
  0.154470
  0.029659
  0.081495
  0.048471
  0.084424
  0.100187
  0.007593
 -0.199319
  0.016727
 -0.041656
  0.054554
  0.090357
  0.102646
  0.080974
  0.024920
 -0.056375
 -0.043959
 -0.108912
  0.067953
 -0.128935
 -0.040599
 -0.058505
  0.030170
  0.038498
  0.008043
 -0.140037
  0.093861
  0.205573
  0.237117
 -0.190773
  0.005443
 -0.153337
 -0.088299
  0.098345
 -0.090989
  0.063867
 -0.219978
  0.111166
  0.066112
  0.060344
 -0.161557
  0.120340
  0.044583
 -0.139241
  0.052500
 -0.072444
 -0.104106
 -0.019572
 -0.023053
  0.101455
 -0.075079
  0.036941
  0.173215
  0.049846
  0.012433
 -0.116092
 -0.075462
 -0.019158
  0.003926
  0.261963
 -0.123102
 -0.031535
  0.056063
 -0.077427
 -0.082006
  0.101359
  0.108718
  0.020988
  0.080183
  0.126626
  0.135520
  0.163037
 -0.021447
  0.167127
 -0.080480
 -0.124939
 -0.154053
  0.046423
 -0.043118
 -0.132512
 -0.042928
  0.088552
 -0.098156
 -0.098809
  0.011021
 -0.029070
  0.043761
  0.079944
 -0.182727
  0.165578
  0.116232
 -0.029720
 -0.132239
  0.044480
 -0.002615
  0.039913
 -0.157981
  0.046673
  0.124139
 -0.104838
 -0.074335
 -0.090508
  0.082043
  0.161678
 -0.099245
 -0.005202
  0.084869
 -0.082639
  0.104457
 -0.076373
 -0.030702
  0.139737
 -0.082966
 -0.036468
 -0.094833
 -0.150473
  0.016640
  0.048296
  0.136014
 -0.153615
 -0.098599
 -0.066273
  0.000633
  0.101165
  0.029655
  0.017164
 -0.144695
 -0.012330
  0.171839
  0.143253
  0.046135
 -0.098346
 -0.146886
  0.063159
  0.014385
  0.029300
 -0.026091
 -0.063409
  0.021478
 -0.006951
 -0.143484
 -0.054308
  0.083460
  0.038418
 -0.034978
  0.056702
 -0.018296
 -0.001887
  0.136344
  0.034338
 -0.091877
  0.188008
 -0.104303
  0.012560
  0.154026
 -0.151411
  0.072562
  0.109559
 -0.112284
  0.040194
  0.013953
  0.046593
  0.020121
 -0.049378
 -0.104398
  0.110543
  0.066494
 -0.210024
 -0.141940
  0.163663
  0.221752
  0.072603
  0.118311
 -0.102273
  0.047444
  0.144854
 -0.031673
  0.008647
 -0.092901
 -0.037375
  0.049399
 -0.128847
 -0.139735
 -0.073815
  0.185200
 -0.032687
 -0.019724
 -0.044079
 -0.174030
  0.018344
  0.126778
  0.235127
 -0.077362
  0.056178
 -0.024568
  0.011390
  0.166194
 -0.229975
 -0.183762
 -0.186027
 -0.227832
  0.142297
 -0.067110
  0.243850
  0.020843
 -0.115509
 -0.083665
  0.080948
 -0.270787
  0.114557
 -0.022344
 -0.144383
 -0.037597
 -0.012720
  0.096843
 -0.037136
  0.149977
 -0.036587
  0.033311
  0.009548
 -0.014558
  0.089276
 -0.079206
 -0.014409
  0.145653
 -0.030526
 -0.087196
  0.048646
 -0.085608
  0.113075
  0.122971
  0.081248
 -0.080033
  0.107630
  0.118208
  0.202859
  0.064233
  0.052571
  0.247650
 -0.008707
 -0.070882
 -0.092384
  0.001050
 -0.015880
  0.009226
  0.051053
  0.042232
  0.076894
 -0.003481
  0.031344
 -0.126980
 -0.046458
  0.119524
  0.128776
  0.178426
  0.009936
 -0.033819
 -0.108628
  0.024066
  0.202595
  0.104332
  0.006614
 -0.111859
 -0.212021
 -0.165907
  0.149305
  0.016620
 -0.082770
  0.045722
 -0.124636
 -0.040193
 -0.092896
  0.044226
  0.106328
  0.015177
 -0.023780
  0.120819
  0.048569
  0.066990
  0.067839
 -0.197104
  0.206514
 -0.208387
 -0.043517
 -0.095466
  0.105206
 -0.159937
  0.046020
 -0.059258
 -0.078030
 -0.031425
 -0.027711
 -0.014110
  0.017683
  0.007657
 -0.082299
  0.060775
 -0.179763
 -0.020853
 -0.114716
  0.095100
 -0.082198
  0.064025
  0.071206
  0.321123
 -0.011400
 -0.103040
  0.074702
 -0.085333
  0.067808
 -0.015928
 -0.055161
 -0.031469
 -0.105731
 -0.142176
  0.023271
  0.111722
  0.243952
 -0.092658
  0.029434
 -0.059634
  0.006794
 -0.029954
 -0.168888
  0.058586
 -0.080964
 -0.193286
 -0.038247
  0.289426
  0.033464
 -0.177565
 -0.038394
 -0.048683
  0.033199
  0.059057
 -0.019387
  0.019660
  0.083458
  0.052528
  0.021511
 -0.038333
 -0.028173
 -0.112680
 -0.098574
 -0.062880
 -0.110093
  0.092901
 -0.170856
 -0.016556
  0.062437
 -0.075197
  0.050956
 -0.014351
 -0.096256
  0.112913
  0.126701
  0.093058
 -0.086964
 -0.045452
  0.161850
 -0.138924
  0.010745
 -0.054344
  0.005486
 -0.086874
 -0.074886
  0.023610
  0.091122
  0.214202
  0.014953
 -0.128755
 -0.031506
  0.122864
 -0.083794
  0.027815
  0.075513
 -0.043417
  0.025788
 -0.052568
  0.177062
 -0.001084
 -0.209453
 -0.236394
 -0.013466
  0.121067
 -0.016140
 -0.088869
 -0.039733
 -0.046745
 -0.052459
  0.072765
  0.055550
  0.161715
  0.015951
 -0.073301
  0.103024
  0.025051
 -0.190349
 -0.004238
  0.076128
 -0.205522
 -0.053538
 -0.019549
 -0.016246
  0.065562
 -0.063503
 -0.137734
 -0.011558
 -0.022454
 -0.062594
 -0.032011
  0.105008
 -0.031350
 -0.146558
 -0.095691
 -0.010456
 -0.073035
 -0.026304
  0.124223
  0.062144
  0.130536
  0.089298
 -0.018767
 -0.005476
  0.090916
  0.087695
 -0.102606
 -0.109239
 -0.141926
  0.055952
  0.109873
  0.068351
 -0.079673
  0.109157
 -0.021851
 -0.034022
  0.201906
  0.071819
  0.055908
 -0.172232
 -0.253169
  0.143184
  0.002702
  0.046905
 -0.176099
 -0.032786
  0.109219
  0.009474
  0.253157
  0.017135
  0.111956
 -0.168950
  0.022337
 -0.074126
  0.064428
  0.010182
 -0.080021
  0.240879
 -0.006752
  0.049032
 -0.029227
  0.175384
  0.052471
  0.012126
 -0.025872
 -0.012477
  0.006285
  0.022835
 -0.116155
 -0.010191
  0.123823
  0.087234
  0.020273
 -0.003912
 -0.060662
  0.078786
 -0.237905
 -0.110262
  0.050888
 -0.114282
  0.132788
 -0.164419
  0.016563
  0.128700
 -0.045792
  0.155741
  0.071138
 -0.082590
 -0.016909
  0.000712
  0.221595
  0.161783
  0.169048
 -0.047506
  0.109186
 -0.113787
 -0.085226
 -0.021010
 -0.000524
 -0.035235
 -0.019259
  0.270911
  0.016371
 -0.024216
 -0.105296
 -0.143144
 -0.018898
 -0.053007
  0.062831
  0.102704
 -0.124229
 -0.030059
 -0.169506
 -0.061392
 -0.045640
 -0.144471
  0.002595
 -0.152315
  0.145704
 -0.110897
  0.188600
 -0.169014
  0.036099
 -0.033078
  0.305746
  0.167814
 -0.125402
  0.034211
  0.007634
 -0.042687
 -0.094642
 -0.052681
  0.158766
  0.094178
 -0.052305
 -0.028593
 -0.053753
 -0.093899
  0.063828
  0.010272
  0.038748
 -0.096267
  0.060907
 -0.000858
 -0.129423
 -0.020185
  0.006640
  0.126771
 -0.034753
  0.072060
  0.024011
  0.075989
  0.053601
 -0.015497
  0.000617
  0.064725
  0.086299
 -0.095623
 -0.002012
 -0.034203
 -0.073470
  0.001184
 -0.090463
  0.003926
  0.149615
  0.104695
  0.042657
 -0.087820
 -0.022070
 -0.019122
 -0.185815
 -0.135247
 -0.138216
 -0.018583
 -0.023397
  0.102484
  0.069075
 -0.176029
 -0.033694
  0.110399
  0.098211
 -0.065768
  0.004682
 -0.128262
  0.034197
 -0.087743
 -0.011724
 -0.004505
 -0.170548
  0.013888
 -0.163809
  0.041483
  0.222569
 -0.160358
  0.115103
  0.088008
  0.103424
  0.154407
 -0.015513
 -0.101099
  0.015699
  0.100275
  0.026231
 -0.290042
  0.110088
  0.182572
 -0.181803
  0.298069
 -0.071644
 -0.057783
  0.101453
  0.025925
  0.074219
 -0.022419
  0.011751
  0.047959
  0.051494
  0.016126
  0.066356
  0.052051
 -0.047286
 -0.010855
 -0.149400
  0.002716
 -0.060590
  0.112500
 -0.203996
 -0.011617
 -0.019519
 -0.132339
 -0.143950
 -0.086648
  0.160918
  0.070714
 -0.156225
 -0.179394
  0.002373
 -0.201058
 -0.071767
 -0.024184
 -0.009616
 -0.018032
 -0.035102
 -0.053060
  0.052852
 -0.056654
 -0.021904
 -0.090197
 -0.102312
 -0.026691
  0.050606
  0.105301
 -0.071128
 -0.091518
 -0.141147
 -0.149159
  0.017388
  0.086559
 -0.052671
 -0.087058
  0.247242
  0.148698
  0.122606
  0.088805
  0.083605
 -0.040794
  0.101554
 -0.005347
 -0.057837
 -0.041268
 -0.110406
  0.051478
 -0.045455
  0.123174
  0.038079
  0.171912
  0.163411
 -0.195649
 -0.124351
 -0.157423
  0.284930
  0.015233
  0.129937
  0.097288
  0.089089
  0.061555
  0.090754
  0.009667
 -0.084850
  0.094324
  0.035371
  0.070017
  0.153517
  0.012769
  0.014445
  0.040300
 -0.046439
 -0.016001
 -0.065571
  0.144552
  0.043362
 -0.039578
 -0.067455
 -0.017023
  0.141439
 -0.185436
  0.159398
 -0.033189
 -0.140717
  0.156760
  0.061804
 -0.071357
  0.103577
  0.245394
  0.140343
 -0.062482
  0.067987
  0.128532
 -0.059960
  0.086434
  0.235576
 -0.004153
 -0.057328
  0.210086
 -0.061658
 -0.066474
  0.006226
  0.198948
 -0.044037
 -0.021298
 -0.000653
 -0.028718
  0.213613
  0.000623
 -0.024386
  0.064538
  0.130754
 -0.017875
 -0.079864
 -0.114638
  0.066304
  0.006721
  0.003855
 -0.050580
 -0.051325
  0.033197
  0.147333
 -0.304681
 -0.049217
  0.137027
  0.008482
  0.003332
 -0.041520
  0.035912
  0.073318
 -0.122273
  0.158352
  0.047794
  0.094207
 -0.339095
 -0.163366
  0.135033
  0.106812
 -0.050474
 -0.061311
 -0.143775
 -0.147910
 -0.036533
  0.094672
 -0.096496
  0.009257
  0.184386
 -0.022223
 -0.006759
 -0.167513
 -0.112858
  0.158731
  0.035559
 -0.115198
  0.086716
 -0.055176
 -0.260712
 -0.312013
  0.028047
 -0.082084
  0.087420
  0.050458
  0.069542
  0.078436
  0.146527
  0.212849
  0.089234
 -0.106840
  0.098214
 -0.085348
 -0.036239
 -0.098928
  0.081538
 -0.099624
  0.214423
 -0.154560
  0.125578
 -0.230682
 -0.034735
  0.155887
 -0.021530
 -0.172622
  0.267297
  0.025441
  0.018567
 -0.092714
  0.031135
  0.062271
  0.061588
 -0.058372
 -0.073738
 -0.136007
  0.012534
 -0.121147
 -0.214274
 -0.183261
 -0.022099
 -0.011537
  0.145365
 -0.025230
 -0.166072
  0.063362
 -0.083010
  0.052584
 -0.269069
  0.230660
  0.031106
  0.041801
 -0.101150
 -0.074816
  0.071372
 -0.095256
  0.112570
  0.013631
  0.064271
  0.112950
 -0.044630
  0.023883
 -0.018743
 -0.066227
 -0.026039
 -0.132919
  0.015635
  0.120848
 -0.097794
  0.055442
  0.044754
 -0.079923
  0.062199
 -0.007885
  0.147012
  0.116959
 -0.028174
 -0.044735
 -0.071790
  0.132711
  0.032104
 -0.021413
  0.237491
  0.114067
  0.034929
  0.007876
  0.163714
  0.183479
 -0.035335
  0.066185
  0.192860
 -0.132036
 -0.127736
 -0.009953
  0.125376
 -0.076140
  0.070529
 -0.119330
 -0.036014
 -0.083936
 -0.130966
 -0.142177
  0.152519
 -0.088898
  0.079543
  0.052033
 -0.078636
  0.206721
  0.155948
  0.031277
 -0.099371
  0.043789
  0.004072
 -0.140549
  0.117353
  0.117051
  0.249508
  0.013746
  0.033169
  0.056366
  0.039107
 -0.151695
  0.153373
 -0.099159
  0.025179
  0.010592
  0.009528
 -0.067846
 -0.130891
 -0.128741
  0.157808
  0.056364
  0.074625
 -0.040463
  0.065203
 -0.001863
  0.213612
  0.002168
 -0.029796
 -0.154524
 -0.165086
 -0.073701
  0.019564
 -0.186478
  0.023812
  0.089020
  0.009207
  0.052496
  0.042097
 -0.004466
  0.061480
 -0.028445
  0.171058
 -0.161780
  0.204978
  0.019907
 -0.064503
  0.094316
 -0.051080
  0.064494
  0.049981
 -0.121772
 -0.040166
  0.019107
 -0.017070
 -0.054811
 -0.122590
  0.215716
 -0.146756
  0.151375
 -0.120794
  0.030612
 -0.115804
 -0.181861
  0.023074
 -0.015941
 -0.101768
 -0.021822
 -0.062265
 -0.164526
 -0.035719
 -0.108899
 -0.159393
  0.013927
 -0.095626
  0.090762
 -0.121293
  0.120585
 -0.029731
  0.124856
  0.007602
  0.007224
 -0.106190
  0.032328
 -0.051830
 -0.019216
 -0.052123
  0.029132
  0.002876
  0.164109
 -0.023510
  0.140390
  0.026066
 -0.056407
 -0.034356
 -0.040464
 -0.026328
  0.007262
  0.003180
 -0.086435
 -0.093459
  0.088161
  0.084314
  0.012701
 -0.043825
 -0.014074
 -0.119800
 -0.197990
 -0.146390
 -0.036516
 -0.146032
 -0.041483
  0.080395
 -0.046119
  0.086779
 -0.169945
  0.120111
  0.115738
 -0.048531
 -0.036507
 -0.189386
  0.065043
 -0.133922
  0.025527
 -0.196516
 -0.003048
  0.125248
 -0.045889
  0.075008
  0.174526
 -0.204849
  0.094018
  0.021315
  0.023195
  0.065175
  0.099030
  0.023644
 -0.101053
 -0.196495
 -0.001071
  0.055636
 -0.011995
  0.026467
  0.008631
 -0.013886
 -0.041247
 -0.086256
 -0.169784
  0.104401
  0.029780
 -0.013072
  0.024578
 -0.109210
 -0.063879
 -0.023834
  0.252513
  0.317545
 -0.006790
  0.125763
  0.148892
  0.007217
  0.109338
  0.043623
 -0.044938
 -0.180388
 -0.035814
  0.155628
 -0.002610
 -0.082330
  0.018312
 -0.077176
 -0.018562
  0.126914
  0.021773
 -0.053103
  0.113579
 -0.101492
 -0.078381
 -0.052587
  0.019758
  0.070306
  0.279757
  0.059935
 -0.173514
 -0.258039
 -0.046249
  0.016735
 -0.100471
  0.007334
 -0.111603
 -0.029924
  0.106297
  0.033917
  0.003018
  0.103084
 -0.250482
  0.023854
 -0.101186
 -0.052610
  0.127782
 -0.197546
 -0.136875
  0.025599
  0.203411
  0.198059
  0.024260
  0.008386
  0.043371
 -0.151376
 -0.036109
 -0.073687
 -0.114829
 -0.080420
 -0.113231
 -0.079362
  0.225712
 -0.017074
 -0.174593
 -0.210876
  0.032239
  0.016946
 -0.071947
  0.036849
  0.049890
  0.060425
  0.062077
  0.178244
  0.070498
 -0.079775
  0.149236
  0.183259
  0.071661
 -0.191429
 -0.119571
 -0.020463
  0.052612
  0.042975
  0.046718
 -0.052756
 -0.058953
 -0.011642
 -0.087691
 -0.063689
  0.048536
  0.078476
  0.031653
  0.016929
 -0.022037
  0.059426
  0.033049
  0.062567
 -0.071444
  0.085560
  0.040623
 -0.063904
  0.013909
 -0.140506
  0.023034
  0.086371
 -0.211983
  0.042756
 -0.071046
 -0.040693
 -0.042098
  0.227389
 -0.132816
 -0.011625
 -0.035714
 -0.023314
 -0.006812
  0.127653
  0.067653
  0.006496
 -0.148386
  0.013203
 -0.120508
 -0.182825
  0.064287
  0.082963
  0.082130
  0.058955
  0.190731
  0.059498
 -0.087706
 -0.046179
 -0.195271
 -0.025057
  0.015614
 -0.001351
 -0.070395
 -0.067104
 -0.078333
  0.289539
  0.057613
 -0.187868
 -0.113843
  0.014407
  0.052870
 -0.058189
  0.128641
  0.124233
 -0.181989
  0.208046
 -0.020796
  0.215850
  0.113869
  0.093695
  0.157691
  0.047019
  0.042789
 -0.025269
  0.045771
 -0.075389
  0.062323
 -0.146358
 -0.083906
  0.059510
  0.034450
 -0.082320
 -0.114178
  0.027213
 -0.025260
  0.057205
 -0.002128
  0.022770
 -0.050908
 -0.112698
  0.138234
  0.010982
 -0.055729
  0.040505
  0.029452
 -0.008370
 -0.069955
  0.141761
  0.015966
 -0.081967
 -0.283014
 -0.070199
 -0.001422
  0.147386
  0.044746
  0.056574
 -0.010259
 -0.011500
 -0.139264
 -0.126312
  0.032455
 -0.271103
 -0.181831
  0.170422
 -0.024864
 -0.109637
  0.021966
 -0.043628
 -0.166097
  0.131324
 -0.077764
  0.196969
  0.080492
  0.052767
  0.072696
  0.090756
  0.058587
  0.083818
 -0.008953
  0.115564
  0.036398
  0.206394
 -0.092904
 -0.019188
  0.034844
 -0.154939
 -0.100694
 -0.211292
 -0.042760
  0.106525
  0.061426
  0.057318
  0.105694
  0.181305
 -0.027316
  0.183179
  0.086032
  0.150747
  0.024997
 -0.081992
 -0.070806
  0.073554
  0.045858
 -0.124951
  0.172188
 -0.112021
 -0.022736
  0.013463
  0.098891
 -0.050958
 -0.112782
 -0.154856
 -0.198321
 -0.151041
  0.133664
  0.007636
 -0.062895
 -0.057477
  0.094396
  0.129286
  0.017419
  0.025789
  0.034240
 -0.079517
 -0.111152
 -0.059586
 -0.078783
  0.124837
 -0.143321
 -0.198765
 -0.015718
 -0.412270
 -0.094440
 -0.241213
  0.058755
  0.157684
 -0.015453
 -0.233288
 -0.217486
  0.138456
  0.050051
 -0.082634
  0.185268
 -0.156506
  0.112184
  0.096972
 -0.071348
  0.090618
 -0.011577
  0.017880
  0.095170
  0.000776
 -0.037328
 -0.095862
 -0.035754
  0.138517
 -0.126388
 -0.096019
  0.027429
 -0.115397
  0.188408
  0.183720
  0.181850
 -0.133767
  0.017703
 -0.013790
  0.105615
 -0.021975
  0.033647
 -0.028296
 -0.093470
  0.029390
  0.067148
 -0.079931
 -0.273034
 -0.069247
  0.133910
 -0.094651
  0.076650
 -0.094094
  0.005712
 -0.058310
 -0.037938
 -0.049242
 -0.022220
 -0.022084
  0.003605
  0.042473
  0.187846
  0.150155
  0.099715
  0.051111
  0.049690
  0.088748
  0.029463
 -0.012331
 -0.044915
  0.038994
  0.061204
 -0.092502
  0.027529
  0.028793
  0.036535
  0.047123
  0.128003
 -0.042692
  0.066219
 -0.028969
 -0.148898
  0.244138
  0.056416
 -0.011023
  0.204847
 -0.036585
 -0.066112
  0.158724
 -0.054862
 -0.058069
 -0.073619
 -0.049472
  0.095150
  0.015660
  0.016000
  0.260816
  0.104778
  0.070312
  0.139213
  0.174970
  0.071442
  0.061315
  0.112536
  0.004512
 -0.101100
 -0.016341
  0.147007
  0.100362
  0.060865
 -0.075325
  0.064635
 -0.006301
 -0.091917
  0.158848
 -0.014053
  0.257275
  0.086403
 -0.115031
  0.135466
  0.118430
  0.171873
  0.335271
  0.222244
  0.059273
  0.120101
  0.017415
  0.182927
  0.015223
 -0.035485
  0.053677
  0.119860
  0.128385
  0.233774
  0.227784
  0.193095
  0.219206
  0.320279
  0.293871
  0.510330
  0.491618
  0.295140
  0.500141
  0.644902
  0.536948
  0.557171
  0.732779
  0.616689
  0.447248
  0.632197
  0.692139
  0.846460
  0.800795
  0.683251
  1.000000
  0.887565
  0.847107
  0.714555
  0.752890
  0.739344
  0.892004
  0.691165
  0.710351
  0.896084
  0.907195
  0.770754
  0.811596
  0.896839
  0.770731
  0.615974
  0.640862
  0.437759
  0.494032
  0.443612
  0.342929
  0.245641
  0.188672
  0.070173
  0.095241
 -0.029582
  0.015734
  0.168904
  0.155644
 -0.056334
 -0.072606
  0.007435
  0.000976
 -0.037179
  0.077034
 -0.013489
  0.102070
  0.152233
  0.024897
 -0.074223
 -0.082386
 -0.037667
  0.033965
  0.058159
  0.023127
 -0.101448
 -0.007811
  0.049978
  0.086196
 -0.174689
  0.052334
 -0.053280
  0.004549
  0.178071
  0.080681
  0.049471
  0.166267
  0.008378
 -0.150857
 -0.065133
 -0.101242
  0.144733
  0.130106
  0.066818
  0.059139
 -0.113479
  0.125360
  0.115029
  0.121321
  0.087036
  0.091944
  0.068723
  0.086347
  0.019199
 -0.051009
 -0.111887
  0.003216
  0.023739
  0.014563
 -0.119120
  0.020339
  0.167595
  0.030037
  0.119011
 -0.033992
  0.081286
  0.069671
  0.173848
 -0.059291
 -0.089695
  0.153247
 -0.021847
  0.085020
 -0.002469
 -0.072902
 -0.026913
  0.106888
 -0.009480
  0.140533
 -0.000757
 -0.087646
 -0.074558
  0.130685
  0.046731
  0.139581
  0.072337
  0.011708
  0.184952
 -0.120659
 -0.172858
  0.041468
  0.056172
 -0.049877
  0.058802
  0.107940
 -0.012995
  0.161948
  0.120209
 -0.106518
 -0.001776
 -0.003489
  0.039379
 -0.080154
 -0.083696
  0.171480
 -0.115306
 -0.153438
 -0.030703
  0.018686
 -0.149010
 -0.174434
 -0.022320
  0.006950
 -0.236220
  0.013424
  0.162620
 -0.013846
  0.043256
 -0.022850
 -0.011859
 -0.203289
  0.081219
 -0.018839
  0.003868
  0.004501
 -0.017106
 -0.006604
  0.067099
  0.231440
  0.070204
  0.018932
  0.035417
  0.035703
 -0.011125
  0.137156
 -0.035736
  0.009536
 -0.087358
  0.125545
  0.175794
 -0.115365
  0.219566
  0.022697
  0.013204
  0.212893
  0.086240
 -0.005518
 -0.196874
 -0.113787
 -0.142489
  0.015601
  0.047322
  0.036813
  0.024300
 -0.232444
  0.060734
 -0.006194
  0.041756
 -0.128382
  0.006037
  0.074083
  0.136139
 -0.010387
 -0.110286
 -0.050467
  0.140905
 -0.042376
 -0.099597
  0.112975
 -0.096735
  0.174489
  0.069331
  0.114718
 -0.022433
  0.093960
 -0.095221
  0.042517
 -0.103395
  0.086381
 -0.019848
 -0.144257
 -0.050447
  0.098123
 -0.076600
  0.046340
  0.097565
 -0.177115
  0.173279
  0.034427
 -0.117487
 -0.062118
 -0.183605
 -0.068389
  0.038346
 -0.038684
  0.095275
 -0.094480
 -0.175257
  0.061784
 -0.011307
 -0.067234
  0.034257
  0.064089
 -0.043444
 -0.031167
  0.328357
 -0.043560
 -0.043761
 -0.091673
 -0.033000
 -0.081166
 -0.155395
 -0.062663
  0.030887
 -0.074369
  0.016348
  0.315546
 -0.076326
  0.091761
  0.143969
 -0.141499
  0.016935
 -0.044353
 -0.002628
 -0.070249
 -0.092366
  0.228240
  0.030322
  0.047042
  0.055903
 -0.102065
  0.147977
  0.211144
  0.071988
  0.004662
  0.106865
  0.191811
 -0.048337
  0.122804
 -0.088642
 -0.077438
  0.101350
  0.078795
  0.112280
  0.041773
  0.055599
  0.120702
  0.132990
  0.025083
 -0.101343
 -0.043578
  0.107583
 -0.096970
 -0.157399
  0.025579
  0.233519
 -0.003806
  0.116278
 -0.128168
 -0.116762
 -0.240876
  0.055582
  0.057287
  0.121601
 -0.059842
 -0.099223
  0.010894
 -0.035348
  0.013690
 -0.066785
  0.065719
 -0.014004
 -0.031306
 -0.028026
  0.184673
 -0.084876
 -0.024518
  0.016524
  0.196853
 -0.008883
  0.109879
  0.058504
 -0.107812
  0.092043
  0.048528
  0.139114
 -0.061387
 -0.005857
 -0.071624
 -0.010239
 -0.272627
 -0.045501
  0.048464
  0.101727
 -0.039907
 -0.016081
 -0.100696
  0.154886
  0.007630
 -0.034075
  0.106020
  0.136286
  0.010464
  0.130341
 -0.037605
 -0.057415
 -0.044392
  0.101338
  0.005893
 -0.115108
  0.073461
 -0.177555
  0.082199
  0.083593
  0.051428
 -0.038835
 -0.065543
 -0.053994
 -0.064372
 -0.105827
 -0.089701
  0.169758
  0.021994
 -0.010658
 -0.169711
 -0.109711
 -0.043643
 -0.126964
 -0.059481
  0.004839
  0.116066
 -0.037632
  0.006380
  0.122578
  0.011562
 -0.095896
  0.067604
  0.077049
  0.033459
 -0.043159
 -0.094642
 -0.106641
 -0.030990
 -0.024181
 -0.018255
  0.070490
  0.231212
  0.021415
 -0.075043
  0.105717
  0.028857
 -0.046556
  0.213872
  0.181435
  0.018996
 -0.140500
 -0.247234
  0.123372
 -0.094214
 -0.055016
 -0.051300
 -0.136955
 -0.162303
  0.049387
  0.168992
 -0.273861
 -0.019957
 -0.166311
  0.185243
 -0.029775
  0.105129
 -0.095421
 -0.205277
  0.150024
 -0.078261
  0.025016
 -0.125053
 -0.126039
 -0.012251
  0.011974
  0.059227
  0.040454
 -0.165609
 -0.106761
  0.152311
 -0.050661
  0.013455
 -0.142469
  0.027535
  0.104023
  0.072594
  0.071761
  0.231044
  0.085182
 -0.073149
  0.159577
  0.167593
 -0.132339
  0.064063
 -0.079831
 -0.113730
  0.077137
 -0.123809
 -0.059422
 -0.120870
 -0.014030
 -0.172458
  0.043844
  0.100687
 -0.106339
  0.082909
 -0.044072
  0.098126
 -0.083359
 -0.059734
 -0.038185
 -0.056795
  0.078382
 -0.088069
  0.065914
 -0.120535
  0.055367
 -0.099095
  0.015421
  0.193023
  0.141519
  0.032162
  0.037632
 -0.019161
 -0.056775
 -0.086003
  0.158613
 -0.152767
 -0.235394
 -0.197800
 -0.014822
  0.110625
 -0.107792
 -0.089279
 -0.102141
  0.070543
  0.010805
  0.128986
 -0.107334
  0.039882
 -0.009555
  0.016136
  0.043186
  0.051175
 -0.011441
 -0.022467
  0.159169
  0.015832
  0.254925
 -0.049104
  0.107732
 -0.054941
 -0.000121
  0.045592
  0.119319
 -0.090797
  0.019906
  0.095465
  0.030036
  0.093213
 -0.289613
  0.171231
  0.061690
 -0.086957
 -0.024734
  0.048676
 -0.175205
 -0.082115
 -0.163065
 -0.175359
  0.055954
 -0.016001
  0.183088
 -0.042115
 -0.086304
 -0.017780
  0.074047
 -0.044253
 -0.064584
 -0.179367
  0.073123
  0.096582
 -0.073329
 -0.038870
 -0.075200
  0.176965
 -0.047846
 -0.078000
  0.014657
 -0.117050
 -0.131328
 -0.118272
  0.112220
 -0.010017
 -0.024458
  0.024248
 -0.088579
  0.153414
 -0.060338
 -0.225839
  0.127926
  0.015914
 -0.185164
 -0.035667
  0.103851
 -0.131471
 -0.030329
  0.040448
  0.054468
 -0.071183
  0.087021
 -0.147775
 -0.080929
  0.028729
 -0.009848
 -0.010541
 -0.001477
 -0.138474
  0.029846
 -0.025259
 -0.131442
  0.188600
  0.007856
  0.028456
  0.072992
  0.019117
  0.139724
  0.074808
  0.151201
  0.005549
  0.098332
  0.041011
 -0.001300
  0.014496
 -0.014023
  0.082951
 -0.051541
 -0.003368
  0.077613
 -0.161353
 -0.191453
  0.162368
  0.053624
 -0.172543
  0.190747
  0.176305
  0.018587
  0.044145
 -0.075444
 -0.113306
 -0.128149
 -0.053546
  0.020180
  0.073164
  0.235933
  0.000797
  0.016963
 -0.194632
  0.135371
  0.024428
 -0.007361
 -0.018947
 -0.079293
  0.010771
 -0.072064
 -0.184451
  0.093457
  0.214295
  0.134472
  0.060987
 -0.055785
 -0.118696
 -0.049326
  0.042036
 -0.144292
 -0.149255
 -0.147447
  0.185373
  0.071026
  0.013169
  0.049121
 -0.056231
  0.039675
 -0.115576
 -0.085817
 -0.004349
 -0.034935
  0.138101
  0.013620
 -0.050762
  0.082726
  0.034177
 -0.080218
 -0.039718
 -0.006970
 -0.073657
 -0.089882
  0.049204
  0.185727
 -0.217491
 -0.219577
 -0.069463
 -0.101843
 -0.006088
  0.027985
  0.104753
  0.014116
  0.081394
 -0.055865
 -0.093729
 -0.034075
 -0.065385
  0.025638
  0.164255
  0.030575
 -0.054969
 -0.083505
  0.086680
 -0.090845
 -0.096817
  0.060448
  0.073582
  0.154087
  0.047569
  0.037340
  0.101991
  0.061067
  0.080909
 -0.064180
  0.116910
 -0.029958
  0.049635
  0.289968
  0.086845
  0.070505
  0.250395
 -0.057066
  0.002201
 -0.084886
  0.047969
 -0.056743
 -0.045575
 -0.086292
 -0.020562
  0.163269
  0.034495
  0.027188
 -0.138892
 -0.101386
  0.029501
  0.086177
 -0.125160
 -0.061804
 -0.055816
  0.075258
 -0.110715
 -0.285354
  0.014846
 -0.140108
 -0.001568
  0.045883
  0.081814
  0.030793
  0.046455
 -0.212174
  0.012657
 -0.017016
 -0.073118
  0.112178
 -0.086480
  0.005156
 -0.087491
  0.003430
  0.114338
  0.066058
 -0.016940
  0.187308
 -0.033574
 -0.171925
  0.138895
  0.111094
  0.142487
 -0.000691
 -0.135240
 -0.045880
 -0.099910
 -0.009309
 -0.034897
  0.041401
 -0.053551
 -0.037524
  0.172129
  0.043326
 -0.031944
 -0.012348
  0.034447
 -0.085314
  0.046856
  0.139035
 -0.246717
  0.101504
  0.037611
 -0.130556
  0.042210
  0.085364
 -0.084634
  0.139252
  0.034297
 -0.141255
 -0.052815
 -0.012186
  0.111276
 -0.126377
  0.225906
  0.026017
  0.003663
  0.058513
 -0.087847
  0.058937
  0.127706
 -0.038469
 -0.093829
  0.025632
  0.155279
 -0.143613
 -0.055921
  0.213082
  0.138243
 -0.136180
  0.019287
  0.184475
  0.091046
  0.076737
 -0.009594
  0.058150
  0.079725
 -0.117062
 -0.058257
  0.073099
  0.106263
 -0.090199
 -0.036575
 -0.070013
 -0.013268
 -0.053019
  0.131364
 -0.053672
 -0.177577
  0.107270
 -0.214348
 -0.054191
  0.046002
 -0.056082
  0.032966
  0.102443
 -0.015751
 -0.104619
  0.128640
  0.029876
 -0.069606
 -0.021562
 -0.073807
 -0.050510
 -0.044967
  0.046450
  0.031923
 -0.094321
 -0.002531
  0.004409
 -0.041338
 -0.055017
 -0.195548
  0.191330
  0.046408
  0.099318
 -0.067111
  0.079568
 -0.109570
  0.083570
  0.053532
 -0.095089
  0.075605
  0.074669
  0.045395
 -0.055857
  0.018765
  0.053435
 -0.147608
  0.067706
  0.062077
 -0.066726
  0.012182
  0.008397
 -0.013628
 -0.056077
  0.007558
 -0.123235
  0.031348
 -0.095233
 -0.132902
  0.019061
 -0.100276
  0.129515
  0.052723
 -0.046157
  0.214200
  0.068950
  0.094731
 -0.161969
  0.026641
 -0.010608
 -0.270516
  0.008351
  0.052929
 -0.026222
 -0.115167
 -0.059361
  0.077128
  0.021945
 -0.048784
 -0.087103
 -0.202683
  0.081383
  0.056830
 -0.022810
 -0.015323
 -0.126253
 -0.088895
 -0.007228
  0.112038
  0.125650
 -0.087363
  0.076283
 -0.103179
 -0.021362
  0.112174
  0.062170
  0.135692
 -0.080384
 -0.072700
  0.077635
  0.006773
 -0.020136
 -0.104978
 -0.144720
 -0.139030
  0.052130
  0.000772
  0.067996
  0.073084
  0.177969
 -0.175416
  0.042843
  0.116789
  0.035327
  0.051939
  0.076643
 -0.080431
 -0.099412
 -0.038310
  0.131155
 -0.076149
  0.015151
 -0.207677
  0.046476
 -0.043271
 -0.206559
  0.096859
 -0.005385
 -0.005881
  0.118195
  0.104843
  0.019935
 -0.052009
  0.041997
  0.216585
  0.080538
  0.142309
 -0.031301
  0.166642
  0.009206
 -0.095668
  0.132456
  0.140867
 -0.051194
 -0.006486
 -0.160636
 -0.008331
  0.019441
  0.080829
 -0.025057
  0.172956
  0.008414
  0.098744
 -0.076325
 -0.048229
  0.039054
 -0.055022
 -0.137832
  0.091381
 -0.084561
 -0.100402
 -0.096828
 -0.103199
 -0.027760
 -0.141062
  0.035276
 -0.045831
  0.164906
 -0.064107
  0.130478
 -0.005995
  0.020120
  0.076092
 -0.074751
 -0.030435
  0.011885
 -0.098086
  0.184734
 -0.074261
  0.040848
  0.047877
 -0.016125
 -0.060386
 -0.047325
 -0.172373
  0.110459
  0.064978
  0.166894
 -0.094843
 -0.169361
  0.066832
  0.017033
 -0.018655
 -0.053678
  0.048344
 -0.162268
 -0.008881
  0.044456
 -0.060754
  0.064125
 -0.006166
 -0.306974
  0.058492
 -0.167950
 -0.001540
  0.040375
 -0.110516
  0.062470
 -0.006314
  0.046489
  0.008610
  0.009899
 -0.136069
 -0.024736
 -0.006494
  0.159403
  0.053500
 -0.207885
 -0.009411
  0.039481
 -0.121950
 -0.088753
  0.048657
 -0.074167
  0.166968
  0.075533
  0.016465
  0.009041
 -0.028204
  0.011053
  0.240005
  0.121427
 -0.078544
 -0.248170
  0.062146
 -0.127741
 -0.059707
  0.099958
  0.057736
 -0.080171
 -0.041511
  0.044181
  0.184644
 -0.013860
 -0.041370
 -0.033852
  0.050363
  0.163120
 -0.113093
 -0.037059
  0.147002
 -0.128739
 -0.283352
 -0.009085
  0.000563
  0.089459
  0.011364
  0.184022
 -0.095054
 -0.008883
  0.016524
  0.007728
  0.128326
  0.160594
  0.079965
  0.048173
 -0.038358
 -0.067711
 -0.038059
 -0.015592
 -0.090539
 -0.266371
  0.033221
  0.021879
 -0.040994
  0.078059
 -0.072126
 -0.077489
 -0.114380
  0.152305
 -0.086255
 -0.027694
  0.108219
  0.063532
  0.073903
  0.103486
 -0.076152
 -0.038370
  0.087520
  0.128260
  0.110832
  0.029691
  0.121492
 -0.157075
 -0.059324
  0.093241
  0.040190
 -0.152828
 -0.084549
 -0.079672
  0.014947
  0.006814
  0.093185
  0.201529
  0.007361
  0.063086
 -0.132207
  0.180671
  0.011095
  0.002886
  0.005697
 -0.020560
  0.090771
 -0.047465
  0.037780
 -0.130386
  0.115484
  0.039520
  0.174341
  0.024073
 -0.220997
 -0.199990
 -0.013887
  0.116510
 -0.234191
 -0.029743
 -0.060861
 -0.007950
 -0.002382
 -0.023154
 -0.018590
  0.042005
  0.190954
 -0.015284
  0.085945
  0.024660
 -0.043658
 -0.054386
 -0.061487
 -0.054027
 -0.058751
  0.168652
  0.101333
  0.010260
 -0.023278
 -0.004345
 -0.106046
  0.169982
 -0.004976
  0.113947
  0.091129
  0.037754
  0.049896
 -0.014854
  0.036131
 -0.078637
 -0.016975
 -0.105908
  0.111809
 -0.080304
  0.100256
 -0.039648
 -0.096492
  0.140094
  0.046558
 -0.013062
  0.131615
  0.042293
  0.093389
  0.020065
 -0.010347
  0.078761
 -0.072721
 -0.074314
 -0.087146
 -0.119103
 -0.111011
  0.127526
 -0.123780
  0.090790
 -0.098887
 -0.203898
 -0.141833
 -0.101259
  0.088433
 -0.130076
 -0.149906
  0.052605
  0.002621
 -0.187655
 -0.062594
  0.051962
 -0.172990
  0.180344
 -0.057783
  0.078954
 -0.181639
  0.108206
 -0.038848
 -0.045452
 -0.041456
 -0.078402
 -0.123199
 -0.120999
  0.280333
 -0.035455
  0.081203
 -0.000641
  0.000841
  0.042495
  0.118960
 -0.100922
 -0.020003
 -0.012269
  0.032764
  0.125507
  0.008167
 -0.047539
  0.213917
  0.012643
 -0.063202
 -0.125199
  0.004841
 -0.018341
  0.019107
  0.037485
 -0.107232
  0.015111
 -0.120679
  0.180941
  0.087518
  0.160981
  0.003911
 -0.122779
  0.042948
 -0.008846
  0.057145
 -0.102037
 -0.039262
  0.094296
  0.083934
 -0.035704
 -0.041261
 -0.030043
  0.041944
  0.035350
  0.047064
  0.075657
  0.099294
  0.057959
 -0.069928
 -0.015510
 -0.100975
  0.178621
 -0.132711
  0.100203
  0.240272
  0.248924
  0.099817
 -0.067509
  0.018171
 -0.152128
 -0.106160
  0.001937
  0.063333
 -0.029617
 -0.095003
 -0.150941
 -0.230011
  0.063163
 -0.035172
  0.021185
  0.146207
 -0.035920
  0.115331
 -0.021398
  0.164550
  0.221257
  0.080480
  0.147735
 -0.184344
 -0.024423
  0.191850
  0.092914
  0.026910
  0.059834
 -0.196091
 -0.051318
  0.168266
 -0.133890
 -0.063149
 -0.078956
 -0.036806
 -0.013312
 -0.009142
  0.146409
  0.179318
  0.016541
 -0.058428
  0.051791
  0.090114
  0.117809
  0.023373
 -0.041453
 -0.123271
 -0.037056
 -0.115482
  0.015539
  0.032588
  0.168330
  0.018686
 -0.024183
 -0.010812
  0.144713
 -0.173178
 -0.108390
 -0.019336
  0.165312
 -0.033109
  0.032097
  0.048257
 -0.051474
 -0.143211
  0.052325
 -0.037048
  0.197560
 -0.103525
 -0.080212
 -0.086535
  0.010097
 -0.069112
 -0.204376
 -0.108954
 -0.031502
 -0.056105
  0.140248
 -0.105611
  0.158320
 -0.013506
 -0.069935
  0.141903
 -0.121260
 -0.052415
 -0.205606
  0.052371
 -0.146017
 -0.042487
 -0.044506
  0.126451
  0.028925
  0.071344
 -0.042714
 -0.012651
 -0.030343
 -0.117196
 -0.114705
  0.080379
  0.061659
 -0.069081
  0.001661
  0.115118
  0.241807
  0.095773
 -0.104274
 -0.226575
 -0.133574
 -0.028502
  0.052354
  0.165227
  0.179734
 -0.018046
  0.176737
  0.114610
 -0.083445
 -0.099665
  0.137520
 -0.072907
  0.009902
  0.065104
  0.040669
  0.018018
 -0.082591
  0.073626
 -0.040943
  0.169567
 -0.106427
 -0.021220
  0.023394
 -0.075331
  0.185811
 -0.122317
 -0.032485
 -0.066012
  0.085011
 -0.104859
  0.070656
  0.044641
  0.058233
  0.279881
  0.138422
 -0.101835
 -0.028561
 -0.000796
  0.036963
 -0.004635
  0.028389
 -0.148578
 -0.001255
 -0.060117
  0.112971
  0.139145
 -0.067929
  0.096851
  0.048432
 -0.051394
  0.094324
 -0.008293
  0.124130
 -0.131852
  0.000073
  0.085664
  0.012293
 -0.063925
 -0.166368
  0.047901
  0.079465
 -0.021829
 -0.161765
  0.025085
 -0.066778
  0.165308
 -0.005508
  0.016747
 -0.172061
 -0.027077
  0.208650
  0.217431
  0.075872
  0.234765
 -0.110861
  0.000674
  0.036941
  0.053029
  0.051421
  0.000053
  0.019466
 -0.099892
 -0.023112
 -0.048584
  0.171895
 -0.224831
  0.013920
 -0.172583
  0.045434
 -0.040597
 -0.036770
 -0.174942
  0.052165
  0.019395
 -0.075335
  0.064799
  0.042811
 -0.015127
 -0.016549
 -0.122424
 -0.150389
 -0.008721
 -0.089587
  0.053843
 -0.036999
 -0.030310
 -0.036214
  0.026861
  0.007910
  0.094300
 -0.242849
 -0.012959
  0.202612
 -0.006140
 -0.000897
  0.310388
 -0.000927
 -0.144318
 -0.066872
 -0.185298
 -0.073711
 -0.000892
  0.010405
  0.124888
  0.027457
  0.058166
 -0.061502
 -0.076603
 -0.185399
 -0.019456
  0.146653
  0.053544
 -0.022144
  0.068234
  0.034412
 -0.076469
 -0.010156
  0.004413
 -0.128890
  0.134179
  0.033752
  0.041833
 -0.173956
 -0.109989
  0.065496
  0.131939
 -0.058001
 -0.218794
  0.012691
 -0.046667
 -0.098264
  0.020154
 -0.030920
 -0.052607
  0.028273
 -0.059930
 -0.068977
 -0.147784
  0.136376
 -0.010287
  0.080279
  0.017311
 -0.180367
  0.130420
  0.153082
  0.180018
 -0.036249
 -0.038878
 -0.196623
 -0.070181
 -0.133364
  0.111863
  0.079260
  0.110557
  0.017812
 -0.002595
  0.089013
 -0.017232
  0.109821
  0.151840
 -0.133618
 -0.097218
 -0.082150
 -0.105003
  0.033971
  0.137848
  0.053024
  0.016672
  0.014938
 -0.012212
 -0.104215
 -0.078082
 -0.032085
  0.080521
 -0.020046
  0.182188
  0.048976
  0.063725
  0.075097
  0.049405
  0.164943
 -0.114206
  0.142400
 -0.035098
 -0.167351
  0.129399
 -0.129892
 -0.190917
 -0.107985
 -0.077887
  0.008105
 -0.161362
  0.074034
 -0.152079
 -0.042353
 -0.082160
 -0.101107
 -0.016209
  0.151459
  0.129644
  0.077185
  0.200927
 -0.048804
  0.003144
  0.103400
  0.063246
  0.094763
  0.166001
  0.014954
 -0.167355
 -0.078058
  0.076409
  0.091017
 -0.002965
  0.125430
 -0.002995
 -0.147281
  0.058580
  0.067844
 -0.051149
  0.043142
  0.158212
  0.138311
  0.132245
  0.017836
 -0.002087
  0.125148
  0.162570
 -0.149857
 -0.041713
  0.125179
 -0.090399
  0.042393
 -0.113595
  0.202426
 -0.007166
 -0.031996
 -0.130415
 -0.050178
 -0.051990
  0.126659
  0.151024
 -0.135615
 -0.004532
 -0.044013
  0.101430
 -0.158465
 -0.143040
  0.018525
 -0.197971
 -0.016878
 -0.206207
 -0.062553
  0.113099
 -0.159243
  0.020039
  0.074930
 -0.153549
  0.004093
 -0.127317
 -0.170922
  0.016007
 -0.101150
 -0.250732
 -0.000251
 -0.122428
 -0.102463
  0.008182
  0.142431
 -0.002272
  0.057886
 -0.170975
 -0.072251
  0.169542
  0.070104
  0.159568
  0.038681
 -0.091268
  0.083459
  0.044650
 -0.040566
 -0.236322
 -0.251067
  0.032963
 -0.068703
  0.158489
  0.050396
 -0.059532
 -0.101746
  0.024513
 -0.018216
 -0.022189
  0.033795
 -0.154300
  0.038675
  0.168928
  0.107860
 -0.057188
  0.040394
 -0.003311
  0.106265
 -0.176802
 -0.049655
 -0.079683
 -0.057625
 -0.049631
 -0.028336
  0.097593
 -0.078404
 -0.131367
 -0.032131
 -0.071387
 -0.000360
 -0.004023
  0.023725
 -0.048178
 -0.084579
  0.058308
  0.028585
 -0.066221
  0.084782
 -0.014924
  0.000928
 -0.113613
  0.067133
  0.054427
  0.104140
 -0.003443
  0.127922
  0.030818
 -0.052392
 -0.164482
  0.049987
 -0.170282
  0.029377
  0.038790
 -0.072931
  0.048859
 -0.046233
  0.032620
 -0.075531
 -0.017668
 -0.006951
 -0.145897
  0.062256
  0.165243
 -0.048380
 -0.141548
  0.051152
  0.035527
 -0.039107
  0.161024
  0.011572
 -0.106236
  0.081809
  0.079243
 -0.163694
 -0.061270
  0.278968
 -0.118361
  0.037131
  0.105949
 -0.121399
 -0.019163
  0.083951
 -0.223706
  0.037658
  0.062001
  0.001390
 -0.036647
  0.023173
  0.089912
 -0.083801
 -0.164659
  0.068773
  0.080723
 -0.065343
 -0.022680
 -0.068901
  0.002972
 -0.093894
 -0.070530
 -0.071648
  0.072307
 -0.047003
 -0.006355
 -0.056476
  0.142124
  0.085502
 -0.024616
  0.047301
  0.026559
 -0.011015
  0.122597
  0.066504
  0.122964
  0.249387
 -0.021107
 -0.039042
  0.018390
  0.012183
  0.059897
  0.037998
  0.089263
 -0.023214
 -0.100942
  0.171252
 -0.118201
 -0.177179
  0.126544
 -0.030251
  0.004057
  0.159627
  0.101055
  0.176658
  0.038746
  0.088020
  0.054547
 -0.046489
  0.137531
  0.048717
  0.024960
  0.133703
 -0.138185
 -0.111598
  0.024005
 -0.160239
  0.013550
  0.039709
  0.131436
  0.072668
 -0.010098
 -0.045879
 -0.070595
  0.051235
  0.083811
  0.104982
  0.144392
  0.110560
 -0.000913
 -0.037349
 -0.045405
 -0.092629
  0.069610
  0.153657
 -0.114906
 -0.099295
  0.204160
  0.113442
 -0.088256
  0.158022
 -0.123027
  0.060033
 -0.003064
  0.173640
 -0.021491
 -0.156247
  0.038915
  0.116174
  0.009744
 -0.082919
 -0.117926
 -0.171213
  0.029923
  0.012283
  0.041099
 -0.055295
  0.034776
  0.107231
 -0.202217
  0.238222
 -0.147122
 -0.170176
 -0.103331
  0.007796
  0.008030
 -0.033496
 -0.035468
 -0.054751
  0.177588
 -0.024418
  0.000499
 -0.016788
  0.009502
  0.143990
 -0.060291
  0.016240
 -0.125708
 -0.024444
  0.070517
 -0.050494
  0.095210
 -0.010594
 -0.120260
 -0.175616
  0.002870
  0.084954
  0.076981
 -0.082504
 -0.064595
 -0.061577
 -0.166244
  0.040356
 -0.197746
 -0.082680
 -0.094130
  0.012643
 -0.179310
 -0.069611
  0.088624
  0.067786
  0.126671
  0.178553
 -0.073693
 -0.047575
  0.000491
  0.022435
 -0.025348
 -0.306125
  0.268454
  0.101165
 -0.088639
  0.164397
  0.073909
  0.075180
 -0.046103
  0.304707
  0.025152
  0.055285
  0.062730
 -0.127961
 -0.048224
 -0.070343
  0.018319
 -0.046683
  0.067336
  0.003621
 -0.072389
  0.006713
  0.006601
  0.007348
  0.107740
 -0.041402
  0.061130
 -0.051457
  0.063495
  0.011072
  0.120055
  0.000271
  0.180882
  0.018872
 -0.072733
  0.011726
 -0.063352
  0.009977
  0.105879
 -0.028984
  0.062663
 -0.079796
  0.202095
 -0.016964
 -0.109217
 -0.059987
  0.215375
  0.190189
 -0.121247
  0.049075
 -0.107094
  0.117787
  0.142610
 -0.059659
  0.021274
 -0.003306
 -0.076826
 -0.090274
 -0.061248
 -0.154017
 -0.239526
 -0.027325
  0.211635
 -0.027329
 -0.043344
 -0.197266
 -0.070873
 -0.001098
 -0.072499
  0.056380
 -0.041613
  0.039996
 -0.137197
  0.224002
  0.053184
 -0.011930
 -0.170845
  0.085498
 -0.078771
  0.034585
  0.126675
 -0.087294
 -0.047446
  0.061204
  0.060617
 -0.064799
  0.031460
 -0.060083
  0.128033
  0.033667
 -0.174481
 -0.011885
  0.111891
 -0.002536
  0.074753
 -0.015324
 -0.002404
 -0.077640
 -0.120281
  0.043458
 -0.045441
 -0.042337
  0.000551
  0.006269
 -0.076415
  0.046655
  0.037238
 -0.128348
 -0.162373
 -0.043902
 -0.046530
  0.052750
 -0.059566
  0.091003
  0.106690
  0.210569
  0.197093
  0.051018
 -0.032124
  0.160188
 -0.146433
  0.253790
 -0.154852
  0.127098
 -0.117547
 -0.011986
  0.048733
 -0.050906
 -0.207938
  0.080341
 -0.074023
  0.083722
 -0.076755
  0.146508
  0.151505
  0.069850
  0.008208
 -0.191794
  0.145060
 -0.137111
  0.090073
  0.050074
 -0.114021
  0.102655
 -0.106988
  0.095710
  0.042133
 -0.059185
 -0.102325
 -0.129758
  0.191778
 -0.029278
  0.048822
 -0.157966
  0.106051
  0.046703
 -0.137818
  0.045564
 -0.003906
  0.075768
  0.167024
 -0.103605
  0.065732
  0.036217
 -0.031733
 -0.043694
  0.146572
 -0.015265
  0.064685
 -0.084842
  0.241482
 -0.095637
  0.176964
 -0.056044
  0.034961
  0.019043
  0.128476
  0.014011
  0.174298
 -0.117761
  0.032346
 -0.035081
 -0.063730
  0.067163
  0.014213
  0.043511
  0.057895
 -0.136446
 -0.093923
 -0.054508
  0.193728
  0.103653
 -0.038659
  0.013432
  0.130841
  0.082982
  0.075420
  0.043330
  0.017603
  0.195036
  0.260083
  0.055206
  0.156060
 -0.056713
 -0.085961
 -0.234540
 -0.276036
 -0.119623
 -0.180652
  0.020705
 -0.065451
 -0.047723
  0.008812
  0.095506
  0.004190
 -0.036339
  0.100424
 -0.018004
  0.060165
  0.101827
  0.083071
  0.048880
  0.095801
  0.037010
  0.174304
 -0.050397
 -0.015677
 -0.028143
  0.151554
 -0.004192
  0.088502
  0.094189
 -0.097644
  0.040725
  0.161216
 -0.025033
 -0.015183
  0.009657
  0.132226
 -0.022465
  0.135084
  0.259994
 -0.065487
  0.026335
  0.052588
  0.045733
  0.036033
 -0.153159
  0.225292
 -0.017748
  0.041582
  0.036106
  0.120346
  0.128176
 -0.005715
 -0.145801
  0.156670
 -0.183927
  0.217162
  0.039112
 -0.007887
  0.153918
  0.009248
 -0.044737
  0.000986
  0.096121
  0.077790
  0.148328
 -0.072517
 -0.080773
  0.113750
  0.170617
 -0.035456
  0.233649
 -0.002345
 -0.143981
  0.077576
  0.122978
 -0.005350
 -0.134112
  0.087011
  0.035511
  0.026978
 -0.045443
 -0.246546
  0.092378
  0.256002
  0.255005
  0.208943
  0.066449
 -0.087270
  0.141645
 -0.022384
  0.046921
 -0.108996
  0.316344
  0.076957
  0.231353
  0.096883
  0.045899
  0.013675
  0.140766
  0.112507
 -0.114449
 -0.002797
  0.036694
  0.014409
 -0.007508
 -0.002399
  0.046474
  0.138622
  0.144198
 -0.033603
  0.125898
  0.090641
 -0.056022
 -0.025603
 -0.103082
 -0.025803
  0.139852
 -0.012594
  0.076233
  0.059294
  0.242216
  0.226084
  0.180577
  0.092456
  0.068022
  0.106409
 -0.037628
  0.161461
  0.095761
  0.304008
  0.019960
 -0.090358
  0.197006
  0.003032
  0.144278
  0.191099
 -0.019380
  0.060188
 -0.000715
  0.058467
 -0.010307
  0.333060
  0.095772
  0.062208
  0.195509
  0.105261
 -0.011683
  0.061393
  0.281301
  0.065037
  0.267110
  0.054438
 -0.053233
 -0.065067
  0.304742
  0.296153
  0.025794
 -0.072079
  0.110684
  0.175536
  0.104530
  0.068046
  0.089250
  0.022064
 -0.069684
  0.312932
  0.058744
  0.022573
  0.029398
  0.051425
  0.170596
 -0.112154
  0.011050
  0.154137
  0.171439
  0.115849
  0.264186
  0.025845
  0.070353
  0.163807
 -0.129112
  0.037336
  0.048611
  0.196990
  0.116672
 -0.112570
  0.096397
 -0.120831
  0.030124
  0.048006
  0.082832
  0.155610
 -0.121022
 -0.067858
****
