PROJECT: W75X_2014Jan04
NCH:     4096
BW:   2.50000e+07
VELOCITY:       0.00000
PV:      0.480000
FREQ:    2.2235080e+09
DATE:     2014       1       4
TIME:       17      21      38
POSITION:       309.704      42.6272
INTEGRATION TIMES:       30.0000      30.0000
MAX VALUE:      0.021669070
 -0.101853
 -0.212451
 -0.063184
 -0.033652
  0.189782
  0.002755
  0.150358
 -0.136672
  0.017491
  0.207647
  0.075117
  0.235311
 -0.181349
  0.038314
  0.156821
 -0.043446
  0.057210
  0.216446
 -0.088663
  0.224661
 -0.324951
  0.033653
  0.289482
  0.248665
  0.011097
 -0.046052
 -0.055770
 -0.252393
  0.057524
 -0.012840
 -0.011141
 -0.129356
  0.159925
  0.154910
  0.149674
  0.140765
 -0.126646
  0.014681
  0.069494
  0.043132
  0.193037
 -0.026696
  0.091649
 -0.158741
 -0.110465
 -0.050717
  0.053960
  0.050767
 -0.125681
 -0.056728
 -0.135628
  0.003398
  0.071475
  0.003460
  0.071862
  0.198069
  0.186940
 -0.104735
 -0.113374
  0.188806
 -0.025113
  0.030899
  0.022936
 -0.006452
  0.288486
  0.119663
  0.095007
 -0.034723
  0.062260
  0.036404
 -0.108488
 -0.112183
 -0.206322
 -0.096106
  0.058112
  0.066428
  0.077110
 -0.152923
  0.138320
  0.220436
  0.091959
 -0.004090
 -0.276370
 -0.173146
  0.240822
  0.057607
  0.044824
  0.031297
 -0.064176
 -0.103100
  0.095817
  0.057942
  0.025667
  0.057329
 -0.173036
  0.002540
 -0.131517
  0.035220
 -0.057333
 -0.107113
  0.017229
  0.069068
  0.121436
  0.006582
  0.154238
 -0.005646
 -0.061111
  0.001793
 -0.227677
 -0.060420
 -0.282749
  0.109252
  0.006434
 -0.102652
  0.033188
  0.062800
 -0.096878
  0.077449
 -0.092358
  0.038233
  0.047128
 -0.002770
  0.005961
 -0.098168
  0.107062
 -0.194300
  0.178803
 -0.085523
 -0.024833
 -0.058858
 -0.123792
 -0.249969
  0.058408
  0.110443
 -0.051277
 -0.059783
  0.026068
  0.080468
 -0.173567
  0.102266
  0.002233
 -0.024863
 -0.062407
  0.279257
 -0.319759
  0.050156
  0.036180
 -0.069966
 -0.032071
 -0.075420
  0.035519
 -0.046938
 -0.160269
  0.050004
  0.008622
  0.159256
  0.085378
  0.010671
 -0.157474
 -0.036343
 -0.147803
  0.077240
 -0.027370
  0.228884
 -0.034232
  0.250983
 -0.056218
 -0.018691
  0.155319
  0.142094
 -0.093687
  0.071285
 -0.173210
  0.245815
 -0.061609
 -0.012383
  0.187443
  0.145496
 -0.189769
 -0.167293
 -0.000175
  0.186011
 -0.195606
  0.105284
 -0.018754
  0.094188
 -0.002497
 -0.048083
  0.008929
 -0.160117
  0.162465
  0.001189
 -0.048662
 -0.016876
  0.031073
 -0.004661
 -0.170721
  0.175921
 -0.063811
  0.172334
 -0.189371
 -0.074004
 -0.021173
  0.268936
 -0.018946
  0.077702
 -0.116271
  0.133136
  0.001207
 -0.071377
 -0.077992
 -0.068163
 -0.067805
  0.334109
 -0.004383
 -0.042780
  0.085930
 -0.036100
 -0.033653
 -0.197345
  0.350067
  0.046723
  0.042586
 -0.211781
  0.143059
  0.154784
  0.286059
  0.258573
  0.026339
  0.016450
  0.098932
  0.103972
 -0.050963
 -0.017554
  0.039977
 -0.158413
  0.032229
  0.058892
 -0.169637
  0.224357
 -0.000357
  0.046910
  0.158168
 -0.166622
 -0.121457
  0.105042
 -0.115418
 -0.238604
  0.046767
  0.116081
  0.022105
  0.114496
 -0.139471
  0.014752
 -0.103870
  0.242224
 -0.091893
  0.095903
  0.106629
 -0.073160
 -0.260488
 -0.002232
  0.090221
  0.090450
  0.040256
  0.169211
 -0.124497
 -0.077763
  0.023465
  0.197832
 -0.203401
  0.098220
  0.035701
 -0.083487
 -0.057557
  0.136426
  0.084128
 -0.153289
 -0.028251
  0.011636
  0.176485
  0.009538
  0.017587
 -0.038285
 -0.144672
 -0.133428
  0.208028
 -0.053858
 -0.119076
 -0.101548
 -0.062953
 -0.163472
  0.088668
 -0.084669
  0.156610
 -0.102538
  0.076835
 -0.172596
 -0.141635
  0.016743
  0.012220
  0.224496
  0.090401
  0.063419
 -0.007144
 -0.154718
 -0.020693
 -0.175419
  0.025768
 -0.170208
 -0.245661
 -0.018329
  0.040622
  0.040421
  0.002946
 -0.006465
 -0.146872
 -0.033734
  0.129348
  0.101926
 -0.023843
 -0.042535
 -0.156017
  0.063900
  0.027063
  0.019500
 -0.013685
 -0.185551
  0.162283
 -0.181588
 -0.144158
 -0.254849
  0.113178
  0.199258
  0.111921
 -0.195502
 -0.112171
  0.086041
  0.124416
 -0.044632
 -0.007909
 -0.084984
  0.130355
  0.029424
 -0.183790
  0.105589
  0.030443
  0.053210
  0.029043
 -0.075704
  0.169055
 -0.012542
  0.173683
  0.143030
 -0.113897
  0.055071
  0.007486
  0.071192
 -0.115613
 -0.050859
 -0.068995
  0.265273
 -0.312382
  0.052110
  0.171414
 -0.184453
  0.019480
  0.087559
  0.020026
  0.094235
 -0.078539
 -0.037583
  0.035158
 -0.093817
 -0.206192
  0.133587
  0.145410
 -0.048349
  0.035267
  0.041038
  0.063206
  0.118211
  0.277980
  0.113190
 -0.031451
 -0.050424
 -0.134243
  0.015707
  0.147712
  0.073670
 -0.318333
 -0.011819
  0.081367
 -0.005046
 -0.009172
  0.227568
 -0.004028
  0.034424
 -0.086526
 -0.042230
  0.094478
 -0.057603
  0.081245
  0.061465
  0.137111
 -0.076496
  0.038598
 -0.016758
  0.062165
  0.050311
 -0.047353
  0.243150
  0.053491
  0.089404
 -0.006837
  0.030060
 -0.297686
  0.146053
  0.135661
 -0.183560
  0.054629
 -0.269448
 -0.188070
 -0.006269
 -0.064558
 -0.050724
 -0.024415
 -0.133425
  0.190809
  0.069043
  0.291471
  0.041880
  0.024671
 -0.057826
 -0.132503
 -0.158553
  0.272322
  0.105354
 -0.248802
  0.128424
 -0.172668
 -0.037300
 -0.081922
  0.119935
 -0.165492
  0.084988
 -0.005667
 -0.043840
 -0.126538
  0.090663
  0.089171
  0.002639
  0.233117
 -0.110721
  0.025195
 -0.195673
  0.156289
 -0.039922
 -0.105186
 -0.072153
 -0.077915
 -0.317192
 -0.059791
 -0.155039
 -0.011008
 -0.197799
  0.210308
  0.150755
  0.143131
  0.145962
  0.116092
  0.076723
 -0.062465
  0.075645
 -0.073863
  0.151329
 -0.034880
 -0.084926
 -0.033121
  0.159607
  0.105395
 -0.073380
  0.240208
 -0.066020
 -0.195460
 -0.160481
 -0.344589
 -0.029167
 -0.109770
  0.028371
 -0.036106
 -0.053378
 -0.040394
 -0.056957
  0.225747
  0.017807
  0.080973
  0.046246
  0.083051
  0.072100
  0.091336
 -0.055950
  0.131206
  0.008938
  0.075330
  0.113525
  0.026151
  0.160376
 -0.095764
  0.078063
 -0.011140
  0.118897
  0.123212
  0.094985
  0.025623
  0.109606
 -0.273465
  0.051486
 -0.006310
 -0.103049
  0.059867
  0.137933
 -0.050599
  0.216405
  0.174672
  0.189430
 -0.075371
 -0.114856
  0.161607
 -0.031701
 -0.127913
 -0.027037
  0.060443
 -0.222045
 -0.101207
  0.152482
 -0.070943
 -0.003743
 -0.017455
 -0.050299
 -0.034521
 -0.065568
  0.120992
  0.085908
  0.032609
  0.083096
 -0.235367
 -0.153540
 -0.047535
 -0.205445
 -0.121333
 -0.129507
  0.163285
 -0.036474
  0.007943
  0.052761
 -0.082178
  0.014576
 -0.018724
  0.042113
  0.067187
 -0.054628
 -0.009971
  0.041798
  0.314945
 -0.015675
  0.099546
 -0.072695
 -0.103540
 -0.071134
 -0.128314
 -0.092597
  0.126228
 -0.078575
 -0.186659
 -0.114804
 -0.196717
 -0.063514
 -0.010098
 -0.071732
 -0.203177
 -0.113129
 -0.083488
  0.203384
  0.012296
 -0.175129
  0.035612
 -0.059996
  0.035962
 -0.342464
  0.078175
 -0.111764
 -0.089402
 -0.085933
  0.250347
 -0.106860
 -0.027193
  0.000646
 -0.139799
  0.183618
 -0.042430
 -0.048363
  0.159753
  0.094389
 -0.110789
 -0.337933
 -0.138194
 -0.288447
 -0.043281
 -0.146082
  0.009866
 -0.146895
 -0.074344
  0.022883
  0.132484
 -0.152038
  0.038883
 -0.010270
 -0.029307
  0.169910
  0.132826
 -0.124660
  0.004124
  0.273423
 -0.091287
 -0.090566
 -0.039075
 -0.026715
 -0.076305
 -0.051709
 -0.338985
 -0.101423
  0.066508
 -0.081911
 -0.246450
 -0.132347
 -0.357341
  0.076023
  0.200255
 -0.032968
  0.011161
 -0.119384
 -0.055302
 -0.019886
 -0.100011
  0.130645
  0.025421
  0.170219
  0.190951
  0.124717
  0.051425
  0.157377
  0.003025
 -0.183422
 -0.269753
  0.003267
 -0.009643
  0.202381
 -0.080471
  0.296932
 -0.033789
 -0.001437
 -0.194355
 -0.051688
 -0.043920
 -0.321115
  0.186105
  0.094460
 -0.015559
 -0.005832
  0.098619
  0.010127
 -0.100490
  0.032380
  0.043193
 -0.139030
  0.191792
  0.246421
 -0.117995
 -0.053486
  0.118283
  0.028981
 -0.087356
  0.104887
 -0.084164
 -0.198100
 -0.138905
  0.259244
 -0.182096
 -0.071811
  0.216826
 -0.122584
 -0.102158
  0.046915
 -0.139568
 -0.081527
 -0.066854
  0.085017
 -0.164820
 -0.084370
 -0.005905
  0.126890
  0.076115
  0.063192
  0.039337
 -0.044178
 -0.039257
 -0.004235
  0.054372
 -0.184911
 -0.009788
  0.179992
  0.130693
 -0.012724
 -0.131493
 -0.060237
  0.047004
  0.076242
  0.031165
 -0.195928
  0.007993
  0.047456
  0.080608
 -0.060862
 -0.062151
  0.143268
  0.084440
  0.054146
 -0.007356
  0.135315
 -0.101435
  0.139052
 -0.073554
  0.029356
 -0.023995
  0.048234
  0.072042
  0.056118
  0.001802
 -0.086026
  0.120373
 -0.184379
 -0.030918
 -0.030755
 -0.049040
  0.150838
  0.181949
  0.048921
 -0.083957
 -0.000039
 -0.030984
  0.065006
 -0.102517
  0.034389
 -0.152031
  0.045523
 -0.159656
 -0.166622
 -0.163479
 -0.235028
 -0.095580
 -0.073887
 -0.138948
 -0.001031
  0.112479
  0.066469
 -0.030330
  0.048490
  0.003134
  0.102027
  0.200847
  0.010322
  0.168521
 -0.036846
  0.023824
 -0.269698
 -0.074605
  0.021975
 -0.067836
 -0.089743
  0.087262
  0.137455
  0.056791
 -0.096121
  0.090545
 -0.072234
 -0.063585
 -0.041154
 -0.075344
 -0.058005
 -0.072739
 -0.089709
 -0.066106
 -0.000573
  0.206043
  0.007318
 -0.102935
 -0.021836
  0.198819
  0.079691
  0.082948
  0.140721
  0.044897
 -0.004008
  0.045417
 -0.031207
 -0.010010
  0.146399
 -0.257750
  0.132177
  0.030855
 -0.058491
 -0.001024
  0.069615
  0.158456
 -0.072916
 -0.120715
 -0.083401
  0.068393
 -0.081343
  0.016322
  0.043581
  0.092520
  0.049892
  0.154731
  0.149041
  0.206364
  0.149911
  0.089014
  0.043331
 -0.073145
  0.125982
  0.146241
  0.115294
 -0.108018
  0.136193
 -0.244573
  0.038755
 -0.037746
  0.033052
 -0.041992
  0.106387
  0.035848
  0.146610
  0.022450
  0.005352
  0.090117
  0.028222
  0.054852
  0.002631
  0.154515
  0.124582
  0.048153
  0.181852
 -0.081365
 -0.305760
 -0.012189
  0.083105
  0.042408
  0.154671
 -0.042572
 -0.116607
  0.276125
  0.059280
  0.173398
 -0.153744
 -0.162248
  0.042141
 -0.005507
  0.026078
 -0.021534
  0.350733
 -0.243592
 -0.113250
 -0.198623
  0.105020
  0.010169
  0.109970
  0.118907
  0.202248
  0.110618
 -0.154711
 -0.138236
 -0.161951
  0.155324
  0.070479
  0.287995
 -0.026517
  0.039559
  0.124446
  0.087395
  0.004596
  0.152483
 -0.158162
  0.070213
  0.230744
  0.207650
  0.196652
 -0.006285
 -0.214374
  0.152434
  0.187420
 -0.029017
  0.231880
  0.040790
 -0.022143
 -0.012668
  0.093263
  0.094555
  0.197282
 -0.097371
 -0.099844
  0.142135
  0.009672
 -0.119438
  0.214269
 -0.003614
 -0.026334
  0.180515
  0.067678
 -0.203574
  0.197330
  0.173282
  0.028640
  0.028354
 -0.043992
  0.129531
 -0.174515
  0.229509
  0.031904
 -0.126910
 -0.020197
 -0.084188
  0.080175
  0.030320
  0.188425
  0.025743
  0.036074
 -0.014746
 -0.193532
  0.113893
  0.141940
 -0.121462
 -0.061204
  0.014688
  0.013801
  0.078289
  0.019465
  0.121648
  0.185249
 -0.003983
  0.055058
  0.073881
  0.002763
 -0.085856
  0.006791
  0.246933
  0.025482
 -0.001780
 -0.116866
  0.152783
  0.169396
 -0.000419
 -0.152386
  0.022701
  0.083227
  0.124752
 -0.020286
 -0.151206
 -0.183041
  0.029092
 -0.122129
  0.227381
 -0.156092
 -0.091537
 -0.118200
 -0.034057
 -0.022846
 -0.136020
  0.054893
 -0.095572
  0.078013
 -0.068480
 -0.006677
  0.012962
 -0.045751
 -0.082073
 -0.303930
 -0.029992
 -0.040193
  0.128876
  0.072609
  0.247693
 -0.060900
  0.022125
  0.279183
  0.077160
  0.106339
 -0.001381
  0.007011
  0.015669
 -0.365461
  0.085228
  0.025780
  0.070957
 -0.016361
 -0.024507
  0.075793
 -0.035092
  0.018184
  0.003286
 -0.230941
 -0.012386
 -0.083872
  0.129149
  0.047419
 -0.031453
  0.043804
  0.102841
 -0.072157
 -0.030580
  0.020008
 -0.009589
 -0.036257
  0.019737
 -0.138251
 -0.145801
 -0.012038
 -0.004989
  0.066159
 -0.054790
  0.077778
 -0.174856
 -0.055173
 -0.055033
  0.082682
  0.010549
 -0.374571
  0.070267
  0.085073
  0.071641
  0.022144
 -0.122661
  0.037220
 -0.158392
 -0.010755
  0.074504
 -0.033967
 -0.202945
 -0.060351
 -0.145279
 -0.032315
  0.177684
 -0.023967
  0.115821
  0.022971
 -0.021157
  0.103194
 -0.022278
  0.070655
 -0.074002
  0.070140
 -0.070628
  0.055737
  0.018246
 -0.093520
 -0.094612
  0.126264
 -0.012267
  0.003872
  0.067998
 -0.059685
 -0.148951
  0.113873
  0.009979
 -0.178897
  0.039299
 -0.110436
  0.030075
  0.043560
  0.187133
  0.021896
 -0.071486
 -0.079470
 -0.032085
 -0.008765
  0.164034
 -0.132158
 -0.076452
  0.053741
 -0.157320
 -0.034893
  0.001651
 -0.169011
 -0.050606
  0.167632
 -0.147739
 -0.183693
  0.201519
 -0.116863
 -0.042863
 -0.116098
 -0.155963
 -0.116230
 -0.245911
 -0.151764
  0.036527
 -0.076237
  0.010609
 -0.086423
 -0.033468
 -0.019804
  0.006971
  0.026139
 -0.111978
  0.118649
  0.043721
 -0.056585
 -0.087472
  0.103000
  0.150967
  0.007986
  0.059931
  0.027159
 -0.087508
 -0.022555
 -0.101317
  0.102180
 -0.136365
 -0.054442
  0.019653
  0.114058
  0.057001
  0.190702
 -0.124071
 -0.131287
 -0.046068
 -0.117423
  0.084390
  0.239247
  0.030305
 -0.048402
  0.032829
  0.144681
  0.017483
 -0.052404
 -0.170885
  0.062733
  0.049884
  0.071510
  0.081084
  0.067981
 -0.014174
 -0.001312
  0.016707
  0.026390
  0.137739
 -0.003717
  0.093413
 -0.159695
  0.227455
  0.006569
 -0.085952
 -0.085477
  0.113635
  0.035227
 -0.090702
  0.159166
 -0.222022
  0.133660
 -0.068396
 -0.025672
 -0.020450
  0.044399
  0.069744
  0.200517
 -0.029013
  0.068947
  0.070225
  0.138386
  0.114841
 -0.102091
 -0.151130
  0.051596
  0.259371
 -0.126750
  0.039033
 -0.205767
  0.054437
  0.028798
 -0.052459
  0.036562
  0.035452
 -0.229714
  0.103376
  0.032971
  0.156192
 -0.012496
  0.033974
 -0.013523
 -0.060484
 -0.218025
  0.139778
 -0.095700
 -0.083245
 -0.096417
 -0.221071
 -0.061284
 -0.015972
 -0.126920
 -0.105839
  0.108346
 -0.050903
 -0.160908
  0.001357
  0.136219
 -0.080390
  0.276077
  0.293130
  0.052550
  0.014129
  0.230657
  0.241577
  0.123190
 -0.017966
 -0.040905
  0.098447
  0.030248
 -0.047025
  0.161145
 -0.245097
  0.231432
  0.065262
 -0.029426
 -0.089542
 -0.044049
 -0.086720
 -0.197227
 -0.100381
 -0.269759
 -0.005561
 -0.044266
  0.135468
 -0.035906
  0.068782
  0.036569
  0.157233
  0.173515
  0.016974
 -0.105172
  0.018098
 -0.135357
  0.011024
  0.243122
  0.159561
  0.056678
 -0.056530
  0.106624
  0.163494
 -0.013602
  0.025760
  0.056049
  0.011875
  0.074626
  0.160067
 -0.040582
 -0.070508
 -0.085253
  0.033381
 -0.192429
  0.023373
  0.057543
  0.093495
 -0.130407
 -0.033894
 -0.080856
 -0.237417
  0.152490
  0.015050
  0.094035
  0.022391
  0.005221
 -0.154306
  0.197168
 -0.090050
 -0.075667
 -0.140847
  0.102495
 -0.072716
 -0.090437
 -0.177888
 -0.029218
 -0.025172
 -0.159325
 -0.180542
  0.124993
 -0.014725
 -0.047977
 -0.040042
  0.112766
 -0.081719
 -0.070513
 -0.145499
  0.069506
 -0.122184
  0.052682
  0.218566
 -0.134357
  0.054126
  0.032391
  0.178000
 -0.108435
  0.001405
  0.013467
 -0.024208
 -0.062643
 -0.229874
 -0.063989
  0.009171
  0.006769
  0.023531
  0.028675
 -0.039231
 -0.113735
  0.064944
  0.017364
  0.020490
  0.088183
 -0.022789
 -0.179051
 -0.144364
  0.187168
  0.171314
  0.081922
  0.028041
 -0.055114
 -0.014457
  0.078456
 -0.052190
  0.004291
  0.131163
 -0.170590
 -0.230198
 -0.144250
 -0.001653
 -0.154344
  0.127362
 -0.124980
 -0.024613
 -0.080048
 -0.260144
  0.024702
  0.022540
  0.093286
 -0.242728
  0.145828
 -0.019277
  0.131541
 -0.079817
  0.058046
 -0.030521
  0.024411
  0.170921
 -0.081896
  0.030829
  0.009652
 -0.062633
  0.078656
  0.030437
  0.022193
  0.006492
 -0.010730
 -0.062042
  0.129304
 -0.035583
  0.074981
  0.159143
  0.038234
  0.017676
  0.199354
 -0.027463
 -0.053905
  0.031937
  0.064131
 -0.094786
  0.053871
 -0.107651
 -0.057253
  0.104699
 -0.084162
  0.054851
 -0.032073
 -0.014746
  0.120738
 -0.087456
  0.044739
  0.016890
 -0.109352
 -0.090510
  0.087877
  0.281402
 -0.009525
 -0.023150
 -0.070067
 -0.189403
  0.054225
  0.056180
  0.205102
 -0.164025
  0.209328
  0.097197
  0.071157
  0.163300
  0.124769
 -0.066169
  0.072898
 -0.019191
 -0.001277
 -0.005941
 -0.177419
 -0.043452
 -0.065605
 -0.102867
  0.067716
 -0.144603
 -0.262838
 -0.079269
 -0.038922
 -0.042827
  0.081018
  0.093355
 -0.027919
  0.198358
  0.006903
  0.050790
 -0.010130
  0.060139
 -0.154372
 -0.130519
 -0.046842
 -0.163521
 -0.039781
 -0.136608
 -0.014677
 -0.139656
 -0.017068
 -0.067119
  0.094042
  0.279406
 -0.226015
  0.016149
 -0.130259
 -0.009287
 -0.068743
  0.029800
  0.046020
  0.047600
  0.073998
  0.097912
 -0.295334
 -0.016433
 -0.121265
  0.131075
 -0.108181
 -0.041135
 -0.028920
  0.083581
 -0.019047
 -0.050376
 -0.039035
  0.078752
  0.138216
  0.098152
 -0.258664
 -0.095407
  0.143531
 -0.019752
 -0.092853
 -0.154013
  0.123418
  0.201058
 -0.235868
  0.131488
 -0.218409
 -0.214610
  0.073024
  0.040596
  0.246751
 -0.043144
 -0.173545
  0.147359
  0.061064
 -0.378554
  0.105097
 -0.051730
 -0.117274
  0.118598
 -0.013868
 -0.025267
 -0.054804
  0.022373
  0.060883
  0.044675
  0.100245
  0.142897
  0.086492
 -0.097922
 -0.065787
 -0.146214
 -0.020525
 -0.104229
  0.045933
 -0.291529
 -0.125554
  0.018470
  0.004614
 -0.083297
  0.037850
 -0.055652
 -0.032952
 -0.233791
 -0.141060
 -0.111466
  0.174022
 -0.019238
  0.020185
 -0.028388
  0.008742
  0.068386
  0.025888
  0.062022
  0.007589
  0.146678
 -0.031387
 -0.101874
 -0.191916
 -0.061646
 -0.044559
  0.099826
 -0.185021
  0.079323
 -0.198940
  0.290202
 -0.207433
 -0.002789
 -0.076043
  0.127913
 -0.197990
  0.052750
 -0.000867
 -0.133542
  0.103221
  0.040627
 -0.203997
  0.169154
  0.074310
 -0.011677
 -0.133133
 -0.003419
  0.025668
  0.049240
 -0.083393
  0.119010
 -0.089267
 -0.064854
  0.034722
  0.019121
 -0.061525
 -0.051463
 -0.075378
  0.012978
  0.102341
 -0.128538
  0.123518
  0.119690
  0.128161
 -0.083081
  0.005376
 -0.061303
  0.026466
  0.019968
  0.105455
 -0.017986
 -0.054700
 -0.137118
  0.041867
 -0.056085
  0.055459
 -0.067597
  0.213687
 -0.035280
 -0.114123
 -0.003411
 -0.213338
 -0.052241
 -0.008698
  0.063452
  0.211607
  0.197252
  0.049469
  0.123500
 -0.124566
 -0.038580
 -0.198508
  0.178866
 -0.181958
  0.131645
  0.014783
  0.169035
 -0.070914
 -0.098180
  0.155226
 -0.280584
  0.018892
  0.245909
 -0.160074
 -0.021278
  0.097315
 -0.019883
 -0.048617
  0.024861
 -0.068173
  0.126906
  0.021567
 -0.030479
  0.027072
  0.027463
 -0.067570
 -0.054326
 -0.079377
  0.034774
  0.074015
  0.173681
  0.005801
  0.153594
  0.053925
  0.055472
 -0.023917
 -0.021668
 -0.148924
 -0.042154
 -0.048607
  0.106783
  0.016037
  0.026306
  0.035855
 -0.141759
  0.120370
  0.218603
 -0.211663
  0.159004
 -0.121502
 -0.058820
  0.011233
  0.105091
 -0.047435
 -0.151304
  0.143932
 -0.324936
  0.126085
  0.086532
 -0.090384
 -0.268925
  0.119505
 -0.101778
  0.151783
  0.161360
 -0.031818
  0.099394
  0.207767
 -0.079864
  0.014328
 -0.076426
  0.128210
  0.015615
 -0.158508
  0.048613
  0.084673
 -0.093222
  0.175590
 -0.122452
 -0.054005
  0.148702
 -0.029304
  0.189090
  0.019292
  0.110759
 -0.152003
  0.163213
  0.097815
 -0.178195
 -0.078804
  0.122077
  0.043203
 -0.365554
 -0.045866
  0.024136
  0.068247
  0.113033
  0.022371
 -0.099562
  0.143826
 -0.108230
  0.143381
  0.154062
  0.023876
  0.032279
  0.024785
 -0.043417
 -0.093434
 -0.157626
 -0.078208
  0.036836
  0.163122
 -0.148491
 -0.094777
  0.046461
 -0.332685
  0.056259
  0.062529
 -0.024015
  0.185931
 -0.126436
 -0.173395
  0.092228
  0.173344
  0.052727
 -0.059387
 -0.238458
 -0.440011
 -0.082965
 -0.069705
  0.000553
  0.110389
 -0.052898
  0.029447
 -0.071172
 -0.074806
 -0.095061
  0.018839
  0.105550
  0.016790
 -0.011509
 -0.029152
 -0.040922
 -0.287626
 -0.013542
 -0.104366
  0.218810
  0.195785
  0.347148
 -0.031653
 -0.029480
 -0.022151
  0.034692
  0.051689
  0.078277
 -0.094055
 -0.182483
 -0.001622
  0.264761
  0.080852
  0.177867
  0.068638
 -0.120958
 -0.057675
  0.158901
  0.132313
  0.052450
  0.148780
 -0.103667
 -0.013926
  0.118327
  0.273871
  0.285811
  0.205709
  0.220685
 -0.031504
  0.276637
  0.118874
 -0.054688
  0.316023
  0.208704
  0.106622
  0.081760
  0.184810
  0.067405
 -0.034781
 -0.199472
  0.009640
 -0.082567
  0.164735
 -0.069188
  0.053244
  0.211485
  0.208497
  0.303876
  0.138478
 -0.003870
  0.306944
  0.279294
  0.261839
 -0.045614
 -0.257867
  0.333073
  0.104141
  0.148683
 -0.083887
  0.047817
  0.010560
  0.197182
  0.296253
  0.270128
  0.373104
  0.024570
  0.317067
  0.402169
  0.419198
  0.446282
  0.341038
  0.469654
  0.311123
  0.268336
  0.406752
  0.492065
  0.459173
  0.516745
  0.824925
  0.580766
  0.638722
  0.595656
  0.526834
  0.779690
  0.522334
  0.496281
  0.636804
  0.576689
  0.538301
  0.857362
  0.680220
  0.452881
  0.748231
  0.538707
  0.720046
  0.447959
  0.743878
  0.429847
  0.694657
  0.335856
  0.321638
  0.178142
  0.400946
  0.171482
  0.207268
  0.185463
  0.023237
  0.249973
  0.284711
  0.058864
  0.058216
  0.123208
  0.028663
  0.227934
  0.011775
  0.199310
  0.053118
 -0.079585
 -0.088276
 -0.024256
 -0.087428
  0.122112
 -0.038529
 -0.017068
  0.100435
 -0.192129
 -0.018612
  0.175941
 -0.044261
 -0.012064
  0.033588
  0.037494
  0.024341
  0.056147
 -0.014188
  0.260011
  0.205778
  0.070933
  0.191602
  0.054208
 -0.140331
 -0.063111
  0.188921
 -0.173788
 -0.233815
  0.021564
 -0.026806
  0.057682
 -0.097655
  0.010843
  0.081858
  0.096783
 -0.009086
  0.108582
 -0.186713
 -0.023996
  0.256069
 -0.118353
  0.209149
 -0.121025
 -0.069808
 -0.108298
 -0.090992
  0.125828
 -0.055284
 -0.118437
 -0.037575
  0.136795
  0.247765
 -0.079060
 -0.076991
  0.043409
  0.115662
  0.092107
  0.141239
 -0.085126
 -0.288460
  0.141274
 -0.025058
  0.009905
  0.027835
 -0.041931
  0.150899
  0.097892
  0.022433
 -0.101212
 -0.131848
 -0.179507
 -0.100490
 -0.051735
  0.043531
  0.083521
  0.227962
 -0.112668
 -0.002342
  0.446508
 -0.119713
  0.094989
  0.064115
  0.127611
 -0.030101
 -0.073136
 -0.169316
 -0.086139
  0.312226
  0.158658
  0.273146
  0.084311
  0.046069
 -0.047929
 -0.130845
  0.011173
  0.090772
  0.062854
  0.158922
 -0.199930
  0.126524
 -0.055319
 -0.087736
  0.015370
 -0.103042
  0.097914
  0.021847
  0.050536
  0.023898
  0.103266
 -0.037586
  0.011527
 -0.080511
  0.093054
 -0.065454
 -0.192196
  0.014029
  0.049766
 -0.036226
  0.132192
  0.132902
 -0.070837
  0.017656
  0.007042
 -0.075825
 -0.056097
  0.081765
  0.047567
 -0.153972
 -0.042674
 -0.008539
  0.003597
 -0.049782
  0.084876
  0.030470
  0.039359
  0.012960
  0.048669
 -0.138955
  0.003744
  0.021100
  0.082717
 -0.054309
  0.050693
  0.013164
 -0.037649
 -0.032808
  0.109756
  0.132421
  0.036303
 -0.056552
  0.060549
  0.042797
  0.135783
  0.048784
  0.123128
  0.013070
  0.060696
  0.183617
 -0.051275
 -0.078202
  0.178080
  0.029071
 -0.023401
 -0.239189
  0.143107
  0.115147
 -0.154845
 -0.107381
  0.026842
  0.185105
  0.049512
  0.112977
  0.093012
 -0.114646
  0.049734
 -0.020071
  0.057239
  0.080958
 -0.047089
 -0.145569
 -0.117068
  0.017894
 -0.222368
  0.131963
 -0.203400
  0.091576
  0.005934
 -0.038237
 -0.059750
 -0.201741
  0.167418
  0.133146
  0.035226
 -0.117439
  0.029628
 -0.178838
 -0.054675
 -0.005209
  0.055218
 -0.106405
  0.054807
  0.248130
 -0.066908
 -0.194475
  0.305544
  0.154541
 -0.014022
  0.001217
  0.244344
 -0.210089
  0.148386
 -0.116617
  0.068427
  0.238038
  0.091808
 -0.128650
  0.088319
 -0.069914
 -0.009944
 -0.112838
  0.105476
 -0.098812
 -0.219813
 -0.083973
  0.178837
  0.190076
 -0.038363
  0.049240
  0.281550
  0.239245
  0.071014
  0.032995
 -0.105743
  0.061648
 -0.231323
 -0.068400
  0.134732
 -0.037271
  0.002822
 -0.014046
 -0.006751
  0.050213
  0.008116
 -0.065385
 -0.124241
 -0.100675
 -0.108462
  0.005358
 -0.170725
  0.064641
 -0.095436
 -0.011495
  0.088516
  0.117129
  0.046349
 -0.018107
 -0.111954
  0.213036
 -0.140012
 -0.108871
 -0.085283
 -0.036410
  0.144600
  0.066502
 -0.192121
  0.183825
 -0.151463
  0.110809
 -0.011069
 -0.201838
 -0.111965
 -0.065088
  0.238755
 -0.072855
  0.036025
 -0.116453
 -0.051039
 -0.134749
 -0.039886
 -0.044593
 -0.126796
  0.123842
  0.107506
  0.038754
 -0.001870
  0.180551
 -0.074243
 -0.027742
 -0.156512
  0.091150
  0.217125
  0.010800
  0.070212
 -0.054731
 -0.130550
 -0.050683
  0.056169
  0.088999
 -0.270375
 -0.011328
  0.206883
 -0.168163
 -0.008689
 -0.255739
 -0.105433
 -0.063389
 -0.092355
 -0.067859
  0.110536
  0.065897
 -0.041981
 -0.060850
 -0.052770
 -0.200472
  0.022069
 -0.018253
  0.043463
  0.131847
  0.099526
  0.100540
  0.029302
  0.009007
  0.121361
  0.249070
  0.014848
 -0.069995
 -0.105031
 -0.230353
 -0.002340
  0.015107
 -0.058180
 -0.152080
  0.106022
 -0.008310
  0.138259
  0.010215
 -0.185858
  0.193154
 -0.129619
 -0.054886
  0.049697
 -0.127351
  0.074792
  0.051887
  0.008406
 -0.056734
 -0.112918
  0.041429
 -0.018128
 -0.082184
  0.095774
 -0.033711
 -0.086866
 -0.093018
 -0.050228
  0.138262
  0.085400
  0.020395
 -0.047812
 -0.014824
 -0.156452
 -0.005591
  0.257995
 -0.154335
  0.061245
  0.105647
  0.278928
 -0.034957
  0.155727
 -0.165429
 -0.078735
 -0.087387
  0.001750
 -0.023858
 -0.057574
 -0.009302
 -0.025431
 -0.043671
  0.201160
  0.077418
  0.076407
  0.079551
  0.200014
  0.190610
  0.072845
  0.027002
 -0.073395
 -0.060897
 -0.002404
 -0.109159
  0.078560
 -0.067999
  0.001759
  0.164071
 -0.094452
  0.126420
 -0.118302
  0.117613
  0.023503
 -0.008442
  0.168900
 -0.100549
 -0.239127
 -0.118663
 -0.014748
  0.217785
  0.038428
 -0.007790
 -0.057687
 -0.067374
 -0.200298
  0.013034
 -0.390489
  0.011487
  0.098853
  0.016716
 -0.094023
  0.208286
  0.087152
  0.023048
 -0.015299
  0.014035
 -0.075496
 -0.158895
  0.293673
  0.016743
 -0.194251
 -0.163142
 -0.320651
 -0.054864
 -0.107857
  0.192181
 -0.200159
  0.059992
 -0.110338
 -0.011352
 -0.037711
  0.058428
  0.293251
  0.067292
  0.029848
 -0.093751
  0.054116
  0.035848
  0.167683
 -0.065906
  0.047892
  0.113405
  0.012760
  0.110306
  0.093919
 -0.060403
 -0.187969
 -0.055275
 -0.293753
 -0.002014
 -0.038753
  0.054742
 -0.082071
  0.119267
 -0.081797
  0.013206
 -0.101040
 -0.029751
 -0.040267
  0.031048
 -0.018970
 -0.092585
 -0.042437
  0.272871
 -0.180729
  0.167124
  0.051087
  0.052256
  0.004963
 -0.132051
 -0.014751
 -0.173560
  0.063644
 -0.017767
 -0.035200
  0.083808
  0.078218
 -0.121551
 -0.074909
 -0.091293
 -0.095662
 -0.047596
  0.049542
 -0.133727
  0.093435
 -0.059743
 -0.002672
  0.235806
  0.021897
 -0.027820
  0.064682
 -0.232640
  0.153751
 -0.106872
 -0.035257
  0.031474
  0.137751
  0.000489
 -0.038248
 -0.237935
  0.033942
 -0.143880
  0.076470
  0.025726
 -0.108373
 -0.038740
  0.006821
  0.045229
 -0.065174
 -0.009709
  0.028405
 -0.179950
  0.070703
  0.231985
  0.035471
 -0.020736
  0.184805
  0.050591
  0.057490
  0.098306
 -0.035421
  0.227298
  0.005825
  0.005933
 -0.071213
 -0.077059
  0.052342
  0.197001
 -0.014114
 -0.069316
 -0.027542
 -0.020890
  0.104074
  0.089571
 -0.058894
 -0.067670
 -0.170395
  0.084405
 -0.107338
 -0.018676
 -0.028639
  0.117424
  0.184997
 -0.111266
  0.120888
  0.027076
  0.001091
 -0.151142
 -0.119347
 -0.017456
  0.041052
  0.069017
 -0.242015
  0.120413
 -0.101035
  0.157438
 -0.094047
  0.038270
  0.107379
  0.094994
 -0.022760
  0.069972
  0.039666
 -0.158343
 -0.034473
  0.009615
 -0.008650
  0.050988
 -0.074247
 -0.097268
  0.072476
 -0.011494
  0.002072
 -0.059769
  0.048345
  0.067531
 -0.022260
  0.074970
  0.076473
 -0.135404
 -0.052242
 -0.057347
 -0.104448
 -0.145182
  0.206041
 -0.031245
 -0.001264
  0.024576
  0.062248
 -0.201057
  0.046152
  0.019208
 -0.006194
 -0.088565
 -0.040236
 -0.055276
  0.156348
 -0.063040
 -0.106350
 -0.006713
 -0.113563
  0.025434
 -0.038924
 -0.028112
  0.176154
  0.151799
 -0.071358
  0.002980
  0.068263
 -0.049605
  0.023994
  0.086817
  0.022514
 -0.064138
  0.172903
  0.101944
 -0.045060
 -0.012182
 -0.155077
  0.052279
 -0.161221
 -0.052014
 -0.015292
 -0.095467
 -0.096909
  0.048291
 -0.024998
 -0.199008
  0.180074
  0.170378
 -0.109211
 -0.157315
 -0.088177
 -0.040341
  0.034934
 -0.226057
  0.162510
 -0.071359
  0.131977
  0.040420
  0.064986
  0.256680
 -0.060483
  0.103926
  0.009591
  0.060156
 -0.006168
 -0.090583
  0.052381
  0.137396
  0.040845
 -0.195655
  0.049650
  0.075212
 -0.057354
  0.032427
 -0.022869
  0.332266
 -0.019862
 -0.300547
  0.227254
  0.002756
 -0.103414
  0.102119
  0.088128
 -0.069538
  0.105287
  0.074729
  0.094338
  0.089773
 -0.094455
 -0.170860
 -0.018411
 -0.048303
  0.151700
  0.189461
 -0.070886
  0.061889
 -0.046771
  0.046307
  0.011674
 -0.087661
  0.139827
  0.085206
 -0.129038
 -0.005908
  0.394591
  0.107494
  0.193213
  0.198619
 -0.041934
 -0.159255
  0.053383
  0.047576
 -0.174666
 -0.057386
 -0.157471
 -0.148349
  0.158641
  0.089797
  0.029817
  0.045371
  0.014989
  0.186138
  0.216373
 -0.035667
  0.081710
 -0.119550
  0.088352
  0.099975
  0.168565
  0.046296
 -0.056172
 -0.029999
 -0.158520
 -0.078862
  0.096668
 -0.020947
  0.158819
 -0.076364
 -0.174081
 -0.079935
  0.013713
 -0.153854
 -0.002441
  0.079983
 -0.035097
  0.099625
  0.099960
  0.042074
 -0.120134
 -0.184305
  0.112163
 -0.179981
  0.163483
  0.068327
  0.077366
  0.132871
  0.060677
  0.027368
 -0.086323
 -0.010342
  0.071970
  0.095398
  0.111250
 -0.064775
 -0.039704
  0.183633
  0.087976
 -0.008636
  0.087987
 -0.078180
 -0.046969
 -0.097157
 -0.061106
 -0.095476
 -0.006141
  0.019004
  0.082212
  0.140211
 -0.116132
  0.041524
 -0.252067
 -0.063703
  0.055807
 -0.295297
  0.044559
 -0.153639
 -0.223940
 -0.131290
  0.270447
  0.053492
 -0.007150
 -0.135264
  0.037861
 -0.124666
 -0.155822
  0.026054
 -0.004846
 -0.187585
  0.081695
 -0.114437
  0.160779
 -0.007545
 -0.086930
 -0.005168
 -0.158844
 -0.144309
  0.129621
 -0.068452
 -0.365784
  0.025869
  0.105174
  0.258404
 -0.241202
  0.148703
 -0.200818
  0.177286
 -0.189218
  0.076535
  0.048585
 -0.024766
 -0.140258
 -0.010830
  0.091086
 -0.207582
  0.062850
 -0.006721
 -0.093768
  0.045491
  0.056183
  0.081092
 -0.264374
  0.043640
 -0.065954
  0.365167
 -0.082132
 -0.094927
 -0.126589
 -0.042384
  0.016686
 -0.080207
 -0.032696
  0.102329
 -0.051010
  0.047833
  0.138712
  0.062679
 -0.006388
 -0.033987
 -0.080546
 -0.046881
  0.062094
  0.184102
  0.196331
 -0.037945
 -0.135618
  0.043716
 -0.027073
  0.096467
  0.140711
 -0.008713
 -0.071631
 -0.120756
  0.214937
  0.019623
 -0.160673
 -0.159241
  0.106047
 -0.054575
 -0.180790
 -0.193570
  0.072780
  0.272346
 -0.096136
  0.133436
 -0.049202
  0.020684
  0.008439
 -0.024862
 -0.044444
 -0.017050
  0.009904
 -0.064450
 -0.067079
  0.060233
  0.148730
  0.053466
 -0.237579
  0.055416
  0.194826
 -0.136265
  0.099205
  0.012292
 -0.367016
  0.011720
  0.098938
  0.000786
 -0.080712
  0.013301
  0.237699
  0.054384
 -0.069369
  0.067051
  0.088697
 -0.034261
 -0.056974
 -0.197430
 -0.123660
  0.181298
 -0.157889
  0.160014
 -0.024180
 -0.140480
 -0.064022
 -0.060125
  0.047637
  0.069185
  0.202580
  0.097907
 -0.216487
  0.264523
  0.015795
  0.029672
 -0.036246
 -0.076472
  0.025033
 -0.033435
  0.061308
  0.011388
 -0.231953
  0.055812
 -0.218266
  0.021336
 -0.109851
 -0.306120
 -0.107486
  0.002289
 -0.024766
 -0.189088
  0.104233
 -0.009233
  0.148830
 -0.134953
 -0.054980
 -0.033512
  0.029274
  0.184416
 -0.063916
  0.048267
 -0.048848
  0.144267
 -0.089746
 -0.073300
  0.102393
 -0.156140
 -0.000126
 -0.030868
 -0.276801
  0.120483
  0.015859
  0.340341
 -0.151445
  0.013448
  0.206848
 -0.208497
 -0.003070
  0.128106
  0.245528
  0.142968
 -0.117306
 -0.259899
 -0.244743
 -0.154748
  0.074478
  0.193769
 -0.018311
  0.050679
 -0.073245
  0.106659
  0.117253
 -0.022309
 -0.173507
 -0.022781
  0.201851
 -0.067490
 -0.009181
 -0.032459
  0.115920
 -0.103758
  0.068809
 -0.067667
  0.040424
 -0.114982
  0.034244
 -0.145969
 -0.032011
  0.191908
  0.065850
 -0.221525
 -0.197784
  0.005772
  0.028663
 -0.052620
  0.008251
 -0.171756
  0.171062
  0.203559
 -0.081676
  0.145277
 -0.010494
 -0.022349
 -0.057737
 -0.069989
  0.325292
 -0.024691
  0.013039
 -0.170430
 -0.252656
 -0.014611
  0.087649
 -0.233508
 -0.073481
  0.147472
 -0.066536
  0.162459
 -0.036598
  0.038117
  0.009075
  0.136447
 -0.179459
 -0.059126
  0.130780
  0.028375
  0.051188
  0.138675
  0.050857
  0.014814
  0.063368
 -0.119575
 -0.329389
 -0.188759
 -0.102415
  0.182564
  0.168545
  0.071571
  0.079596
  0.076995
 -0.083891
 -0.050926
  0.100156
  0.057831
 -0.060799
  0.200764
  0.069014
  0.012363
  0.050715
 -0.093021
 -0.051209
  0.039625
  0.190676
  0.206715
 -0.128328
 -0.039068
  0.143182
  0.025193
  0.262960
 -0.025355
  0.069360
  0.168776
 -0.195241
  0.041253
  0.037268
  0.134941
 -0.041143
 -0.061560
 -0.223298
 -0.111239
  0.051221
 -0.092431
 -0.068134
  0.107434
 -0.059635
 -0.217190
 -0.086907
  0.095405
 -0.075700
  0.037731
  0.087150
 -0.117925
 -0.128447
  0.020778
 -0.040248
 -0.034337
  0.042584
  0.037232
 -0.030299
 -0.052399
  0.011609
 -0.004459
  0.001869
 -0.106641
 -0.027311
 -0.143563
 -0.202622
 -0.224776
 -0.115346
  0.125599
  0.008481
 -0.076804
  0.080876
 -0.067152
  0.120039
 -0.031266
  0.042453
  0.131656
  0.020687
 -0.061147
  0.243034
  0.295114
 -0.043711
  0.272792
  0.120226
 -0.194578
  0.187935
 -0.134928
  0.115629
 -0.129396
  0.088651
 -0.038939
 -0.088470
  0.026704
  0.173392
 -0.153302
  0.134721
 -0.006215
  0.054576
 -0.051236
 -0.201616
 -0.017240
  0.108844
 -0.138184
 -0.036384
  0.141388
  0.096841
 -0.139221
 -0.339697
  0.048612
  0.057046
 -0.046379
 -0.000733
 -0.008080
  0.236807
 -0.005829
 -0.020836
  0.058559
  0.030883
 -0.098369
  0.142172
  0.174802
  0.032169
  0.009065
  0.062688
  0.121329
 -0.001292
  0.195491
  0.016611
 -0.139665
 -0.167838
 -0.077464
  0.141172
  0.024954
  0.033497
 -0.088142
 -0.036594
 -0.040551
  0.109272
 -0.156184
  0.070770
  0.135879
  0.024611
 -0.127372
 -0.187738
 -0.095545
 -0.084720
  0.037019
  0.122809
  0.130957
  0.033781
 -0.208162
 -0.126900
  0.018281
  0.254079
  0.018397
  0.084871
 -0.113376
 -0.144409
 -0.129965
 -0.026912
 -0.039338
 -0.026284
  0.069382
  0.058028
 -0.126740
  0.044430
 -0.033075
 -0.027120
  0.078787
  0.013853
  0.167455
  0.005952
  0.264988
  0.161731
 -0.060868
 -0.177112
  0.079430
 -0.181135
  0.170885
 -0.032711
 -0.001206
  0.254880
  0.031423
 -0.011688
 -0.164857
  0.123935
 -0.030305
  0.067574
 -0.112821
 -0.094897
 -0.165021
 -0.084826
  0.085810
  0.115828
  0.247812
  0.047924
 -0.044509
  0.067094
 -0.017570
 -0.040651
  0.286229
 -0.043127
 -0.054216
  0.095960
 -0.004755
  0.005275
 -0.044326
 -0.042466
  0.019568
  0.060244
  0.116380
 -0.069734
 -0.200910
  0.093673
  0.232802
 -0.007169
  0.182524
 -0.035433
 -0.015527
 -0.172093
 -0.084039
 -0.156016
  0.035008
 -0.046160
  0.268520
  0.033972
  0.046807
  0.159638
  0.149525
  0.002953
  0.107496
 -0.041213
  0.136803
 -0.008106
 -0.033666
  0.128458
  0.104939
 -0.080237
  0.036029
  0.076907
 -0.111824
  0.026339
 -0.006136
 -0.001890
 -0.145326
  0.089462
  0.065166
 -0.106417
 -0.007270
 -0.000399
  0.150789
  0.044531
  0.151118
 -0.110540
 -0.073334
  0.007351
 -0.017260
 -0.010471
  0.217485
 -0.117158
 -0.165503
  0.017827
  0.056397
 -0.207561
 -0.017771
 -0.091187
  0.132620
 -0.026716
  0.146680
  0.043822
  0.016151
 -0.006229
 -0.081054
  0.132697
  0.184848
 -0.099529
 -0.164193
  0.122561
 -0.112206
 -0.085276
 -0.138646
  0.064140
  0.125789
 -0.000199
 -0.069849
 -0.006822
  0.248960
  0.115901
  0.119872
 -0.001660
  0.082866
  0.175499
 -0.052260
  0.030826
  0.067830
  0.254389
 -0.132913
 -0.189705
 -0.139380
 -0.034514
  0.218429
 -0.091934
 -0.090099
 -0.012196
  0.027348
 -0.132590
  0.141958
 -0.130314
  0.143160
  0.002268
 -0.084804
  0.059929
  0.034591
 -0.101450
 -0.101791
 -0.036249
 -0.012329
  0.026591
  0.035641
 -0.144167
 -0.068230
  0.089255
 -0.077412
 -0.215667
  0.053370
  0.191483
 -0.048619
 -0.139526
  0.038576
 -0.047176
 -0.324975
  0.013824
 -0.165231
 -0.014091
 -0.100322
  0.005623
  0.008383
 -0.080258
  0.005455
 -0.213847
 -0.082561
  0.012818
 -0.091527
 -0.031653
  0.043458
  0.003632
  0.126859
  0.128633
  0.102277
 -0.258834
  0.091065
 -0.025454
 -0.150779
 -0.128959
  0.017885
 -0.028432
 -0.059660
  0.027035
 -0.044540
 -0.082289
 -0.102295
  0.119894
 -0.038136
  0.161518
  0.117493
 -0.115534
 -0.042950
  0.107995
  0.107923
 -0.025791
 -0.064884
 -0.094087
  0.174208
  0.067591
 -0.066522
  0.009797
 -0.070271
  0.184607
 -0.030285
  0.068942
 -0.113885
  0.202108
 -0.037855
 -0.081410
 -0.100851
 -0.091495
  0.083310
 -0.123624
 -0.068672
  0.085440
  0.085601
 -0.154748
 -0.061216
 -0.112600
 -0.020884
 -0.005487
 -0.153270
 -0.125249
 -0.004366
  0.001120
 -0.158960
 -0.293044
 -0.015533
 -0.131008
 -0.107042
  0.142633
  0.064560
 -0.116607
 -0.053795
  0.139194
 -0.030891
 -0.109152
 -0.038998
 -0.076656
 -0.150144
  0.041890
 -0.122861
  0.110711
 -0.051749
 -0.069780
 -0.132153
  0.066963
 -0.137511
  0.108348
  0.090546
 -0.076998
 -0.010638
  0.002858
 -0.150768
  0.155912
 -0.110065
  0.014279
  0.149031
 -0.084540
 -0.224202
 -0.114318
 -0.077798
 -0.004937
  0.037519
 -0.071478
  0.198864
  0.221934
  0.003470
  0.073110
  0.234333
  0.056971
  0.103645
  0.005187
  0.194471
  0.081818
 -0.119286
  0.151183
  0.005468
  0.029268
 -0.139144
 -0.107655
 -0.101143
  0.051966
 -0.148873
  0.043442
 -0.000701
 -0.154048
  0.059134
  0.076136
  0.146521
 -0.144312
 -0.178113
 -0.167800
  0.203326
 -0.048006
  0.200534
  0.069819
 -0.085423
  0.149537
 -0.010588
 -0.038251
  0.022322
  0.024535
  0.165717
 -0.146329
  0.099714
  0.099027
 -0.030079
 -0.095409
 -0.240197
  0.030727
 -0.001638
 -0.011962
  0.022817
  0.028868
  0.014092
 -0.088764
  0.104132
 -0.068254
  0.003636
  0.035427
  0.213508
  0.180320
  0.138510
  0.042594
  0.010878
 -0.080079
 -0.045605
 -0.139496
  0.162157
 -0.156696
  0.148641
  0.143663
 -0.072057
 -0.067124
  0.043025
  0.113973
  0.167976
  0.037871
  0.039109
 -0.040217
  0.060502
  0.219792
 -0.065146
  0.128354
 -0.057204
 -0.095224
 -0.151129
 -0.333986
  0.263167
  0.124942
  0.125313
 -0.075761
 -0.045573
 -0.065877
 -0.097463
  0.112705
 -0.030997
 -0.058546
  0.042833
 -0.247468
  0.120206
  0.032999
  0.131889
 -0.101908
  0.053040
  0.003661
  0.143948
  0.109182
 -0.121994
  0.000054
 -0.145789
 -0.233061
 -0.031288
  0.211946
 -0.041221
  0.084201
  0.123930
  0.040111
 -0.346392
  0.111833
 -0.032292
 -0.000719
 -0.048715
 -0.118896
 -0.072267
  0.093635
 -0.042191
  0.168831
 -0.065712
  0.050096
  0.140892
  0.105313
  0.140006
  0.045541
  0.102309
 -0.110288
 -0.049505
 -0.049424
  0.195521
 -0.115346
 -0.043664
 -0.033143
  0.011844
 -0.072193
 -0.097815
 -0.073272
  0.030518
  0.046918
  0.127516
 -0.099135
 -0.082533
 -0.050045
  0.154642
 -0.007244
 -0.107046
  0.034437
  0.290085
 -0.058304
  0.072819
 -0.051474
 -0.021572
 -0.051548
 -0.086364
  0.210675
  0.069202
 -0.052411
  0.002455
 -0.081361
  0.051612
 -0.176650
  0.206316
 -0.108815
  0.004532
 -0.068955
 -0.062945
  0.052878
  0.039038
 -0.052851
  0.070993
  0.047927
 -0.047629
 -0.129726
 -0.008361
  0.208934
  0.127352
 -0.021828
  0.028928
  0.105300
  0.010160
  0.163099
 -0.187391
 -0.016418
 -0.078054
 -0.003897
  0.066137
  0.001497
  0.102636
  0.034535
 -0.004080
  0.092893
 -0.050558
 -0.111828
  0.005707
  0.150860
 -0.033939
  0.133231
  0.216774
  0.056567
 -0.031560
 -0.195621
  0.111851
  0.022805
  0.017947
 -0.054905
  0.080806
 -0.079736
  0.138726
  0.030100
  0.019616
  0.075409
  0.039825
  0.135296
  0.015214
  0.226337
 -0.019608
  0.113950
  0.112623
 -0.139305
 -0.101909
 -0.135734
 -0.160100
 -0.191489
 -0.005764
 -0.172114
  0.034647
 -0.010378
  0.179540
 -0.021738
  0.044287
  0.046378
 -0.129766
 -0.070299
 -0.019152
  0.066299
 -0.196940
  0.091128
  0.139922
  0.086956
 -0.075528
 -0.119163
  0.076014
 -0.055083
  0.183883
 -0.095914
  0.198947
 -0.013668
  0.183811
  0.035724
  0.070554
 -0.042670
 -0.043979
  0.206446
 -0.211552
 -0.049072
 -0.007189
 -0.107611
  0.096612
 -0.002372
  0.090305
  0.192296
  0.134968
  0.100241
  0.076955
 -0.113461
 -0.193563
 -0.038925
  0.039150
 -0.051892
 -0.061720
 -0.071647
 -0.192930
 -0.066114
 -0.109052
 -0.164823
  0.124955
  0.028818
 -0.006979
  0.111843
 -0.067173
 -0.148569
 -0.134822
 -0.049257
  0.030291
  0.021700
  0.256553
 -0.180138
  0.133247
  0.032417
 -0.146738
  0.004833
 -0.124456
 -0.019259
 -0.085038
 -0.024303
  0.154658
  0.003775
 -0.076494
 -0.111328
  0.073935
 -0.096447
 -0.035538
 -0.088614
 -0.031940
 -0.205853
 -0.082095
  0.013875
  0.135723
 -0.118057
  0.088394
  0.078867
  0.038059
 -0.322279
 -0.159206
  0.077181
  0.015311
  0.022554
 -0.039973
  0.196891
  0.081604
  0.163846
  0.005673
 -0.214082
  0.104190
  0.118988
  0.107408
 -0.004018
 -0.216004
  0.098001
  0.115813
 -0.177255
  0.027689
 -0.014665
  0.053795
  0.114309
 -0.009813
 -0.117012
  0.053809
 -0.336594
 -0.084814
 -0.034300
 -0.087617
  0.041650
  0.009599
 -0.034373
  0.160281
  0.139265
 -0.159648
  0.062634
  0.163888
  0.123977
 -0.355268
  0.027185
  0.029027
  0.100112
  0.248042
 -0.011764
  0.076183
  0.049631
  0.022121
 -0.063603
  0.008725
  0.096827
  0.033939
 -0.237166
 -0.008923
  0.230646
 -0.150983
  0.031167
  0.032131
 -0.071878
  0.096460
 -0.041161
 -0.021076
 -0.144779
  0.073717
 -0.028639
  0.118714
  0.076318
 -0.197043
  0.078528
 -0.066287
 -0.015303
  0.060675
  0.162473
  0.176960
  0.297534
 -0.154623
 -0.237842
  0.070734
 -0.061842
 -0.167194
 -0.101901
 -0.121844
 -0.249668
 -0.042772
 -0.101903
  0.211960
 -0.107885
  0.124133
  0.075341
 -0.185724
 -0.032147
  0.147116
  0.039806
 -0.170256
  0.077577
  0.066946
 -0.152685
 -0.051373
 -0.060834
 -0.017422
 -0.006367
  0.066714
 -0.028539
  0.114104
  0.029426
 -0.136114
  0.125205
 -0.011624
 -0.141074
 -0.107566
 -0.175396
 -0.166006
  0.052362
  0.276386
  0.008481
 -0.143558
 -0.089257
 -0.055688
 -0.101176
 -0.066633
 -0.086692
 -0.033665
  0.209706
  0.105480
  0.233607
 -0.292909
  0.023629
  0.078558
 -0.020782
  0.111625
  0.036396
  0.027318
  0.030806
  0.136067
 -0.041875
  0.044388
 -0.095322
  0.045632
  0.041170
  0.093858
 -0.078674
 -0.200650
  0.085916
  0.144297
  0.064996
 -0.123183
  0.119275
 -0.079536
  0.253829
  0.115739
  0.070185
  0.004403
 -0.120682
  0.138184
  0.144526
  0.020356
  0.125742
  0.015400
 -0.053900
 -0.003155
  0.017955
  0.046500
  0.154935
 -0.103965
 -0.073515
 -0.136150
  0.259186
 -0.040271
  0.140174
  0.066317
  0.131089
  0.238691
 -0.002034
  0.082749
 -0.032871
  0.142446
  0.227067
 -0.029658
 -0.099020
  0.049606
  0.159296
  0.291839
  0.000213
  0.011106
  0.045518
  0.188082
  0.061061
  0.103975
  0.115263
 -0.022621
  0.059087
  0.245661
  0.115459
  0.059548
  0.073207
 -0.074402
  0.010229
 -0.001918
  0.057696
  0.141672
  0.309729
  0.065154
 -0.004366
 -0.053926
 -0.055531
  0.153542
 -0.009395
  0.099870
  0.109150
 -0.008096
 -0.003002
  0.080845
 -0.112114
  0.048781
  0.024711
 -0.189439
 -0.112229
  0.048880
  0.065494
 -0.255525
 -0.020638
  0.045035
  0.251034
 -0.022094
  0.080169
  0.121638
 -0.329503
  0.192727
 -0.043631
 -0.179082
  0.215586
  0.011321
 -0.051599
 -0.002034
  0.187538
  0.145332
  0.151172
 -0.148999
 -0.061698
 -0.045503
  0.128066
  0.005263
 -0.034623
  0.100975
  0.054649
 -0.110346
  0.129436
  0.083762
  0.098544
 -0.028345
 -0.116295
  0.057848
  0.016643
 -0.036696
 -0.040402
 -0.059741
 -0.098891
 -0.051277
 -0.060833
 -0.038632
  0.159319
 -0.091508
 -0.024734
  0.039903
  0.152441
  0.198517
  0.068764
  0.063316
  0.071977
 -0.057800
  0.143653
 -0.100640
  0.414438
 -0.019669
  0.013427
  0.001417
 -0.089191
 -0.056265
  0.073276
  0.130646
 -0.031541
  0.071249
 -0.004555
 -0.060987
  0.106622
  0.022020
 -0.072893
  0.035612
 -0.177476
  0.079941
  0.203131
 -0.095423
  0.070893
 -0.008382
  0.043950
  0.102751
 -0.150873
  0.025482
  0.001463
 -0.005528
 -0.049746
 -0.039899
 -0.053997
 -0.113247
  0.144219
  0.022294
 -0.022579
  0.075011
  0.099605
 -0.116697
  0.140854
  0.018892
 -0.073209
 -0.091032
 -0.071073
  0.219230
 -0.001969
 -0.025900
 -0.065844
  0.019971
  0.113433
  0.113560
  0.036076
  0.134894
  0.134445
  0.082099
 -0.093894
  0.041853
 -0.070906
  0.158310
  0.031106
 -0.045011
 -0.006801
  0.062104
  0.154919
  0.183175
  0.122510
  0.020308
  0.161035
 -0.108200
 -0.116678
 -0.072478
 -0.014603
  0.074865
 -0.050757
  0.353364
 -0.079412
  0.096949
 -0.010603
  0.091906
  0.134222
  0.145374
  0.067032
 -0.164420
  0.077935
 -0.163090
  0.177633
  0.042945
  0.083809
  0.053647
 -0.051133
 -0.132345
 -0.037624
  0.295594
 -0.057441
  0.077141
  0.079149
 -0.035972
 -0.217700
 -0.104728
  0.055364
  0.020905
  0.105004
 -0.067391
 -0.106357
  0.144169
  0.082804
  0.067789
  0.015669
  0.127858
  0.196883
  0.209198
  0.231482
 -0.078886
 -0.122035
 -0.047061
 -0.032096
  0.067359
 -0.182161
 -0.003275
  0.053339
  0.091491
 -0.116560
 -0.088241
 -0.083283
  0.112659
 -0.030534
  0.077675
 -0.076390
  0.042783
 -0.009541
  0.045263
 -0.045354
 -0.024236
 -0.264200
 -0.068206
  0.030962
  0.000890
 -0.054652
  0.117147
  0.034346
  0.060132
  0.069536
 -0.038797
 -0.242906
  0.090591
  0.018707
  0.097098
 -0.112588
 -0.159428
 -0.043438
  0.056386
 -0.081611
 -0.025001
  0.081899
  0.216408
 -0.035090
  0.056111
  0.057261
 -0.171965
  0.042252
  0.056643
  0.105963
  0.027094
  0.124917
  0.058344
  0.016632
 -0.014716
  0.033135
  0.264312
  0.028932
  0.045084
 -0.049427
  0.020149
  0.146003
  0.121319
 -0.180007
  0.144280
  1.000000
 -0.365922
 -0.024133
 -0.061398
 -0.003330
  0.005608
 -0.108223
 -0.219401
 -0.157560
  0.063797
 -0.004148
 -0.047175
  0.125295
  0.056590
 -0.002780
  0.090457
 -0.070266
  0.206915
 -0.138698
 -0.019418
  0.064160
 -0.078700
  0.105344
 -0.035997
 -0.023139
 -0.053970
 -0.021953
 -0.083053
 -0.041403
 -0.056800
 -0.192700
 -0.312813
  0.017505
 -0.240730
 -0.200307
  0.013384
 -0.134006
  0.013835
  0.213660
  0.030066
  0.044157
 -0.132133
 -0.237122
 -0.202512
  0.064672
  0.203667
  0.171944
  0.149790
  0.007307
  0.058935
  0.021662
 -0.142815
 -0.002473
  0.154794
 -0.088356
  0.156055
  0.023033
 -0.126789
 -0.069167
 -0.092696
 -0.021148
  0.259759
  0.114178
 -0.079104
  0.034342
  0.028456
  0.064646
 -0.020692
 -0.108360
  0.168443
  0.027540
  0.044119
  0.120520
 -0.015636
  0.094598
 -0.010447
  0.049756
 -0.007154
  0.189502
  0.140408
 -0.183387
 -0.019674
 -0.026165
  0.179237
 -0.012800
 -0.069067
 -0.045000
  0.013154
  0.034020
 -0.056613
 -0.102966
 -0.073437
  0.152451
  0.136439
  0.104666
  0.011160
  0.257926
 -0.184127
 -0.078729
  0.288362
 -0.024053
  0.022432
 -0.151014
 -0.073610
 -0.086542
 -0.170713
 -0.178878
 -0.040884
  0.152086
 -0.067594
  0.144410
  0.165579
  0.017693
 -0.070287
 -0.128174
 -0.243352
 -0.122386
  0.141391
 -0.019730
  0.114079
 -0.057332
  0.085948
 -0.097234
 -0.020147
 -0.027049
  0.092782
 -0.115952
  0.208336
  0.147120
 -0.097961
  0.196795
 -0.090405
 -0.014631
  0.018819
 -0.082643
 -0.021773
  0.088556
  0.020205
  0.035360
  0.008639
 -0.157503
  0.095417
 -0.059420
  0.117186
  0.172057
  0.140342
 -0.005877
  0.096768
  0.151454
 -0.014118
 -0.123335
  0.022554
 -0.032392
 -0.187674
  0.201945
 -0.018077
  0.418764
 -0.206532
 -0.139160
 -0.142267
 -0.101473
  0.061001
  0.023123
 -0.007642
  0.075749
 -0.034796
  0.140181
  0.202769
  0.036550
  0.180033
 -0.224880
 -0.056024
 -0.167846
 -0.147618
 -0.029307
 -0.148883
  0.096275
 -0.149557
  0.107433
 -0.117586
  0.037667
 -0.199132
 -0.099015
 -0.110820
  0.317771
  0.031599
 -0.074952
  0.164069
 -0.071666
  0.137046
  0.077006
  0.040061
 -0.056288
  0.193998
 -0.014554
 -0.025289
  0.092766
 -0.098741
 -0.003382
  0.099780
  0.209701
 -0.010178
  0.098926
  0.006041
 -0.019144
 -0.111843
  0.062598
 -0.085622
  0.002010
 -0.002903
  0.029522
  0.049952
 -0.005088
  0.063107
  0.063134
  0.096870
 -0.046398
  0.011826
  0.095991
  0.131971
  0.015068
 -0.032108
  0.035582
 -0.157330
 -0.090680
  0.170967
 -0.159060
 -0.138497
 -0.010746
  0.081877
 -0.079064
 -0.081824
  0.252657
  0.023678
  0.293563
  0.083711
 -0.104608
 -0.178794
 -0.248751
  0.028229
 -0.091727
 -0.013358
  0.197374
 -0.036373
  0.129552
 -0.110637
 -0.059093
 -0.096009
 -0.064505
  0.102896
  0.107433
  0.153693
  0.014381
 -0.052024
  0.237774
 -0.160179
  0.028695
 -0.008478
  0.006734
 -0.163174
  0.002084
  0.005484
  0.124009
 -0.005705
 -0.140132
  0.117775
 -0.023449
  0.031417
  0.001460
 -0.250645
 -0.085959
 -0.052421
  0.054466
 -0.003365
 -0.026304
  0.013682
  0.045669
 -0.128331
 -0.103214
  0.172151
 -0.041617
  0.099093
 -0.015247
 -0.036063
 -0.026489
  0.162204
  0.046663
 -0.198875
 -0.051468
  0.066136
 -0.063271
  0.107305
  0.183981
 -0.335475
  0.092273
 -0.113967
 -0.177206
  0.039173
 -0.046877
 -0.032663
  0.037958
 -0.284536
 -0.328986
  0.241682
 -0.230745
 -0.192636
  0.045632
  0.036303
  0.334973
  0.102177
 -0.191705
  0.110736
  0.072522
  0.036852
 -0.016969
  0.075082
 -0.057397
  0.123590
 -0.034208
  0.004287
  0.067998
  0.239045
  0.041521
 -0.302714
  0.169001
 -0.167347
 -0.034920
  0.093973
 -0.103507
  0.080467
  0.057833
  0.026526
 -0.022518
 -0.026535
 -0.180152
 -0.094979
  0.023695
  0.192645
 -0.014088
 -0.379523
  0.089899
 -0.227446
  0.056217
 -0.194933
  0.033707
  0.139054
  0.110115
  0.022275
 -0.109055
  0.019894
  0.082028
  0.232204
 -0.105856
  0.084881
  0.125951
  0.064074
  0.135338
  0.115132
 -0.020405
 -0.071959
 -0.075014
  0.053658
  0.178656
 -0.101940
  0.223687
  0.004244
 -0.016246
  0.188403
 -0.032829
  0.036636
  0.045636
 -0.027740
 -0.007199
  0.147659
  0.023069
 -0.099125
  0.128961
 -0.115758
  0.202238
 -0.045224
 -0.051048
  0.003257
 -0.098506
  0.011210
 -0.217843
 -0.081364
 -0.029588
  0.007800
 -0.203951
  0.257172
  0.215828
  0.117588
  0.174222
  0.055684
  0.180963
  0.072752
  0.188059
 -0.124767
 -0.035329
 -0.132039
 -0.195191
  0.088343
  0.156968
  0.052553
 -0.062277
  0.068315
 -0.204636
 -0.086767
 -0.208474
  0.013569
 -0.244426
 -0.075718
 -0.022260
  0.056864
 -0.035349
  0.097462
  0.126386
  0.052863
 -0.060464
 -0.100026
 -0.133006
  0.331647
 -0.031048
 -0.068417
 -0.122050
 -0.081476
  0.116000
 -0.027575
 -0.120473
 -0.039978
 -0.099317
 -0.033669
  0.050185
 -0.318227
  0.226666
 -0.134183
  0.207109
  0.078105
 -0.043414
  0.076904
  0.150543
 -0.293718
  0.060727
 -0.080346
 -0.011079
  0.101365
  0.026537
  0.023917
  0.179062
  0.050029
  0.041874
 -0.126701
 -0.179359
 -0.044094
  0.262762
 -0.060751
 -0.049338
 -0.028782
  0.006852
  0.233408
 -0.081919
 -0.087789
 -0.018557
  0.012344
  0.061274
  0.083020
 -0.112039
 -0.165164
  0.036567
 -0.112587
  0.124915
  0.197478
  0.060820
  0.127461
  0.109893
 -0.014645
  0.169738
 -0.022752
 -0.210806
 -0.114214
  0.013817
 -0.207923
  0.067335
 -0.200922
 -0.037864
 -0.068507
 -0.098357
  0.184970
 -0.010520
  0.019655
 -0.127426
  0.047736
 -0.241864
 -0.160386
 -0.119133
  0.016473
 -0.022871
  0.132257
 -0.113408
 -0.060103
  0.004295
  0.061830
  0.011565
 -0.062575
  0.122657
 -0.011302
  0.053840
 -0.011254
 -0.016056
  0.229262
 -0.016193
  0.108002
 -0.148448
 -0.134130
 -0.189333
  0.094528
 -0.026300
  0.168461
 -0.068402
 -0.165398
 -0.297160
  0.121020
 -0.061628
 -0.234745
  0.181783
  0.072603
 -0.035942
  0.018436
  0.049137
  0.053535
 -0.197901
  0.117885
 -0.071963
  0.102514
 -0.065574
 -0.036220
 -0.135167
 -0.068958
 -0.088749
 -0.128327
  0.152550
  0.053479
 -0.157439
  0.022827
  0.138134
 -0.031311
  0.190453
 -0.065930
 -0.018797
  0.187020
  0.014403
  0.130466
 -0.001555
  0.021516
  0.209716
 -0.059959
 -0.151836
  0.128192
 -0.182844
 -0.119107
 -0.084469
  0.020032
  0.140291
  0.125602
  0.140734
 -0.031383
 -0.209149
  0.110991
 -0.123974
  0.020449
  0.224264
  0.022892
  0.033847
  0.077577
  0.011238
  0.242233
 -0.022543
  0.172498
  0.058288
  0.076610
 -0.153933
 -0.228089
 -0.019562
  0.162282
 -0.167085
 -0.111673
  0.108479
  0.159858
 -0.167812
 -0.092445
  0.154526
 -0.147490
 -0.036869
 -0.040459
  0.162539
 -0.173435
  0.034689
 -0.028006
 -0.065447
 -0.017708
 -0.132147
 -0.096884
  0.039088
  0.053092
  0.005944
  0.100236
 -0.082514
 -0.056637
  0.023838
 -0.068920
  0.009354
 -0.303876
  0.179621
  0.284480
  0.046425
  0.060281
  0.013925
  0.185050
 -0.119347
 -0.250304
 -0.076841
 -0.057131
 -0.170236
 -0.049972
 -0.091006
 -0.041220
  0.164598
 -0.111365
 -0.048998
  0.034748
  0.112942
 -0.121221
 -0.071922
  0.042204
 -0.151468
 -0.038788
  0.020087
 -0.063961
  0.002349
 -0.062964
  0.184888
 -0.076975
  0.138955
  0.168171
 -0.068015
 -0.094706
  0.047710
 -0.030185
  0.100067
  0.096579
  0.198991
 -0.081237
  0.056222
 -0.217401
  0.007627
  0.003988
  0.259542
 -0.199832
 -0.053221
 -0.093699
  0.047990
  0.044006
 -0.142962
  0.069535
  0.043097
 -0.225504
 -0.079950
  0.022120
 -0.329207
 -0.119433
  0.042233
  0.155687
  0.071306
 -0.047195
 -0.024566
 -0.084458
 -0.121853
  0.007937
 -0.237425
 -0.014469
  0.063692
 -0.061760
 -0.164221
 -0.046189
 -0.005259
 -0.188816
 -0.037367
  0.032941
  0.048853
  0.047170
 -0.124007
 -0.079010
  0.035514
 -0.092654
  0.176341
  0.015138
 -0.070769
 -0.001409
 -0.254993
 -0.057648
  0.157358
  0.058054
  0.114310
  0.187514
  0.049070
 -0.116598
  0.098020
  0.096859
  0.046672
  0.074776
  0.156565
  0.126524
  0.335796
 -0.113918
 -0.112673
 -0.057043
 -0.037941
  0.198695
  0.151584
 -0.062080
  0.099033
 -0.129324
 -0.220823
 -0.158473
  0.099789
 -0.021518
  0.018742
  0.093881
  0.001068
 -0.043384
  0.173793
 -0.060956
 -0.021727
  0.124020
 -0.243303
 -0.027865
  0.136714
  0.175180
  0.190066
 -0.076539
  0.070281
  0.090854
 -0.015065
 -0.024614
 -0.128856
 -0.051158
 -0.012703
 -0.002519
 -0.033298
 -0.032595
 -0.195568
 -0.080422
  0.023066
 -0.024617
  0.168975
 -0.006770
  0.229814
  0.097436
  0.079995
 -0.074633
 -0.328208
 -0.264917
 -0.050123
 -0.135218
  0.153137
  0.061294
  0.164226
  0.208624
  0.057311
 -0.010348
 -0.015356
  0.037731
 -0.040452
  0.030801
  0.138741
  0.172749
  0.100140
  0.001456
  0.025995
 -0.084572
  0.141009
 -0.145364
  0.047811
  0.164611
  0.157408
 -0.124092
 -0.077548
 -0.161328
 -0.075995
 -0.022368
  0.137736
 -0.064396
 -0.183432
  0.002476
  0.037920
 -0.165731
  0.078172
  0.061853
 -0.117892
  0.124672
  0.196537
  0.086845
  0.189500
 -0.043460
 -0.366136
 -0.157868
  0.071829
  0.086874
  0.060763
 -0.005544
 -0.230338
  0.041908
 -0.080766
  0.009404
 -0.171756
  0.010711
 -0.091913
 -0.205864
 -0.035698
  0.249895
  0.215420
  0.109609
  0.069202
 -0.080823
  0.229560
 -0.004808
  0.080543
  0.110252
  0.098024
 -0.101082
  0.114817
 -0.128359
 -0.210825
  0.133221
 -0.003902
 -0.133491
  0.131592
 -0.144561
  0.026239
 -0.080270
  0.200853
 -0.027753
  0.124799
 -0.319180
 -0.090060
  0.002955
  0.236634
  0.143541
 -0.002951
 -0.041931
 -0.053706
  0.248109
  0.024907
  0.257988
 -0.001744
 -0.025898
  0.050450
  0.036052
  0.022014
 -0.086039
  0.182037
 -0.213140
 -0.089344
 -0.026119
 -0.266588
 -0.024758
  0.053284
  0.012305
  0.073322
 -0.102091
  0.047147
  0.052116
  0.077345
  0.186895
  0.013885
  0.065216
 -0.243737
  0.124976
  0.043428
  0.108770
 -0.081009
 -0.101817
  0.076799
 -0.059838
  0.208192
 -0.063273
  0.155068
  0.046626
 -0.044986
 -0.027864
  0.042412
 -0.090933
  0.068668
 -0.100359
  0.049782
  0.233170
  0.082174
  0.012047
  0.208877
 -0.021817
 -0.077890
  0.212221
 -0.231567
  0.088161
 -0.007607
 -0.140771
 -0.020165
  0.074287
 -0.127396
 -0.204176
 -0.070458
  0.052395
 -0.040213
 -0.068186
  0.252067
  0.168578
  0.092531
 -0.084873
  0.166878
 -0.064949
 -0.175078
 -0.092558
 -0.077204
 -0.119365
  0.077138
  0.203545
 -0.014137
 -0.197955
 -0.151443
 -0.007340
 -0.236497
 -0.269636
 -0.050343
  0.211772
 -0.228112
  0.143315
 -0.256466
 -0.026394
  0.066955
  0.189219
  0.143900
 -0.040915
 -0.024328
 -0.081542
  0.147742
  0.036823
 -0.148457
 -0.174326
  0.087548
 -0.089895
 -0.073547
  0.050744
 -0.030632
  0.018261
  0.064259
  0.121977
 -0.207091
 -0.031862
 -0.070492
 -0.126440
  0.200015
  0.123870
  0.129831
 -0.030687
  0.129078
  0.222630
  0.246458
 -0.050557
  0.013867
 -0.189494
  0.060231
 -0.016935
  0.113249
  0.096907
  0.071746
 -0.067898
 -0.072921
 -0.015362
 -0.163905
 -0.047360
 -0.003233
 -0.015456
  0.095524
 -0.198358
  0.051540
  0.031714
  0.060079
  0.169653
  0.111046
 -0.056371
 -0.223259
 -0.132328
  0.099418
 -0.175768
 -0.071078
  0.045519
 -0.001617
 -0.178799
 -0.059508
 -0.057831
 -0.027810
 -0.139342
 -0.029284
  0.027918
 -0.068389
 -0.046086
  0.063941
  0.053158
  0.058576
  0.018465
 -0.040615
  0.037996
 -0.177587
  0.014124
 -0.008935
 -0.099336
  0.180897
 -0.039602
  0.045684
 -0.049592
 -0.210748
  0.090155
 -0.066978
 -0.104498
  0.071807
 -0.099314
 -0.215526
 -0.204022
  0.052831
 -0.124651
  0.054153
 -0.206385
 -0.028161
  0.133531
  0.200640
 -0.043304
 -0.061199
 -0.068526
  0.231047
  0.047548
 -0.045060
  0.251451
  0.019806
  0.092167
  0.161727
  0.018310
 -0.026774
  0.060314
  0.227265
 -0.096794
  0.013065
  0.181088
  0.115714
  0.183271
  0.033621
  0.145673
  0.016335
  0.076790
  0.144757
 -0.099000
  0.067726
  0.158391
 -0.108887
 -0.153505
  0.217495
 -0.174967
  0.025061
 -0.114790
 -0.077689
  0.100569
  0.064112
 -0.092978
  0.041369
  0.021305
  0.034489
  0.059555
  0.118401
  0.001596
  0.020840
 -0.141496
 -0.119503
  0.028586
 -0.035088
 -0.148752
  0.090022
 -0.050138
  0.200953
  0.159635
  0.154768
  0.060833
  0.055045
  0.287576
  0.021730
 -0.086828
 -0.052222
  0.301542
  0.002640
  0.112114
  0.068412
 -0.024797
  0.047232
  0.050542
  0.111039
 -0.106454
 -0.035111
  0.039181
  0.087488
  0.289330
 -0.238108
  0.192123
 -0.175862
 -0.102592
 -0.166061
  0.140265
 -0.118387
 -0.196634
 -0.099912
 -0.175594
  0.102666
 -0.076041
  0.167432
 -0.021108
  0.148868
 -0.012727
 -0.003450
  0.033047
  0.082710
 -0.141074
 -0.030202
  0.050292
  0.050566
  0.118862
 -0.070615
 -0.084983
  0.036846
  0.018303
  0.022012
  0.053317
 -0.001217
 -0.060824
  0.002590
 -0.146739
 -0.136819
 -0.245060
 -0.019165
  0.037963
  0.098427
  0.060162
 -0.116405
 -0.010685
 -0.032591
  0.018188
 -0.099119
 -0.241985
  0.215342
  0.002571
  0.127826
 -0.044180
 -0.191761
  0.290296
  0.115462
 -0.036227
  0.018705
  0.146050
 -0.031879
  0.321496
 -0.093915
 -0.049285
  0.188334
 -0.249484
 -0.258577
  0.147640
  0.071408
 -0.039478
 -0.028120
  0.094249
  0.001020
 -0.005045
  0.260618
  0.058590
  0.147805
  0.121829
 -0.117852
 -0.029443
 -0.042258
 -0.063547
  0.050851
 -0.045672
  0.057988
  0.118037
  0.036692
  0.026737
 -0.063856
  0.059265
 -0.076055
  0.021123
 -0.069068
 -0.181778
  0.165431
 -0.030397
  0.154457
 -0.087049
  0.061092
 -0.179071
 -0.053495
  0.001463
 -0.043604
  0.172072
  0.116999
 -0.019590
 -0.161054
  0.151737
 -0.014558
  0.213769
  0.063268
  0.033168
  0.262943
  0.000962
  0.033974
 -0.097807
 -0.107707
 -0.003066
 -0.111009
  0.165630
  0.194711
  0.109605
  0.132779
 -0.080780
 -0.057584
  0.056370
 -0.062177
  0.022826
 -0.204925
  0.066688
  0.106412
  0.132271
 -0.051126
 -0.155930
  0.073704
 -0.061258
  0.112999
  0.160660
 -0.039595
  0.036232
 -0.157769
  0.102609
  0.027281
 -0.138746
  0.094718
  0.168951
  0.034924
  0.044177
  0.015266
 -0.070425
  0.003867
  0.041853
 -0.145727
 -0.348649
 -0.078401
  0.024633
 -0.048353
 -0.236963
 -0.033081
  0.082815
  0.103227
 -0.046445
  0.165478
 -0.080091
 -0.134218
  0.172755
 -0.119934
 -0.050542
  0.123919
 -0.186916
 -0.147837
 -0.106291
 -0.064897
  0.006178
  0.075676
 -0.068552
  0.144945
 -0.077340
  0.262660
  0.107747
  0.076308
 -0.041024
 -0.064517
 -0.180575
 -0.001143
  0.079920
 -0.135836
 -0.133992
  0.005393
  0.039013
 -0.019305
 -0.127863
 -0.065336
 -0.177296
  0.177237
  0.374958
 -0.032111
  0.016508
  0.073262
 -0.021601
  0.085794
 -0.102551
  0.027874
 -0.033561
 -0.055152
 -0.111389
 -0.099813
  0.146386
  0.072413
 -0.042219
 -0.013056
  0.049667
 -0.142755
 -0.143459
 -0.096922
 -0.226138
 -0.028283
  0.091391
 -0.035938
 -0.002188
 -0.167851
  0.059026
 -0.072571
  0.132599
 -0.219798
  0.083052
  0.002304
  0.257413
 -0.026113
 -0.122724
  0.111776
 -0.055097
 -0.035772
  0.171485
  0.147858
 -0.024096
  0.027215
 -0.052958
  0.167706
  0.011829
  0.012423
  0.044836
 -0.003459
  0.029935
 -0.157472
 -0.110596
  0.028376
 -0.138942
  0.060811
  0.163888
 -0.127509
 -0.041524
  0.240774
  0.216811
  0.125638
  0.044390
 -0.017030
 -0.069560
 -0.036655
  0.040167
  0.109631
  0.192996
  0.069369
 -0.038652
  0.065461
  0.096967
 -0.073974
  0.070224
  0.109910
 -0.090862
  0.040006
 -0.005816
 -0.092455
 -0.009827
 -0.167046
 -0.048416
  0.071574
 -0.021256
 -0.042557
  0.045655
  0.144772
  0.001294
 -0.079541
  0.061654
  0.022349
  0.131175
 -0.111792
 -0.144236
 -0.119128
  0.020132
 -0.047442
  0.172653
  0.006771
 -0.191261
 -0.155685
 -0.035161
  0.009971
  0.084158
 -0.010011
 -0.210409
 -0.053878
  0.205975
 -0.111889
 -0.260995
 -0.098739
  0.023354
 -0.099133
 -0.101665
 -0.051803
  0.099667
  0.182721
  0.037003
 -0.050222
 -0.011908
 -0.065075
  0.105289
 -0.156957
  0.023779
  0.072809
 -0.093021
 -0.154240
 -0.235332
  0.013524
  0.007058
 -0.055795
 -0.065384
 -0.222581
  0.074194
 -0.035114
  0.072010
 -0.269519
 -0.061117
 -0.041039
  0.016840
  0.002183
  0.014122
  0.110287
 -0.056412
 -0.118000
 -0.109217
  0.044849
 -0.122122
 -0.076122
 -0.210704
  0.025428
 -0.144361
 -0.023194
 -0.131041
 -0.051363
  0.090385
 -0.072313
 -0.113170
  0.098163
  0.072151
 -0.068256
 -0.046231
  0.052806
  0.081836
 -0.152816
  0.065162
  0.139390
  0.112051
 -0.246913
 -0.168933
 -0.009273
 -0.044698
  0.075460
  0.050408
 -0.022800
  0.126944
 -0.007341
  0.151223
 -0.105807
  0.019930
 -0.021715
  0.121706
  0.114424
 -0.025237
  0.013989
 -0.112803
  0.025681
  0.058132
  0.112983
 -0.028806
  0.002779
  0.134875
 -0.062176
 -0.074119
  0.049735
  0.149119
  0.053199
  0.111483
 -0.005840
  0.251100
  0.043584
 -0.132204
 -0.089058
 -0.118022
 -0.064364
  0.173248
  0.061374
 -0.111295
  0.111317
  0.033052
  0.061811
  0.106401
  0.094272
 -0.036988
 -0.231189
  0.128779
  0.050301
 -0.125313
  0.013533
 -0.017241
 -0.104309
 -0.022141
  0.050255
 -0.153061
  0.021096
  0.111625
  0.104670
  0.017414
 -0.137743
 -0.210989
  0.047660
 -0.025256
 -0.073519
  0.164915
 -0.085580
  0.023459
  0.131430
 -0.224304
 -0.052440
  0.112203
  0.108775
  0.049625
 -0.005541
  0.005365
 -0.037217
 -0.233928
 -0.073071
 -0.038330
  0.088145
 -0.105706
 -0.039881
  0.206115
  0.014594
  0.074249
 -0.082162
 -0.024920
  0.164456
 -0.045181
  0.055062
 -0.215677
  0.047413
  0.271632
 -0.051572
 -0.121126
  0.005406
 -0.202587
 -0.162577
  0.059170
 -0.180656
 -0.063730
  0.094018
 -0.099136
 -0.008543
 -0.027753
  0.014848
  0.123460
  0.002903
  0.030345
  0.046168
 -0.135680
  0.122872
 -0.001807
  0.004592
  0.102261
  0.073219
 -0.284733
 -0.001532
 -0.084629
  0.135088
  0.375423
  0.060078
  0.047177
  0.059471
 -0.231160
 -0.030285
  0.021404
  0.069511
 -0.089466
  0.057253
 -0.027415
 -0.002152
 -0.185657
 -0.170700
 -0.087453
 -0.085849
 -0.132342
 -0.200065
 -0.162947
  0.110032
 -0.017837
  0.023165
  0.161684
  0.114291
 -0.292299
 -0.085149
  0.045546
 -0.064121
 -0.007637
 -0.010382
  0.083683
  0.159396
 -0.104469
 -0.260904
 -0.077001
  0.107639
  0.057814
 -0.084209
  0.208800
 -0.078630
  0.178544
  0.280195
  0.023478
 -0.107231
  0.037988
  0.117004
  0.054374
 -0.140409
  0.095766
 -0.107254
  0.017991
  0.001780
 -0.183463
 -0.085621
 -0.071915
 -0.090791
  0.032185
  0.123726
  0.090684
  0.078000
 -0.030105
  0.110594
  0.217844
 -0.193924
  0.037243
 -0.067523
  0.088149
  0.077558
 -0.175675
 -0.181821
 -0.114497
  0.011318
  0.036365
  0.164506
 -0.335329
 -0.025411
 -0.033731
 -0.062082
  0.281574
 -0.098417
 -0.144403
  0.154512
  0.051188
 -0.024512
  0.248479
  0.195004
 -0.121716
  0.318241
 -0.067217
 -0.067673
 -0.142524
  0.120550
  0.058784
  0.075896
  0.167144
 -0.127168
 -0.192783
 -0.102493
  0.078297
  0.051765
 -0.116344
  0.022024
  0.085707
  0.140772
 -0.113829
  0.175956
  0.156442
  0.070099
 -0.072455
 -0.118236
 -0.367660
 -0.159840
  0.078559
  0.144316
 -0.240858
  0.088760
  0.105686
  0.062964
 -0.062977
  0.009133
  0.006559
  0.108318
 -0.114081
 -0.010913
  0.045444
  0.093012
  0.364725
 -0.116845
  0.028103
 -0.023320
  0.107064
 -0.174404
  0.060178
  0.043843
  0.164448
  0.264062
 -0.113267
 -0.170653
  0.115799
  0.113719
  0.105165
 -0.061283
 -0.109995
  0.101510
 -0.028615
  0.029734
  0.076509
 -0.005374
  0.123214
 -0.106436
 -0.027706
 -0.117435
 -0.028956
  0.155297
  0.008756
  0.088925
  0.007355
  0.165322
  0.073393
 -0.249049
 -0.225918
 -0.008128
  0.023710
  0.421964
 -0.273428
  0.091517
  0.041741
 -0.185963
  0.072764
 -0.078907
  0.208458
 -0.141175
 -0.173300
 -0.108017
 -0.013899
 -0.277214
  0.062790
 -0.088444
  0.055164
  0.102488
  0.102761
 -0.154907
 -0.104800
 -0.083286
  0.093442
  0.143342
  0.163014
  0.067958
  0.097556
  0.210853
  0.233806
  0.120174
  0.101164
  0.033931
  0.007270
 -0.174547
  0.049043
  0.112412
 -0.164171
  0.203294
 -0.137436
 -0.062916
 -0.007035
  0.098972
  0.005637
  0.250453
  0.248762
  0.208039
  0.245007
  0.021448
  0.109619
 -0.012921
  0.236079
  0.005615
  0.295526
  0.355528
  0.132889
  0.079376
  0.110835
  0.332696
  0.188463
  0.058859
  0.245886
  0.370646
  0.189287
  0.228273
  0.176960
  0.175080
  0.293500
  0.303850
  0.157408
  0.413843
  0.635875
  0.476679
  0.577944
  0.264210
  0.721298
  0.505806
  0.584745
  0.680586
  0.828955
  0.569003
  0.791604
  0.625560
  0.779083
  0.688086
  0.650621
  0.769567
  0.927691
  0.846032
  0.745870
  0.662633
  0.604847
  0.724280
  0.917198
  0.735172
  0.821140
  0.694343
  0.742123
  0.468841
  0.780449
  0.543499
  0.387293
  0.232813
  0.461195
  0.222131
  0.188298
  0.185861
  0.391141
  0.318146
  0.064649
  0.164987
 -0.191099
 -0.163926
 -0.018721
 -0.065530
  0.015532
  0.032882
 -0.077738
  0.065738
  0.100908
  0.110297
  0.102296
  0.132756
  0.079783
 -0.204829
  0.047217
 -0.110320
  0.179817
  0.056093
  0.098640
 -0.018200
 -0.001279
 -0.029843
 -0.162477
 -0.111309
  0.035108
 -0.123006
  0.146417
  0.068981
 -0.159546
  0.057966
  0.204918
  0.098411
  0.013310
  0.213866
 -0.075763
  0.007060
  0.079915
 -0.000158
 -0.080680
  0.048187
 -0.092600
 -0.237267
  0.348617
 -0.201328
  0.074498
  0.079969
  0.012077
  0.225620
 -0.252859
 -0.067903
  0.062706
 -0.153547
  0.041326
 -0.212853
  0.172244
 -0.106174
 -0.096304
 -0.068291
 -0.047120
  0.259740
 -0.275606
 -0.077400
 -0.010477
  0.084192
  0.000621
 -0.005446
 -0.127612
 -0.011789
  0.012030
 -0.203648
 -0.055349
 -0.002231
  0.068928
  0.037125
 -0.187061
 -0.072516
 -0.150857
  0.069560
  0.006862
  0.083877
 -0.077398
  0.008908
 -0.010800
 -0.136529
 -0.188109
 -0.068988
 -0.012362
  0.059733
 -0.063509
  0.045830
  0.137681
 -0.010365
  0.041430
  0.232298
  0.019814
  0.122901
 -0.069825
 -0.131793
  0.009642
  0.084393
  0.093779
  0.215215
 -0.035835
  0.098747
  0.051605
 -0.383189
 -0.208579
  0.108499
  0.042775
  0.090612
  0.156239
 -0.150037
  0.092035
 -0.071972
  0.059404
  0.092515
 -0.130126
 -0.176682
 -0.067556
 -0.021347
 -0.137998
 -0.075769
  0.031498
  0.072748
  0.133171
 -0.023035
  0.036151
  0.036856
 -0.169213
  0.040034
 -0.134609
  0.161566
  0.008435
  0.135508
  0.168663
  0.225860
  0.008527
  0.071088
 -0.061939
  0.085628
 -0.054044
 -0.096166
  0.029897
  0.075102
 -0.096558
  0.043450
 -0.159727
  0.158555
  0.016623
  0.017446
 -0.312751
  0.038264
  0.184644
 -0.260937
  0.101893
  0.005842
 -0.065928
 -0.027567
 -0.040171
  0.194493
 -0.172118
 -0.002401
  0.164436
  0.049248
  0.088102
  0.070351
 -0.034758
 -0.006239
 -0.020663
  0.198524
 -0.030795
  0.052210
  0.106620
  0.017201
 -0.147360
  0.090946
 -0.034037
 -0.090579
 -0.157136
  0.046974
  0.027152
 -0.013216
 -0.016023
 -0.021659
 -0.049043
 -0.259380
 -0.125665
  0.051880
 -0.044978
  0.017190
  0.151138
 -0.012236
  0.194089
  0.193285
  0.019229
  0.146735
 -0.078968
  0.021006
  0.092395
 -0.070805
  0.046237
  0.219596
  0.108829
  0.118360
  0.076045
  0.042578
  0.048175
 -0.104023
  0.145912
 -0.115733
 -0.003984
 -0.147114
 -0.207705
 -0.043879
 -0.107161
  0.059234
  0.050977
  0.146617
 -0.117373
  0.003842
  0.002425
 -0.111869
  0.202503
 -0.127271
 -0.112397
 -0.169645
  0.123698
  0.049576
 -0.073664
  0.025080
  0.166030
 -0.005192
  0.226252
  0.112007
  0.104457
  0.144181
  0.181668
  0.072696
 -0.028511
 -0.051135
  0.104598
 -0.035095
 -0.042392
  0.061199
 -0.042614
  0.075991
 -0.044545
  0.046069
  0.188713
 -0.003463
 -0.056610
 -0.121206
  0.075346
 -0.005178
 -0.123746
 -0.044016
  0.045959
  0.016995
 -0.056137
 -0.257118
  0.222788
 -0.134632
  0.115624
  0.102992
 -0.060127
 -0.147917
 -0.101424
  0.153348
 -0.292768
 -0.060024
  0.033735
  0.057881
  0.059624
  0.095005
  0.259025
 -0.204687
  0.060462
  0.078616
 -0.045163
 -0.140250
 -0.157794
  0.120111
  0.047331
 -0.157082
 -0.025694
  0.047052
  0.081529
  0.018112
  0.043712
 -0.107349
  0.181395
 -0.025689
 -0.116577
 -0.009321
 -0.036969
 -0.089791
 -0.006403
 -0.035439
 -0.167625
  0.176676
  0.070325
 -0.121423
 -0.035082
  0.066639
  0.165981
 -0.055847
  0.210794
  0.056743
  0.056747
  0.230981
 -0.029899
 -0.330463
  0.121313
 -0.074271
 -0.321093
  0.132307
 -0.129625
  0.149895
 -0.070731
 -0.025576
  0.053590
 -0.004818
  0.072437
  0.027089
 -0.131567
 -0.001110
  0.139413
 -0.146606
 -0.023887
 -0.241571
 -0.001387
 -0.077694
 -0.021300
 -0.033418
 -0.277648
 -0.047247
 -0.123723
 -0.081256
  0.069343
 -0.127970
  0.122601
 -0.073966
 -0.164861
 -0.103341
  0.022854
 -0.148465
 -0.038673
 -0.097446
 -0.160292
 -0.174952
  0.067218
  0.035372
  0.063031
 -0.179405
  0.098854
 -0.026393
  0.068022
 -0.030801
 -0.163677
  0.118964
  0.127402
 -0.076129
 -0.005226
  0.294546
  0.057407
  0.059390
 -0.075194
 -0.113270
 -0.028471
  0.158509
 -0.107268
  0.027433
 -0.165060
 -0.266247
  0.147794
 -0.083021
 -0.073656
  0.121787
  0.021353
  0.167678
 -0.116662
 -0.155541
  0.041121
 -0.110258
  0.014532
 -0.000985
 -0.151116
  0.098353
  0.047139
  0.166193
  0.029383
  0.082285
  0.122430
  0.079921
  0.141055
  0.188136
 -0.155922
  0.260514
  0.081790
  0.242989
 -0.073077
 -0.094834
  0.055992
 -0.071897
  0.093620
  0.050937
  0.017000
  0.147573
  0.047547
  0.295238
  0.298054
 -0.050908
 -0.139262
 -0.029698
  0.033893
 -0.020567
  0.107542
 -0.011462
  0.178791
  0.175263
 -0.296534
  0.067384
  0.068797
  0.226985
  0.108003
 -0.073655
  0.088933
  0.131766
 -0.067749
 -0.110921
  0.017737
 -0.186800
  0.018084
  0.007356
  0.193659
 -0.101544
 -0.122605
  0.064659
 -0.288227
  0.106318
  0.030716
  0.015240
 -0.104664
 -0.142089
 -0.067023
  0.080284
  0.247039
 -0.032686
 -0.017510
  0.071612
  0.047875
  0.117665
  0.013264
 -0.206196
  0.122589
  0.150171
 -0.165951
 -0.007183
 -0.123356
  0.107161
  0.041317
 -0.090664
 -0.088118
  0.021652
 -0.021945
  0.043652
  0.196706
  0.111047
  0.044016
  0.053485
 -0.173202
 -0.050280
 -0.062546
 -0.080502
 -0.171759
  0.020520
  0.375161
 -0.104635
 -0.057667
  0.065625
  0.207784
  0.063394
  0.052262
  0.160675
  0.044320
  0.010919
 -0.090671
  0.089395
 -0.032712
 -0.139884
 -0.012177
 -0.185946
 -0.069947
 -0.084870
 -0.034500
 -0.091066
 -0.226848
  0.188683
  0.113820
  0.038398
 -0.054038
  0.031062
  0.144969
 -0.077224
 -0.118850
  0.276698
  0.047026
  0.290730
  0.021341
 -0.014297
  0.151593
  0.239380
 -0.001340
 -0.006313
 -0.085769
  0.162998
  0.125602
  0.077972
  0.072830
 -0.062917
  0.046204
  0.059193
 -0.040848
 -0.080849
  0.011380
 -0.069608
  0.065212
 -0.047567
 -0.037476
  0.161668
 -0.075087
 -0.070943
  0.153876
  0.008540
 -0.003412
  0.048023
 -0.017804
 -0.301178
  0.231005
 -0.046659
  0.191998
 -0.066516
  0.280527
  0.104941
  0.000164
  0.073016
 -0.043929
  0.002611
  0.016903
 -0.285395
  0.041969
  0.089998
 -0.190046
  0.176719
 -0.027345
  0.143869
  0.032943
  0.205829
  0.079055
 -0.122797
 -0.144982
 -0.103897
  0.000976
 -0.029566
 -0.035534
  0.077518
  0.033156
 -0.041119
  0.028569
 -0.101186
  0.136362
 -0.258911
  0.035820
  0.233993
  0.091539
  0.159574
 -0.023299
 -0.131976
  0.000400
  0.053035
 -0.140950
 -0.004702
  0.082426
  0.071591
 -0.176804
  0.033817
  0.056182
 -0.066185
  0.069098
 -0.120786
 -0.014967
  0.071693
 -0.048598
 -0.077723
  0.177292
  0.030252
 -0.000555
 -0.089561
 -0.088803
  0.086715
 -0.014449
  0.090123
 -0.040383
 -0.108260
 -0.154461
 -0.142814
  0.131714
 -0.001456
  0.115086
 -0.060902
 -0.036995
 -0.126599
 -0.015738
  0.020867
 -0.013585
 -0.112739
  0.163709
  0.053899
  0.365675
 -0.157454
  0.137126
 -0.099869
  0.093228
 -0.160222
 -0.017047
  0.403329
 -0.031094
 -0.098435
  0.128268
  0.018605
  0.082088
  0.136007
 -0.005570
 -0.106425
 -0.116058
  0.028110
 -0.036681
  0.146793
  0.195988
 -0.237575
 -0.079325
  0.091445
 -0.225830
 -0.192836
  0.185989
  0.146465
 -0.159008
  0.050094
 -0.025426
 -0.038085
  0.058290
  0.051727
 -0.029654
 -0.069240
 -0.155842
  0.096182
  0.095993
 -0.121053
  0.004720
  0.063071
 -0.112863
 -0.011557
  0.139783
  0.176686
 -0.034175
  0.334048
  0.163183
  0.102624
  0.023595
 -0.096611
 -0.090086
 -0.005595
  0.015673
 -0.008953
 -0.002890
  0.088033
 -0.182041
 -0.079258
  0.197802
  0.210089
 -0.104051
 -0.075474
  0.181010
 -0.144279
  0.049758
  0.154547
  0.012229
 -0.034255
  0.242692
  0.033666
 -0.002295
  0.015268
  0.189153
 -0.047189
  0.099725
 -0.183998
  0.100651
 -0.008064
  0.043852
  0.089502
 -0.059160
  0.150012
  0.020631
 -0.128359
 -0.307293
  0.010939
  0.039422
 -0.204605
  0.039010
 -0.130021
  0.092327
 -0.155843
  0.018780
 -0.090763
 -0.202661
 -0.096237
  0.062584
 -0.061080
 -0.006634
  0.112536
  0.036354
 -0.034909
 -0.000198
  0.024872
 -0.023171
  0.071456
 -0.171941
  0.094408
 -0.150051
  0.123203
 -0.248266
 -0.061555
 -0.038369
  0.042043
  0.023056
 -0.213150
 -0.095775
  0.007568
  0.043600
 -0.160566
 -0.082254
  0.129716
 -0.104360
 -0.252107
 -0.166163
  0.074756
  0.203005
  0.048453
  0.081703
  0.142800
  0.029347
 -0.328146
  0.034491
 -0.133245
 -0.032654
 -0.032038
 -0.005582
 -0.060080
 -0.150939
 -0.077860
 -0.007528
 -0.320923
  0.232190
  0.171225
  0.028436
 -0.008348
  0.094664
 -0.120432
 -0.092221
 -0.035941
  0.085209
  0.002079
  0.098540
  0.171237
 -0.056035
  0.176084
  0.115808
 -0.043166
  0.186971
 -0.142993
 -0.001218
  0.031235
  0.037496
  0.015597
  0.173936
  0.168297
  0.091957
  0.105073
  0.002047
 -0.106148
  0.063841
  0.028153
 -0.341617
 -0.174380
  0.079463
 -0.042066
  0.093149
 -0.064200
 -0.076111
 -0.172449
 -0.257507
 -0.076081
  0.038490
 -0.039067
  0.185820
 -0.315852
  0.118123
  0.050924
 -0.042525
 -0.045412
 -0.032204
  0.123985
  0.090946
 -0.142339
 -0.138006
 -0.102416
 -0.132011
 -0.122499
 -0.171140
  0.059300
 -0.142617
 -0.048611
 -0.105350
 -0.192358
 -0.161850
  0.141125
 -0.143978
  0.044204
 -0.007852
 -0.093335
  0.028143
  0.051176
  0.078553
 -0.018647
  0.105552
 -0.161388
 -0.037415
  0.039424
  0.003842
  0.056489
  0.000328
 -0.060146
  0.110494
 -0.082717
  0.102656
 -0.100829
  0.017595
 -0.075228
 -0.060364
 -0.099918
  0.200250
 -0.080846
  0.130982
  0.012340
 -0.081526
 -0.061698
  0.118457
  0.046546
 -0.022609
 -0.010344
 -0.104247
  0.070497
  0.123488
 -0.085846
 -0.116022
  0.073266
  0.010750
 -0.111208
  0.110774
 -0.219984
 -0.219534
 -0.057726
 -0.118940
  0.162382
  0.147490
 -0.118731
  0.042564
  0.115717
 -0.151705
  0.105829
 -0.073398
 -0.003931
 -0.137367
 -0.148382
 -0.072691
 -0.087009
 -0.038538
  0.184961
 -0.056812
  0.118489
  0.117151
 -0.043514
  0.062532
  0.007275
 -0.087028
 -0.080977
  0.028931
  0.040278
 -0.053167
 -0.025892
 -0.007008
 -0.001056
 -0.068285
  0.207380
  0.074386
 -0.103171
  0.032270
 -0.047346
  0.095117
  0.114598
  0.030890
  0.075450
  0.170551
  0.186250
  0.202357
  0.086814
  0.036845
  0.148475
 -0.142363
  0.040632
 -0.267736
 -0.176363
 -0.054841
 -0.011996
 -0.027560
  0.037852
  0.003080
 -0.182676
 -0.005277
  0.026293
 -0.066250
  0.100137
 -0.056423
  0.027757
  0.069359
  0.105335
  0.175379
 -0.113588
  0.004017
 -0.067137
 -0.025868
  0.219667
 -0.043784
 -0.268308
  0.051537
 -0.154354
 -0.060482
  0.161895
 -0.222137
 -0.135626
 -0.016392
  0.059316
 -0.322437
  0.024762
 -0.114672
 -0.178353
  0.292338
  0.068618
  0.224143
  0.141999
  0.048040
  0.390183
 -0.051063
  0.006378
  0.018962
 -0.020420
 -0.066770
  0.001410
 -0.225922
 -0.073851
 -0.037686
  0.254902
  0.093691
 -0.127265
 -0.193426
 -0.123996
 -0.096156
 -0.051855
 -0.310133
  0.228009
  0.007071
  0.004506
  0.047446
 -0.064734
 -0.118562
 -0.011083
  0.091507
 -0.024668
  0.050885
 -0.346274
  0.090073
  0.088908
  0.219847
 -0.293104
 -0.059108
  0.165285
  0.049272
  0.053965
 -0.120561
 -0.108905
  0.008722
  0.022642
  0.033985
  0.003197
  0.323410
 -0.137379
 -0.041494
 -0.189911
 -0.062960
  0.075727
  0.076224
  0.080544
  0.086340
 -0.208098
 -0.158224
  0.207057
  0.000745
 -0.007569
 -0.160053
  0.182874
  0.094236
 -0.001037
  0.041092
  0.018795
  0.006019
  0.064793
 -0.083753
  0.019599
  0.027934
  0.027930
 -0.261197
 -0.050622
 -0.046003
  0.030740
  0.142533
 -0.173851
  0.122270
 -0.109827
  0.310030
 -0.039515
  0.075480
 -0.114077
  0.050195
 -0.073438
 -0.150251
 -0.227625
  0.382619
 -0.121161
  0.040013
  0.071902
 -0.204711
 -0.206094
  0.041704
 -0.092617
 -0.159376
  0.062696
 -0.186072
  0.068125
 -0.066563
  0.055266
 -0.049596
 -0.061152
 -0.145054
  0.034279
  0.068566
  0.121316
  0.108355
  0.080586
 -0.031557
  0.114357
  0.164330
 -0.109351
 -0.043293
  0.035908
 -0.123266
  0.048303
 -0.144170
  0.029642
  0.033634
 -0.019495
 -0.074832
 -0.092869
 -0.082447
  0.160951
  0.153593
  0.136942
  0.099664
  0.076654
 -0.203178
  0.156231
 -0.070206
 -0.091312
 -0.079126
  0.076553
  0.067662
 -0.021747
  0.128703
  0.006917
 -0.247773
  0.074325
  0.057602
 -0.094062
 -0.031643
  0.059077
 -0.149646
 -0.091707
 -0.119714
  0.100158
 -0.108439
  0.171935
  0.050485
  0.246693
 -0.166980
  0.171630
  0.027149
 -0.005972
 -0.047379
  0.007075
  0.008458
 -0.031214
 -0.093568
 -0.002672
  0.071726
  0.172386
 -0.070477
  0.010249
 -0.184757
  0.089227
  0.004546
 -0.114616
  0.112251
  0.016542
  0.000114
 -0.146593
 -0.091278
  0.112825
  0.005102
 -0.014834
  0.057243
 -0.097678
 -0.141066
  0.041262
  0.095576
 -0.032949
  0.054953
  0.089787
  0.124684
 -0.135808
  0.112664
 -0.093809
  0.373992
 -0.243945
 -0.126867
  0.142557
 -0.123895
  0.064198
 -0.051199
  0.087960
  0.118177
  0.030467
 -0.136007
 -0.206998
  0.089268
  0.040272
 -0.099668
 -0.058578
 -0.003533
 -0.165769
 -0.096106
  0.149025
  0.096808
  0.112559
 -0.096740
 -0.002088
  0.016000
  0.296746
  0.062578
  0.034086
 -0.032532
 -0.063190
 -0.204116
 -0.011598
  0.041211
 -0.115208
  0.196543
  0.180063
 -0.001917
  0.062319
  0.090199
  0.022090
  0.003746
  0.098118
  0.060132
 -0.093917
 -0.167494
  0.206868
 -0.076216
 -0.282459
 -0.122237
  0.150923
 -0.161892
 -0.079275
  0.142221
 -0.049871
 -0.073606
  0.006830
 -0.275372
 -0.104515
 -0.080250
  0.137388
 -0.041931
  0.153343
 -0.004167
  0.131446
  0.039037
 -0.167108
  0.065873
  0.127793
  0.114788
  0.198616
 -0.037883
  0.097176
  0.090734
  0.069741
 -0.068069
  0.098246
 -0.046630
 -0.048206
  0.118183
  0.054572
 -0.026823
  0.019528
 -0.197447
 -0.096029
  0.007955
 -0.409516
  0.084330
 -0.029119
 -0.248141
 -0.041524
  0.013563
  0.252076
  0.196736
 -0.082661
  0.318540
 -0.180746
  0.086826
  0.024700
  0.011933
  0.134456
 -0.086938
 -0.084852
 -0.103933
  0.078022
 -0.168915
 -0.050338
 -0.035914
  0.242889
  0.088648
 -0.233141
  0.001365
 -0.192113
  0.078868
  0.133606
  0.316330
  0.171343
 -0.004691
 -0.173553
  0.159268
 -0.089290
  0.153789
  0.091020
  0.151913
  0.235532
  0.071152
  0.064774
  0.154885
 -0.058360
  0.139604
 -0.026854
 -0.067350
  0.076526
  0.024484
 -0.137406
 -0.063743
  0.249599
 -0.136432
  0.083148
  0.020237
 -0.164451
 -0.160110
  0.168527
 -0.104203
 -0.036148
  0.101077
 -0.064835
 -0.009574
 -0.014893
 -0.070622
 -0.016878
 -0.004220
  0.026350
  0.117871
 -0.075593
  0.034796
  0.006927
  0.192222
 -0.028563
 -0.184780
 -0.043848
 -0.096976
  0.127576
  0.145193
  0.101595
 -0.150060
 -0.082716
  0.056564
 -0.089496
  0.130711
  0.028921
 -0.044877
 -0.105302
 -0.142489
 -0.227658
 -0.088861
 -0.123769
  0.048373
 -0.232271
  0.050632
  0.039379
  0.037585
 -0.058337
 -0.025053
 -0.196623
  0.111332
  0.034666
  0.211116
  0.135400
 -0.146276
  0.117226
 -0.138930
  0.089942
  0.261729
  0.020886
 -0.056967
  0.229278
  0.003331
  0.069104
  0.011669
  0.072875
  0.136471
  0.210443
 -0.246690
  0.077061
  0.002656
  0.135525
 -0.067003
 -0.042288
  0.069119
  0.012724
 -0.119008
  0.147579
 -0.016415
  0.011900
 -0.233628
 -0.056261
  0.182705
  0.150453
  0.270861
  0.053997
  0.038151
 -0.041363
 -0.018182
  0.062583
 -0.146094
  0.093631
 -0.029801
 -0.156741
 -0.270947
 -0.074096
 -0.114330
  0.049413
 -0.034971
  0.063805
  0.286034
 -0.163232
 -0.028739
  0.132044
  0.111573
 -0.011495
  0.101418
  0.061905
  0.039003
  0.153687
 -0.121356
  0.141533
 -0.115813
 -0.174015
 -0.036844
  0.045254
 -0.083119
 -0.220560
 -0.102570
 -0.175712
 -0.261737
  0.316713
 -0.039033
  0.014167
 -0.057794
 -0.191853
  0.190412
 -0.106368
  0.097910
  0.002239
  0.022027
 -0.050141
  0.107436
  0.095572
  0.167908
 -0.239501
  0.009334
  0.069801
 -0.071118
  0.021743
 -0.006245
 -0.004073
  0.093109
  0.031360
 -0.013800
 -0.159774
  0.034629
  0.074499
 -0.121077
 -0.071235
  0.221422
 -0.043913
  0.077077
 -0.032537
  0.058567
  0.106399
  0.030773
 -0.035444
 -0.182765
 -0.029241
  0.128375
 -0.084145
  0.008878
  0.138588
 -0.174242
 -0.054767
  0.097034
  0.143301
 -0.033344
 -0.229125
  0.139510
  0.066834
 -0.047890
 -0.139093
  0.221668
  0.001701
 -0.017521
  0.045309
  0.033894
 -0.073755
  0.008713
  0.121311
  0.032928
  0.001901
  0.034862
 -0.066427
 -0.074947
 -0.074305
  0.017288
  0.139365
  0.134196
 -0.087517
 -0.212708
 -0.184158
 -0.029809
 -0.114192
 -0.157223
  0.109726
  0.035795
  0.026732
  0.161054
  0.064282
 -0.118897
 -0.068924
  0.049254
 -0.143724
  0.000905
  0.098455
  0.162598
  0.042001
  0.036443
  0.004112
 -0.071068
  0.295233
 -0.053024
  0.062503
 -0.047122
 -0.173492
 -0.208059
 -0.164702
  0.053631
  0.079054
 -0.032762
 -0.098699
  0.178776
 -0.048270
 -0.081308
 -0.088678
 -0.018457
 -0.010858
 -0.278296
 -0.051918
 -0.038837
  0.027153
  0.151977
 -0.075017
 -0.306398
 -0.008437
 -0.353207
 -0.028876
 -0.265695
  0.076676
  0.030153
  0.068171
  0.114298
 -0.106941
  0.036685
  0.015849
 -0.088360
  0.322875
  0.124726
  0.010977
 -0.041506
  0.072554
  0.121572
  0.194017
 -0.036769
  0.136435
 -0.137167
 -0.050668
  0.153031
  0.063766
  0.053313
  0.203047
 -0.104513
 -0.065169
 -0.139120
  0.025983
  0.134010
  0.051552
  0.078003
 -0.029700
 -0.032495
  0.009232
 -0.053081
 -0.161541
 -0.065340
  0.040149
  0.096726
 -0.158177
 -0.218431
  0.042753
 -0.097688
 -0.006587
 -0.065656
 -0.068176
  0.154854
  0.017676
 -0.057762
 -0.247803
 -0.165161
 -0.095729
  0.061338
 -0.008678
  0.010231
  0.086805
  0.275363
  0.039374
  0.060863
 -0.096061
 -0.104053
  0.110072
  0.027702
  0.159794
  0.004233
  0.139888
 -0.048561
 -0.110129
  0.190960
  0.084052
  0.094441
  0.060482
 -0.023316
 -0.009786
  0.165224
  0.209334
 -0.006737
 -0.038655
 -0.149655
  0.109518
 -0.055431
 -0.118934
  0.172639
  0.089767
 -0.033801
  0.179640
  0.109876
  0.116376
  0.127986
 -0.074471
  0.133419
  0.221570
  0.031199
 -0.097903
  0.091023
 -0.005516
 -0.079903
 -0.092957
 -0.209134
  0.220297
 -0.025309
  0.114897
  0.080426
  0.036728
  0.122606
  0.238937
 -0.050013
 -0.148202
 -0.008150
 -0.092033
 -0.132746
 -0.029383
  0.007744
 -0.180447
  0.147508
 -0.175595
  0.019440
 -0.025015
 -0.052791
 -0.175672
 -0.031642
 -0.153715
 -0.102405
  0.108997
 -0.056015
  0.011605
  0.022625
  0.078001
  0.022378
 -0.032133
  0.141289
  0.101444
  0.098737
  0.028789
  0.161035
 -0.174012
 -0.020227
 -0.081477
 -0.128093
 -0.073558
 -0.128696
 -0.012851
 -0.111239
  0.139108
  0.021848
  0.086905
 -0.169106
 -0.072103
 -0.061567
  0.051799
 -0.196705
  0.060474
  0.026500
  0.085052
 -0.082678
  0.059547
 -0.192385
 -0.021477
 -0.048110
 -0.217876
  0.022161
 -0.022749
 -0.036888
 -0.019544
 -0.049307
  0.002993
  0.140740
  0.053401
  0.178902
  0.050736
  0.342715
  0.200824
 -0.043132
  0.043744
 -0.100255
 -0.171286
 -0.040636
  0.130467
  0.041360
  0.077335
 -0.002148
  0.098167
  0.140189
 -0.006905
 -0.220036
  0.194516
 -0.145986
 -0.040138
 -0.034144
 -0.211628
  0.154785
 -0.163135
 -0.202767
 -0.202777
  0.006398
 -0.134696
 -0.190611
  0.065833
 -0.127303
 -0.004974
 -0.060237
 -0.039614
 -0.034703
  0.054306
 -0.108388
  0.000048
  0.168105
 -0.206061
 -0.124064
  0.045546
  0.012004
  0.010779
 -0.127475
  0.162019
  0.191898
  0.013143
  0.121319
  0.072210
 -0.040284
  0.004142
  0.106891
  0.103119
  0.009493
 -0.103957
 -0.190470
  0.025785
  0.091420
  0.069763
 -0.049336
 -0.016962
 -0.225884
 -0.040308
 -0.000474
  0.140213
 -0.201748
  0.049283
  0.142246
 -0.163628
  0.136629
 -0.042924
  0.090101
 -0.339465
  0.014681
  0.155695
 -0.051508
 -0.079266
  0.323353
  0.005551
  0.084318
  0.182795
  0.031596
 -0.083408
 -0.094156
 -0.229822
  0.158733
  0.249663
 -0.098388
 -0.295422
  0.039134
 -0.002078
 -0.010668
 -0.045728
  0.025943
  0.104106
  0.039931
 -0.149907
  0.001161
 -0.072489
 -0.046675
  0.067304
 -0.122905
  0.170244
  0.113276
 -0.085233
 -0.098493
  0.136114
 -0.159895
  0.080952
  0.246400
 -0.177886
 -0.113504
  0.094957
 -0.098050
  0.013730
 -0.078097
 -0.150914
  0.108429
 -0.262843
 -0.077981
  0.012990
  0.074783
  0.055439
  0.285477
  0.096109
  0.161710
  0.088583
  0.185891
  0.083217
  0.080949
  0.021952
  0.035023
  0.031471
 -0.089900
  0.076930
 -0.200522
  0.099446
  0.149628
 -0.006168
  0.020724
 -0.013300
 -0.157093
  0.127958
  0.095068
  0.037252
  0.001618
  0.080505
 -0.118117
  0.000838
  0.181445
 -0.098367
 -0.069708
 -0.064484
 -0.253210
 -0.140381
  0.123559
 -0.003774
 -0.043634
  0.048936
  0.151330
 -0.173423
 -0.192380
 -0.089731
 -0.085122
  0.042076
 -0.001815
  0.285855
  0.028617
 -0.065606
 -0.008406
  0.068888
 -0.103305
  0.037912
 -0.141328
 -0.157855
  0.071787
 -0.054975
  0.073002
  0.047510
  0.193189
  0.035305
  0.216294
 -0.011282
  0.053998
  0.073418
  0.131703
  0.056500
  0.102764
  0.026041
 -0.033568
 -0.074160
 -0.113640
 -0.159818
  0.060022
 -0.039151
  0.217753
 -0.019945
 -0.275793
 -0.094149
  0.085255
 -0.016158
  0.064649
  0.029293
  0.082616
  0.084984
  0.068047
 -0.006912
  0.027652
 -0.124331
  0.088486
 -0.107423
  0.021597
 -0.062796
  0.003500
 -0.214434
  0.158672
 -0.024369
  0.004362
 -0.181032
 -0.064835
 -0.033392
  0.095591
 -0.023855
  0.068093
  0.077734
  0.052461
 -0.018446
  0.040348
  0.039564
 -0.078955
  0.101437
  0.042409
  0.061994
 -0.042707
  0.075111
 -0.203074
  0.178291
 -0.004371
 -0.015955
  0.158642
  0.075550
 -0.123732
  0.189491
 -0.243779
 -0.322635
 -0.144231
  0.107585
 -0.335331
  0.220787
 -0.022765
  0.063293
 -0.024804
 -0.063546
  0.208041
  0.040166
 -0.151218
 -0.095966
 -0.166592
 -0.154975
  0.073593
  0.074565
 -0.051804
 -0.149437
 -0.260793
 -0.065155
  0.290248
  0.143461
 -0.112805
  0.041162
  0.120077
 -0.231271
  0.071721
 -0.074367
 -0.024085
  0.106747
  0.007238
 -0.077881
 -0.116192
  0.022293
  0.074006
 -0.052007
 -0.113162
 -0.065355
  0.180016
 -0.064620
  0.203067
  0.011222
 -0.076461
 -0.087539
 -0.147373
 -0.108463
  0.107599
  0.062907
 -0.126588
 -0.086824
  0.046506
  0.103859
  0.010818
  0.025616
  0.108177
  0.086626
  0.143637
  0.041148
 -0.137174
  0.065140
 -0.068999
 -0.117627
  0.026289
 -0.196194
 -0.054256
 -0.044565
  0.049473
  0.035506
  0.148953
 -0.033966
  0.019424
  0.254380
  0.074293
 -0.028343
  0.183214
  0.179794
 -0.056098
  0.179835
  0.030522
 -0.095429
  0.275414
 -0.126409
 -0.073664
 -0.056936
 -0.097121
  0.201147
  0.012038
 -0.079110
  0.038624
 -0.125366
  0.070537
 -0.173627
 -0.128096
 -0.190163
  0.066065
  0.050547
 -0.073814
 -0.087156
  0.004865
  0.059478
  0.224642
  0.031873
 -0.249549
  0.121838
  0.065028
  0.061026
 -0.068113
  0.000464
  0.147659
  0.058532
  0.193742
  0.177409
  0.121006
 -0.007041
 -0.072827
  0.155093
  0.157912
  0.272120
 -0.064658
 -0.039903
 -0.087459
 -0.001691
  0.272260
 -0.091781
  0.101162
  0.042294
  0.071209
  0.091811
  0.004270
  0.047971
 -0.203743
 -0.022399
 -0.090353
  0.094431
 -0.101379
  0.005559
 -0.124923
 -0.094179
  0.051475
  0.148719
  0.029319
  0.160475
 -0.277909
  0.040320
  0.134627
 -0.167450
 -0.068791
  0.008734
 -0.055212
 -0.165737
  0.180278
  0.248569
 -0.016831
  0.082872
 -0.091398
  0.000400
 -0.056640
  0.017539
  0.166057
 -0.060345
  0.024182
 -0.011587
 -0.015875
 -0.175059
 -0.082986
  0.134275
  0.074799
  0.031382
 -0.112218
 -0.067915
  0.047334
  0.192282
  0.068101
 -0.065919
 -0.110546
 -0.153052
  0.135908
 -0.026427
  0.055690
  0.204216
  0.100297
  0.097755
 -0.018957
 -0.073375
 -0.090749
 -0.072809
  0.146742
  0.080353
 -0.238431
  0.074307
  0.120416
  0.116398
 -0.024898
 -0.013682
 -0.113967
 -0.007887
 -0.210573
  0.018699
  0.106776
  0.308038
  0.232163
 -0.030004
  0.114662
 -0.079474
  0.244321
 -0.036592
  0.017052
 -0.106115
 -0.070209
 -0.069310
  0.029242
  0.050315
  0.011911
  0.064128
 -0.008658
 -0.083048
  0.124845
  0.001785
  0.044308
 -0.082605
 -0.015390
 -0.079296
 -0.035441
  0.058672
  0.178261
  0.036081
  0.113250
  0.063695
 -0.129356
 -0.259109
 -0.046904
 -0.023463
 -0.110281
  0.015534
 -0.068210
  0.137381
  0.112314
  0.071616
 -0.056177
 -0.003198
  0.120053
 -0.136062
 -0.140549
 -0.085456
 -0.050107
 -0.091596
 -0.077237
 -0.064431
 -0.002033
 -0.100811
  0.030833
 -0.176343
  0.145039
 -0.030633
 -0.027528
  0.158489
 -0.162419
 -0.077046
 -0.008397
  0.000440
  0.062087
 -0.157940
 -0.025966
 -0.029114
  0.117431
 -0.185595
  0.074496
  0.272553
  0.134386
 -0.087992
 -0.042092
  0.144747
 -0.076669
 -0.065012
  0.030984
  0.069138
  0.047273
 -0.188369
  0.048909
 -0.116689
  0.029847
 -0.139418
 -0.098988
  0.130025
  0.031566
 -0.055547
  0.165572
 -0.170414
  0.030918
 -0.044076
 -0.155926
 -0.025231
 -0.046346
 -0.152320
  0.068747
 -0.150533
  0.138512
 -0.073002
  0.132301
****
