PROJECT: W75X_2014May15
NCH:     4096
BW:   2.50000e+07
VELOCITY:       0.00000
PV:      0.480000
FREQ:    2.2235080e+09
DATE:     2014       5      16
TIME:        4      28      49
POSITION:       309.654      42.6272
INTEGRATION TIMES:       30.0000      30.0000
MAX VALUE:      0.030583974
 -0.232836
 -0.138035
 -0.197971
  0.108442
  0.009448
 -0.114573
  0.013919
 -0.084369
 -0.056682
 -0.051840
 -0.030471
 -0.039878
 -0.060857
 -0.028895
  0.017764
  0.130245
 -0.107454
 -0.048282
 -0.165311
 -0.044721
 -0.048638
 -0.078797
 -0.068719
 -0.017961
  0.029506
 -0.056195
 -0.078748
 -0.041509
  0.022087
 -0.039619
 -0.002034
 -0.126111
  0.054425
 -0.105073
 -0.046241
 -0.075360
 -0.021668
 -0.043508
 -0.014860
 -0.058717
 -0.126004
 -0.041822
 -0.085989
  0.203356
 -0.051234
  0.000184
 -0.108667
  0.122421
  0.137950
 -0.063944
 -0.019637
  0.113553
 -0.005825
 -0.053898
 -0.066403
  0.084814
 -0.184071
 -0.066424
 -0.100180
 -0.124558
 -0.120965
 -0.096795
  0.015645
  0.142684
  0.067334
 -0.005780
  0.057164
 -0.099688
  0.052601
  0.067930
 -0.161849
 -0.106102
  0.040400
  0.100096
 -0.203994
  0.119338
 -0.043179
  0.036048
  0.015783
 -0.157609
 -0.055775
  0.092933
 -0.131699
  0.248629
 -0.052672
  0.070133
 -0.089951
  0.139161
 -0.029741
  0.128669
  0.002582
 -0.072510
 -0.059547
  0.017678
 -0.048723
 -0.164504
  0.047171
  0.067293
 -0.158375
 -0.090176
  0.047356
 -0.121729
  0.019249
  0.109352
 -0.058817
 -0.055710
 -0.071818
  0.103709
 -0.006689
  0.072525
  0.082844
 -0.038499
 -0.086489
  0.266012
 -0.078748
  0.172855
 -0.094909
 -0.112207
 -0.032624
 -0.075724
 -0.044221
  0.227486
  0.052377
  0.080363
 -0.003964
 -0.093854
  0.011086
 -0.207236
 -0.149403
 -0.110138
  0.111466
 -0.068192
  0.098547
  0.013374
  0.057440
  0.003109
 -0.069652
 -0.089307
 -0.072367
  0.164875
 -0.069082
  0.028904
  0.041662
  0.097504
  0.035354
 -0.036344
 -0.057920
  0.026844
 -0.019200
  0.039088
  0.026321
 -0.088554
 -0.004513
  0.004770
 -0.027534
  0.103014
 -0.175098
  0.035558
  0.093525
  0.028491
 -0.028957
 -0.060377
 -0.057413
  0.029804
 -0.123629
 -0.073869
  0.107914
  0.145499
  0.009821
  0.035030
 -0.018888
  0.047586
 -0.073736
 -0.038059
  0.099542
  0.008761
 -0.015019
  0.092918
 -0.009927
  0.016472
  0.058542
 -0.126281
 -0.071883
 -0.065131
  0.007405
  0.081281
 -0.029721
  0.101404
 -0.068155
 -0.031909
  0.200025
  0.132186
 -0.041419
 -0.028861
  0.108528
 -0.018519
 -0.064270
  0.110331
 -0.108964
  0.053597
 -0.176454
  0.117037
 -0.082581
 -0.183716
 -0.102438
 -0.009438
 -0.055355
 -0.063201
 -0.177079
 -0.142556
  0.092669
 -0.051315
  0.102032
  0.001157
  0.071047
  0.061278
  0.025197
 -0.087167
 -0.010870
 -0.053357
 -0.038798
 -0.064344
  0.129291
 -0.122385
  0.287222
 -0.119520
  0.093167
 -0.102794
 -0.053537
 -0.035768
 -0.158243
 -0.065130
  0.052121
  0.301805
  0.144714
  0.002370
 -0.110615
  0.079600
 -0.054668
  0.072314
 -0.088141
  0.042441
 -0.062523
  0.050624
  0.170332
  0.030034
  0.148802
 -0.084755
 -0.161648
 -0.033279
  0.034576
  0.121213
 -0.019479
  0.052988
 -0.107952
 -0.028301
 -0.014647
 -0.106777
  0.019217
  0.082212
 -0.035709
  0.188252
 -0.049043
 -0.069155
 -0.156362
  0.197704
 -0.028649
  0.127118
 -0.082430
 -0.035683
  0.064600
  0.113240
  0.026947
 -0.026540
 -0.184629
  0.036741
  0.140968
 -0.028081
  0.140731
 -0.035765
  0.029938
  0.000700
  0.047689
 -0.114803
  0.184558
  0.045477
  0.071091
  0.020342
  0.090656
  0.027020
 -0.070446
 -0.044832
  0.207763
 -0.043260
 -0.043493
 -0.009233
  0.003278
 -0.010717
 -0.043293
 -0.052881
 -0.071627
  0.039380
  0.133618
  0.048674
 -0.137148
  0.117226
  0.050424
 -0.004062
  0.157888
 -0.019166
 -0.073182
  0.013638
 -0.046205
  0.004581
 -0.087884
  0.019225
  0.112637
  0.051916
 -0.048512
 -0.074367
  0.073103
  0.155406
  0.099461
 -0.191304
  0.007787
 -0.136191
 -0.154676
  0.024382
 -0.032314
  0.029254
 -0.060416
  0.119199
  0.063536
 -0.194680
  0.001449
 -0.102388
  0.047182
 -0.089989
 -0.000745
  0.055117
 -0.063715
  0.002733
  0.002166
 -0.059227
 -0.034284
 -0.109808
  0.057113
 -0.011600
 -0.089288
 -0.142537
  0.003578
 -0.207500
 -0.099189
 -0.027215
  0.077733
 -0.028402
 -0.014136
 -0.053706
 -0.019340
 -0.028081
  0.003569
 -0.065372
 -0.077651
 -0.096867
 -0.101970
  0.169978
 -0.041899
 -0.094453
 -0.078802
 -0.021794
 -0.050581
  0.005577
  0.130880
  0.075527
  0.082986
 -0.060730
  0.027664
  0.038430
  0.136254
 -0.186045
  0.119221
  0.070982
 -0.256543
 -0.059253
  0.125382
 -0.049617
 -0.060052
 -0.035930
  0.118881
  0.099611
 -0.093857
 -0.088408
  0.053686
  0.051240
 -0.117486
  0.041223
  0.028674
 -0.003405
  0.190349
  0.074741
  0.084342
 -0.023441
  0.170989
  0.163887
 -0.057721
 -0.017808
 -0.120395
  0.051535
  0.022102
  0.072534
  0.114641
 -0.049495
 -0.018798
 -0.011495
  0.006913
  0.010531
 -0.180959
  0.117881
  0.098004
  0.002561
  0.017381
 -0.006475
 -0.004266
  0.053497
  0.033815
  0.002164
 -0.003748
 -0.007177
 -0.002224
  0.089484
 -0.034048
  0.001859
 -0.112814
  0.093743
  0.014799
  0.002347
 -0.061924
  0.057828
  0.047590
  0.022853
  0.014913
 -0.056593
  0.107854
 -0.113507
  0.038373
 -0.004116
 -0.190461
 -0.071115
  0.055172
 -0.032421
  0.016276
  0.076803
 -0.022201
  0.167079
  0.100167
  0.000486
  0.109151
 -0.000470
 -0.083582
 -0.029527
 -0.061100
  0.085018
  0.020453
 -0.031748
 -0.141674
  0.073547
  0.126901
  0.084118
  0.007832
  0.072279
  0.256096
 -0.065633
 -0.013517
  0.058438
  0.011950
 -0.043854
 -0.184412
  0.034405
  0.040095
  0.027901
 -0.157016
  0.102104
 -0.018906
 -0.141788
  0.044607
  0.004383
 -0.013776
 -0.023139
 -0.002213
 -0.103108
 -0.112837
 -0.078731
  0.123383
 -0.020010
  0.041384
 -0.026759
 -0.081413
 -0.054540
  0.049869
 -0.111515
  0.011400
  0.091034
  0.064058
  0.104809
 -0.097195
  0.185048
 -0.048717
  0.128137
 -0.007014
  0.108867
  0.178562
 -0.049631
  0.036065
  0.008860
  0.017630
  0.050562
 -0.147137
 -0.081167
 -0.051379
  0.039710
 -0.050913
 -0.029222
 -0.084087
  0.027140
 -0.016067
  0.004419
 -0.017750
  0.021269
 -0.202798
  0.022360
  0.031567
 -0.096892
 -0.030152
 -0.026435
  0.093591
 -0.135078
 -0.047777
 -0.218806
  0.236347
 -0.064842
  0.032202
 -0.046401
  0.182047
  0.168456
 -0.061761
 -0.128628
 -0.027588
  0.147893
  0.044856
  0.077119
 -0.109052
  0.162767
  0.138626
  0.163222
  0.025342
  0.073737
  0.080149
  0.121772
 -0.042661
 -0.145484
  0.080843
 -0.147152
 -0.003899
 -0.049400
 -0.149539
 -0.026250
 -0.001561
  0.071248
 -0.034089
 -0.129279
 -0.216154
  0.126317
  0.005693
  0.047359
  0.114613
 -0.011285
  0.005908
  0.005063
  0.021196
 -0.044455
 -0.008993
 -0.008622
 -0.261118
 -0.147366
  0.167111
  0.062035
 -0.114814
 -0.020147
 -0.058807
 -0.137980
  0.029692
 -0.029890
 -0.047650
  0.000073
 -0.103582
 -0.011847
  0.009589
  0.127696
 -0.196789
 -0.235626
 -0.077692
 -0.012520
  0.017404
  0.013925
 -0.079931
  0.027057
  0.019346
  0.068680
 -0.070295
 -0.000107
  0.067300
  0.105470
  0.096751
  0.074767
 -0.009835
 -0.012780
  0.052307
 -0.152391
 -0.046222
 -0.034934
 -0.094864
 -0.042202
 -0.048922
 -0.057408
  0.067500
 -0.041714
  0.105532
  0.112885
  0.096631
 -0.038020
 -0.076383
 -0.033736
  0.054008
  0.071722
  0.030656
 -0.064881
 -0.162431
 -0.033274
 -0.068168
 -0.190031
 -0.141169
  0.049107
  0.152596
  0.042117
 -0.033914
  0.092408
 -0.056193
  0.046281
  0.139024
 -0.048780
  0.170917
 -0.111108
 -0.077641
  0.098835
  0.015138
 -0.044404
 -0.141132
 -0.027396
 -0.025478
 -0.007851
 -0.101636
 -0.059844
  0.044472
 -0.019457
  0.249480
  0.173256
 -0.019256
  0.067469
  0.017659
  0.136339
  0.031396
 -0.066316
  0.038645
 -0.119461
  0.122500
 -0.124950
 -0.102568
 -0.083028
  0.160948
 -0.139675
 -0.063742
 -0.087644
  0.163828
  0.093539
 -0.001311
  0.007445
  0.026289
 -0.033087
 -0.144528
 -0.012572
 -0.009334
 -0.052506
  0.088170
  0.029172
 -0.046705
 -0.003085
 -0.108075
 -0.040792
  0.041842
 -0.104504
  0.191851
  0.114119
  0.057771
 -0.043650
 -0.006085
  0.111044
 -0.004637
 -0.078278
  0.054965
 -0.092450
  0.016052
  0.091404
 -0.004206
 -0.036959
  0.074305
  0.041713
 -0.122806
  0.150738
  0.041424
 -0.020831
  0.032594
  0.094153
 -0.065100
  0.071312
 -0.009682
 -0.039416
 -0.127662
 -0.004448
  0.027657
 -0.167400
 -0.007760
  0.002036
  0.008031
 -0.035700
  0.129445
 -0.118897
  0.099239
 -0.178592
 -0.154089
  0.170487
 -0.004056
  0.048083
 -0.013932
  0.003623
 -0.029468
 -0.152399
 -0.062911
 -0.072510
  0.049992
  0.037025
  0.101684
 -0.010005
 -0.027603
  0.071072
 -0.091755
  0.149919
  0.015536
  0.013154
  0.072571
  0.187102
 -0.064125
 -0.098992
  0.145579
  0.031294
  0.005464
 -0.026913
  0.061500
  0.031410
  0.024933
  0.136258
 -0.005697
  0.013388
 -0.093757
 -0.077475
  0.038452
  0.067265
 -0.100782
 -0.133599
 -0.076302
  0.018285
 -0.116883
 -0.017977
  0.118518
  0.021328
 -0.142796
  0.174740
 -0.030373
 -0.084779
 -0.005387
  0.024642
  0.015688
  0.112721
  0.015828
 -0.097400
  0.005799
 -0.037984
  0.135905
  0.080702
 -0.026255
  0.180036
  0.061071
  0.054138
 -0.044588
 -0.217609
 -0.205001
  0.121155
  0.070552
 -0.058742
 -0.085579
 -0.034173
  0.020748
 -0.038189
  0.056566
  0.025717
  0.082446
  0.048406
  0.176411
  0.088958
 -0.027083
 -0.123819
  0.101975
  0.026387
  0.102825
 -0.045595
  0.081594
 -0.068152
 -0.058075
  0.104079
 -0.091416
  0.122133
  0.131266
  0.028884
  0.035717
  0.016771
 -0.042379
  0.106334
  0.060747
 -0.050094
  0.099728
  0.025417
 -0.082643
 -0.092956
 -0.089311
 -0.035222
 -0.094234
 -0.112282
  0.082194
  0.002605
  0.082835
 -0.027061
  0.044436
  0.053300
 -0.064633
  0.007999
 -0.021400
 -0.000582
  0.012276
  0.111359
 -0.001433
  0.049106
 -0.011083
 -0.165102
 -0.014177
  0.048997
  0.007340
  0.219607
 -0.083576
  0.031769
 -0.011953
 -0.016980
  0.002215
  0.051087
 -0.100989
  0.031995
 -0.015722
  0.017921
 -0.062338
  0.137985
  0.015898
 -0.038039
 -0.185898
  0.182950
  0.094695
  0.131114
 -0.259691
 -0.052270
 -0.065803
 -0.014074
  0.003503
 -0.131693
 -0.037861
 -0.087827
 -0.095041
  0.045711
 -0.226852
 -0.125822
 -0.039361
 -0.110962
 -0.112987
  0.045913
 -0.058610
 -0.125506
  0.003441
 -0.019870
 -0.073463
  0.008330
  0.290572
 -0.038112
 -0.143277
  0.101265
  0.040012
  0.049006
  0.018087
  0.216707
 -0.013796
 -0.009932
 -0.101935
 -0.102374
  0.025006
  0.074612
  0.044859
 -0.124453
 -0.079502
  0.066054
  0.148917
 -0.049893
  0.027078
 -0.037994
 -0.068657
 -0.059753
 -0.117501
 -0.084698
  0.101825
 -0.031160
  0.135639
 -0.002165
  0.032380
  0.093409
  0.044183
  0.118243
  0.017773
 -0.156308
  0.013835
  0.022211
  0.069684
  0.182048
  0.028758
 -0.027888
 -0.044750
  0.116783
  0.159591
 -0.061692
 -0.103369
  0.144998
 -0.087301
  0.075497
 -0.110816
  0.004185
 -0.082743
  0.034127
 -0.069179
  0.086812
 -0.043540
  0.068812
  0.051077
  0.166912
  0.025218
 -0.003244
  0.018901
 -0.054557
  0.031851
  0.019273
 -0.150294
 -0.064984
  0.076769
 -0.019789
 -0.079441
 -0.071089
  0.107020
 -0.058106
 -0.069617
 -0.010972
 -0.163190
 -0.002866
  0.103086
  0.065229
  0.015777
 -0.023959
  0.159402
  0.025286
 -0.109387
  0.014130
 -0.103411
  0.110207
  0.090255
 -0.025123
  0.073943
 -0.065779
  0.066702
  0.026239
 -0.044888
 -0.028425
  0.032879
 -0.058636
 -0.035389
 -0.063643
  0.000481
 -0.161611
  0.138203
  0.046125
 -0.121255
 -0.060310
 -0.026738
 -0.040790
  0.086186
  0.067511
  0.146328
  0.106740
 -0.023593
  0.081472
  0.157306
  0.006178
 -0.089719
  0.084089
  0.064520
 -0.075402
 -0.081377
 -0.207411
  0.206307
  0.043994
  0.101568
  0.101278
  0.064690
 -0.008107
 -0.109856
 -0.102777
 -0.122570
 -0.063292
  0.100507
  0.084957
 -0.061130
  0.054490
 -0.008260
 -0.196261
  0.012757
 -0.058135
 -0.085279
 -0.083492
  0.153502
 -0.108008
 -0.013793
  0.013236
  0.001264
 -0.023533
 -0.068623
 -0.019825
  0.055920
  0.038805
  0.033408
 -0.167704
  0.100261
  0.043733
 -0.031991
 -0.087391
 -0.097422
 -0.011944
 -0.016626
 -0.042667
  0.015676
 -0.090067
  0.064111
 -0.010743
 -0.030695
 -0.162757
  0.017804
  0.033211
  0.130019
 -0.135529
  0.069505
 -0.004088
 -0.009547
  0.115244
  0.059715
  0.119748
 -0.011106
 -0.000807
 -0.091159
  0.186136
 -0.117155
 -0.110593
 -0.040408
  0.072690
  0.059230
  0.049216
 -0.209271
 -0.029429
 -0.051086
 -0.013329
 -0.040277
 -0.061372
  0.061805
  0.086397
  0.038955
  0.138583
 -0.015617
 -0.038600
 -0.114405
 -0.037554
  0.107895
 -0.116191
  0.058053
 -0.020301
 -0.047763
  0.096310
  0.103249
 -0.011727
  0.059665
  0.052721
 -0.049011
  0.108101
  0.048901
 -0.092151
 -0.093274
  0.045304
 -0.006517
  0.037767
 -0.057264
  0.010073
  0.074135
 -0.116469
 -0.010735
 -0.067590
 -0.011212
  0.039225
  0.073451
  0.057547
  0.056019
 -0.011287
 -0.052972
  0.038462
  0.166241
  0.033679
 -0.048547
  0.061989
 -0.033506
 -0.155438
 -0.019917
  0.113227
 -0.004507
  0.095882
 -0.004203
  0.111886
  0.072859
 -0.001831
  0.105880
  0.013482
 -0.076342
  0.017566
 -0.013226
 -0.006290
 -0.100040
 -0.009289
 -0.010767
  0.163157
 -0.024357
  0.053018
  0.078257
  0.047583
  0.049182
 -0.182643
 -0.007379
 -0.062715
  0.023238
 -0.150272
 -0.042492
 -0.016013
  0.033351
  0.115209
 -0.055886
  0.172765
  0.026738
 -0.094584
  0.043063
 -0.110083
  0.051177
 -0.028895
  0.084461
  0.014290
 -0.162345
  0.185573
  0.079885
 -0.002232
  0.025614
 -0.148884
  0.059594
  0.019971
  0.129556
  0.029816
  0.073930
  0.167769
 -0.105380
  0.005458
 -0.060500
  0.000498
  0.021490
 -0.106166
  0.026403
 -0.060358
  0.013159
 -0.006348
 -0.028622
 -0.074721
 -0.109937
  0.062931
  0.105914
 -0.047963
 -0.075153
 -0.108124
 -0.062134
 -0.084863
 -0.033089
 -0.117502
 -0.014079
  0.006739
  0.039664
 -0.193392
  0.106647
  0.128996
  0.091581
 -0.020863
 -0.003641
 -0.077585
 -0.030816
  0.017944
  0.037037
  0.102618
  0.029914
 -0.179438
  0.108214
  0.064105
 -0.114179
  0.075696
  0.079182
 -0.162305
  0.073630
 -0.000346
  0.033420
  0.074092
  0.084714
  0.094063
 -0.046054
  0.065818
  0.137698
  0.005613
 -0.115887
  0.046536
  0.009259
 -0.318071
  0.090259
  0.195979
 -0.055833
 -0.111755
 -0.010443
 -0.037355
  0.080224
 -0.026311
 -0.048614
 -0.034692
  0.034754
  0.097394
 -0.029342
 -0.097631
  0.163945
  0.060864
  0.079058
 -0.122207
 -0.026390
  0.022765
  0.017959
 -0.087468
  0.027875
 -0.130472
 -0.104692
  0.001181
  0.001879
  0.001861
  0.019954
  0.017627
 -0.079460
 -0.310020
 -0.070776
  0.183975
  0.028238
  0.122635
 -0.166392
 -0.209122
 -0.036242
 -0.062803
 -0.067640
  0.079789
 -0.062578
 -0.018197
  0.176344
 -0.109050
 -0.108727
  0.169605
  0.173575
  0.117630
 -0.029825
 -0.184033
  0.011209
 -0.029790
 -0.034552
 -0.049215
  0.060343
  0.024764
  0.021544
 -0.103220
  0.064462
 -0.155573
 -0.027121
 -0.021837
  0.077197
 -0.061860
 -0.079537
 -0.092467
 -0.115815
  0.033754
  0.031589
 -0.007467
 -0.050276
  0.005635
 -0.033223
 -0.072815
  0.090954
 -0.001003
  0.021878
 -0.025270
  0.134114
 -0.007726
 -0.032776
 -0.135789
  0.035010
 -0.183072
 -0.042112
  0.187834
  0.074753
 -0.280194
  0.047057
  0.008497
  0.044991
 -0.054727
 -0.012870
  0.068552
 -0.010422
  0.079951
  0.020594
  0.062083
 -0.034240
  0.098872
  0.094855
 -0.021227
  0.065292
  0.081542
  0.141537
  0.136066
  0.112317
 -0.131831
  0.045216
  0.111406
 -0.137873
  0.031066
  0.059033
  0.056885
  0.115390
 -0.000086
 -0.172390
 -0.004489
  0.113163
  0.079851
  0.013961
 -0.015432
  0.019429
 -0.152528
  0.070299
 -0.006937
 -0.008617
  0.058076
  0.038515
 -0.113209
  0.076213
  0.006058
 -0.080124
 -0.089116
 -0.100097
 -0.031831
  0.072918
  0.100041
 -0.007714
 -0.012888
 -0.049505
 -0.114119
  0.061445
  0.193346
  0.011667
 -0.071114
 -0.101620
  0.031218
  0.051506
 -0.108059
 -0.032066
  0.098091
  0.039669
 -0.075553
 -0.088647
  0.006859
  0.152308
  0.016657
 -0.047001
 -0.013228
  0.060317
  0.071851
  0.103139
  0.085932
  0.023486
 -0.042398
 -0.033785
  0.142581
 -0.029832
  0.147748
 -0.014003
  0.038960
  0.005874
  0.133903
 -0.064776
  0.040064
  0.032749
  0.005283
 -0.012070
  0.027998
  0.007358
  0.054030
  0.045410
 -0.008672
 -0.127494
  0.228027
 -0.015018
 -0.042281
  0.172345
  0.087644
  0.030780
  0.061730
  0.019100
 -0.064958
 -0.020457
  0.052583
  0.010483
 -0.180356
 -0.031133
 -0.057791
  0.205573
  0.030219
  0.012905
  0.029471
  0.044973
 -0.075069
 -0.134649
  0.009383
  0.154140
 -0.005812
  0.089796
 -0.070242
  0.135525
 -0.001385
  0.090197
 -0.050869
 -0.086445
 -0.054710
  0.051924
 -0.162222
 -0.009149
  0.011220
 -0.047820
 -0.028720
  0.121211
  0.041920
  0.062326
  0.078546
  0.040926
 -0.060290
 -0.065488
 -0.144837
 -0.088312
  0.012915
 -0.125239
  0.082329
  0.019538
  0.047284
 -0.028977
 -0.058434
  0.027624
  0.079006
 -0.066034
  0.042587
  0.077323
  0.104804
  0.044882
 -0.001432
 -0.228412
 -0.184038
 -0.029462
  0.019281
 -0.003368
  0.124018
  0.004749
  0.088855
 -0.041482
  0.067681
 -0.158828
  0.016419
  0.067233
 -0.040082
  0.025456
  0.103034
 -0.062874
  0.095980
  0.068166
 -0.061666
  0.041339
  0.073399
 -0.010465
  0.128164
  0.166949
 -0.001481
 -0.154371
 -0.071393
 -0.088388
 -0.042956
  0.157186
  0.039615
 -0.151672
 -0.117874
 -0.200198
  0.053559
  0.144619
 -0.049031
  0.031048
 -0.022189
 -0.150130
 -0.070949
  0.123040
 -0.019444
  0.087913
 -0.119092
  0.074122
  0.117864
 -0.020633
 -0.095278
  0.031285
  0.007520
  0.030035
 -0.017994
 -0.072751
  0.079615
  0.061875
 -0.053178
 -0.072026
 -0.015159
 -0.124216
 -0.075231
  0.008099
  0.055750
  0.001240
 -0.072788
  0.179849
 -0.009653
 -0.124607
  0.199013
 -0.025272
 -0.099715
 -0.131406
 -0.077455
 -0.065682
 -0.146560
  0.082743
 -0.027103
 -0.117306
  0.053081
  0.008111
 -0.063424
  0.018862
  0.087379
  0.124479
 -0.079170
 -0.032758
  0.025209
  0.094568
 -0.071432
  0.065289
 -0.018686
 -0.275764
  0.021737
 -0.019489
  0.048948
 -0.025129
  0.053143
 -0.089057
 -0.165597
  0.072106
  0.064845
  0.087052
 -0.109440
  0.128023
 -0.043611
  0.089425
 -0.226806
 -0.072462
 -0.100321
  0.136745
  0.107479
 -0.061329
  0.107817
 -0.073368
  0.034639
  0.074563
 -0.067313
 -0.068551
 -0.004590
 -0.088342
  0.047408
  0.048000
  0.026795
 -0.055530
 -0.024510
  0.070760
 -0.062887
 -0.050471
 -0.072614
  0.165054
 -0.037969
  0.007987
 -0.011694
  0.036842
 -0.028778
 -0.079643
 -0.076306
  0.076147
  0.062319
  0.021456
 -0.120661
  0.097528
  0.080808
  0.091658
  0.095991
  0.013508
 -0.073054
  0.001798
 -0.002125
 -0.031028
 -0.005787
 -0.065873
 -0.110148
 -0.126700
  0.087181
  0.018325
  0.023801
 -0.053503
  0.132376
 -0.082191
 -0.033222
 -0.014779
  0.084856
  0.021466
 -0.058837
 -0.139196
 -0.095332
 -0.087981
  0.065422
 -0.094109
 -0.039838
  0.031619
 -0.082573
  0.066513
 -0.129829
  0.118476
 -0.005902
  0.007103
  0.065060
  0.068347
 -0.025027
  0.070876
  0.034827
 -0.112796
  0.016977
  0.056890
 -0.021880
  0.006374
 -0.139829
  0.053869
 -0.052716
  0.033155
 -0.018696
 -0.029794
 -0.111770
  0.052710
 -0.172609
  0.094002
  0.012997
  0.096931
  0.081110
  0.043676
 -0.025698
 -0.055360
  0.017467
  0.169264
  0.039178
  0.075803
  0.053448
 -0.192340
  0.051924
 -0.058574
 -0.004498
 -0.061142
 -0.106060
 -0.092781
 -0.008796
  0.003023
  0.013959
 -0.179892
  0.061756
 -0.026420
  0.135132
 -0.142522
 -0.004795
 -0.063782
 -0.023465
 -0.032063
 -0.087864
  0.043055
  0.151091
 -0.182606
  0.237995
  0.064310
 -0.021750
 -0.029215
 -0.015905
 -0.053102
 -0.074936
  0.157153
  0.122378
 -0.052336
 -0.148852
  0.156026
  0.031742
 -0.124942
 -0.129232
  0.087118
  0.040235
  0.104498
 -0.059037
  0.070693
 -0.075258
 -0.040886
  0.109433
  0.014699
  0.037286
  0.000291
  0.082138
 -0.092479
 -0.119336
  0.093538
 -0.037661
 -0.182912
 -0.052934
 -0.069433
 -0.064846
  0.107324
  0.106683
  0.033752
  0.125631
  0.128877
  0.075957
  0.286788
  0.073559
  0.291008
  0.367854
  0.152706
  0.213051
  0.262628
  0.371245
  0.218821
  0.457258
  0.581126
  0.317370
  0.281001
  0.501965
  0.336696
  0.296149
  0.325457
  0.388042
  0.251298
  0.319772
  0.165566
  0.252371
  0.321613
  0.221140
  0.164878
  0.101174
  0.250489
  0.053775
  0.210852
  0.120009
  0.091434
  0.253143
  0.317116
  0.380995
  0.182682
  0.154449
  0.303015
  0.084495
  0.149652
  0.212172
  0.303351
  0.237180
  0.074710
  0.159305
  0.153953
  0.359623
  0.288537
  0.442362
  0.483628
  0.573765
  0.683828
  0.696392
  0.744271
  0.827208
  0.699577
  0.902574
  0.609537
  0.479519
  0.680431
  0.686355
  0.616303
  0.396757
  0.460972
  0.277137
  0.512921
  0.223309
  0.302416
  0.288950
  0.190747
  0.133050
  0.094699
  0.049565
  0.128207
  0.006461
  0.097055
  0.206114
 -0.134041
  0.026944
 -0.004248
  0.100494
 -0.008574
 -0.026802
 -0.026185
  0.025929
  0.068089
 -0.024510
 -0.135428
  0.079723
  0.150746
 -0.024512
 -0.054289
 -0.104812
 -0.099452
 -0.080573
 -0.057708
  0.038247
 -0.051093
 -0.001846
 -0.014627
  0.025978
  0.009291
  0.060464
  0.159283
  0.025482
  0.017573
 -0.004244
 -0.059238
  0.054979
  0.164169
 -0.038010
  0.109927
 -0.036625
 -0.052162
  0.017232
  0.019284
 -0.081753
  0.100617
  0.052732
 -0.095751
  0.153153
  0.075884
 -0.122681
  0.159396
  0.010337
 -0.050112
  0.141426
  0.009596
 -0.009293
  0.088410
 -0.231059
  0.029677
  0.135582
 -0.025828
  0.104371
  0.055056
  0.087717
 -0.161328
 -0.009128
 -0.020043
 -0.046480
  0.008162
  0.036248
 -0.088746
 -0.046349
 -0.074159
 -0.121943
  0.057731
 -0.046705
  0.121382
 -0.159440
 -0.013175
  0.060721
 -0.225718
  0.010721
 -0.034509
 -0.178523
  0.062018
  0.034061
  0.041125
 -0.157035
  0.067579
 -0.097980
  0.045446
 -0.128729
 -0.063011
  0.028328
  0.094488
 -0.011521
  0.038539
  0.048634
  0.052467
  0.100547
  0.003562
 -0.103616
  0.188314
  0.023216
  0.059809
  0.109608
 -0.015014
 -0.030728
  0.000542
 -0.062132
 -0.004190
 -0.062922
 -0.078441
  0.084742
 -0.030098
 -0.066572
  0.113095
 -0.086019
  0.050929
  0.004977
 -0.006740
  0.073725
 -0.017703
  0.001386
  0.018598
  0.041349
 -0.126020
 -0.001151
 -0.101208
 -0.053977
  0.079037
  0.112841
 -0.163775
  0.055833
  0.020408
 -0.072395
  0.015204
 -0.080637
 -0.035574
 -0.019011
 -0.067270
  0.104041
  0.053069
 -0.081812
  0.104803
  0.036121
 -0.071830
  0.091033
  0.050764
  0.019405
  0.040489
  0.067647
 -0.229066
 -0.108892
 -0.139596
 -0.016710
  0.115857
 -0.095988
 -0.072685
  0.064232
  0.038954
 -0.001133
  0.037838
 -0.013652
  0.022112
  0.129789
 -0.041240
 -0.014994
 -0.012384
  0.018780
  0.044921
  0.149917
 -0.102901
  0.141337
  0.109310
 -0.028340
  0.142081
 -0.031951
 -0.061952
  0.016886
 -0.000113
  0.100910
  0.055035
  0.013313
 -0.117029
  0.108787
 -0.040589
 -0.060343
 -0.112999
 -0.104788
  0.047141
  0.065622
  0.047121
 -0.117799
  0.018894
 -0.085989
 -0.072276
  0.013264
 -0.080719
  0.031615
 -0.054388
 -0.082946
 -0.097348
 -0.185710
 -0.020831
  0.110283
 -0.029095
 -0.108929
 -0.066512
  0.007745
 -0.044760
  0.091406
 -0.067865
  0.031087
  0.154350
  0.068744
  0.035451
  0.086331
  0.103955
 -0.148109
  0.003268
  0.034386
  0.022804
  0.008325
  0.045109
  0.065621
 -0.041514
 -0.017519
 -0.013844
  0.046867
  0.027632
 -0.065168
  0.147968
 -0.010075
 -0.047579
 -0.136898
  0.111155
  0.115601
 -0.023336
  0.076647
  0.105211
 -0.185967
  0.116357
 -0.013957
  0.007806
  0.078181
 -0.070209
  0.007113
 -0.000240
  0.024524
 -0.014413
  0.072135
 -0.111695
  0.080815
 -0.148050
  0.059583
 -0.030321
  0.012953
  0.050251
 -0.066372
  0.023136
 -0.178177
  0.018864
  0.095682
 -0.021064
  0.104146
 -0.117072
  0.033573
 -0.079458
  0.027726
  0.112642
  0.084204
  0.211508
  0.087036
  0.003746
 -0.000378
  0.063050
  0.114327
  0.044266
 -0.025873
  0.088925
 -0.010694
 -0.062571
 -0.029938
  0.092449
  0.086518
 -0.081153
 -0.106394
 -0.019586
 -0.046552
  0.041997
  0.119127
 -0.091731
 -0.106974
 -0.097837
  0.043328
  0.005114
  0.020650
  0.051578
  0.015792
  0.016344
  0.007800
 -0.055849
 -0.133979
 -0.050297
  0.040465
 -0.064064
 -0.056130
 -0.096025
 -0.112569
 -0.080438
 -0.004293
  0.028310
  0.026577
  0.116314
 -0.025205
  0.127393
 -0.114153
  0.105729
  0.068858
  0.024446
  0.014854
  0.062060
  0.059245
 -0.054910
 -0.090625
 -0.049722
 -0.018112
 -0.104140
  0.152347
  0.011292
 -0.002214
  0.025982
 -0.066540
  0.021807
 -0.139193
  0.141468
  0.074861
  0.075425
 -0.053980
  0.009644
  0.118229
  0.016840
  0.147833
 -0.067898
 -0.008173
 -0.049253
  0.014313
  0.170029
 -0.084298
  0.134648
 -0.012931
 -0.027108
 -0.025108
  0.042060
  0.141029
 -0.045750
  0.074814
  0.076097
 -0.106712
 -0.027718
  0.105722
 -0.116308
 -0.014499
  0.059288
 -0.133380
 -0.054078
 -0.173674
 -0.098246
  0.016939
  0.048872
  0.075247
 -0.003521
  0.024407
 -0.056187
  0.094435
 -0.214508
 -0.143874
  0.123221
 -0.120315
 -0.030864
  0.031797
 -0.166845
 -0.078717
 -0.103467
  0.027092
 -0.059656
 -0.001478
 -0.124850
  0.152957
  0.060741
 -0.165697
 -0.040800
  0.089718
 -0.134547
  0.070269
  0.132398
 -0.024885
 -0.036389
 -0.036738
  0.323615
  0.118612
 -0.018361
 -0.036986
  0.032400
  0.068468
 -0.019763
 -0.163553
 -0.033571
 -0.091275
  0.001566
  0.089457
 -0.058977
 -0.027274
 -0.163321
  0.101995
  0.056132
 -0.156744
  0.048613
  0.000609
 -0.218159
 -0.043770
 -0.043745
  0.050788
  0.150600
  0.049071
 -0.013073
  0.022565
  0.095999
 -0.065406
  0.183334
  0.036572
 -0.016935
 -0.079758
  0.085698
  0.082989
  0.068364
  0.073580
  0.110133
  0.045270
 -0.046095
 -0.015578
 -0.123343
  0.047797
 -0.031488
 -0.047625
 -0.112461
 -0.008333
  0.045722
 -0.060723
  0.008184
  0.053972
 -0.085083
  0.065899
 -0.022411
 -0.012846
  0.102756
 -0.003363
  0.062974
  0.191352
  0.078166
  0.035279
  0.002327
 -0.035344
 -0.065848
  0.109582
 -0.011482
 -0.061312
 -0.120282
  0.077287
 -0.126373
 -0.102982
 -0.009203
 -0.030944
  0.048894
 -0.062356
 -0.032248
  0.024906
  0.094101
 -0.115274
 -0.016734
 -0.050504
 -0.081196
 -0.035464
 -0.026641
 -0.064029
  0.036940
 -0.057525
 -0.048848
 -0.004414
 -0.004458
  0.087113
 -0.040684
 -0.086031
 -0.033131
 -0.112578
  0.005727
 -0.130307
 -0.091187
  0.039209
  0.152375
  0.128883
  0.158152
 -0.111879
 -0.085010
 -0.015590
  0.000124
  0.081508
  0.109268
 -0.059040
 -0.169839
 -0.071616
 -0.079152
 -0.005376
 -0.054720
 -0.014577
  0.011070
 -0.014813
  0.152449
 -0.071879
  0.121488
  0.093238
  0.116193
  0.026595
 -0.087490
  0.057096
  0.103428
  0.002995
 -0.156804
  0.069663
 -0.093598
  0.071968
  0.081042
  0.099714
  0.103218
 -0.084904
 -0.051760
  0.012322
  0.061853
  0.074692
  0.116417
 -0.018786
  0.067483
 -0.015810
  0.006337
  0.080223
  0.021409
  0.107837
  0.017364
 -0.020344
  0.038888
 -0.051136
 -0.027905
 -0.110340
 -0.009944
  0.012903
 -0.043539
  0.113498
 -0.096865
 -0.023520
 -0.134842
  0.049277
 -0.010188
  0.021410
  0.003731
 -0.020137
 -0.061500
 -0.019941
 -0.054187
 -0.033432
  0.069472
  0.096815
 -0.039032
 -0.174058
 -0.074140
  0.049083
  0.051736
 -0.079798
 -0.030360
 -0.073489
 -0.108205
  0.087531
  0.096472
  0.022059
  0.114299
  0.164507
  0.129222
 -0.009527
  0.065472
 -0.141256
 -0.018320
 -0.054083
 -0.150002
  0.032352
 -0.031930
 -0.207628
  0.022840
 -0.108150
 -0.011245
  0.050755
 -0.047172
  0.101500
  0.132665
  0.099802
  0.201111
 -0.011815
 -0.112822
  0.080209
  0.005393
  0.054358
 -0.161312
 -0.025142
 -0.003963
 -0.020985
  0.070141
 -0.042547
  0.134272
 -0.017066
  0.068105
 -0.102065
  0.138311
 -0.162998
 -0.006151
  0.116157
  0.173723
 -0.069207
 -0.015387
 -0.009222
 -0.054174
 -0.077364
  0.077987
 -0.049602
 -0.053142
  0.020690
  0.009294
  0.087831
  0.032048
 -0.042547
 -0.015000
  0.007570
  0.019240
  0.125466
 -0.131779
 -0.069840
  0.090240
  0.112243
 -0.126266
  0.033538
  0.017595
 -0.010917
  0.061732
 -0.086354
 -0.085454
  0.025842
  0.000583
  0.096877
  0.035185
  0.056238
  0.001101
 -0.031883
 -0.047596
  0.048958
  0.025778
  0.062327
  0.171181
 -0.069436
  0.075787
 -0.007243
 -0.031419
  0.037506
 -0.080519
  0.094847
  0.077270
 -0.033448
  0.013569
 -0.060897
 -0.165904
 -0.064758
 -0.054472
 -0.105499
  0.157510
  0.109312
 -0.024322
  0.186721
  0.074448
  0.102513
  0.005730
  0.176992
  0.007888
  0.048693
  0.051448
  0.141231
 -0.036951
  0.065545
 -0.001636
 -0.048546
 -0.108800
 -0.059099
  0.127536
 -0.051654
  0.012151
  0.090079
 -0.122047
 -0.124831
  0.054150
 -0.034006
  0.047417
  0.121706
  0.058396
 -0.095729
  0.022982
 -0.021415
 -0.004025
  0.039079
  0.169344
 -0.056137
  0.038099
 -0.039755
  0.091560
  0.164735
 -0.006222
 -0.073151
 -0.058333
  0.007417
 -0.050376
  0.058325
  0.029803
  0.048270
  0.135247
 -0.007447
  0.062737
 -0.042794
  0.126586
  0.055903
 -0.120699
 -0.101168
 -0.001080
 -0.015622
 -0.018282
 -0.026427
 -0.021793
  0.044714
 -0.064561
 -0.068912
  0.037251
 -0.013842
  0.037715
 -0.069051
 -0.141588
 -0.010168
 -0.175070
  0.094701
 -0.089945
 -0.039455
  0.066150
 -0.033630
 -0.015403
  0.162604
  0.016669
  0.140543
 -0.040086
 -0.068776
 -0.033430
  0.025095
  0.068659
  0.078387
  0.078886
 -0.068161
 -0.114225
  0.025012
  0.140403
  0.055236
 -0.010530
  0.154693
 -0.081704
 -0.000486
 -0.086591
  0.084377
  0.071321
 -0.161636
 -0.062492
 -0.190931
  0.041949
 -0.134702
 -0.065857
 -0.033834
  0.079418
 -0.063147
  0.037121
 -0.078688
  0.143351
 -0.112865
 -0.019867
 -0.083297
 -0.018915
  0.017629
 -0.068967
  0.065968
  0.042595
  0.008336
 -0.032825
  0.154250
 -0.115727
 -0.061003
  0.025219
 -0.178310
 -0.219188
  0.025816
 -0.101001
 -0.092045
 -0.001145
 -0.116873
  0.102882
 -0.069783
 -0.089983
 -0.023973
  0.115331
  0.081226
 -0.116597
 -0.073528
 -0.024991
 -0.059622
  0.088337
  0.067956
 -0.086860
 -0.126091
  0.086390
  0.080425
  0.099735
  0.038744
 -0.043993
  0.105581
  0.030234
  0.011970
  0.082475
  0.086718
  0.059904
 -0.124758
  0.022346
 -0.053663
 -0.019676
 -0.116767
 -0.146226
 -0.056925
 -0.042806
 -0.022827
 -0.042934
 -0.087898
  0.030686
 -0.050060
 -0.066782
  0.144503
 -0.090390
 -0.015020
  0.030536
 -0.023079
  0.055598
  0.044192
 -0.010432
 -0.015565
 -0.041709
 -0.128854
  0.050758
 -0.141071
 -0.063529
 -0.135427
 -0.102469
 -0.027481
 -0.061303
  0.012484
  0.078515
 -0.015741
 -0.009272
  0.094795
  0.000025
  0.080052
 -0.036769
  0.204703
 -0.070884
  0.069197
  0.043263
  0.056561
 -0.117721
 -0.027732
 -0.081205
 -0.012581
  0.110612
  0.058274
  0.065180
  0.050009
  0.067087
 -0.030339
  0.011947
  0.083187
 -0.291747
 -0.126192
  0.047973
 -0.030435
  0.017737
  0.049523
  0.008499
 -0.059666
  0.063700
  0.026712
  0.023756
 -0.031574
  0.094864
  0.101378
  0.074535
 -0.020223
  0.107370
 -0.208542
 -0.055718
  0.023879
 -0.125533
  0.028186
 -0.076011
  0.070837
 -0.031894
 -0.113046
  0.007927
  0.083575
  0.006758
 -0.135692
 -0.116811
  0.119847
 -0.017602
 -0.040183
  0.064529
 -0.121913
 -0.084489
  0.121612
  0.078351
 -0.092664
  0.065385
 -0.118890
 -0.011959
 -0.011088
 -0.066906
  0.028170
  0.016915
  0.047375
 -0.106178
  0.073270
  0.064493
 -0.005471
  0.081868
 -0.056501
  0.054029
  0.081036
 -0.049965
  0.112213
 -0.036918
  0.048603
  0.024017
 -0.018376
  0.032041
  0.151164
  0.014464
 -0.091553
  0.058782
 -0.013438
 -0.022129
  0.041407
 -0.025991
  0.123860
  0.047987
 -0.058891
 -0.119318
  0.004844
 -0.005711
  0.095224
  0.016343
 -0.089673
  0.137707
  0.040996
 -0.009281
  0.139138
 -0.054420
  0.143521
  0.006989
 -0.039612
  0.031812
 -0.019646
  0.069273
  0.037193
  0.038043
  0.025772
 -0.091722
 -0.015780
 -0.025946
  0.049574
 -0.039191
  0.088477
 -0.050600
 -0.000390
  0.117733
 -0.100955
  0.019824
  0.073231
  0.083699
  0.152258
  0.070737
  0.098046
 -0.001736
 -0.101114
 -0.085245
 -0.150097
 -0.043691
  0.022837
 -0.175828
 -0.103655
  0.136600
  0.026335
  0.027650
 -0.001585
 -0.014946
 -0.060125
 -0.119072
 -0.085515
 -0.030114
  0.130664
 -0.016060
 -0.003471
  0.160185
  0.100954
  0.060201
  0.105736
 -0.039232
 -0.107934
  0.101222
  0.165687
  0.082849
 -0.033128
  0.025326
 -0.010196
 -0.003543
 -0.080862
  0.046849
  0.009912
  0.157887
  0.026373
 -0.045160
  0.001525
  0.031167
  0.089771
 -0.048411
 -0.024499
  0.214182
  0.018378
  0.022044
 -0.043146
  0.235084
  0.104093
  0.053654
 -0.015993
  0.061835
  0.285787
  0.015114
  0.017242
 -0.110456
  0.015830
  0.033512
 -0.009083
 -0.078192
 -0.068768
  0.007557
  0.007180
 -0.096042
 -0.023739
 -0.077160
 -0.011859
 -0.034823
  0.018900
  0.065289
 -0.041707
  0.167249
  0.042521
  0.025737
 -0.059133
 -0.013216
  0.002635
  0.210590
  0.061759
  0.171951
 -0.134636
 -0.065646
  0.051377
 -0.061094
  0.084773
 -0.124309
 -0.022728
  0.087867
  0.045137
  0.097390
 -0.105882
 -0.115100
  0.044774
 -0.039541
 -0.005582
  0.044275
 -0.107196
  0.139415
  0.010565
 -0.090639
 -0.122034
  0.108730
 -0.033622
 -0.112636
  0.035691
 -0.034648
 -0.073036
 -0.021647
 -0.063547
 -0.044929
  0.136104
 -0.051056
  0.049791
  0.008475
  0.011462
 -0.062631
 -0.042454
 -0.050469
  0.091124
 -0.058868
  0.048811
 -0.163896
 -0.092218
 -0.020864
 -0.051037
  0.000259
  0.061566
  0.001624
 -0.025189
  0.101855
  0.060094
 -0.024279
  0.042892
 -0.114099
 -0.135461
 -0.036665
 -0.046520
  0.145828
  0.101581
  0.029857
 -0.183729
  0.008811
  0.096466
  0.006726
 -0.074600
  0.001417
  0.084378
  0.013229
  0.099251
 -0.025695
 -0.079204
 -0.059306
 -0.247465
 -0.106394
 -0.007423
 -0.125183
 -0.064468
  0.073083
 -0.058995
 -0.012237
  0.051015
  0.287639
  0.186773
  0.002135
 -0.022367
  0.002256
 -0.001689
 -0.124500
 -0.085411
 -0.048163
 -0.075089
  0.110880
 -0.233852
  0.016880
 -0.027482
 -0.051511
 -0.042844
  0.066070
 -0.038816
  0.060479
 -0.001004
 -0.069608
 -0.100408
  0.059623
  0.017062
 -0.093011
  0.017312
 -0.008336
  0.086038
  0.173802
 -0.058615
  0.037091
 -0.096215
  0.080228
 -0.084932
 -0.064408
  0.059733
  0.071801
 -0.007502
 -0.074549
 -0.041887
 -0.048128
  0.038354
  0.037599
  0.007550
 -0.071525
 -0.224509
  0.021725
 -0.140712
 -0.091866
  0.007079
  0.004131
 -0.106433
 -0.175853
  0.134331
  0.160305
  0.002287
 -0.213923
  0.088386
  0.030488
  0.075612
  0.084426
 -0.009444
 -0.056874
  0.044120
  0.083047
  0.119912
  0.029655
  0.050297
 -0.072143
 -0.016230
  0.062311
  0.010725
 -0.208606
  0.050110
 -0.128371
  0.150083
  0.120005
  0.050630
 -0.083872
 -0.199431
  0.033267
 -0.116181
 -0.046145
  0.022884
  0.063264
  0.095819
 -0.103935
  0.030703
  0.011125
 -0.061560
 -0.012665
  0.067527
 -0.018794
 -0.028345
 -0.149489
  0.087555
 -0.100286
 -0.038309
  0.034630
 -0.009509
 -0.109092
 -0.042523
 -0.100592
  0.058483
 -0.010101
  0.072435
  0.108298
  0.112759
 -0.179503
 -0.050971
 -0.022392
 -0.003794
 -0.098416
  0.002590
  0.040854
 -0.100740
  0.044622
 -0.091142
 -0.093895
  0.048635
  0.068058
  0.070692
  0.013800
  0.123640
  0.227123
 -0.004096
 -0.052867
 -0.279086
 -0.031567
  0.016064
 -0.017234
 -0.157546
  0.110131
 -0.158435
  0.071757
  0.034678
 -0.024776
  0.020830
 -0.024848
 -0.194948
  0.093510
  0.025093
 -0.084392
 -0.173061
 -0.036735
  0.035495
 -0.008758
 -0.002038
  0.071658
  0.210791
 -0.069988
  0.199366
  0.059997
  0.042280
  0.001714
 -0.021294
 -0.022030
 -0.019787
  0.023892
 -0.034702
  0.031100
  0.094059
  0.141678
 -0.219775
  0.130112
  0.013212
 -0.033503
  0.023211
 -0.073171
  0.015768
 -0.011058
  0.095525
  0.030023
 -0.089989
  0.054309
 -0.027799
  0.103934
 -0.012078
 -0.075226
  0.039804
 -0.059844
  0.089483
  0.086535
 -0.039200
 -0.075873
 -0.117915
 -0.086037
  0.008806
 -0.083846
  0.051771
 -0.132333
  0.001178
  0.220078
 -0.083558
 -0.019512
  0.140990
 -0.022594
  0.122159
 -0.168217
 -0.050155
  0.188747
  0.133259
  0.063294
 -0.064849
 -0.089650
 -0.082305
 -0.009771
 -0.082493
 -0.028369
 -0.159720
  0.005746
 -0.119767
 -0.135340
  0.103647
  0.104524
  0.047669
 -0.111447
  0.011353
  0.011915
 -0.023110
  0.107613
  0.017772
 -0.033250
  0.177662
  0.058517
  0.064976
 -0.042905
 -0.074545
 -0.056864
  0.015308
  0.179906
 -0.155874
  0.163541
 -0.132241
  0.131398
 -0.036848
  0.119014
 -0.045933
 -0.055693
 -0.017118
  0.040558
  0.167701
 -0.026767
  0.052593
  0.004759
  0.040510
 -0.043037
 -0.121476
 -0.117282
 -0.117372
  0.095259
  0.118499
  0.184126
 -0.135859
  0.059738
  0.036982
  0.129197
 -0.162640
 -0.044105
 -0.075198
  0.031211
  0.068241
 -0.114849
  0.169244
 -0.000954
 -0.128517
  0.016922
 -0.148267
  0.044143
 -0.055243
  0.016863
 -0.143601
  0.106206
  0.115002
 -0.008066
 -0.081579
 -0.114216
 -0.010450
 -0.051440
  0.111455
  0.014541
 -0.022791
  0.015060
  0.075250
  0.114175
  0.078216
  0.022593
  0.007918
 -0.038830
  0.155386
 -0.211931
 -0.018340
 -0.134324
  0.171205
 -0.153912
 -0.009460
  0.009842
  0.088658
  0.063687
  0.044928
 -0.064137
 -0.000091
  0.058784
  0.075614
 -0.076347
  0.022356
  0.055800
  0.074202
 -0.009193
  0.004607
 -0.182217
 -0.095463
 -0.017530
  0.027225
 -0.048297
 -0.147109
 -0.168727
  0.110232
 -0.199071
 -0.079986
  0.141003
  0.032081
 -0.020379
 -0.022048
  0.042820
  0.069873
 -0.051857
  0.093466
 -0.091694
  0.057771
  0.124889
 -0.064705
 -0.082422
 -0.070439
 -0.062356
  0.014938
  0.067259
 -0.060187
  0.033501
 -0.052473
 -0.048387
 -0.029500
  0.120156
 -0.005894
 -0.062649
  0.066320
 -0.018897
  0.013577
  0.015959
 -0.080646
 -0.176373
  0.103905
 -0.001920
 -0.059995
  0.034729
  0.085828
 -0.074029
 -0.020749
  0.148809
  0.020102
  0.066872
 -0.045261
  0.042338
 -0.033437
  0.131078
  0.158200
  0.073868
 -0.033005
  0.195019
  0.070120
 -0.147456
  0.011147
 -0.121084
 -0.009132
 -0.006640
 -0.157437
  0.063913
 -0.126047
  0.094701
  0.078093
 -0.000841
  0.032670
 -0.053241
 -0.028530
  0.059885
  0.001301
  0.085277
 -0.055022
  0.066533
 -0.109367
 -0.029017
  0.004913
 -0.082382
 -0.162831
 -0.074487
 -0.055915
 -0.023499
 -0.073487
  0.079692
  0.020313
  0.139765
 -0.025960
  0.112602
  0.080469
  0.010145
 -0.100188
  0.091873
  0.040914
  0.091353
 -0.048305
  0.092257
  0.018159
 -0.125661
 -0.022779
  0.097549
 -0.100200
 -0.077130
 -0.025295
  0.080030
  0.025601
  0.031069
 -0.036794
 -0.029228
 -0.101078
  0.014325
  0.057241
  0.077627
 -0.161254
  0.031200
  0.198001
  0.178013
  0.143605
 -0.125489
 -0.035858
  0.127118
 -0.061801
  0.092152
 -0.181612
 -0.120382
 -0.064194
 -0.132981
 -0.129664
  0.043533
 -0.092390
  0.067029
  0.058099
  0.088366
  0.026244
 -0.186456
 -0.081731
  0.023834
 -0.003341
 -0.028794
 -0.071292
  0.061777
  0.077521
  0.044285
 -0.107372
  0.205975
 -0.085274
 -0.048737
 -0.138163
  0.111354
  0.003662
  0.090863
 -0.056896
 -0.157946
  0.015949
  0.159414
 -0.046970
  0.010461
 -0.067745
  0.114532
 -0.020954
 -0.031143
 -0.003080
  0.126710
 -0.098788
 -0.036264
  0.169464
 -0.062607
 -0.042080
 -0.031161
 -0.010728
  0.065011
  0.007914
 -0.018051
 -0.043759
 -0.104934
  0.025597
 -0.015524
  0.102484
  0.153781
  0.035616
  0.059963
 -0.022228
  0.090519
  0.020429
  0.056784
 -0.047238
 -0.065883
 -0.146522
 -0.151614
 -0.007199
  0.071785
  0.114696
  0.013812
  0.041252
  0.049026
 -0.031060
 -0.142855
  0.062465
  0.154170
 -0.018990
 -0.043035
  0.223542
  0.085595
  0.146216
 -0.125034
 -0.075674
 -0.090290
 -0.078510
 -0.027344
 -0.030330
  0.086343
  0.154879
  0.113981
  0.246660
  0.043723
  0.030724
 -0.095149
 -0.078579
 -0.068513
  0.029935
 -0.017531
  0.067255
 -0.012496
  0.053808
  0.029206
 -0.006594
 -0.000273
  0.008008
  0.061598
 -0.046744
 -0.016173
  0.012751
 -0.054327
  0.052473
 -0.022270
 -0.026230
  0.081750
  0.039183
  0.132390
 -0.062492
  0.001814
 -0.110618
  0.149188
 -0.080306
  0.015272
  0.068523
  0.116696
  0.026177
  0.106054
  0.074485
 -0.035352
 -0.029249
 -0.032457
  0.009493
  0.024334
  0.019730
 -0.019396
 -0.000610
  0.079122
 -0.023738
 -0.023575
  0.068186
 -0.109043
  0.070503
 -0.135754
  0.087591
  0.020415
  0.023575
  0.017354
  0.068156
 -0.008970
 -0.020630
 -0.209799
  0.028736
 -0.061381
 -0.102180
 -0.025793
  0.068215
 -0.019812
 -0.061686
 -0.012503
  0.015367
  0.028957
  0.060456
  0.077072
 -0.065558
  0.061750
 -0.117598
 -0.017653
 -0.174105
 -0.038130
  0.127403
 -0.119502
  0.044295
  0.003408
  0.144023
 -0.109933
  0.053936
  0.072478
  0.051608
  0.130553
 -0.048276
 -0.105789
 -0.030652
 -0.067300
  0.049366
  0.010417
  0.225928
  0.079914
  0.036275
 -0.042291
  0.040523
  0.035237
 -0.026362
 -0.141893
  0.141261
 -0.049593
  0.118492
  0.151664
 -0.056841
  0.038237
  0.028437
 -0.096191
 -0.112766
  0.018388
  0.118532
 -0.029698
 -0.017014
 -0.009582
 -0.002017
 -0.030236
 -0.083832
 -0.022462
  0.083813
  0.062526
  0.004636
  0.001452
 -0.165711
  0.101496
 -0.072373
  0.011379
  0.010693
 -0.052949
  0.069744
 -0.235215
 -0.026585
 -0.116582
  0.012854
 -0.200227
  0.090698
  0.113750
 -0.126492
 -0.109347
 -0.127213
  0.003311
  0.046670
  0.019228
 -0.039322
 -0.166646
  0.137640
  0.156138
  0.018002
 -0.062258
 -0.040445
  0.047017
 -0.056321
  0.042195
  0.035575
  0.180243
 -0.037044
 -0.080075
  0.071825
  0.030625
 -0.093730
  0.004154
  0.015187
 -0.070952
 -0.085885
  0.069404
  0.015547
  0.017218
 -0.164051
 -0.142740
  0.047662
  0.055908
 -0.067279
 -0.026001
  0.058927
  0.055234
  0.025756
 -0.040712
  0.044043
  0.090718
 -0.077998
  0.005006
  0.039880
  0.061230
 -0.055523
 -0.088796
  0.030452
 -0.031197
  0.182454
 -0.052854
  0.053471
  0.078618
 -0.066911
 -0.029991
  0.077346
 -0.084936
  0.023406
 -0.052333
  0.086976
 -0.160870
 -0.093882
  0.028616
 -0.018155
 -0.097338
  0.035484
  0.000912
 -0.017258
 -0.094254
  0.012242
 -0.018897
 -0.134850
  0.057865
 -0.037468
  0.074557
 -0.063489
 -0.005656
  0.054690
  0.004442
  0.037582
 -0.044780
  0.036943
  0.015844
 -0.148209
  0.051727
  0.042683
 -0.163149
  0.111836
  0.076796
 -0.000858
  0.002823
  0.103243
  0.038172
 -0.079258
 -0.044108
 -0.052603
  0.049371
 -0.011111
  0.074545
  0.076287
 -0.151155
  0.079423
 -0.098047
  0.045808
  0.003697
  0.035012
 -0.005322
 -0.054698
 -0.004475
 -0.083493
  0.072100
  0.122399
 -0.073781
 -0.043523
  0.187364
  0.125158
 -0.072604
 -0.015807
 -0.091349
 -0.024085
 -0.000809
  0.043927
 -0.009406
  0.022552
 -0.191186
 -0.099289
  0.012159
  0.076329
  0.064471
 -0.071356
 -0.112979
 -0.080818
 -0.024846
 -0.066985
  0.018299
  0.085743
 -0.018438
  0.074130
 -0.037961
  0.073453
 -0.022521
 -0.038759
  0.026176
  0.042675
  0.073237
  0.094363
  0.045492
  0.051355
  0.054502
  0.097935
  0.167527
 -0.026363
  0.036272
 -0.004040
  0.062327
 -0.003696
  0.031646
  0.120534
  0.093517
 -0.195845
  0.012740
 -0.043659
 -0.008750
 -0.008702
  0.100522
  0.046697
 -0.092388
  0.058945
  0.001990
  0.021857
 -0.034688
  0.048855
  0.003827
 -0.015820
  0.020378
 -0.026685
 -0.000756
  0.115659
  0.191058
 -0.112154
  0.134599
  0.004326
  0.089353
 -0.006656
  0.023412
 -0.007518
  0.035309
  0.098715
  0.019044
  0.017408
 -0.044022
 -0.051071
 -0.034477
  0.105992
  0.016488
 -0.016759
  0.022118
  0.060084
  0.021084
  0.053377
  0.052494
 -0.129395
  0.021578
 -0.113305
 -0.050530
  0.048176
  0.083711
 -0.034787
  0.039447
  0.185150
  0.113307
  0.227875
 -0.083624
 -0.077025
 -0.161286
  0.026923
  0.053352
  0.022896
 -0.046221
  0.020525
  0.046649
  0.051501
 -0.143202
 -0.047989
  0.103597
 -0.084440
 -0.079213
  0.044056
  0.042856
 -0.000848
  0.011953
 -0.044964
  0.038372
 -0.095421
  0.121118
 -0.010142
  0.046964
 -0.120734
  0.042163
 -0.033732
  0.134961
  0.092423
  0.074927
 -0.029388
  0.079234
  0.047566
  0.054254
 -0.032441
 -0.108308
 -0.033561
  0.007769
 -0.074571
 -0.013877
  0.052905
 -0.002844
 -0.037846
 -0.024825
  0.008748
  0.077380
 -0.021259
  0.144914
  0.041621
  0.035363
  0.067354
  0.033519
  0.011034
 -0.084316
  0.011283
 -0.134183
  0.133983
  0.036908
 -0.055591
  0.038556
 -0.106144
  0.029983
  0.037366
 -0.027487
  0.023850
  0.029801
 -0.079583
  0.124328
  0.012608
 -0.005236
 -0.035411
  0.015070
 -0.005827
 -0.080189
  0.191620
  0.036497
  0.002499
 -0.118780
 -0.036044
  0.007858
 -0.068826
  0.057682
 -0.092175
 -0.014170
  0.094552
  0.076658
 -0.026863
 -0.051022
  0.171886
  0.086081
  0.048164
  0.043506
 -0.037373
  0.010304
  0.181181
 -0.167419
 -0.007711
 -0.089952
 -0.158038
 -0.085501
 -0.061906
  0.146817
 -0.060387
 -0.103124
 -0.058309
 -0.042212
 -0.019912
 -0.130662
  0.158806
 -0.101470
 -0.047410
  0.042825
 -0.098990
 -0.067903
 -0.206224
 -0.016796
  0.017789
  0.106295
 -0.043736
  0.112492
 -0.070007
  0.034840
 -0.034957
 -0.000345
 -0.054212
 -0.147692
 -0.135746
 -0.230880
  0.036413
  0.019212
  0.033803
 -0.071934
  0.123706
 -0.199832
 -0.051421
 -0.058438
  0.157513
 -0.085252
  0.033055
 -0.085182
  0.157963
 -0.022721
 -0.038250
  0.055705
 -0.090071
 -0.037010
  0.167484
 -0.078012
  0.045739
 -0.215570
 -0.080537
  0.027528
 -0.040868
 -0.119765
 -0.067323
 -0.019847
  0.011430
 -0.253808
  0.155953
  0.073423
 -0.029518
  0.140955
  0.075871
 -0.024137
 -0.074451
 -0.095224
  0.017988
  0.038968
 -0.139656
 -0.092473
 -0.054459
  0.046802
  0.178792
  0.033793
 -0.025336
 -0.088317
  0.008648
 -0.058712
  0.029896
 -0.078901
 -0.057149
  0.041256
  0.071432
 -0.083231
  0.083695
 -0.148527
  0.146830
 -0.017342
 -0.006843
  0.042789
  0.031031
  0.084742
  0.176152
  0.066967
  0.111364
  0.059417
 -0.019532
 -0.193859
 -0.073347
 -0.088377
 -0.199912
  0.090898
 -0.037297
  0.093868
 -0.121932
 -0.050146
  0.080806
 -0.058959
 -0.008999
 -0.013819
 -0.038051
  0.036610
  0.012194
 -0.054499
  0.003744
 -0.151465
  0.131554
 -0.049140
 -0.030579
  0.050992
 -0.004140
  0.018485
 -0.022927
 -0.039951
  0.011007
  0.040172
 -0.017240
 -0.046606
  0.049630
  0.106910
  0.049772
 -0.115685
  0.075817
 -0.020680
  0.098017
 -0.017583
 -0.144941
  0.039851
 -0.141040
 -0.026265
  0.089268
 -0.093209
  0.071574
 -0.017627
 -0.008775
 -0.080195
 -0.108290
 -0.021673
  0.178057
  0.009942
 -0.005874
 -0.078819
 -0.028529
 -0.116734
  0.016536
  0.054938
  0.005556
 -0.036751
 -0.107986
 -0.122028
  0.020149
 -0.064947
 -0.132485
  0.098626
  0.062281
  0.072480
  0.094120
 -0.082458
 -0.110621
 -0.122491
 -0.105055
 -0.057929
  0.001832
  0.061281
 -0.060617
 -0.049229
 -0.045976
  0.097567
  0.048570
 -0.025303
  0.041622
 -0.125572
  0.114234
  0.016734
 -0.217632
  0.006365
 -0.119363
  0.009974
 -0.048713
 -0.011310
  0.139800
 -0.178755
 -0.056636
 -0.174574
 -0.019745
  0.019879
 -0.028509
 -0.013795
  0.158404
  0.023365
 -0.058365
  0.002740
 -0.005013
 -0.154064
  0.016474
  0.003751
 -0.042835
  0.022370
 -0.070125
 -0.019090
  0.161979
  0.092899
 -0.095092
  0.019420
  0.161618
  0.082797
  0.109529
  0.032655
  0.012197
  0.029974
 -0.099117
  0.030321
  0.058301
  0.031826
 -0.041910
  0.037684
  0.058831
 -0.037922
 -0.193322
  0.029376
 -0.062169
  0.055960
 -0.103493
 -0.010076
 -0.259235
 -0.065191
  0.018049
  0.011787
  0.073046
 -0.061858
 -0.026514
 -0.091821
  0.032062
  0.017314
 -0.014572
  0.020504
 -0.024280
 -0.024745
 -0.054960
 -0.059122
 -0.110552
  0.082035
 -0.116918
  0.028923
 -0.081121
  0.176410
 -0.078978
 -0.110778
  0.197778
 -0.160082
 -0.018172
 -0.020947
 -0.055689
 -0.011201
 -0.007535
 -0.026518
  0.083451
  0.056807
 -0.008461
  0.173399
 -0.109294
  0.055009
 -0.157623
 -0.012408
 -0.018786
 -0.015335
  0.131920
  0.070554
  0.066114
  0.064812
  0.014492
  0.023968
  0.154957
  0.095389
  0.004585
 -0.108039
 -0.006029
  0.153812
 -0.071050
 -0.040645
 -0.030401
 -0.078464
  0.108386
  0.021672
  0.133837
  0.003188
 -0.039734
  0.149577
 -0.038823
  0.049499
 -0.070997
  0.077980
 -0.031626
  0.103799
 -0.175752
  0.008369
  0.019330
 -0.004328
 -0.076060
 -0.028442
 -0.138562
 -0.090366
  0.116548
 -0.173657
 -0.131288
 -0.057858
 -0.060707
  0.079416
  0.062364
 -0.073360
 -0.127179
 -0.132905
  0.075940
 -0.007205
  0.142077
 -0.048620
 -0.024454
  0.065083
  0.038950
  0.007009
 -0.029123
  0.021348
  0.032519
  0.028050
 -0.107857
  0.009027
 -0.109212
  0.089359
  0.076382
 -0.108796
 -0.028137
  0.102285
 -0.159000
 -0.001397
 -0.104228
 -0.009007
 -0.091289
 -0.003680
 -0.129475
  0.061392
  0.009570
 -0.050764
 -0.075954
  0.054145
 -0.050146
 -0.113693
  0.006977
  0.074278
  0.079701
  0.076661
  0.026629
  0.053795
  0.029625
  0.034833
  0.070532
 -0.062723
  0.093238
 -0.030652
 -0.002481
  0.069039
  0.116013
  0.092314
  0.071677
  0.094013
  0.012142
  0.283043
 -0.030934
  0.052603
  0.023003
  0.021112
 -0.062886
 -0.017438
  0.071306
 -0.071503
  0.047944
  0.087752
 -0.021395
 -0.104664
  0.073811
  0.028040
  0.063284
 -0.058543
 -0.059429
 -0.087221
  0.070839
 -0.198102
 -0.093867
 -0.022027
  0.123627
  0.056091
  0.134311
  0.107518
 -0.020833
  0.092815
 -0.078095
  0.080385
  0.016165
 -0.043334
 -0.134314
  0.050752
  0.049547
  0.083632
 -0.016031
 -0.125382
  0.064154
  0.018518
  0.207531
 -0.143757
  0.215048
  0.076474
 -0.088452
  0.054941
  0.046549
  0.082930
 -0.022195
  0.048230
 -0.144659
  0.114210
  0.100380
 -0.089489
  0.170795
 -0.166289
  0.088929
 -0.002028
  0.061836
  0.194459
 -0.042744
  0.128735
 -0.114109
 -0.010540
 -0.004870
 -0.164469
 -0.024362
 -0.022119
 -0.097440
 -0.020829
 -0.093569
  0.110259
 -0.079594
  0.051439
 -0.012211
 -0.107502
  0.010383
 -0.005950
 -0.003282
 -0.029777
 -0.043372
  0.088302
 -0.095203
  0.102937
 -0.016394
 -0.009094
  0.004571
  0.148984
  0.007031
 -0.062715
 -0.057332
 -0.148203
  0.056906
 -0.099381
 -0.033910
  0.053154
 -0.039327
  0.096838
 -0.014886
 -0.033921
  0.057167
  0.019043
  0.162187
  0.014567
 -0.069992
  0.003255
  0.068748
 -0.154007
 -0.144858
 -0.054931
 -0.020698
 -0.070994
  0.035218
 -0.011558
  0.058356
  0.052940
 -0.013766
  0.006541
  0.109347
 -0.095749
  0.032764
  0.009263
  0.040323
  0.156981
  0.029691
  0.038990
 -0.109886
 -0.019886
  0.004395
  0.013756
 -0.043644
 -0.029579
  0.064995
 -0.151016
  0.087925
 -0.027356
 -0.111518
 -0.075062
 -0.083676
 -0.059082
 -0.049325
  0.000935
  0.030685
 -0.039298
 -0.067420
 -0.110209
 -0.072658
 -0.033311
 -0.031960
  0.126216
 -0.027161
 -0.055671
 -0.083437
 -0.092373
  0.045153
  0.031791
  0.005167
  0.175660
 -0.114491
  0.045656
 -0.036890
  0.092060
  0.086163
  0.047240
  0.037048
 -0.037529
  0.006599
  0.070345
  0.011502
 -0.010367
 -0.024327
  0.046587
  0.084710
 -0.011441
 -0.026966
 -0.070152
  0.099728
 -0.164408
  0.076196
 -0.014269
  0.031411
 -0.033723
  0.011362
  0.170348
 -0.077178
  0.008322
 -0.062392
 -0.031963
 -0.033490
  0.021941
  0.014877
 -0.051948
 -0.018849
  0.067296
  0.024823
 -0.052631
  0.065513
 -0.144877
 -0.182083
  0.042882
  0.052307
  0.022318
  0.109973
 -0.045791
 -0.011384
 -0.090764
 -0.091447
 -0.104324
 -0.049906
  0.100029
  0.002257
  0.001094
 -0.017999
 -0.025466
  0.039015
  0.198153
 -0.147557
  0.013234
 -0.047391
  0.044623
  0.075087
  0.014295
 -0.024759
 -0.002145
 -0.001140
  0.029351
  0.055365
  0.019657
  0.081682
  0.037918
 -0.050651
 -0.027763
 -0.006391
  0.020729
 -0.106829
 -0.183514
  0.185245
  0.097528
  0.085367
 -0.080047
  0.060455
  0.027812
  0.022201
 -0.159119
  0.010587
 -0.038428
 -0.006402
 -0.049849
 -0.137829
 -0.225915
 -0.090557
  0.068391
  0.173056
 -0.028236
 -0.074609
 -0.184344
 -0.112390
 -0.008048
 -0.043367
  0.158185
 -0.083638
  0.064133
 -0.042804
 -0.047111
 -0.050769
  0.207332
  0.022754
  0.254159
 -0.117591
 -0.080990
  0.132729
 -0.019020
 -0.004845
 -0.081901
 -0.005786
  0.031654
 -0.019765
  0.007113
 -0.078215
 -0.046978
 -0.011055
  0.143536
 -0.041705
 -0.057970
  0.056879
 -0.003301
  0.066596
  0.030160
  0.007593
 -0.024880
 -0.144604
 -0.104712
 -0.010112
 -0.128648
 -0.068735
 -0.000435
 -0.041507
  0.025123
  0.136950
 -0.060256
 -0.123805
 -0.020732
 -0.009837
  0.097321
  0.003681
 -0.041762
  0.044747
 -0.010345
  0.100110
 -0.007451
 -0.133574
  0.000174
  0.057171
  0.077037
  0.071573
  0.041787
  0.075172
 -0.065016
  0.041310
 -0.032268
  0.008179
  0.222997
  0.024194
 -0.047006
 -0.019701
  0.029424
  0.032554
  0.071675
  0.075342
  0.047508
  0.082544
 -0.104584
 -0.019558
 -0.070187
  0.074596
  0.107778
 -0.057580
  0.057276
  0.004504
  0.215756
  0.071263
  0.008371
  0.062724
  0.015093
 -0.113167
  0.025670
  0.047941
 -0.024640
  0.019792
 -0.058263
 -0.053215
 -0.126345
  0.066341
 -0.050391
 -0.051299
  0.167283
  0.096073
  0.141614
  0.031171
  0.092745
  0.065933
  0.114250
 -0.142013
  0.084211
 -0.105626
 -0.109461
 -0.005371
 -0.005400
  0.098675
  0.141455
  0.054079
 -0.070961
  0.004234
  0.071145
 -0.002170
  0.120087
 -0.007035
  0.097178
 -0.108616
 -0.003356
  0.036108
  0.018345
 -0.055845
 -0.084664
  0.016502
 -0.095163
  0.118964
 -0.020174
 -0.131391
  0.019123
 -0.040593
  0.017466
 -0.051966
 -0.017789
 -0.201796
  0.076301
 -0.067631
 -0.100740
 -0.100392
  0.137800
 -0.086002
  0.076729
  0.116136
 -0.137113
 -0.037644
 -0.136755
  0.084174
  0.031668
 -0.128491
  0.178379
 -0.028375
  0.207133
 -0.036666
  0.225516
  0.119651
 -0.067656
  0.000870
 -0.072766
 -0.049229
 -0.111971
  0.164049
 -0.090023
 -0.079724
 -0.008286
 -0.162208
  0.049044
 -0.024148
  0.008062
 -0.043128
 -0.169485
 -0.100048
 -0.057460
 -0.019341
  0.069068
 -0.004441
  0.038500
 -0.055234
 -0.186564
 -0.123696
 -0.010004
 -0.042474
 -0.018148
 -0.081136
  0.067482
 -0.061586
 -0.022738
 -0.063211
  0.017832
  0.033839
  0.035475
  0.028848
  0.052028
 -0.125355
 -0.081924
  0.069279
  0.042042
  0.002998
  0.033779
 -0.044314
 -0.046554
 -0.073673
  0.110577
  0.007249
  0.021690
  0.079856
 -0.042171
  0.054613
 -0.097774
  0.125061
  0.044925
  0.186813
 -0.008413
  0.003928
 -0.091239
  0.104075
  0.039861
 -0.095276
 -0.030743
 -0.044586
 -0.150440
 -0.026597
 -0.086267
 -0.040695
 -0.051892
  0.042064
 -0.027958
 -0.021015
 -0.153246
 -0.002842
 -0.061056
  0.073639
  0.166895
 -0.052567
  0.033348
  0.032840
 -0.021862
  0.037797
  0.127352
 -0.039035
 -0.094839
  0.032672
  0.046299
 -0.028419
  0.153987
 -0.019663
 -0.070910
  0.027062
  0.058526
  0.099476
 -0.078817
  0.077300
  0.075804
 -0.072150
  0.018595
  0.005937
 -0.026674
  0.034979
 -0.050326
 -0.032736
 -0.000897
  0.012492
 -0.006637
  0.157615
 -0.003846
 -0.087055
 -0.002499
 -0.165442
  0.066191
  0.069833
 -0.083292
 -0.105002
 -0.066107
 -0.126167
 -0.121169
  0.155597
 -0.156151
  0.016462
 -0.099912
 -0.091852
  0.121570
  0.104053
 -0.246963
  0.004701
  0.150851
  0.097627
  0.165887
  0.053165
  0.126414
  0.124735
 -0.014803
  0.049695
  0.125656
 -0.038336
  0.076384
  0.050366
 -0.076305
 -0.135517
 -0.052058
  0.134750
 -0.022186
  0.055753
  0.063251
 -0.017425
 -0.235821
 -0.119684
  0.063383
 -0.005036
 -0.002275
  0.041535
 -0.108089
  0.044526
 -0.062334
  0.016181
  0.016668
  0.091795
  0.026679
  0.041553
  0.053228
 -0.137150
 -0.022115
  0.019190
  0.012654
  0.009338
  0.016083
 -0.010253
 -0.100134
  0.112168
 -0.120709
  0.094997
 -0.040063
 -0.059844
 -0.020812
 -0.002525
 -0.008323
  0.126180
 -0.020123
  0.079048
 -0.030243
 -0.132100
  0.114000
 -0.032134
  0.139435
  0.025375
  0.075696
  0.002030
 -0.017571
  0.097588
  0.083067
  0.180166
  0.146632
  0.084363
  0.047153
  0.002352
 -0.056511
  0.012864
  0.078635
  0.123391
  0.060143
 -0.087425
 -0.048163
 -0.093635
 -0.005514
  0.021365
 -0.005686
 -0.073765
 -0.037517
 -0.125073
  0.138794
  0.067529
 -0.033365
  0.062411
 -0.077112
 -0.034689
  0.013755
 -0.055823
 -0.145244
 -0.117078
 -0.007144
 -0.051017
  0.010752
  0.009625
  0.066131
 -0.102420
 -0.099630
  0.057021
  0.147301
 -0.035739
 -0.007083
  0.022672
  0.079336
  0.130091
 -0.031126
 -0.156777
  0.224413
 -0.064685
 -0.141120
 -0.057404
  0.058721
 -0.205196
  0.112731
  0.195584
  0.076871
  0.035485
  0.137005
 -0.002309
 -0.046470
 -0.086217
 -0.014340
 -0.035935
 -0.028118
 -0.138757
 -0.053899
 -0.128574
  0.059225
  0.117709
  0.069562
 -0.011101
 -0.026709
 -0.015009
  0.108767
 -0.082880
 -0.183405
  0.095517
 -0.102515
 -0.153323
  0.146736
  0.001817
 -0.097990
 -0.126401
 -0.115636
 -0.128608
 -0.058791
  0.092357
  0.123260
 -0.054565
 -0.097030
 -0.096083
 -0.015912
  0.017701
  0.110100
 -0.043551
 -0.049265
 -0.147506
  0.083600
 -0.057575
 -0.044948
  0.101426
 -0.076654
  0.053986
 -0.043805
  0.016606
  0.052998
 -0.028082
  0.118016
  0.000011
  0.118958
  0.017555
  0.027031
  0.047795
  0.045570
  0.072423
  0.126512
 -0.020789
  0.025413
  0.150554
 -0.091733
 -0.014678
 -0.039161
 -0.113583
 -0.119452
 -0.085804
 -0.144211
 -0.092158
  0.152607
 -0.042620
  0.109325
  0.038791
  0.106977
 -0.098915
  0.114976
 -0.032303
  0.009118
 -0.011336
 -0.199411
  0.085168
 -0.174918
  0.054386
 -0.061520
  0.087118
 -0.048753
  0.221617
  0.037050
  0.061544
  0.051428
  0.136186
 -0.073479
  0.006018
 -0.039181
  0.126389
 -0.013283
  0.007881
  0.019269
  0.071343
 -0.054227
  0.229161
  0.085006
 -0.081796
 -0.003617
  0.188123
  0.048567
 -0.062731
  0.100492
 -0.047508
  0.106231
  0.214590
 -0.003417
  0.047470
  0.066263
 -0.081998
 -0.171968
 -0.003479
 -0.012754
  0.028405
 -0.071381
 -0.071714
  0.006044
 -0.075963
  0.007627
  0.095532
  0.000170
 -0.019802
 -0.039720
 -0.078438
 -0.157636
 -0.042626
 -0.002810
  0.065496
 -0.033144
 -0.143897
  0.058197
 -0.071237
 -0.104097
  0.008682
 -0.039657
  0.056645
  0.040889
 -0.046176
  0.013574
 -0.044794
 -0.032623
  0.185496
  0.016459
 -0.076209
 -0.041766
 -0.035035
 -0.003746
  0.026964
  0.063152
  0.060251
 -0.027777
  0.022354
  0.052583
  0.030199
  0.099617
 -0.010809
 -0.124482
  0.010030
  0.052812
 -0.020096
 -0.035792
  0.020985
  0.028452
  0.041948
 -0.034695
 -0.159707
  0.134278
  0.231105
 -0.121111
 -0.073266
 -0.118269
  0.045840
 -0.109037
 -0.060220
  0.086660
  0.043742
 -0.026731
  0.061777
 -0.000285
  0.021706
  0.015299
  0.029983
  0.073163
 -0.004741
  0.165165
  0.153764
  0.162634
 -0.083669
 -0.105548
  0.033180
  0.065259
 -0.093451
  0.063616
  0.016828
  0.015479
 -0.106477
  0.103123
 -0.001433
  0.133472
  0.091946
 -0.038385
  0.024329
  0.010345
 -0.063586
  0.034353
 -0.001072
  0.082710
 -0.100692
 -0.030968
 -0.050923
  0.021737
 -0.044272
  0.096481
 -0.055735
 -0.039826
  0.134090
  0.093832
  0.011216
 -0.060820
 -0.097406
  0.024835
 -0.117177
 -0.167921
  0.107632
  0.023949
  0.036294
 -0.043233
  0.023176
  0.228431
 -0.007124
 -0.040875
  0.101105
 -0.081553
 -0.074415
  0.026064
  0.022124
  0.062429
 -0.107843
  0.042988
  0.023701
 -0.043102
  0.061857
  0.042018
  0.069238
 -0.042193
 -0.058348
 -0.059786
  0.052559
  0.130989
 -0.038511
  0.063627
  0.048231
  0.020478
 -0.019367
 -0.113322
 -0.008029
 -0.119317
  0.052116
 -0.047408
  0.028325
 -0.032715
  0.105858
 -0.083071
 -0.003852
  0.035164
 -0.076743
  0.016899
 -0.242054
  0.105894
 -0.021801
 -0.027252
  0.014722
  0.019633
  0.017085
 -0.140062
  0.030585
  0.129026
 -0.025774
  0.159846
 -0.099314
  0.115855
 -0.218191
  0.120913
 -0.141704
 -0.072190
  0.203717
  0.035044
  0.043085
 -0.079538
  0.022496
 -0.125335
  0.111178
  0.180808
 -0.001120
  0.043956
 -0.078211
 -0.044479
  0.060127
 -0.113936
  0.130419
 -0.073789
 -0.011602
  0.023387
 -0.120277
 -0.015014
 -0.073815
  0.104583
  0.006840
  0.152839
 -0.007946
  0.160150
 -0.039808
  0.048940
  0.195689
 -0.044050
 -0.129867
  0.016873
  0.014600
  0.026769
 -0.062184
 -0.170589
  0.019197
 -0.110644
  0.137885
 -0.029606
 -0.092918
  0.095722
  0.030399
 -0.146244
  0.089210
 -0.048280
 -0.111215
 -0.031014
  0.046510
  0.008059
  0.059990
 -0.151917
  0.040458
  0.028191
 -0.131109
 -0.005067
 -0.015349
 -0.091668
  0.035363
  0.005227
  0.151352
 -0.026550
  0.071913
 -0.029237
 -0.011885
  0.166947
  0.000003
 -0.188720
  0.178827
  0.074548
 -0.189934
  0.004950
 -0.168347
  0.013911
 -0.090286
  0.003668
  0.133130
 -0.038803
 -0.050954
 -0.017847
 -0.060343
 -0.090444
 -0.135133
 -0.057831
 -0.044217
 -0.030096
 -0.114485
 -0.024260
 -0.060629
 -0.095408
 -0.012854
  0.093742
  0.050377
 -0.098126
  0.019931
 -0.103499
  0.003761
 -0.117985
  0.114304
  0.065430
  0.138864
 -0.190411
 -0.084730
 -0.208014
  0.240138
  0.104328
  0.014722
  0.001998
 -0.080920
 -0.058710
  0.058802
  0.013099
  0.127555
 -0.003322
  0.029755
 -0.135331
 -0.063355
 -0.100626
 -0.105691
 -0.176538
 -0.048424
 -0.137987
  0.082961
  0.155718
  0.021713
  0.082985
  0.031090
 -0.004244
 -0.054013
  0.069906
 -0.083128
 -0.054175
 -0.024393
  0.137960
 -0.090700
  0.051279
 -0.042326
  0.007956
 -0.007077
  0.111574
 -0.087431
  0.023900
  0.044587
  0.056988
  0.027176
  0.098789
  0.117666
  0.110797
  0.035707
  0.045692
  0.037531
 -0.006592
  0.138197
  0.002448
 -0.000959
 -0.113017
 -0.071701
  0.030667
 -0.052857
 -0.002467
 -0.035303
  0.036754
 -0.041467
  0.185682
 -0.081438
  0.052950
  0.064354
 -0.083091
  0.020832
 -0.059890
 -0.039782
 -0.049180
  0.016779
 -0.110262
  0.105288
 -0.103187
  0.032061
 -0.040735
  0.109920
  0.097459
 -0.129421
 -0.053340
 -0.027507
 -0.023083
 -0.030053
 -0.069416
 -0.051559
 -0.016104
 -0.083983
 -0.026804
  0.023126
 -0.183458
  0.102928
 -0.050730
 -0.055077
 -0.090123
 -0.055769
 -0.139876
 -0.028491
  0.019711
  0.091749
 -0.093036
 -0.036330
  0.023507
 -0.044064
 -0.004603
 -0.078357
 -0.134592
  0.137959
 -0.063334
 -0.008462
  0.044014
  0.101185
 -0.108495
 -0.057515
 -0.007612
 -0.003517
  0.159367
  0.078033
  0.076486
  0.019526
 -0.015180
  0.038802
 -0.059182
 -0.043430
 -0.037562
  0.145466
  0.022099
 -0.095880
 -0.016922
 -0.018047
  0.101217
 -0.153897
  0.044139
 -0.057493
  0.020847
 -0.004193
  0.001087
 -0.087201
 -0.140012
  0.080508
 -0.046452
 -0.123190
 -0.030499
  0.020562
  0.103758
  0.031344
 -0.067651
 -0.135365
 -0.027475
 -0.073707
  0.007587
  0.044026
 -0.057099
  0.058784
  0.004665
 -0.122638
  0.021325
 -0.111338
  0.062018
 -0.033364
 -0.052588
 -0.104466
  0.144625
 -0.025615
 -0.006414
  0.097222
  0.030982
 -0.129972
 -0.068434
  0.022369
  0.037257
 -0.038177
 -0.034198
  0.030368
 -0.045983
  0.057593
  0.042823
 -0.020187
 -0.032120
  0.138295
  0.174871
  0.073651
 -0.118052
  0.036011
  0.042576
 -0.052559
 -0.161077
 -0.164304
 -0.133890
  0.002520
 -0.015835
  0.112081
 -0.065220
 -0.035646
 -0.068547
 -0.188419
  0.022577
  0.018469
 -0.101928
 -0.022985
 -0.125403
  0.128975
  0.056314
  0.048885
  0.122820
 -0.018591
 -0.071256
  0.022321
  0.093553
  0.052815
  0.053635
  0.143046
  0.000754
 -0.060745
  0.043429
 -0.129450
 -0.071725
  0.042078
  0.034927
 -0.011070
  0.136123
  0.016777
 -0.064919
  0.188724
 -0.004229
 -0.009319
  0.097056
 -0.055110
  0.014920
 -0.065475
 -0.228372
  0.049719
  0.080122
  0.012612
  0.085397
  0.039098
  0.010095
  0.034977
 -0.116306
  0.105915
  0.087530
  0.224555
  0.188351
 -0.038727
  0.150597
  0.131623
 -0.152118
 -0.187108
 -0.098140
 -0.021895
 -0.192758
 -0.025425
  0.019762
 -0.026197
  0.061080
 -0.029681
  0.058529
 -0.029457
 -0.068072
 -0.004451
  0.118237
  0.026808
  0.099645
  0.004167
 -0.031678
 -0.028931
  0.129383
  0.135833
  0.097011
 -0.055859
  0.029387
 -0.051645
 -0.123360
 -0.042833
 -0.067409
 -0.132308
 -0.041969
  0.038034
 -0.054334
  0.064222
  0.147937
 -0.002688
  0.181218
  0.086324
  0.031125
 -0.001044
 -0.150603
  0.139270
  0.031743
 -0.048419
  0.106095
  0.032905
  0.064537
  0.026910
  0.187830
  0.020932
  0.128097
 -0.027812
 -0.066565
  0.049318
  0.093870
 -0.041474
  0.094384
 -0.066693
  0.016508
 -0.013672
 -0.036116
  0.143436
 -0.052527
 -0.017245
  0.012712
  0.043805
 -0.112684
  0.075379
  0.017195
  0.094263
 -0.057520
  0.031196
 -0.015052
  0.109016
 -0.077243
  0.001348
  0.049948
  0.095627
  0.029257
  0.076105
  0.000511
 -0.007595
  0.031520
  0.036243
  0.080257
  0.047497
  0.026910
 -0.092724
 -0.057353
  0.079854
  0.133410
 -0.104389
 -0.031683
 -0.035842
 -0.180785
  0.017468
  0.032720
  0.157062
  0.001063
  0.156319
  0.103702
  0.056652
 -0.031140
 -0.032634
 -0.006272
  0.099548
 -0.215112
  0.133432
  0.098947
 -0.092973
 -0.155955
 -0.101410
  0.095437
  0.163660
 -0.028894
 -0.047702
 -0.044723
 -0.216431
  0.084450
 -0.063004
 -0.038935
  0.112544
 -0.015350
 -0.039728
 -0.055646
 -0.032190
  0.201699
 -0.198433
  0.123873
  0.117553
 -0.082713
 -0.121288
  0.188202
  0.096045
  0.010053
 -0.029458
 -0.121398
  0.041688
  0.120831
 -0.081548
  0.048240
 -0.056995
 -0.130899
  0.023469
 -0.042289
  0.014786
  0.008363
  0.004869
 -0.021399
  0.076591
 -0.117814
  0.036284
 -0.066675
  0.053755
 -0.070531
 -0.010330
 -0.024149
 -0.031199
  0.045928
  0.066498
  0.122513
 -0.090582
 -0.130828
  0.015917
  0.004379
 -0.029322
  0.080417
 -0.017177
  0.036033
 -0.095510
  0.021909
  0.056475
 -0.037701
 -0.000878
  0.074141
 -0.014498
  0.064266
  0.053662
  0.084771
  0.009845
 -0.009945
  0.007906
 -0.072369
  0.057743
  0.151159
 -0.103849
  0.087186
 -0.031200
  0.053954
  0.051312
  0.070521
 -0.007763
 -0.071678
  0.049610
  0.014588
 -0.025144
  0.037590
  0.127660
  0.210486
  0.240378
  0.203508
  0.328801
  0.172841
  0.159171
  0.285621
  0.217735
  0.367277
  0.349830
  0.557922
  0.308475
  0.420729
  0.369532
  0.587892
  0.436331
  0.426479
  0.487647
  0.469409
  0.351464
  0.416759
  0.269118
  0.438112
  0.400402
  0.297935
  0.126135
  0.302942
  0.170233
  0.269954
  0.189470
  0.219024
  0.086906
  0.315797
  0.235090
  0.398680
  0.224793
  0.264715
  0.245570
  0.307655
  0.129850
  0.017018
  0.180380
  0.180958
  0.137199
  0.208884
  0.247323
  0.245730
  0.103801
  0.141709
  0.210890
  0.357215
  0.479125
  0.581668
  0.681834
  0.773441
  0.983422
  1.000000
  0.843429
  0.804532
  0.952445
  0.900263
  0.880390
  0.896744
  0.691643
  0.758973
  0.742087
  0.543428
  0.585903
  0.512356
  0.278628
  0.382904
  0.345828
  0.160449
  0.301180
  0.194420
  0.117556
  0.158691
  0.162404
  0.047531
  0.185491
 -0.028512
  0.065510
 -0.058548
 -0.039091
  0.042770
 -0.139854
  0.196103
 -0.001322
 -0.073678
  0.004589
 -0.054788
  0.061193
  0.059118
 -0.158482
  0.048033
  0.254060
 -0.134591
  0.114919
  0.071070
 -0.157911
  0.157501
  0.054627
 -0.001320
 -0.018085
  0.038865
  0.028489
 -0.201674
 -0.174239
 -0.034024
  0.063832
  0.067462
 -0.030921
  0.031162
 -0.037434
 -0.147305
  0.016809
  0.055440
  0.088295
  0.036119
 -0.031267
  0.155298
  0.017812
  0.138017
  0.151434
  0.062163
 -0.032225
 -0.034876
  0.012123
 -0.174930
 -0.053945
 -0.177567
  0.107684
 -0.143246
  0.110952
 -0.081759
 -0.070192
 -0.085524
  0.045680
  0.041815
 -0.126358
  0.137116
  0.125795
  0.136852
  0.067318
  0.167957
  0.232435
  0.054748
 -0.068744
 -0.044984
  0.038397
  0.119484
 -0.033015
  0.024047
 -0.058710
 -0.001142
 -0.054185
  0.093686
 -0.029840
  0.056684
 -0.028129
  0.053681
 -0.128016
  0.037145
 -0.035170
 -0.126839
  0.022640
 -0.034166
 -0.210238
  0.077658
 -0.167652
  0.113864
 -0.191309
  0.156136
  0.027622
  0.120860
 -0.115752
 -0.018217
 -0.103363
 -0.062138
 -0.067063
  0.046020
  0.117384
  0.159224
 -0.162417
  0.097100
  0.090275
  0.043837
  0.066338
 -0.114165
 -0.028369
 -0.076945
  0.037441
  0.017384
 -0.049735
 -0.188004
  0.102744
  0.056062
 -0.032140
  0.032610
  0.004283
  0.144995
  0.006028
 -0.132855
  0.071198
  0.078508
  0.050841
 -0.208088
 -0.166400
 -0.042482
  0.151578
  0.060187
 -0.065940
 -0.004686
 -0.074427
 -0.184146
 -0.008293
 -0.083406
 -0.052521
  0.010016
 -0.092967
 -0.105371
 -0.063440
 -0.002265
  0.094408
  0.056956
  0.170726
 -0.002523
  0.134363
  0.104394
  0.013685
 -0.065874
 -0.041236
 -0.134824
 -0.080078
 -0.069514
  0.069207
 -0.100910
 -0.149006
 -0.045050
 -0.014486
  0.001567
  0.009118
  0.103093
 -0.019643
  0.062528
  0.123461
 -0.126198
  0.131352
  0.011300
 -0.000991
 -0.094774
  0.080644
  0.154336
  0.123121
  0.146496
 -0.123660
 -0.054003
 -0.133614
 -0.098500
 -0.138335
  0.186916
 -0.016405
 -0.004260
 -0.162978
 -0.056670
 -0.021038
 -0.076066
 -0.056354
 -0.022845
 -0.077613
  0.113786
 -0.063411
 -0.025014
 -0.003033
 -0.072890
 -0.072216
  0.000940
  0.223308
 -0.060095
  0.019092
 -0.097351
  0.096143
  0.100437
  0.154804
  0.083815
  0.035673
 -0.006745
  0.000422
  0.042979
 -0.059059
  0.063588
  0.060442
 -0.018452
  0.042298
 -0.139297
 -0.056922
  0.053017
  0.033695
 -0.157886
  0.132876
  0.125263
  0.076597
  0.000686
 -0.099286
 -0.072874
  0.006786
  0.038280
  0.039765
  0.057501
  0.100394
 -0.008576
 -0.014642
  0.062347
  0.160417
 -0.000761
 -0.116453
 -0.092864
 -0.012900
  0.041747
 -0.069606
 -0.101431
 -0.016738
 -0.090282
  0.079998
 -0.094014
  0.084853
  0.010078
 -0.027520
  0.029181
  0.027084
  0.079384
  0.064897
  0.075821
 -0.197317
  0.019511
 -0.070359
  0.077936
 -0.018460
  0.039320
 -0.015225
 -0.087057
 -0.079807
  0.169886
 -0.129619
  0.083827
 -0.064300
  0.042733
 -0.003486
 -0.024049
  0.074149
  0.054127
 -0.156885
 -0.016339
 -0.001417
  0.032185
  0.012229
  0.033997
  0.092717
 -0.014228
 -0.071881
 -0.128906
 -0.145179
  0.054351
  0.079733
  0.085029
  0.086304
  0.064683
  0.197624
 -0.117564
  0.012705
  0.015156
  0.096444
 -0.101064
 -0.102047
 -0.046938
 -0.120983
 -0.154629
  0.093054
 -0.084751
 -0.020656
 -0.067742
 -0.034526
 -0.122561
 -0.094926
  0.085502
  0.088873
 -0.030376
 -0.008707
 -0.018392
  0.001124
  0.011310
  0.056114
 -0.093417
 -0.057526
 -0.002066
 -0.014872
 -0.016980
 -0.042963
  0.054583
  0.154199
  0.061274
  0.087672
  0.104476
 -0.030621
 -0.032452
  0.155435
 -0.053011
 -0.023092
  0.148171
 -0.023686
  0.008205
  0.159872
 -0.062044
  0.026601
 -0.205342
 -0.006845
  0.209422
  0.045020
 -0.086826
 -0.069896
 -0.036181
  0.099685
 -0.184780
  0.006143
 -0.022987
  0.045657
  0.179021
  0.048532
  0.072415
 -0.056761
  0.032866
  0.139220
 -0.049144
 -0.086456
 -0.183796
 -0.133552
  0.098832
  0.014694
 -0.068525
  0.088983
 -0.158852
  0.001270
  0.061850
 -0.009818
  0.006155
 -0.209661
 -0.011808
 -0.169668
 -0.037703
  0.029110
 -0.079285
  0.093786
  0.195098
 -0.007411
  0.059790
  0.129129
  0.041880
  0.191220
  0.046116
 -0.069055
  0.136038
  0.058604
  0.177930
  0.113922
  0.010685
 -0.048841
 -0.071070
  0.284936
 -0.139237
  0.085752
  0.088279
 -0.063245
 -0.083670
 -0.018210
  0.037788
 -0.061479
 -0.013493
 -0.051409
 -0.016905
  0.099271
  0.028189
 -0.039268
 -0.075887
  0.051690
  0.095965
 -0.047729
 -0.155927
  0.029157
  0.131424
  0.172087
 -0.047639
  0.006065
  0.065350
  0.156815
  0.050779
 -0.053309
 -0.100856
  0.006905
 -0.018700
 -0.023513
 -0.138737
 -0.064079
 -0.064426
 -0.075093
 -0.083957
  0.061565
  0.083152
  0.027641
 -0.019536
 -0.169329
 -0.035477
  0.038138
  0.034119
  0.038977
 -0.089646
  0.101488
  0.036241
  0.043105
 -0.006888
 -0.029384
 -0.012398
  0.120541
  0.021905
  0.058103
 -0.072503
 -0.132736
 -0.022893
 -0.037394
 -0.089919
  0.017375
 -0.132214
 -0.127413
  0.068797
 -0.018714
  0.109486
 -0.075278
 -0.111347
 -0.089243
  0.146467
  0.040695
 -0.137585
 -0.014369
 -0.062613
 -0.180027
 -0.012205
 -0.053930
  0.051024
  0.028658
  0.001409
  0.023060
 -0.064287
  0.032602
  0.078468
  0.053586
 -0.055604
  0.008982
 -0.054716
 -0.154664
  0.130784
 -0.014712
 -0.025898
 -0.079322
 -0.065673
  0.073210
  0.127894
 -0.083084
  0.055124
 -0.063580
  0.065036
  0.106758
 -0.042672
 -0.096634
  0.070870
  0.077883
  0.104223
 -0.076052
 -0.085468
  0.100992
  0.045141
  0.028906
  0.034368
  0.016304
 -0.019128
  0.013506
 -0.072511
 -0.104098
 -0.143479
  0.045794
  0.143480
  0.011218
 -0.042379
  0.016481
  0.165637
 -0.014616
  0.054205
 -0.010171
 -0.156864
  0.083486
 -0.111093
  0.045994
  0.019143
  0.006997
 -0.033245
  0.040907
 -0.083939
  0.069132
 -0.144957
 -0.060272
 -0.070944
  0.002931
  0.050059
  0.064430
  0.064653
 -0.067348
 -0.084624
  0.109607
  0.015699
  0.054955
 -0.142138
 -0.117277
 -0.048261
 -0.073740
  0.021035
  0.050433
  0.100689
 -0.064076
  0.015494
  0.080937
  0.059786
 -0.023834
  0.056770
 -0.041961
  0.081639
  0.033177
 -0.004863
 -0.122651
  0.064919
  0.053921
  0.072248
  0.005592
  0.001542
 -0.089487
 -0.091946
  0.004593
 -0.012284
  0.048823
 -0.067771
  0.027525
  0.102309
  0.049944
 -0.051881
  0.145071
  0.109782
  0.061641
  0.113894
  0.141561
 -0.098938
  0.040239
  0.059717
 -0.121259
 -0.093556
  0.068340
 -0.035619
  0.058070
 -0.104518
  0.065149
 -0.023428
  0.016039
  0.015035
 -0.117545
  0.004503
 -0.056395
 -0.026818
 -0.038067
  0.211287
 -0.010563
  0.071413
 -0.026496
 -0.021122
 -0.025714
  0.082381
  0.052952
 -0.005318
  0.000939
  0.064652
 -0.045284
 -0.165470
  0.175110
 -0.035411
 -0.081146
 -0.043770
  0.102857
  0.061324
  0.068231
 -0.000833
 -0.208961
  0.077193
 -0.049888
 -0.030468
  0.007695
  0.021621
 -0.032688
 -0.154648
  0.050505
 -0.003954
 -0.012144
  0.120446
  0.095234
  0.016595
  0.142724
 -0.040383
 -0.053147
  0.040545
 -0.031762
  0.027032
  0.099998
  0.090670
  0.063918
  0.005178
  0.064506
 -0.029908
  0.060327
 -0.118461
 -0.020373
  0.059229
 -0.225446
 -0.166769
 -0.179043
 -0.020810
  0.046638
 -0.151760
 -0.079534
  0.093142
 -0.048300
  0.042392
  0.038551
 -0.092933
  0.023452
  0.023434
 -0.050443
 -0.067878
  0.101152
 -0.048354
 -0.157160
  0.024278
 -0.014124
  0.092886
  0.025798
 -0.005425
 -0.154254
  0.017377
 -0.091179
  0.137533
 -0.101941
 -0.118843
 -0.008866
 -0.029759
 -0.070321
 -0.072074
  0.024322
  0.125148
 -0.129855
 -0.158638
 -0.094846
  0.034733
  0.100832
 -0.003429
  0.082666
 -0.056318
  0.015268
 -0.064027
  0.014690
  0.051550
  0.184744
  0.140191
 -0.005609
 -0.019444
  0.144500
 -0.074320
  0.038778
 -0.000113
  0.071014
 -0.064451
  0.059483
 -0.017134
 -0.091069
  0.064673
 -0.098817
  0.022516
 -0.009543
 -0.094911
 -0.042795
 -0.015320
 -0.050638
 -0.012085
  0.003826
  0.024508
 -0.014313
  0.094330
  0.057234
  0.042094
 -0.070040
 -0.063675
 -0.057955
 -0.093076
  0.082664
 -0.051304
 -0.080721
  0.023016
 -0.105646
  0.001584
 -0.019054
 -0.103941
  0.029838
  0.051869
  0.021922
  0.091867
  0.010089
  0.006188
  0.104473
  0.042367
  0.109443
 -0.067016
 -0.044685
 -0.042776
  0.004224
 -0.079391
  0.036018
 -0.014816
  0.021215
  0.056571
 -0.123651
  0.209816
  0.000134
  0.016925
  0.057941
  0.030761
  0.055768
  0.085542
 -0.086742
  0.020208
 -0.007383
 -0.016822
  0.045673
  0.011342
 -0.027112
 -0.005173
  0.084364
  0.032760
  0.074916
  0.008407
 -0.157471
  0.008632
 -0.072588
 -0.091124
 -0.137217
 -0.023579
 -0.014751
  0.059634
  0.083040
 -0.067182
 -0.227370
  0.102805
 -0.115536
  0.061356
 -0.069814
 -0.061980
  0.015247
 -0.156063
 -0.005993
 -0.016101
  0.185051
  0.056222
  0.064139
  0.004957
  0.096964
 -0.160380
  0.017060
 -0.033159
 -0.151594
  0.056699
  0.044921
  0.000621
 -0.137332
  0.064681
  0.115225
  0.073862
  0.048956
  0.091611
 -0.181422
  0.053690
 -0.034255
 -0.095346
 -0.079517
  0.094602
  0.149300
  0.035292
  0.042603
 -0.023059
 -0.022458
 -0.031666
  0.049849
 -0.037070
  0.067951
  0.053881
 -0.060352
  0.019433
 -0.001486
  0.034318
 -0.037034
  0.187996
  0.146368
 -0.060188
 -0.149387
 -0.033887
  0.024898
 -0.108858
  0.050154
 -0.062815
  0.013146
 -0.107615
 -0.058192
  0.077246
 -0.145444
  0.025492
 -0.080356
  0.125533
  0.017833
  0.009159
  0.183773
 -0.110836
 -0.165463
  0.018473
 -0.090938
 -0.159750
  0.000477
 -0.168850
 -0.175677
 -0.014219
  0.151253
 -0.070737
 -0.045087
 -0.039783
  0.010220
 -0.040672
 -0.154929
  0.004279
 -0.027744
 -0.063473
  0.158051
 -0.070479
 -0.047678
  0.029051
 -0.022121
 -0.078264
  0.064573
  0.048956
 -0.080317
  0.052993
 -0.125276
  0.064017
  0.136284
  0.013593
  0.012658
  0.125667
  0.131547
 -0.039515
 -0.016666
 -0.142832
 -0.172504
 -0.009601
 -0.095107
 -0.053552
 -0.096364
 -0.052560
 -0.098547
 -0.221167
  0.001837
  0.054876
  0.174673
 -0.032505
  0.041125
 -0.084493
  0.015186
  0.061294
  0.052256
  0.282394
  0.032330
 -0.027239
  0.095608
  0.008687
  0.054444
 -0.015766
  0.127132
 -0.103472
  0.155712
 -0.009436
  0.032241
 -0.038206
  0.195426
  0.035748
  0.204553
  0.142282
  0.001678
 -0.068264
 -0.012626
 -0.003234
  0.171243
  0.017759
  0.004141
 -0.019932
 -0.101542
 -0.050515
  0.092588
 -0.102645
 -0.030225
  0.012111
  0.060975
 -0.050850
  0.112412
  0.040070
  0.036403
  0.049720
 -0.027146
  0.063860
 -0.110052
  0.057677
  0.057773
 -0.009454
 -0.068318
 -0.009765
  0.024407
  0.159659
  0.111135
  0.121759
 -0.023671
 -0.033464
  0.015764
 -0.170791
 -0.011877
 -0.180355
 -0.014358
  0.050638
  0.032500
  0.028670
 -0.194090
  0.035377
  0.132944
  0.083679
  0.030036
 -0.037136
  0.069131
 -0.089853
 -0.121436
 -0.058246
 -0.014314
 -0.018278
 -0.025495
 -0.009115
  0.040525
 -0.151367
 -0.095084
  0.060464
 -0.125896
  0.078747
  0.149472
  0.134029
 -0.016474
 -0.056682
 -0.060786
  0.017458
  0.048684
  0.138775
  0.027127
 -0.022645
 -0.008139
  0.115972
  0.008393
 -0.057862
 -0.087233
  0.032892
 -0.060284
 -0.046435
 -0.132888
 -0.021283
 -0.049439
 -0.031401
  0.154036
 -0.007796
 -0.081298
  0.136050
  0.172907
  0.006660
  0.024777
 -0.143796
 -0.063740
  0.040675
 -0.029910
  0.003525
  0.069605
 -0.184518
  0.089057
 -0.067919
  0.174320
  0.099071
 -0.136272
  0.034364
 -0.134512
  0.044930
  0.083997
  0.102699
 -0.029833
  0.006299
 -0.021708
  0.004582
 -0.035554
 -0.000755
  0.065404
  0.046806
 -0.040793
  0.181679
  0.001402
  0.178200
 -0.035670
 -0.052736
 -0.034425
  0.104351
 -0.108331
  0.048682
 -0.026474
  0.150490
  0.025816
  0.140771
 -0.017698
  0.022222
 -0.018880
 -0.069114
  0.097433
  0.074521
  0.028833
 -0.126256
 -0.010534
 -0.003577
 -0.069796
  0.074062
 -0.021319
  0.057264
  0.021963
 -0.186812
 -0.038759
  0.016717
  0.091942
  0.117983
 -0.064213
  0.086767
 -0.018588
 -0.074140
  0.137696
  0.184577
 -0.132989
 -0.002313
  0.018065
 -0.062801
  0.113854
 -0.108228
 -0.115470
 -0.136934
  0.105314
 -0.070932
 -0.238375
  0.166715
 -0.150711
 -0.105166
  0.092995
 -0.026558
  0.025878
  0.062486
 -0.130827
  0.004694
  0.018820
  0.000305
 -0.087003
  0.115094
  0.019125
 -0.073183
 -0.035912
 -0.025633
  0.199354
  0.035229
  0.097795
 -0.044787
  0.085223
  0.029428
 -0.048999
 -0.022398
  0.015999
  0.014238
  0.032768
 -0.069933
 -0.021506
 -0.091237
  0.015257
 -0.012614
 -0.114955
 -0.115572
  0.033060
  0.008371
 -0.005072
  0.111426
  0.073039
 -0.018395
 -0.085433
 -0.048547
 -0.134366
 -0.056079
  0.007648
 -0.044471
 -0.081694
 -0.062622
 -0.001640
 -0.048382
 -0.072966
 -0.050520
  0.117079
 -0.043359
 -0.009991
  0.017177
 -0.010547
  0.051847
  0.025115
 -0.011606
  0.071211
 -0.020259
  0.114026
 -0.021071
  0.089755
  0.016322
  0.062303
  0.134338
  0.081377
  0.071813
 -0.057086
 -0.049519
  0.011056
 -0.001738
  0.054855
  0.034334
  0.070683
 -0.034421
  0.093703
  0.179048
 -0.054669
 -0.051761
 -0.023718
 -0.099593
  0.003765
  0.042236
 -0.071572
  0.123109
  0.058997
 -0.102408
  0.113636
  0.110030
  0.043879
 -0.020436
 -0.165472
 -0.031162
  0.066150
  0.036054
  0.046579
 -0.063788
  0.048682
 -0.086426
  0.124063
 -0.075605
  0.163538
 -0.012942
  0.128936
  0.046495
 -0.073069
  0.058276
  0.178184
  0.126090
 -0.141853
 -0.143376
 -0.030587
  0.025244
  0.096372
  0.069568
  0.108365
  0.013145
  0.075226
 -0.057649
 -0.024396
  0.003395
 -0.001411
  0.136951
  0.063610
 -0.013070
  0.119299
 -0.038407
 -0.037899
 -0.011900
 -0.144382
  0.130923
  0.037243
  0.186993
  0.002846
 -0.117711
  0.115835
 -0.128804
 -0.084055
  0.097307
 -0.038821
 -0.079879
 -0.039729
 -0.080634
  0.074465
 -0.054603
 -0.093354
 -0.022633
  0.032975
 -0.104118
  0.012137
 -0.187779
  0.098337
 -0.049704
 -0.117594
 -0.018690
  0.121884
  0.046982
  0.044825
  0.003268
  0.222484
  0.116749
  0.016922
 -0.078775
  0.032434
  0.031806
  0.073928
 -0.003177
  0.024518
 -0.129402
  0.000779
 -0.003599
  0.190428
 -0.061117
 -0.111471
  0.063569
  0.048220
 -0.106417
 -0.098722
 -0.070172
 -0.059740
  0.067983
 -0.005101
 -0.046272
 -0.041386
 -0.022593
  0.111365
 -0.154225
  0.110696
  0.004253
 -0.173960
 -0.144279
  0.135169
  0.011479
 -0.009437
  0.015138
 -0.151425
 -0.085443
 -0.038745
 -0.039376
  0.036533
  0.111129
  0.079271
 -0.010485
  0.071758
  0.112224
 -0.049450
 -0.100788
 -0.046599
  0.008014
  0.128083
 -0.157981
 -0.041226
  0.105326
 -0.212959
 -0.038834
  0.012001
 -0.051521
  0.034784
 -0.013578
  0.109374
  0.105157
  0.106020
  0.126507
  0.041230
 -0.122873
  0.003607
  0.010488
 -0.182523
 -0.061908
 -0.010434
  0.131769
 -0.174289
  0.079340
  0.005843
 -0.015989
 -0.179343
 -0.073443
 -0.080127
 -0.168004
 -0.015377
 -0.021462
  0.029591
  0.038285
 -0.099112
 -0.100489
 -0.016395
 -0.181111
  0.066728
 -0.242576
 -0.075748
  0.054154
 -0.170287
 -0.037972
 -0.100876
  0.157826
  0.034960
 -0.056729
 -0.037622
  0.002448
 -0.146979
 -0.053218
  0.126060
  0.039519
 -0.176656
  0.047911
  0.101934
 -0.035195
 -0.005761
 -0.007946
 -0.023267
  0.048652
  0.090648
 -0.193685
 -0.214094
  0.088754
  0.074511
 -0.133953
  0.084080
  0.101556
  0.014539
 -0.057252
  0.154108
  0.262635
  0.064032
  0.036876
  0.181747
 -0.068780
  0.120387
 -0.064137
 -0.011236
  0.187340
  0.025747
 -0.124928
 -0.076230
 -0.019742
 -0.001411
 -0.088252
  0.044261
  0.068304
 -0.073856
  0.015841
 -0.199060
 -0.062570
  0.044647
 -0.098422
 -0.032440
 -0.080005
  0.154188
 -0.082906
  0.098111
 -0.104718
 -0.013745
 -0.007281
 -0.030481
 -0.039825
 -0.033223
 -0.157001
 -0.239776
  0.140954
 -0.033375
 -0.097981
  0.175796
  0.045535
  0.039086
  0.108853
  0.133861
  0.004921
  0.081208
 -0.101698
 -0.058902
  0.081862
  0.088146
  0.031954
  0.106960
  0.017442
  0.049197
  0.053711
 -0.002405
 -0.200438
 -0.102379
  0.057534
 -0.097713
  0.132504
 -0.184555
  0.016515
  0.085915
  0.056978
  0.067365
 -0.082791
  0.115572
  0.135244
 -0.064097
  0.087679
  0.045356
 -0.032871
 -0.059047
  0.048443
  0.016416
 -0.046708
  0.023271
 -0.030533
 -0.055678
  0.144585
  0.183736
 -0.080192
  0.053197
 -0.020589
 -0.043998
  0.104132
  0.052824
  0.013291
 -0.037266
 -0.092438
  0.116526
  0.112888
  0.142855
  0.153810
  0.043924
  0.000060
 -0.170383
  0.003046
 -0.110023
 -0.046095
 -0.242875
  0.104576
  0.044737
  0.012200
  0.120363
  0.019652
  0.133178
 -0.173788
 -0.034349
 -0.186171
 -0.145635
  0.106451
  0.047201
 -0.168283
 -0.021382
  0.106151
  0.068247
 -0.046193
 -0.068874
 -0.076146
 -0.009247
 -0.054832
  0.064059
  0.119252
  0.089765
  0.037401
  0.038343
  0.066925
 -0.094184
 -0.111415
 -0.141290
  0.019593
 -0.143951
 -0.009899
 -0.044450
 -0.063722
  0.126180
 -0.020791
 -0.068767
  0.141861
  0.149691
 -0.022661
 -0.148610
  0.074741
  0.003754
  0.073027
  0.109158
 -0.015379
 -0.004275
 -0.130926
  0.012027
  0.062806
  0.156050
 -0.088421
 -0.036342
  0.078830
 -0.010541
  0.094429
 -0.161339
 -0.222464
  0.080849
 -0.119330
  0.093888
 -0.027208
 -0.048146
  0.036016
 -0.062259
 -0.022183
 -0.020931
  0.050150
 -0.008847
  0.110923
  0.017749
 -0.131548
 -0.048568
  0.045311
 -0.025435
  0.022837
 -0.083014
 -0.120720
  0.061653
  0.086663
  0.063795
 -0.091078
  0.090203
  0.033728
  0.087745
  0.070288
 -0.049282
  0.027685
 -0.115376
  0.032835
  0.042662
  0.036664
 -0.095109
 -0.018364
  0.046406
 -0.000846
 -0.162236
  0.061138
 -0.021753
 -0.040992
 -0.128436
  0.162688
 -0.105198
  0.071766
  0.105950
  0.085638
  0.029143
  0.149845
 -0.187389
  0.030996
 -0.003767
  0.077478
 -0.034048
 -0.029385
 -0.068943
 -0.042940
 -0.019369
 -0.041799
  0.062080
  0.172877
  0.183346
  0.083479
 -0.003450
  0.117902
 -0.059812
  0.200095
 -0.132481
  0.122357
 -0.042142
  0.051046
  0.015040
  0.016473
  0.118090
  0.068286
 -0.094093
  0.102623
  0.130197
  0.114621
 -0.100742
 -0.081344
  0.103365
  0.027138
 -0.005432
  0.150693
 -0.095440
  0.012423
 -0.009310
 -0.143133
  0.012176
 -0.008563
  0.085776
 -0.019482
  0.063944
  0.045168
 -0.095482
 -0.136386
  0.080247
 -0.106032
 -0.031545
  0.199825
  0.125695
  0.036094
 -0.020983
 -0.107966
 -0.040681
  0.047086
 -0.074689
  0.026141
  0.132085
  0.031032
 -0.089639
  0.047556
  0.168740
  0.105819
 -0.076635
 -0.035768
 -0.101642
 -0.003984
 -0.011480
 -0.060529
 -0.010044
 -0.111897
 -0.036024
 -0.155550
 -0.015529
 -0.079309
 -0.026633
 -0.037892
  0.044871
 -0.006603
  0.023601
 -0.029848
  0.078992
 -0.127648
 -0.104343
  0.078533
 -0.040013
 -0.031514
  0.097019
  0.006939
  0.038579
 -0.076618
 -0.109973
  0.145827
 -0.113193
 -0.059341
  0.011591
  0.060048
  0.046037
  0.026687
 -0.045448
  0.167002
 -0.273653
  0.001955
 -0.059307
  0.085524
 -0.047591
 -0.173644
 -0.069385
  0.002682
  0.081100
 -0.020472
  0.062441
  0.058719
 -0.102697
 -0.052693
  0.020315
  0.026962
 -0.032585
 -0.057597
 -0.025543
  0.008779
  0.001372
 -0.018980
  0.023027
 -0.018390
 -0.068455
  0.122297
  0.066781
  0.009106
 -0.046076
 -0.120183
  0.023430
  0.046305
 -0.111417
 -0.056223
  0.133555
 -0.061180
 -0.058672
 -0.143786
 -0.018934
  0.019111
  0.087172
  0.107954
  0.044730
  0.073926
  0.003603
 -0.071915
 -0.132278
  0.043654
 -0.152676
  0.122309
  0.129164
  0.000646
  0.120062
  0.125019
  0.004213
 -0.017519
 -0.085398
 -0.029104
 -0.053344
 -0.048131
 -0.079687
  0.197480
  0.045423
 -0.012352
 -0.162320
  0.115817
  0.018651
 -0.155364
 -0.020730
  0.031674
  0.101799
  0.030393
 -0.114033
 -0.057088
 -0.002372
  0.070424
 -0.022981
  0.049754
  0.134346
  0.004029
 -0.031594
  0.064342
 -0.181811
  0.049577
  0.022538
  0.056475
  0.005532
 -0.181518
  0.171181
  0.016723
 -0.087671
  0.037848
 -0.010829
 -0.149970
  0.080731
 -0.187760
  0.021898
  0.104989
 -0.079305
  0.009579
  0.036335
  0.063580
  0.034773
  0.011745
 -0.098961
  0.116454
  0.087988
 -0.159375
 -0.048481
 -0.155535
 -0.068203
 -0.008047
  0.058044
  0.009595
  0.006615
 -0.009242
  0.066243
 -0.057149
 -0.009503
 -0.104434
 -0.059231
 -0.052092
 -0.061368
 -0.088215
  0.086267
  0.133238
 -0.051350
  0.027852
 -0.023728
  0.115140
  0.033309
  0.181143
  0.028985
  0.044722
 -0.006768
  0.069318
  0.155144
 -0.043650
  0.034305
  0.149185
 -0.082362
  0.109314
  0.030257
  0.099088
 -0.190824
 -0.056489
 -0.015143
 -0.039794
  0.012637
 -0.086545
 -0.000567
 -0.059189
  0.038257
 -0.041139
 -0.058154
  0.075835
  0.039187
  0.021262
  0.011384
 -0.091182
 -0.005283
 -0.042998
  0.012549
 -0.203691
 -0.093838
  0.017367
 -0.062423
  0.029665
 -0.087547
  0.124259
 -0.080384
  0.219291
 -0.187288
  0.104999
  0.000525
 -0.078997
  0.041997
 -0.048214
 -0.046841
  0.008463
 -0.063909
 -0.004974
  0.097815
  0.034521
 -0.035928
  0.025061
  0.190048
  0.046648
 -0.027652
 -0.023427
 -0.059219
 -0.083684
  0.099752
 -0.023590
  0.330303
  0.091568
  0.040290
 -0.050383
  0.073230
 -0.014447
  0.022630
  0.107479
  0.175989
  0.066042
 -0.101943
  0.040397
 -0.084931
 -0.161685
 -0.138317
 -0.084386
  0.042420
 -0.195409
  0.006292
  0.012910
  0.026480
 -0.178333
  0.070063
 -0.042210
  0.053251
 -0.143796
 -0.093389
 -0.051445
 -0.002466
 -0.064565
 -0.032171
  0.009012
  0.071603
  0.234427
 -0.083731
  0.064977
 -0.042035
  0.001267
  0.078903
 -0.031203
  0.092588
  0.108140
 -0.023087
  0.015359
  0.001604
 -0.204128
 -0.013937
 -0.074131
  0.009856
  0.050471
  0.165252
  0.030707
  0.001791
  0.057870
 -0.144717
  0.001890
  0.032080
  0.081543
  0.023633
 -0.003287
 -0.002056
  0.035317
  0.033529
 -0.089409
 -0.049723
 -0.001156
 -0.025331
 -0.011921
 -0.057773
 -0.006213
 -0.023375
  0.220659
  0.033790
  0.148495
  0.019961
  0.019637
  0.107422
  0.116387
  0.063248
 -0.016103
  0.087125
 -0.071498
 -0.024047
  0.117061
  0.135423
  0.003068
 -0.083292
  0.070695
 -0.096784
 -0.093902
  0.131455
 -0.003925
 -0.003463
  0.182182
 -0.031495
 -0.005834
  0.062126
 -0.067326
 -0.004014
 -0.073168
  0.067059
  0.077273
 -0.108774
  0.013677
 -0.104859
 -0.127150
  0.034160
  0.069381
  0.038845
  0.063907
  0.033404
  0.132621
  0.007295
  0.043050
  0.029742
  0.018486
 -0.039604
  0.021886
  0.039876
  0.001492
  0.102543
  0.092496
  0.002438
 -0.005614
  0.138463
 -0.078976
 -0.148834
  0.088884
  0.149200
 -0.212669
  0.069529
  0.171316
 -0.095660
  0.153507
 -0.050155
 -0.088643
 -0.088753
  0.104211
  0.038623
  0.121210
  0.051580
 -0.015592
 -0.180047
 -0.060059
 -0.095607
  0.013761
 -0.024221
  0.094798
 -0.000430
 -0.053403
  0.004452
  0.145039
 -0.033546
  0.077981
  0.120539
 -0.200617
  0.005313
  0.089463
  0.022467
 -0.010216
 -0.086626
  0.133431
  0.134034
 -0.130567
 -0.122193
  0.089290
  0.149813
 -0.123724
 -0.100788
  0.040358
 -0.076545
 -0.065683
  0.123862
  0.148505
 -0.110656
 -0.060838
 -0.068615
  0.047987
 -0.012398
  0.145456
 -0.029866
 -0.123884
  0.113792
  0.036810
  0.008425
  0.004202
 -0.093812
 -0.023048
  0.048845
 -0.074380
  0.120300
 -0.001157
 -0.061596
  0.071192
 -0.034468
  0.096894
  0.189703
 -0.044839
 -0.059640
 -0.049407
  0.159961
  0.002354
  0.027886
  0.056908
  0.032112
 -0.033912
 -0.031643
 -0.041606
  0.000735
 -0.017770
  0.065049
 -0.106812
 -0.020484
  0.159307
  0.057780
 -0.168654
  0.214775
  0.039937
  0.088516
  0.082941
  0.194363
  0.029467
  0.015748
 -0.174283
  0.109284
  0.045262
 -0.011582
  0.019843
 -0.160607
 -0.080668
  0.136446
 -0.073742
  0.084800
  0.025607
 -0.026517
  0.092539
  0.080612
 -0.014645
  0.035278
 -0.099841
 -0.017542
  0.033744
 -0.002865
 -0.081151
 -0.117401
 -0.107427
  0.050954
  0.036881
  0.057231
  0.028761
 -0.046033
  0.009247
  0.021169
  0.057563
 -0.014111
  0.059536
 -0.009567
 -0.007592
 -0.001114
 -0.032525
  0.097251
 -0.015891
 -0.002236
 -0.009403
  0.021098
  0.079257
 -0.121373
  0.015833
 -0.037677
 -0.014453
 -0.136909
  0.058445
 -0.014174
 -0.024507
 -0.093100
  0.090187
  0.014659
  0.201445
  0.098891
 -0.079204
  0.051591
  0.013080
 -0.055989
 -0.104789
  0.051964
 -0.013329
  0.155141
  0.020620
 -0.038676
  0.043899
 -0.042567
  0.058636
 -0.152430
  0.040071
  0.046318
  0.039839
 -0.090652
 -0.039078
 -0.126509
  0.013723
 -0.015416
  0.136377
 -0.216733
  0.077237
 -0.065790
 -0.040198
 -0.070742
  0.059282
  0.183787
 -0.003031
  0.054425
 -0.080254
  0.136254
 -0.051231
 -0.053044
  0.071897
 -0.069229
  0.012540
 -0.086452
 -0.196019
  0.014230
  0.108871
  0.109458
  0.055466
  0.036541
 -0.005828
 -0.066051
 -0.023747
  0.093681
 -0.056802
 -0.058627
 -0.030452
 -0.034586
  0.088764
 -0.147977
 -0.082807
 -0.122702
 -0.019340
  0.104394
 -0.070916
 -0.152146
 -0.029535
  0.085528
  0.155488
  0.060550
 -0.012210
 -0.074483
  0.017256
 -0.084548
 -0.220030
 -0.041315
 -0.072839
 -0.119781
****
