PROJECT: W75X_2014May15
NCH:     4096
BW:   2.50000e+07
VELOCITY:       0.00000
PV:      0.480000
FREQ:    2.2235080e+09
DATE:     2014       5      16
TIME:        3       4      50
POSITION:       309.654      42.6272
INTEGRATION TIMES:       30.0000      30.0000
MAX VALUE:      0.032288508
  0.303218
  0.040752
  0.002842
  0.008404
 -0.015765
 -0.114640
  0.060724
  0.037559
  0.016476
 -0.032326
  0.094181
  0.030655
 -0.102782
  0.105832
 -0.086683
 -0.042429
 -0.007946
 -0.074954
 -0.048225
 -0.058978
  0.016690
 -0.014727
  0.146814
 -0.070111
  0.021011
 -0.073684
 -0.011093
  0.172031
  0.009129
 -0.073939
  0.105820
 -0.007068
 -0.004144
  0.013909
 -0.140759
  0.087453
 -0.061161
 -0.037468
 -0.045364
 -0.010398
 -0.141609
 -0.075917
 -0.010660
 -0.028021
  0.042231
 -0.090399
 -0.019776
 -0.021311
 -0.071284
  0.072967
  0.002247
  0.256647
  0.054821
  0.039573
  0.063686
  0.048810
  0.073854
  0.085578
 -0.182574
  0.206142
 -0.106541
  0.158599
 -0.057256
 -0.076210
  0.124896
 -0.154000
 -0.137579
  0.061888
  0.034949
  0.016808
 -0.027628
 -0.096607
  0.070169
  0.041313
 -0.155480
 -0.042534
  0.015560
 -0.156020
 -0.003884
 -0.133742
  0.053150
  0.106453
  0.037389
 -0.021555
  0.040807
 -0.041667
 -0.017962
  0.057355
 -0.004046
  0.001481
  0.022197
  0.114458
  0.054194
 -0.018631
  0.043845
  0.035048
 -0.032909
 -0.117610
  0.098603
  0.024523
  0.049811
 -0.126850
 -0.100537
 -0.007425
 -0.112805
  0.068454
  0.055632
  0.013181
 -0.112909
  0.053474
  0.063818
 -0.111591
 -0.108547
 -0.017348
  0.056931
 -0.007927
 -0.076658
  0.161835
  0.082310
  0.062777
  0.005219
  0.023357
 -0.075437
 -0.073377
 -0.083961
  0.118166
  0.066047
 -0.070434
 -0.136116
 -0.048033
 -0.043703
  0.029420
 -0.012775
  0.087356
  0.015331
 -0.029739
  0.088086
  0.010960
  0.000231
  0.158396
  0.060465
 -0.001031
  0.026857
 -0.031059
 -0.089028
  0.016320
 -0.106201
  0.065782
  0.076723
  0.016553
  0.005481
  0.064715
  0.009546
 -0.078872
 -0.110807
  0.139826
 -0.096815
 -0.042178
 -0.058415
 -0.009332
 -0.075743
  0.019861
  0.073290
  0.039953
 -0.039748
 -0.079948
  0.190845
 -0.034020
  0.013503
  0.073153
  0.011550
 -0.012630
 -0.057064
  0.091848
 -0.009942
  0.069758
 -0.110578
  0.070154
 -0.106042
 -0.089975
  0.104239
  0.062667
 -0.095582
  0.036468
 -0.074595
 -0.086291
  0.065228
  0.041945
 -0.027338
  0.016055
 -0.036816
  0.108202
 -0.098856
  0.031672
 -0.087963
 -0.016035
 -0.036366
 -0.062756
  0.063861
 -0.052463
 -0.013785
 -0.016459
  0.049320
  0.045830
 -0.089732
 -0.047190
  0.006266
  0.055262
  0.096970
  0.003796
 -0.095190
  0.055406
 -0.055395
 -0.016673
 -0.040132
  0.131992
 -0.022645
 -0.016971
  0.173013
  0.012420
  0.066093
 -0.091689
 -0.023605
 -0.042290
  0.056012
 -0.051447
  0.080619
  0.021312
 -0.084748
  0.036900
  0.004218
  0.022786
 -0.006843
  0.140769
 -0.063682
 -0.088073
 -0.042232
  0.055622
  0.110037
  0.074992
  0.010227
  0.008502
  0.062587
 -0.103626
 -0.144259
  0.202027
 -0.087246
  0.048117
 -0.109278
 -0.136107
 -0.032022
  0.115122
  0.223070
 -0.032541
 -0.085204
 -0.002122
 -0.023753
  0.061294
 -0.033714
  0.007499
  0.063097
  0.001589
 -0.047991
  0.001852
  0.053865
  0.015258
  0.075338
  0.047517
  0.209503
 -0.037815
 -0.042862
 -0.095798
 -0.008812
  0.091925
  0.014015
  0.046129
 -0.125150
 -0.084477
 -0.006385
 -0.062647
 -0.100491
 -0.106114
 -0.028500
 -0.010651
 -0.038690
 -0.072774
 -0.067430
  0.048584
  0.088949
  0.011402
  0.099171
  0.030469
 -0.094242
  0.046311
  0.113179
 -0.056254
  0.026437
  0.118521
  0.101930
 -0.151312
  0.067073
 -0.175543
 -0.083975
  0.024776
 -0.022327
 -0.088015
 -0.130503
  0.064578
  0.061015
 -0.038194
  0.068240
  0.037489
  0.023783
 -0.021974
  0.081617
  0.006646
 -0.104934
  0.036768
  0.005453
 -0.000257
 -0.047806
  0.041431
 -0.034161
  0.099000
 -0.059029
 -0.110984
  0.003507
 -0.042543
  0.027958
 -0.006643
  0.040361
  0.095594
  0.032760
 -0.006757
 -0.003336
 -0.128821
 -0.085581
  0.026955
  0.052836
  0.003327
  0.129085
 -0.161133
 -0.008394
  0.076158
  0.029726
 -0.022874
  0.003646
  0.024275
 -0.161855
  0.024415
 -0.003557
  0.109238
  0.030268
  0.094330
 -0.026041
 -0.000149
  0.024515
  0.094709
 -0.158096
  0.049477
  0.120243
 -0.092094
 -0.069039
  0.032296
  0.015680
  0.048679
  0.029273
 -0.079242
  0.033102
  0.067979
  0.102365
 -0.059434
 -0.107927
  0.101094
 -0.000572
  0.029808
  0.194708
 -0.081210
 -0.148331
  0.068359
  0.073317
 -0.177705
  0.031444
 -0.085403
 -0.065708
 -0.022475
 -0.086149
 -0.029175
  0.130617
  0.010530
 -0.080425
 -0.032819
  0.012890
  0.064600
 -0.005383
 -0.195819
  0.075746
 -0.006484
 -0.022359
 -0.154869
 -0.152555
  0.100043
  0.043933
 -0.071090
  0.067572
  0.033259
 -0.028014
 -0.003458
  0.076788
  0.040386
  0.106299
 -0.078556
  0.054705
  0.239741
  0.121865
  0.102696
  0.157928
 -0.044612
 -0.056038
 -0.000285
 -0.069436
 -0.117629
  0.042047
 -0.052442
  0.054004
  0.130328
  0.011529
  0.000343
 -0.010870
  0.039941
 -0.065004
  0.007647
 -0.083864
  0.082260
  0.050865
  0.101930
  0.078405
 -0.029189
  0.097221
  0.009044
 -0.075318
 -0.021903
  0.007010
  0.002011
  0.171113
 -0.002990
  0.025865
  0.086014
 -0.182954
 -0.122234
 -0.024407
 -0.029000
 -0.093621
 -0.064271
 -0.049772
  0.167080
  0.151299
 -0.182922
 -0.023414
 -0.183935
  0.107848
  0.015583
 -0.055652
 -0.066312
  0.026687
  0.051707
  0.013896
 -0.079377
  0.185621
  0.029498
 -0.158715
  0.044858
 -0.148221
 -0.001764
 -0.004374
  0.024514
 -0.065470
  0.038205
 -0.019223
 -0.025815
  0.046622
 -0.019003
  0.103283
 -0.034923
  0.135180
 -0.005636
  0.001841
  0.094753
  0.075366
 -0.100394
 -0.050435
  0.035549
 -0.050020
 -0.065722
  0.174373
  0.054087
 -0.046958
  0.137263
 -0.061940
  0.042785
  0.032668
  0.003816
 -0.106452
  0.101130
 -0.099276
  0.013746
  0.079842
  0.052250
  0.099275
 -0.128574
  0.113428
  0.153394
  0.040372
 -0.157941
  0.129991
  0.036666
 -0.110503
  0.072238
  0.180051
  0.039339
 -0.009512
  0.026227
  0.006342
 -0.172110
  0.129388
  0.144745
 -0.011668
  0.108543
 -0.058797
  0.019634
  0.099480
 -0.139420
 -0.071853
 -0.024890
  0.017925
  0.179018
  0.005875
 -0.018644
 -0.009612
 -0.152811
 -0.009191
 -0.016366
  0.122427
  0.020931
  0.009239
 -0.068489
 -0.100440
 -0.138223
 -0.029803
 -0.042309
 -0.052722
 -0.133999
 -0.034481
  0.089935
  0.023146
 -0.005700
  0.047468
  0.075668
 -0.051788
  0.086368
 -0.164239
 -0.006793
 -0.145199
 -0.128553
 -0.046632
 -0.110964
  0.039834
  0.067634
 -0.116669
  0.078058
  0.095013
  0.008270
 -0.107075
 -0.028271
  0.077806
  0.070436
 -0.015910
  0.026735
 -0.031711
  0.010903
  0.080052
  0.109103
  0.018949
 -0.045547
  0.014192
 -0.033443
 -0.088442
 -0.009177
 -0.028145
  0.220671
  0.083333
  0.053544
  0.017617
 -0.006401
  0.011701
  0.096259
  0.100929
 -0.106473
 -0.066623
 -0.054410
 -0.057697
  0.020396
  0.124257
  0.086239
 -0.018266
 -0.069035
 -0.154334
 -0.110659
 -0.123130
 -0.000030
  0.049300
 -0.115655
 -0.080033
 -0.105100
 -0.092031
  0.159804
 -0.038279
  0.122987
  0.014755
 -0.083679
 -0.015151
  0.169119
  0.027541
 -0.091526
  0.163417
 -0.137730
 -0.094781
  0.024521
 -0.170158
  0.058164
 -0.142114
 -0.044246
  0.091496
 -0.172017
  0.014086
 -0.019268
 -0.056671
  0.124140
  0.121678
 -0.097452
  0.167760
 -0.005202
  0.078673
  0.064502
  0.105974
  0.002783
  0.152481
  0.094557
  0.080841
 -0.113534
  0.003704
 -0.041661
  0.007310
 -0.008668
 -0.027264
  0.096019
 -0.056594
 -0.126648
  0.114959
 -0.057205
  0.079381
 -0.131065
 -0.008484
  0.029445
  0.000072
  0.078675
 -0.103990
 -0.133148
  0.006765
  0.044163
 -0.082143
 -0.015452
  0.028510
  0.069303
  0.023360
 -0.060834
 -0.044204
  0.133235
  0.090709
  0.010346
 -0.096877
 -0.018774
 -0.105437
 -0.045912
  0.024722
 -0.118886
 -0.062673
 -0.088590
 -0.099392
 -0.043455
  0.040179
  0.071766
 -0.044784
  0.181008
 -0.087575
 -0.006290
 -0.140755
  0.076550
 -0.117409
  0.044043
  0.031936
  0.100346
  0.042251
  0.033043
 -0.051306
  0.012064
  0.037238
  0.071232
  0.059746
 -0.080608
 -0.072505
  0.178078
  0.048154
 -0.208297
  0.007556
 -0.064467
  0.088151
 -0.054730
 -0.002216
 -0.025853
 -0.080560
  0.049590
  0.024544
  0.010347
  0.074925
 -0.068195
  0.088613
 -0.086110
 -0.000503
  0.109911
 -0.173523
 -0.012730
 -0.014283
 -0.014733
  0.135811
  0.044394
 -0.007996
  0.026221
 -0.009336
  0.141657
 -0.179447
  0.046772
  0.025676
 -0.078528
  0.051712
 -0.096559
  0.072740
  0.018828
 -0.106124
 -0.002599
 -0.035362
  0.184420
 -0.102599
  0.049889
 -0.065742
  0.037767
 -0.054541
  0.135324
  0.090341
 -0.013099
 -0.060091
 -0.067448
 -0.006613
  0.026194
 -0.021493
 -0.063866
  0.123023
  0.034515
 -0.017452
  0.173161
  0.005631
  0.098638
  0.015426
 -0.001016
  0.084914
  0.038939
  0.006028
 -0.038734
 -0.115985
  0.039727
  0.008318
 -0.041246
  0.057911
  0.009039
 -0.015664
 -0.084201
 -0.031237
  0.004718
 -0.034487
  0.076388
  0.038968
 -0.080894
  0.126063
 -0.091903
  0.080991
 -0.076688
 -0.021772
 -0.004687
 -0.198214
  0.120865
 -0.073551
  0.020900
 -0.113582
 -0.165436
 -0.027717
 -0.024543
 -0.063377
 -0.046896
  0.201288
  0.005208
 -0.001019
  0.019048
  0.003553
 -0.009366
 -0.075845
  0.008306
 -0.013433
  0.135509
 -0.079208
 -0.057736
  0.095626
 -0.049857
 -0.043086
 -0.030790
 -0.079458
 -0.052700
  0.204708
 -0.140560
 -0.074897
 -0.074238
  0.041070
  0.079139
 -0.232459
 -0.047247
 -0.197027
  0.000124
  0.010580
 -0.130745
  0.012668
 -0.016389
  0.016458
  0.077091
 -0.060771
  0.007071
 -0.181240
  0.150505
 -0.065527
 -0.013860
 -0.096476
 -0.057805
 -0.073390
  0.038848
  0.120560
  0.003116
 -0.060937
  0.043292
  0.092536
  0.023654
  0.164889
 -0.026955
 -0.018566
 -0.029511
 -0.031815
  0.060857
 -0.053266
  0.012816
 -0.025140
 -0.001092
  0.000027
 -0.090870
 -0.019510
 -0.076569
  0.109436
 -0.121592
  0.040056
  0.002859
 -0.091617
 -0.004607
 -0.040778
 -0.033705
 -0.185429
  0.109883
 -0.097804
 -0.034907
  0.154327
 -0.045050
 -0.002893
  0.080175
  0.045569
 -0.011982
 -0.080539
  0.022632
  0.027776
  0.000778
 -0.078016
 -0.123479
  0.104054
  0.035760
  0.094210
 -0.001398
 -0.037970
 -0.050878
 -0.026800
  0.038159
  0.142592
 -0.046816
 -0.010639
  0.058014
  0.055875
 -0.213935
 -0.027273
 -0.052923
  0.008156
 -0.118669
 -0.073609
  0.053332
  0.089642
  0.033504
  0.052638
 -0.080407
 -0.067436
 -0.077379
 -0.007915
  0.122915
 -0.119581
  0.011987
  0.018394
  0.040698
 -0.075142
 -0.008338
 -0.044676
 -0.068519
 -0.075873
  0.089276
  0.012773
  0.040873
 -0.017162
 -0.074373
 -0.031648
 -0.036638
  0.075580
 -0.220581
  0.051422
  0.005597
  0.124432
  0.071644
  0.116255
 -0.029229
 -0.019977
 -0.070351
 -0.060121
  0.011420
 -0.032480
  0.176320
 -0.105821
 -0.047433
 -0.051417
  0.075260
 -0.137838
  0.051960
 -0.007000
  0.187197
 -0.072091
  0.076375
  0.011121
  0.014090
  0.032006
 -0.110510
  0.096960
 -0.134767
  0.033557
  0.105280
 -0.007954
  0.057319
 -0.048064
  0.073922
 -0.002602
  0.132987
  0.068838
  0.004139
 -0.021280
 -0.063902
 -0.155840
 -0.100387
  0.030309
 -0.027766
 -0.022652
  0.120997
  0.010205
  0.007756
  0.089359
  0.026112
  0.130422
  0.077385
  0.025587
  0.010977
  0.118157
 -0.035840
  0.053818
 -0.107613
 -0.098335
 -0.047623
 -0.007464
  0.059379
 -0.197887
  0.049207
 -0.036390
  0.030234
  0.143722
 -0.088427
 -0.071854
  0.006559
 -0.019475
 -0.147488
 -0.051933
  0.047493
  0.054213
  0.062222
 -0.000831
 -0.030668
 -0.149533
 -0.009565
 -0.032719
  0.044196
  0.103613
  0.049440
  0.077012
 -0.061319
 -0.022588
 -0.057020
 -0.159406
 -0.033483
  0.028589
 -0.003496
 -0.023102
  0.108155
 -0.079980
  0.009780
 -0.091618
 -0.005075
  0.080149
  0.004246
  0.071347
  0.062388
  0.066649
  0.095889
 -0.108510
 -0.039247
 -0.020299
 -0.025882
  0.071246
  0.137436
  0.030743
 -0.002714
 -0.120978
  0.046487
 -0.045657
 -0.058493
 -0.098697
 -0.069392
 -0.089388
 -0.040783
  0.023963
  0.014007
  0.057065
  0.092127
  0.043395
 -0.002336
 -0.000893
 -0.062850
  0.147440
 -0.133362
  0.027755
  0.034833
 -0.057799
 -0.043449
  0.036832
 -0.095060
  0.034152
  0.019070
  0.046641
  0.062275
 -0.034247
 -0.024041
  0.074132
  0.035777
  0.026526
  0.001655
 -0.075733
  0.051362
 -0.182650
  0.062199
 -0.059862
  0.053184
 -0.064538
  0.017619
  0.075115
 -0.025065
  0.034152
 -0.133860
  0.024383
 -0.087193
  0.075781
 -0.016719
  0.032001
  0.117829
  0.023142
  0.175280
 -0.031264
  0.104325
 -0.045356
  0.021620
  0.160737
  0.013749
 -0.070763
  0.039371
  0.040424
  0.006554
 -0.022039
  0.111995
  0.029362
 -0.085478
 -0.120684
  0.055118
  0.025011
 -0.081019
 -0.118360
  0.012138
  0.218656
 -0.049584
 -0.012843
  0.025644
  0.088194
 -0.042161
 -0.032472
  0.122054
  0.115723
 -0.127652
  0.093540
 -0.035865
  0.072715
  0.146600
  0.064556
 -0.016898
  0.160697
 -0.017375
 -0.098098
  0.014175
  0.038740
  0.029010
 -0.038556
  0.041148
  0.012877
 -0.018193
 -0.011221
 -0.085603
  0.088769
 -0.083839
 -0.067811
 -0.018892
 -0.065971
  0.074759
 -0.052275
 -0.107569
  0.012025
 -0.016898
 -0.008161
  0.048754
  0.033358
 -0.072001
  0.036324
 -0.005766
 -0.069561
 -0.140431
 -0.056744
  0.018971
 -0.014856
 -0.030116
 -0.023042
  0.092274
 -0.083333
  0.062321
 -0.106352
  0.154316
 -0.043463
  0.051508
 -0.020125
  0.076328
  0.200215
  0.118043
  0.018115
 -0.127901
 -0.019901
  0.126784
  0.008903
 -0.040628
 -0.055008
 -0.045801
  0.032040
  0.009450
  0.092776
 -0.034856
  0.046163
 -0.028368
 -0.017317
  0.037166
 -0.002851
  0.079787
  0.147572
 -0.038578
  0.123966
  0.013097
 -0.021662
  0.032328
  0.036941
  0.077617
 -0.072982
  0.121158
  0.133996
  0.147629
  0.069369
 -0.143053
 -0.023003
  0.055570
 -0.084420
  0.046562
 -0.103230
 -0.084978
  0.025491
  0.011134
 -0.073867
  0.100019
 -0.036680
  0.059072
  0.190038
  0.194121
 -0.036378
 -0.009911
  0.064578
  0.033378
 -0.008368
 -0.010389
 -0.092545
  0.022247
  0.047978
  0.008272
  0.041828
  0.003251
 -0.074247
  0.042755
  0.006005
 -0.043375
  0.023582
 -0.087259
  0.015239
  0.077776
  0.091493
  0.051508
  0.123512
 -0.033782
  0.100832
 -0.010102
 -0.045805
  0.025499
 -0.092980
 -0.177366
 -0.019152
  0.001044
  0.029419
 -0.082058
 -0.131946
 -0.044210
 -0.021857
  0.048160
  0.023822
  0.129076
 -0.207457
  0.000066
 -0.047256
 -0.022228
  0.021766
  0.031597
  0.068064
  0.083741
 -0.000909
  0.012575
  0.061088
  0.063292
 -0.066810
  0.126763
  0.028830
 -0.047053
 -0.074901
  0.173607
 -0.057929
 -0.042534
  0.009057
  0.111662
  0.018545
  0.044745
 -0.028683
 -0.013558
  0.029497
  0.061986
 -0.101467
  0.011825
  0.011209
 -0.118265
 -0.080015
  0.163362
 -0.083323
  0.059509
  0.146052
  0.013019
 -0.001064
 -0.018863
 -0.014152
  0.069032
  0.008966
  0.087657
 -0.182378
  0.087625
 -0.036168
 -0.047917
  0.058360
 -0.048961
 -0.106170
  0.014792
  0.197006
 -0.002473
 -0.116497
  0.066870
  0.118698
 -0.094973
  0.096948
  0.124800
 -0.007635
  0.013821
  0.074779
  0.025155
 -0.184508
  0.066526
 -0.122125
  0.011216
  0.072676
 -0.074304
  0.049385
 -0.008213
  0.061029
 -0.060379
 -0.067528
  0.107632
  0.131349
 -0.130262
  0.110116
 -0.051440
 -0.014433
 -0.171328
  0.048276
 -0.044777
  0.072605
 -0.102929
  0.016231
  0.087749
  0.065540
  0.121009
 -0.169646
 -0.119508
 -0.024056
  0.117796
  0.000707
  0.134494
 -0.027763
 -0.177192
  0.034180
  0.014034
 -0.141077
 -0.145508
  0.080901
 -0.009088
 -0.061388
  0.041277
  0.053443
  0.064491
  0.135606
 -0.094009
 -0.019462
 -0.044131
 -0.030813
 -0.099781
  0.002132
 -0.072418
  0.044301
  0.092924
  0.079849
  0.146505
 -0.031307
 -0.012902
  0.066548
 -0.003249
  0.052877
  0.115821
 -0.048407
 -0.148431
 -0.102496
  0.095931
 -0.130766
 -0.102517
  0.022640
 -0.003011
  0.087755
 -0.011476
 -0.125896
 -0.023062
 -0.020925
  0.199941
 -0.054981
  0.019084
  0.000646
  0.129189
 -0.054247
 -0.152772
 -0.020322
 -0.010438
  0.033092
 -0.093781
 -0.082746
  0.003898
 -0.068338
 -0.101901
  0.030872
 -0.073821
 -0.118957
  0.120864
  0.040829
 -0.086286
  0.160030
  0.008453
 -0.084044
 -0.161020
 -0.012282
 -0.016039
 -0.033147
 -0.002338
 -0.158795
  0.005180
  0.221218
  0.127710
 -0.118010
 -0.032840
 -0.014310
  0.071089
 -0.072199
 -0.183530
 -0.077155
  0.013943
  0.096798
  0.076683
  0.056259
 -0.100022
 -0.055533
 -0.100763
 -0.020774
 -0.083400
 -0.027720
 -0.057140
  0.036853
  0.112040
 -0.068625
  0.232874
 -0.080940
  0.012412
 -0.035200
  0.151034
 -0.070737
  0.003557
  0.020475
  0.017864
  0.031473
  0.056854
  0.020588
  0.118353
 -0.061962
  0.054677
 -0.119899
  0.021752
  0.095271
 -0.040119
  0.088854
 -0.003712
  0.092367
  0.118755
 -0.013654
  0.044286
 -0.021498
  0.001785
 -0.083831
 -0.060622
  0.133172
 -0.051974
 -0.088701
 -0.001160
 -0.110824
  0.042082
  0.089383
  0.049374
 -0.056371
  0.080307
  0.028403
  0.011085
  0.052140
 -0.122185
 -0.048039
  0.061677
 -0.088838
  0.009443
 -0.094740
  0.192643
  0.046496
 -0.110083
  0.085947
 -0.075577
 -0.080077
 -0.004356
 -0.015485
  0.144486
  0.031662
 -0.053218
  0.065357
  0.059629
  0.022444
 -0.085672
 -0.078294
  0.011790
  0.016783
 -0.059868
 -0.015541
  0.081634
 -0.051607
 -0.130566
 -0.015627
  0.097019
 -0.127696
 -0.037442
 -0.026860
 -0.194357
 -0.083069
  0.079901
  0.074887
  0.089298
  0.090046
  0.090719
  0.043448
  0.066089
  0.097550
  0.055063
 -0.073747
 -0.012633
 -0.175949
  0.068150
  0.052831
 -0.094770
 -0.018969
  0.081665
  0.005420
 -0.187529
  0.077512
  0.067074
  0.059102
 -0.051635
  0.049419
  0.016701
 -0.173030
  0.055150
 -0.135532
  0.067984
 -0.065939
 -0.015709
 -0.026063
  0.042709
 -0.011950
  0.107576
 -0.037047
 -0.026782
  0.014712
  0.196432
 -0.038494
 -0.048590
 -0.056728
 -0.058212
 -0.099001
  0.174600
 -0.129622
 -0.130832
  0.083229
  0.033979
  0.090063
  0.017956
  0.179145
 -0.033664
 -0.056121
 -0.106000
  0.033122
 -0.033356
  0.052592
 -0.003099
 -0.013204
 -0.033072
 -0.092903
  0.045329
  0.020999
 -0.063389
 -0.026757
  0.094211
 -0.188491
 -0.006891
 -0.039097
  0.013714
 -0.005372
 -0.052251
 -0.137197
  0.076460
 -0.019678
  0.076957
 -0.058790
  0.176664
  0.024095
  0.137477
  0.082164
  0.082376
  0.049886
 -0.046799
  0.054657
 -0.092725
 -0.011409
  0.158428
  0.022607
 -0.119220
 -0.080619
 -0.045490
 -0.058123
  0.151575
  0.160310
  0.002191
  0.082125
 -0.000977
  0.054877
 -0.015901
  0.058853
  0.037041
 -0.128073
 -0.087617
  0.036053
  0.063844
 -0.058236
  0.006022
  0.005295
 -0.123917
  0.043651
  0.060401
 -0.030149
 -0.094421
 -0.014278
  0.055856
 -0.062327
  0.192406
 -0.018431
 -0.037912
  0.048146
 -0.016847
 -0.047857
  0.000193
  0.017245
  0.049021
  0.074557
  0.031871
  0.023306
 -0.031518
  0.122088
 -0.083169
 -0.076070
 -0.055481
 -0.052958
  0.042904
 -0.068424
 -0.020266
  0.127096
 -0.069186
  0.011031
 -0.056729
  0.102776
 -0.045273
 -0.163106
  0.007546
 -0.041015
 -0.001535
 -0.021045
  0.096669
 -0.129726
  0.022449
 -0.046572
  0.044509
  0.130011
 -0.087317
 -0.114631
 -0.061165
  0.073694
 -0.078595
 -0.206185
  0.051561
  0.077666
  0.049705
  0.098592
  0.022595
  0.056600
  0.003282
  0.030984
 -0.026733
  0.018299
  0.024480
  0.033029
 -0.053493
 -0.013902
 -0.027907
 -0.006986
 -0.060663
  0.106001
 -0.064609
  0.012719
 -0.180084
  0.007199
 -0.020475
 -0.039579
  0.073158
  0.050452
 -0.009433
  0.040506
  0.174322
  0.016406
  0.013038
 -0.169823
  0.073018
  0.072941
 -0.032868
 -0.032269
 -0.082547
  0.021675
  0.020442
 -0.084768
  0.091743
 -0.078378
  0.191332
 -0.080940
  0.135515
  0.102764
  0.051173
  0.021576
 -0.062641
  0.014132
 -0.012799
  0.102586
  0.187672
  0.098303
  0.040866
 -0.111764
  0.076427
 -0.089108
 -0.062907
  0.130643
  0.125479
 -0.037650
 -0.060867
 -0.063110
  0.002208
 -0.007543
 -0.136490
  0.029673
  0.028763
  0.082667
  0.138920
  0.248032
  0.085144
  0.203073
  0.261347
  0.228283
  0.160023
  0.268481
  0.381158
  0.252801
  0.169409
  0.372097
  0.358838
  0.297468
  0.338361
  0.488184
  0.356661
  0.249260
  0.228269
  0.387282
  0.119960
  0.291143
  0.242649
  0.361649
  0.184430
  0.099005
  0.148036
  0.102621
  0.226626
  0.167539
  0.240864
  0.182257
  0.232825
  0.345526
  0.258804
  0.396724
  0.178251
  0.165393
  0.124241
  0.141020
  0.407094
  0.195808
  0.125625
  0.089092
  0.092905
  0.249492
  0.187803
  0.332966
  0.142812
  0.232182
  0.225754
  0.349113
  0.535037
  0.647864
  0.597371
  0.827447
  0.813068
  0.800810
  0.884166
  0.722229
  0.647179
  0.454868
  0.702339
  0.539158
  0.588217
  0.372745
  0.492673
  0.315744
  0.297558
  0.378780
  0.353404
  0.173763
  0.018028
  0.161678
  0.202482
  0.141555
  0.124685
  0.070280
  0.082162
  0.002531
  0.084823
  0.074383
 -0.004898
 -0.074053
  0.023729
 -0.007381
  0.004105
  0.083554
 -0.083913
  0.087291
 -0.092379
  0.003194
 -0.097954
 -0.113443
 -0.017149
  0.148414
 -0.156007
  0.006526
 -0.019860
  0.069089
 -0.003307
  0.037741
 -0.029423
  0.060416
  0.057055
  0.133488
  0.027823
 -0.034964
  0.023484
 -0.012634
 -0.005495
 -0.011986
 -0.009686
  0.034487
  0.060701
  0.033386
  0.015058
  0.070445
 -0.064357
 -0.022557
  0.065857
 -0.125172
  0.116125
 -0.069735
  0.001249
  0.117999
 -0.017166
  0.044092
 -0.079926
  0.109248
 -0.005981
 -0.125857
 -0.114665
 -0.065177
 -0.185687
  0.031739
 -0.025752
 -0.135939
 -0.088639
 -0.006252
 -0.022686
 -0.022017
 -0.054768
  0.009570
 -0.163391
  0.096200
 -0.015523
 -0.122768
  0.013237
 -0.098299
 -0.156406
  0.071874
  0.052401
 -0.064184
  0.179157
 -0.023752
 -0.085478
  0.059316
  0.048325
 -0.064042
  0.140784
 -0.120842
  0.047445
  0.000820
  0.020080
  0.025914
 -0.027556
  0.062252
  0.093705
  0.003788
  0.023004
  0.039629
  0.013191
  0.060254
  0.053949
 -0.025533
  0.099356
  0.103345
  0.000272
  0.047851
  0.000137
  0.031392
 -0.060012
  0.031460
 -0.123843
 -0.103427
 -0.109551
 -0.039026
  0.115059
  0.004692
  0.168952
  0.040310
  0.147015
 -0.152405
 -0.002631
  0.095171
 -0.098030
 -0.012164
 -0.032198
 -0.006247
 -0.012174
 -0.087962
  0.034638
 -0.041022
 -0.035516
 -0.100992
  0.097302
  0.127393
  0.068096
  0.148732
  0.153617
 -0.079550
 -0.117804
 -0.013416
  0.067865
  0.142478
 -0.024374
 -0.071332
  0.045855
 -0.236812
 -0.085456
  0.155327
  0.164945
  0.008286
  0.012959
  0.022558
 -0.003071
 -0.068984
  0.002177
 -0.009983
  0.149778
 -0.018131
 -0.166703
 -0.029369
  0.160644
  0.088769
 -0.002604
 -0.037317
  0.009030
  0.035039
 -0.063156
  0.113279
  0.100899
  0.000115
 -0.051414
 -0.003721
 -0.174093
 -0.066517
  0.063395
 -0.003721
 -0.265630
  0.015900
  0.003248
 -0.009478
 -0.087974
  0.052990
 -0.063977
 -0.032383
 -0.140942
  0.044952
  0.066881
 -0.038456
 -0.002128
  0.051217
 -0.012179
 -0.127846
  0.090741
 -0.034997
  0.084464
  0.128216
 -0.073916
 -0.055301
 -0.168627
 -0.122128
  0.105614
  0.069622
 -0.127460
  0.009819
  0.084289
 -0.093708
  0.013480
 -0.037281
  0.004343
  0.059619
 -0.091223
 -0.039868
 -0.066522
 -0.034186
  0.024170
  0.085024
  0.090029
 -0.074307
  0.019885
  0.008934
 -0.114336
 -0.171725
  0.034118
  0.019398
 -0.058775
  0.018874
  0.086533
  0.137354
  0.066480
 -0.100964
 -0.046808
  0.026297
 -0.056344
 -0.015952
 -0.187744
  0.099984
  0.221708
  0.039335
  0.120588
 -0.081087
 -0.117033
 -0.019268
  0.084957
 -0.091837
 -0.141134
  0.012335
  0.029450
 -0.172836
  0.029632
  0.026568
 -0.100127
  0.041332
  0.026531
 -0.069452
  0.079656
 -0.071222
  0.119382
  0.099211
 -0.026946
 -0.142412
 -0.094148
  0.028261
  0.055502
 -0.007208
  0.031563
  0.063246
 -0.125767
 -0.032309
 -0.005704
  0.047685
  0.020597
  0.057975
 -0.041477
 -0.051014
  0.140355
  0.179168
 -0.015723
  0.096322
  0.032972
 -0.030778
 -0.090293
 -0.112479
 -0.026029
  0.040674
  0.014748
  0.038884
 -0.014546
 -0.133757
 -0.140307
 -0.065056
 -0.018759
  0.039173
 -0.189535
  0.009680
  0.215649
 -0.029989
 -0.025410
  0.066164
 -0.110517
 -0.024592
  0.013866
  0.051960
  0.107185
 -0.119578
 -0.061678
  0.046335
 -0.060896
 -0.105495
  0.023634
  0.179082
 -0.048119
  0.181306
 -0.006508
  0.044500
 -0.016942
 -0.058551
  0.049151
 -0.088741
  0.101186
  0.090649
  0.098343
 -0.108962
  0.036837
 -0.085790
  0.021796
  0.022772
 -0.013914
 -0.096121
 -0.193766
 -0.077754
 -0.130080
 -0.038641
  0.047319
 -0.138558
  0.062321
  0.058591
 -0.022861
 -0.125892
 -0.065404
 -0.044081
  0.044647
  0.073965
  0.152175
 -0.024308
  0.007674
 -0.016430
 -0.023702
 -0.021027
 -0.103514
  0.014611
  0.040967
 -0.042327
  0.066151
 -0.069711
 -0.097777
 -0.017847
 -0.041728
 -0.018275
 -0.011481
 -0.044891
 -0.028246
 -0.092029
 -0.004179
  0.074157
  0.144592
  0.012838
  0.086211
 -0.030389
 -0.103836
  0.038836
  0.016533
  0.100283
  0.042722
  0.026767
 -0.046454
 -0.165422
  0.027793
  0.027827
  0.052178
  0.122580
 -0.050020
  0.038542
 -0.069072
  0.047878
  0.026404
  0.101648
  0.129583
  0.179578
 -0.192656
  0.018478
 -0.043221
 -0.119015
 -0.022597
  0.039953
  0.076744
 -0.038673
 -0.034643
 -0.076654
 -0.033487
  0.064462
  0.047796
 -0.002071
  0.041650
 -0.041959
  0.075404
  0.145327
  0.012431
  0.056995
  0.067887
 -0.059447
 -0.052256
  0.047559
 -0.047898
  0.219680
  0.009759
  0.029419
 -0.064397
  0.033090
  0.018803
 -0.007616
 -0.012594
  0.166525
 -0.038690
 -0.082419
 -0.106671
  0.085362
 -0.036723
 -0.123357
 -0.021767
 -0.013394
 -0.179831
 -0.027513
 -0.053068
 -0.101167
 -0.009135
 -0.075932
 -0.079427
  0.134122
  0.061041
 -0.005689
  0.064918
  0.035509
 -0.020507
  0.066331
 -0.077266
  0.032630
 -0.012886
 -0.019131
 -0.035345
  0.024497
  0.137726
 -0.008227
  0.023342
 -0.007731
  0.020665
  0.000008
 -0.037270
  0.037493
 -0.038570
  0.011086
  0.031509
 -0.006745
  0.024532
 -0.009162
 -0.102916
 -0.112040
  0.028946
 -0.030517
  0.011584
 -0.107944
 -0.035561
  0.105665
  0.142380
  0.003931
 -0.039369
  0.054443
 -0.106634
 -0.012965
 -0.097911
 -0.014086
  0.091350
 -0.039434
 -0.028097
 -0.022571
  0.036428
 -0.164476
  0.073087
  0.009228
  0.006782
 -0.030262
 -0.032662
  0.002369
  0.133474
  0.046570
 -0.053500
  0.015121
  0.039364
  0.218139
 -0.065652
 -0.030700
  0.013909
  0.026526
 -0.060695
  0.063634
  0.119158
 -0.037193
  0.006298
  0.082518
 -0.035790
  0.027786
  0.057182
  0.005878
  0.017801
  0.096010
 -0.117221
  0.065769
  0.142687
 -0.125949
 -0.117298
  0.010734
  0.001357
  0.084737
 -0.056418
  0.098456
 -0.074223
  0.197599
 -0.053701
  0.045288
  0.012235
  0.076128
 -0.029319
  0.007566
 -0.002352
 -0.006785
  0.119536
  0.020862
  0.053920
 -0.105395
  0.086894
  0.061138
 -0.012686
 -0.060979
 -0.108708
 -0.030572
 -0.022843
  0.117133
  0.093789
 -0.056608
  0.140969
  0.050300
  0.006254
 -0.053352
  0.214430
  0.226724
 -0.042056
 -0.034725
  0.125513
 -0.108491
 -0.070163
  0.110233
 -0.110184
 -0.019381
  0.073640
 -0.055489
 -0.045106
  0.132761
 -0.045589
 -0.081852
  0.048400
  0.074912
  0.035498
  0.041829
 -0.025790
 -0.017724
  0.019922
 -0.137496
 -0.076890
  0.036259
 -0.070041
  0.063415
 -0.126661
 -0.015457
 -0.045789
 -0.037014
  0.054006
 -0.108442
  0.067446
  0.107700
 -0.024774
 -0.055913
 -0.006098
 -0.050994
 -0.078236
  0.049025
  0.005840
 -0.062863
  0.035695
  0.082172
 -0.139265
 -0.087280
  0.021065
  0.029424
  0.070105
  0.019276
 -0.002802
 -0.062154
  0.014952
  0.047619
 -0.027669
  0.036968
  0.089066
  0.067784
 -0.052587
 -0.034532
 -0.013104
  0.011101
  0.163174
  0.049760
  0.091511
  0.082338
  0.006641
  0.058373
 -0.071200
 -0.086377
  0.050888
 -0.101366
  0.065930
 -0.016188
 -0.116423
  0.137362
  0.114278
  0.144729
 -0.025782
  0.023490
 -0.042877
 -0.000854
  0.049036
  0.054018
  0.057507
 -0.023054
  0.050597
  0.085296
 -0.010251
  0.014412
 -0.082186
 -0.017988
  0.004412
 -0.054160
  0.045415
  0.024200
 -0.082213
  0.017858
 -0.272702
 -0.060183
 -0.143683
 -0.054133
  0.075268
 -0.043543
  0.042088
 -0.044312
  0.021035
 -0.086185
  0.131078
 -0.233070
  0.109753
  0.022213
 -0.130692
 -0.041279
 -0.032277
 -0.077444
  0.013348
 -0.023156
  0.139900
  0.098229
 -0.016767
  0.035340
 -0.076488
 -0.028537
  0.094218
 -0.215661
 -0.014856
  0.043068
  0.036116
 -0.041245
  0.044220
  0.026637
  0.014109
 -0.030581
 -0.043644
 -0.089997
 -0.035316
  0.052439
  0.044811
  0.004939
 -0.024912
  0.004764
  0.113022
 -0.082413
 -0.043055
  0.035167
 -0.035537
 -0.001931
 -0.048377
 -0.038412
  0.109519
 -0.013422
 -0.012016
 -0.038093
  0.065956
 -0.014880
 -0.072987
  0.021305
 -0.086739
 -0.029007
  0.008168
  0.019947
 -0.032050
  0.066671
 -0.005002
  0.008836
 -0.036487
 -0.001000
  0.026296
  0.056273
 -0.107888
  0.025782
  0.104307
  0.107387
 -0.025794
  0.069544
 -0.142137
 -0.018731
  0.089076
 -0.158650
 -0.099699
  0.105458
 -0.032620
  0.117784
 -0.109982
  0.107063
  0.002177
 -0.175515
  0.117371
 -0.000109
 -0.047926
  0.059248
 -0.076846
 -0.003191
  0.095107
  0.008524
  0.017991
  0.009364
  0.078039
  0.039844
  0.023472
 -0.031087
 -0.042640
  0.131464
 -0.133034
 -0.067493
  0.087740
  0.063286
 -0.024502
  0.144835
 -0.038175
 -0.106089
 -0.007062
  0.073482
 -0.010919
 -0.002347
  0.024043
  0.092786
  0.006761
 -0.057898
 -0.010937
  0.080190
  0.034321
  0.088971
  0.070911
 -0.007978
  0.024945
 -0.021303
  0.009529
  0.090351
 -0.050454
  0.008764
  0.055428
 -0.005651
  0.027308
 -0.080786
 -0.077620
 -0.006453
  0.006951
  0.102531
  0.149451
  0.138832
 -0.087131
 -0.027297
 -0.111491
 -0.077277
  0.064174
 -0.167476
 -0.044086
 -0.031146
  0.143589
 -0.141272
  0.168451
 -0.060244
  0.033234
 -0.063923
  0.074349
  0.117016
 -0.123034
  0.009427
 -0.084129
 -0.009752
  0.072530
 -0.148157
 -0.048609
 -0.004910
  0.045513
 -0.180467
 -0.059462
 -0.064810
 -0.022869
  0.081759
  0.192291
 -0.042926
 -0.012459
  0.052256
  0.022722
  0.005008
 -0.119873
 -0.133392
  0.079988
  0.101275
 -0.094792
  0.029998
  0.006302
  0.000030
  0.162865
  0.033270
 -0.108066
  0.051384
 -0.064461
 -0.099977
 -0.006797
  0.003733
 -0.046415
  0.138196
 -0.021591
  0.084088
  0.010033
  0.139592
 -0.001726
  0.129486
  0.011254
 -0.014647
 -0.161473
  0.099134
  0.044575
 -0.114255
 -0.054469
 -0.150987
 -0.024962
  0.040279
  0.066386
 -0.008215
  0.008105
  0.116804
  0.258480
 -0.023918
 -0.072623
 -0.028697
 -0.023052
  0.014721
  0.071498
  0.058350
 -0.019658
 -0.024255
 -0.024813
 -0.052244
  0.062131
  0.144697
 -0.067560
 -0.083169
  0.039337
  0.128631
 -0.110237
 -0.100530
  0.071348
 -0.081271
  0.125877
  0.001253
 -0.003005
 -0.028076
 -0.019206
 -0.046756
 -0.187166
  0.027302
 -0.003628
  0.035293
  0.085330
  0.064065
 -0.028617
 -0.045653
 -0.028251
  0.028151
  0.101430
  0.006186
  0.050594
  0.156252
  0.132960
  0.101789
  0.079999
 -0.033198
  0.080764
  0.096563
  0.004272
 -0.062101
 -0.053336
  0.022311
 -0.036837
 -0.084534
  0.042919
 -0.042888
 -0.267717
  0.108331
 -0.032953
  0.135944
  0.129019
 -0.110084
  0.045844
  0.035832
 -0.070035
 -0.027092
  0.086255
  0.101238
  0.085423
 -0.058890
 -0.026564
  0.057318
  0.145288
  0.032420
 -0.008463
  0.009151
 -0.214847
  0.022123
  0.039368
  0.054834
  0.069685
 -0.002184
 -0.065084
 -0.040675
 -0.039553
  0.049393
 -0.078909
  0.001941
 -0.054938
 -0.045223
 -0.130179
 -0.067435
  0.080931
 -0.007354
  0.044975
  0.039160
  0.059524
  0.084444
  0.070670
  0.050744
 -0.064200
 -0.007136
  0.130833
  0.062289
 -0.142418
 -0.076560
 -0.070458
  0.118601
  0.137322
 -0.049787
 -0.001413
  0.004185
 -0.091241
  0.011230
  0.004740
 -0.065802
  0.008945
  0.003905
 -0.213059
 -0.066509
  0.011493
 -0.035658
 -0.017600
  0.033827
 -0.030344
 -0.135146
 -0.018807
 -0.041344
 -0.158575
 -0.034717
 -0.048050
  0.067410
  0.112389
 -0.075620
 -0.029578
  0.000498
 -0.028865
  0.002704
 -0.057482
  0.084519
 -0.085932
  0.056323
 -0.012795
  0.038551
  0.057763
  0.042878
 -0.103893
  0.107449
 -0.044496
 -0.015436
 -0.041000
  0.052683
  0.078888
 -0.155362
 -0.049177
  0.088266
 -0.054536
  0.028229
 -0.039930
 -0.129950
  0.036179
 -0.074536
 -0.053153
  0.083971
 -0.049117
  0.050435
  0.006510
  0.002026
  0.138854
  0.142057
  0.021200
  0.072874
 -0.019490
 -0.057625
  0.070454
  0.046813
  0.128276
 -0.005177
 -0.017801
 -0.010658
 -0.044103
  0.086536
 -0.140729
  0.072906
 -0.064443
  0.173141
 -0.006892
  0.096188
  0.047960
 -0.046493
 -0.146733
 -0.100007
 -0.099952
 -0.089714
 -0.126728
  0.076105
  0.079685
 -0.091538
  0.126937
 -0.111561
 -0.025229
  0.032725
 -0.037368
 -0.116414
  0.023042
 -0.002283
  0.150038
 -0.032373
  0.129051
 -0.116402
  0.003048
 -0.092531
 -0.035248
 -0.068041
  0.032881
 -0.063049
  0.002861
 -0.048551
 -0.060167
 -0.133803
 -0.033478
 -0.028536
  0.067217
  0.085440
  0.012322
 -0.072745
 -0.158329
  0.102266
 -0.122706
  0.013643
  0.081124
 -0.068893
  0.062344
  0.045917
 -0.100384
 -0.031693
 -0.151827
  0.002781
  0.051977
  0.053106
 -0.112126
  0.004097
  0.109518
  0.135762
 -0.055345
  0.033116
 -0.033278
 -0.115389
 -0.021198
  0.009932
  0.105341
  0.045512
  0.161929
  0.073265
 -0.029321
  0.056632
  0.035289
  0.108301
 -0.034319
 -0.094542
  0.004168
  0.013138
  0.100478
  0.036244
  0.028868
  0.043281
  0.096452
 -0.137404
 -0.059348
 -0.015257
 -0.046446
 -0.001996
  0.077432
  0.043166
 -0.024562
 -0.028005
  0.120738
 -0.016258
 -0.046152
  0.032426
 -0.043171
 -0.056080
  0.082477
 -0.083520
  0.003485
 -0.020940
 -0.084882
 -0.027451
  0.023381
 -0.033813
 -0.022781
 -0.045168
  0.082857
  0.078800
 -0.011826
 -0.110187
 -0.075831
  0.070786
  0.040871
  0.002671
 -0.004534
  0.012140
  0.075626
  0.053013
  0.006940
  0.028438
  0.074135
 -0.135408
 -0.027665
 -0.017536
  0.013566
 -0.079785
  0.054864
  0.064208
 -0.045553
  0.031479
 -0.136118
 -0.114316
 -0.058261
  0.008553
  0.086399
 -0.109097
  0.055162
 -0.081259
  0.149781
 -0.207746
  0.013987
  0.054889
 -0.125524
 -0.048013
  0.097869
  0.077309
 -0.087011
 -0.027319
  0.032973
  0.083451
  0.028736
 -0.018333
 -0.010643
 -0.039278
 -0.027956
 -0.061571
 -0.021938
  0.104477
  0.106216
  0.021943
  0.050698
  0.119770
 -0.114482
  0.032816
 -0.003182
 -0.072400
 -0.066625
 -0.085632
 -0.024356
 -0.049099
 -0.037782
 -0.161593
 -0.029458
 -0.081296
 -0.085201
 -0.148418
  0.302954
  0.036152
  0.051225
  0.089532
 -0.042430
  0.000817
 -0.035397
  0.042927
  0.078364
  0.011042
 -0.101161
 -0.029142
 -0.032749
  0.059703
 -0.031718
 -0.013941
  0.027822
  0.060569
  0.023918
  0.111317
  0.050864
 -0.076772
  0.126199
  0.013503
  0.129119
 -0.009917
  0.079738
  0.012946
 -0.162581
 -0.066639
  0.006809
 -0.009147
 -0.016718
 -0.021491
  0.078652
  0.030824
 -0.152991
  0.122228
 -0.020814
 -0.058463
  0.130921
  0.033165
  0.126250
 -0.076756
 -0.084622
 -0.072537
  0.011875
  0.060538
  0.184861
 -0.000541
 -0.058197
 -0.151488
  0.017009
  0.018500
  0.065606
 -0.003197
  0.062757
 -0.052108
  0.092709
  0.118267
  0.005119
 -0.048255
  0.032561
  0.045269
  0.082742
 -0.097116
 -0.020983
  0.107200
 -0.011287
  0.084857
 -0.031529
  0.064662
 -0.063869
 -0.082404
  0.080251
 -0.019800
 -0.057012
 -0.073287
  0.111168
  0.132489
  0.069424
 -0.110787
  0.023471
  0.112175
  0.073948
 -0.039270
  0.108209
 -0.170573
  0.060375
 -0.087233
 -0.029126
  0.044891
 -0.054085
 -0.121815
  0.028562
 -0.031695
  0.041865
 -0.087121
  0.007596
  0.066636
  0.106317
 -0.034694
  0.121101
 -0.030432
 -0.018738
  0.029761
 -0.081207
 -0.038375
  0.006395
  0.066501
 -0.115898
  0.012838
  0.047220
  0.091018
 -0.011860
  0.101151
  0.067938
 -0.161214
 -0.012712
  0.025311
  0.155062
 -0.037529
 -0.093914
 -0.087968
  0.106524
  0.049259
  0.045727
 -0.111294
 -0.023572
 -0.049174
  0.061417
 -0.009660
  0.038200
  0.007425
  0.044622
  0.043402
 -0.042255
 -0.157234
  0.012149
 -0.016315
 -0.085255
  0.067540
  0.072003
 -0.036689
  0.004716
 -0.069589
 -0.081318
  0.095683
 -0.056986
  0.069163
 -0.058837
 -0.059293
  0.038816
 -0.101283
 -0.024288
 -0.109843
  0.075225
 -0.003531
  0.019355
 -0.100745
 -0.002890
 -0.056885
  0.013387
 -0.040267
 -0.106830
 -0.037594
  0.139345
  0.054589
  0.000543
  0.071370
  0.042954
 -0.013315
  0.045328
 -0.085374
 -0.068554
 -0.211715
 -0.022698
 -0.043998
  0.118154
 -0.014087
  0.053636
  0.082993
  0.015897
  0.009492
 -0.112268
  0.020255
 -0.002933
  0.124772
  0.092769
 -0.004897
  0.050246
 -0.133626
 -0.087640
 -0.062771
  0.061292
 -0.070906
  0.007887
  0.083316
  0.042609
 -0.033917
  0.049072
  0.041133
 -0.023596
 -0.057220
  0.093312
  0.023834
 -0.074252
  0.102478
  0.108564
 -0.035642
 -0.009699
  0.049190
  0.017409
  0.116890
 -0.256206
  0.170175
 -0.045852
  0.112861
  0.101312
 -0.111695
  0.137093
 -0.046337
 -0.007199
  0.050136
  0.103150
  0.005151
 -0.129048
 -0.047240
  0.049986
 -0.000757
 -0.000292
  0.113213
 -0.124853
  0.100370
 -0.037685
 -0.098111
 -0.110635
 -0.111962
 -0.073215
 -0.082615
 -0.145875
  0.041253
  0.039852
  0.063782
 -0.034597
  0.034858
 -0.140494
 -0.083706
  0.031620
 -0.009458
  0.059880
  0.130273
 -0.053409
 -0.006871
 -0.042087
  0.115488
  0.001150
  0.025217
  0.056659
 -0.100738
 -0.161492
  0.011373
 -0.101603
 -0.083433
  0.012882
 -0.044598
  0.005458
 -0.012109
 -0.180508
 -0.050304
  0.073210
 -0.027227
  0.046773
  0.006282
  0.163489
  0.038447
  0.089718
  0.004482
 -0.027088
  0.037385
  0.023907
 -0.012963
 -0.007987
 -0.023650
  0.017532
 -0.024997
  0.177848
 -0.032099
  0.012647
  0.068239
 -0.147378
  0.013074
 -0.090996
 -0.061584
 -0.063083
 -0.023538
  0.038907
  0.062893
 -0.009596
 -0.143857
  0.082649
 -0.001187
  0.033324
  0.069808
  0.016979
 -0.198828
  0.075127
 -0.053514
 -0.111017
 -0.004248
 -0.081309
  0.043204
  0.061805
  0.111157
 -0.067453
  0.023104
 -0.073949
  0.056693
  0.116932
  0.001479
 -0.031289
  0.059467
  0.013697
  0.030974
 -0.047746
 -0.157104
 -0.071585
 -0.128168
 -0.068642
 -0.183923
  0.053862
 -0.071580
  0.055951
 -0.102998
  0.113833
 -0.085226
  0.048528
 -0.009399
  0.005167
  0.101400
 -0.053401
  0.001563
 -0.087689
  0.031972
 -0.078220
  0.053453
  0.117708
 -0.025665
 -0.048544
 -0.065034
 -0.131228
 -0.080365
  0.027300
  0.117696
  0.089487
 -0.087732
 -0.115476
 -0.195318
 -0.248674
 -0.094173
 -0.055953
 -0.042851
  0.122156
 -0.099297
  0.025783
 -0.061473
  0.076626
  0.003483
 -0.029824
 -0.019379
 -0.008165
 -0.015105
 -0.073177
  0.013698
 -0.014946
  0.135788
  0.079165
 -0.086514
  0.028814
 -0.069862
  0.076699
 -0.023916
  0.052845
 -0.084109
  0.009931
  0.008717
 -0.037125
  0.163368
  0.163833
  0.040209
 -0.076038
 -0.091388
 -0.026787
  0.172026
  0.095044
 -0.045716
  0.042480
  0.041080
  0.084092
  0.075632
 -0.047537
  0.035172
  0.042397
 -0.141360
 -0.018052
 -0.115086
  0.037868
 -0.004319
  0.078139
  0.131117
 -0.162561
  0.067646
  0.020197
 -0.006591
  0.046083
  0.071620
 -0.005267
  0.031165
 -0.033002
  0.022775
 -0.147145
  0.047121
 -0.028773
 -0.003536
 -0.029779
  0.141149
 -0.093579
  0.090002
 -0.020609
 -0.048361
 -0.096473
 -0.144588
 -0.092606
  0.039892
  0.037904
 -0.010203
 -0.016135
  0.069954
  0.068471
  0.060035
 -0.065696
  0.137470
  0.010459
 -0.082092
  0.008276
  0.069249
  0.033193
  0.077346
  0.009516
  0.112140
  0.023327
  0.115517
 -0.034202
  0.137997
  0.037488
  0.027857
  0.040185
 -0.001855
 -0.032622
 -0.004983
 -0.069708
 -0.093524
 -0.023765
 -0.096908
 -0.029433
  0.004459
  0.133469
  0.046947
  0.028421
  0.061688
 -0.002457
  0.060545
  0.091195
 -0.093255
 -0.000277
  0.093532
  0.031962
 -0.016474
  0.008615
 -0.083271
 -0.022776
 -0.091548
 -0.033149
 -0.019386
 -0.158946
 -0.002451
 -0.072920
  0.084402
  0.198822
  0.070246
  0.226876
 -0.002298
 -0.078385
  0.014258
 -0.073586
  0.079538
 -0.008288
 -0.002138
  0.027606
 -0.005674
  0.041931
  0.022122
  0.183218
 -0.002834
 -0.005090
 -0.016800
 -0.007575
  0.056503
  0.048377
 -0.181927
  0.044241
 -0.003981
  0.038603
 -0.029479
  0.012813
  0.019604
 -0.038925
  0.077627
 -0.047342
 -0.069172
 -0.102881
  0.025908
 -0.039538
 -0.031045
 -0.008531
  0.140640
 -0.046578
  0.038239
 -0.076383
  0.042970
  0.100758
  0.016201
  0.094079
  0.060179
  0.054882
 -0.195652
  0.062862
 -0.004635
  0.162060
 -0.038557
  0.086533
 -0.027655
  0.179956
 -0.123948
 -0.077115
 -0.023859
 -0.058424
  0.028301
 -0.035685
  0.128162
 -0.004719
  0.032955
  0.058953
  0.187114
 -0.019424
  0.013480
  0.068186
 -0.048266
 -0.024591
 -0.082516
  0.038083
  0.166748
 -0.004886
  0.069135
 -0.060850
 -0.124820
  0.053976
  0.018712
  0.028012
  0.075563
  0.142545
  0.017528
 -0.049723
 -0.084489
  0.167003
 -0.075864
  0.026868
 -0.075172
  0.069156
 -0.050179
 -0.095905
  0.069132
 -0.032798
 -0.068566
 -0.017395
  0.138624
 -0.033099
 -0.033646
 -0.008067
 -0.138298
 -0.009555
 -0.210963
 -0.021712
 -0.056326
  0.059061
  0.036420
 -0.066086
 -0.000826
 -0.073700
 -0.018470
 -0.113629
  0.012614
  0.084177
  0.076579
  0.041009
 -0.011567
 -0.037673
 -0.076003
  0.039091
 -0.123437
  0.182931
 -0.025274
  0.073049
 -0.009640
  0.048245
  0.026521
 -0.074847
 -0.034847
 -0.061725
  0.091708
 -0.017992
  0.063287
  0.009963
 -0.092015
 -0.051660
  0.013468
 -0.063106
 -0.117555
 -0.001878
  0.088541
  0.101279
  0.024730
 -0.002652
 -0.047367
 -0.034742
  0.016946
  0.237812
  0.119174
  0.030560
  0.173446
  0.000981
 -0.003421
  0.003782
  0.026128
 -0.089608
  0.012081
 -0.033267
  0.063658
 -0.027089
  0.015169
  0.014438
  0.031225
 -0.016642
  0.032636
 -0.024944
  0.015684
 -0.016084
  0.041804
 -0.099232
 -0.028197
  0.003865
  0.039650
 -0.122393
 -0.022859
 -0.072706
 -0.124303
  0.049993
 -0.089718
  0.108929
  0.078820
  0.053441
  0.043966
  0.079716
 -0.108223
 -0.061401
  0.026823
  0.067933
  0.002369
  0.046026
 -0.091308
 -0.158847
  0.082078
  0.019029
  0.025319
 -0.029979
 -0.035957
 -0.166608
 -0.171697
 -0.024741
 -0.014942
 -0.077992
 -0.065104
  0.084328
 -0.008759
  0.036476
  0.055548
 -0.193182
 -0.019194
  0.104150
 -0.039620
 -0.077701
 -0.108396
 -0.036438
  0.106187
  0.018902
  0.021875
  0.132757
  0.031421
  0.130965
 -0.078846
  0.044740
 -0.038552
  0.098681
 -0.075517
 -0.160166
  0.040505
  0.004674
  0.063324
  0.046928
  0.076722
 -0.001301
 -0.032249
  0.065131
  0.023363
  0.008060
 -0.081029
  0.068966
 -0.067426
 -0.061606
 -0.139605
  0.077679
  0.086652
  0.156840
 -0.088216
  0.049192
  0.043308
 -0.095875
  0.000148
 -0.028849
  0.030101
 -0.135402
 -0.074501
 -0.003583
 -0.000781
  0.037911
 -0.056884
  0.123474
  0.009644
 -0.030747
  0.012284
 -0.160050
  0.036897
 -0.007700
 -0.095405
 -0.131026
 -0.067068
  0.108543
 -0.006979
  0.132288
  0.074258
 -0.008009
  0.035471
 -0.155794
 -0.068587
 -0.072546
  0.000164
  0.109828
 -0.060332
  0.134747
  0.004237
  0.018946
  0.092818
  0.124857
 -0.004353
  0.109544
  0.019283
 -0.068553
 -0.022174
  0.212389
 -0.163050
 -0.012740
 -0.027691
 -0.039978
  0.061485
  0.113243
 -0.048013
  0.030381
 -0.074613
 -0.070425
 -0.010329
 -0.000599
  0.158272
 -0.010681
 -0.008911
  0.088268
  0.090666
 -0.096732
 -0.142620
  0.131045
  0.055399
  0.034919
 -0.143456
  0.130002
 -0.076230
  0.011154
 -0.060598
 -0.009624
  0.107874
  0.104512
 -0.165268
  0.102100
  0.036776
 -0.069045
 -0.006890
 -0.082710
  0.239697
 -0.050253
  0.136721
 -0.084447
  0.029204
 -0.094454
  0.006233
 -0.077656
 -0.078876
 -0.106423
  0.049480
 -0.007064
 -0.038512
  0.139236
 -0.052384
  0.019830
 -0.108889
 -0.076055
  0.032952
  0.046297
 -0.004071
 -0.160829
 -0.062202
 -0.070855
  0.129181
  0.129645
 -0.017189
 -0.030290
 -0.173033
 -0.034926
  0.056593
  0.010406
  0.135581
  0.033809
  0.059079
 -0.106340
 -0.036867
  0.011581
  0.003180
  0.067216
 -0.062275
 -0.023711
  0.006317
 -0.086501
  0.041927
  0.012722
 -0.026089
  0.050885
 -0.061328
 -0.031655
 -0.187149
 -0.014716
 -0.102101
  0.010571
 -0.059728
 -0.077892
 -0.080198
  0.001082
  0.028734
 -0.065531
 -0.175202
  0.009558
  0.093911
 -0.035012
  0.086304
 -0.100269
 -0.068360
  0.077622
 -0.075345
  0.054219
  0.027623
 -0.032677
  0.055208
  0.173860
 -0.078853
 -0.037295
 -0.062296
  0.047860
  0.002236
 -0.127062
 -0.032516
 -0.098548
 -0.044006
 -0.013685
 -0.062766
 -0.009291
 -0.069999
  0.047382
 -0.013900
 -0.008914
  0.044200
  0.029909
  0.004842
 -0.142342
  0.049696
  0.062129
 -0.029729
 -0.074340
 -0.018596
 -0.088417
 -0.146088
  0.094208
 -0.074521
 -0.004309
  0.078651
 -0.057425
  0.050207
 -0.014024
 -0.043846
  0.099048
 -0.147442
  0.025334
  0.156721
 -0.034610
 -0.063783
 -0.055486
 -0.106902
 -0.003512
 -0.012421
  0.044102
  0.085310
 -0.007001
  0.021420
  0.020691
  0.124592
 -0.048577
  0.094022
 -0.054672
 -0.015997
  0.050814
 -0.016205
 -0.064029
  0.273712
  0.003437
 -0.106441
  0.041061
 -0.173230
  0.111243
 -0.011953
 -0.031117
  0.103957
 -0.012279
 -0.017778
 -0.068904
  0.000741
  0.047941
  0.057897
  0.104619
  0.085868
 -0.087025
  0.037171
  0.062675
 -0.145814
  0.041865
 -0.045603
 -0.181100
  0.030150
 -0.166335
 -0.025949
 -0.086412
  0.032168
  0.035695
  0.124475
  0.037933
  0.037218
 -0.129150
 -0.035894
  0.034440
 -0.035827
  0.124191
  0.095104
  0.175494
  0.057670
  0.064881
 -0.001998
 -0.144271
 -0.039141
  0.058847
  0.121016
 -0.019408
  0.016753
  0.060325
  0.018132
 -0.186069
  0.010525
 -0.052236
 -0.041797
  0.006917
 -0.023682
 -0.084185
 -0.045216
 -0.035428
 -0.146445
  0.081029
 -0.050220
 -0.015679
 -0.012360
 -0.138464
  0.037156
  0.001544
  0.177614
  0.074653
  0.026375
  0.070144
  0.064305
  0.007125
 -0.004119
  0.034859
 -0.008969
 -0.014289
  0.004174
  0.015646
 -0.012948
  0.053653
  0.047609
  0.009410
 -0.123562
 -0.031277
 -0.000537
 -0.002815
 -0.051974
  0.003368
  0.021369
 -0.084510
 -0.023342
  0.007198
  0.008503
  0.067136
  0.000408
  0.006129
  0.015095
 -0.036384
 -0.105915
 -0.010384
 -0.056136
 -0.023256
  0.088529
 -0.099086
  0.156273
  0.032440
  0.049949
 -0.109745
 -0.009019
  0.067547
 -0.126334
 -0.004866
 -0.025106
  0.072891
  0.048438
  0.093709
 -0.029556
  0.074337
 -0.021113
  0.133082
  0.112566
 -0.125132
  0.132030
 -0.195914
 -0.103611
 -0.021017
 -0.055589
 -0.056114
 -0.001583
 -0.047003
  0.075733
 -0.141489
  0.041111
  0.153871
 -0.014957
 -0.045781
  0.015514
  0.012094
 -0.157328
 -0.019270
  0.078595
  0.082129
 -0.119557
  0.013513
 -0.003378
  0.018511
 -0.026822
  0.038332
  0.099569
 -0.018327
  0.072685
  0.118300
  0.113858
 -0.091708
 -0.092707
 -0.006731
  0.062383
 -0.128082
 -0.077241
  0.096887
 -0.063011
 -0.001107
  0.053232
 -0.038245
  0.012912
 -0.044074
 -0.013045
  0.025285
  0.213436
  0.061687
  0.119872
 -0.112331
  0.079086
  0.041100
  0.016098
  0.006937
 -0.029780
  0.007053
  0.043247
  0.006641
 -0.064444
 -0.021235
  0.003264
  0.044392
  0.142858
 -0.025489
 -0.075123
  0.042854
  0.002605
 -0.084154
  0.005893
  0.077261
 -0.042895
 -0.121531
  0.089648
  0.113672
 -0.023980
 -0.016213
 -0.169402
 -0.029856
 -0.098003
  0.049857
 -0.055998
  0.115683
  0.029009
  0.053628
 -0.109766
  0.026769
 -0.070151
  0.020069
  0.089847
 -0.043384
 -0.030596
  0.101952
 -0.035280
 -0.178026
  0.012665
  0.003221
 -0.023857
 -0.032287
 -0.086253
  0.013493
 -0.131604
  0.042485
 -0.045214
 -0.017816
  0.005231
 -0.029175
 -0.028231
  0.126322
 -0.001637
 -0.021865
 -0.047614
 -0.095429
  0.027293
 -0.015103
 -0.151639
  0.058322
  0.035925
  0.031418
  0.067167
  0.106816
  0.209483
  0.148723
 -0.032552
 -0.098341
  0.188136
  0.025072
 -0.144125
 -0.035225
  0.072954
  0.078644
  0.028724
 -0.115488
 -0.019525
 -0.188877
 -0.015045
 -0.077298
  0.167123
 -0.025758
 -0.030122
 -0.023683
  0.059205
  0.059364
 -0.099213
  0.045806
  0.156302
 -0.078370
  0.013600
  0.133351
  0.042631
  0.102654
 -0.159263
 -0.052089
 -0.123743
  0.042061
  0.017648
 -0.034573
 -0.003853
  0.063052
 -0.033389
  0.002147
  0.015888
  0.001907
 -0.129120
  0.102860
  0.049230
  0.098816
 -0.062555
 -0.019351
  0.052222
  0.029357
  0.024617
  0.117293
  0.018021
 -0.100134
  0.014423
 -0.096171
 -0.024082
  0.152881
 -0.023315
  0.118604
 -0.066201
 -0.131795
  0.005528
 -0.056502
 -0.007842
 -0.132267
  0.056613
 -0.051259
  0.078458
 -0.019614
 -0.017773
 -0.082408
  0.139313
  0.056868
 -0.008388
  0.163504
 -0.020132
 -0.069165
  0.215467
 -0.124278
 -0.042276
 -0.126751
  0.185088
 -0.007799
 -0.009629
 -0.099889
 -0.109137
  0.025900
 -0.077330
 -0.010947
 -0.010817
 -0.183987
  0.032236
 -0.011084
  0.033795
 -0.048803
 -0.023691
 -0.018782
  0.039435
 -0.029115
  0.034591
 -0.075640
 -0.042981
  0.066224
 -0.015230
 -0.106576
 -0.018788
  0.204317
  0.021602
 -0.023454
  0.127241
  0.095827
  0.162005
 -0.028305
 -0.047115
 -0.011743
 -0.124984
  0.012717
 -0.012316
 -0.130588
  0.043912
  0.048180
 -0.051705
  0.036356
  0.034598
 -0.009257
 -0.049149
  0.050166
 -0.076685
  0.062812
 -0.025331
 -0.006888
  0.043699
 -0.002543
  0.026565
 -0.049492
 -0.098020
 -0.016917
 -0.002260
 -0.120658
  0.012361
  0.133842
  0.034627
 -0.067322
  0.043128
 -0.135249
  0.063867
 -0.097955
  0.030410
 -0.149434
  0.136022
  0.006382
 -0.064154
 -0.024881
 -0.007645
 -0.092373
  0.016066
 -0.198211
  0.035021
 -0.000239
 -0.050119
 -0.049147
  0.023080
 -0.030900
 -0.105688
  0.120719
  0.023110
  0.054495
  0.004367
 -0.040281
  0.005018
 -0.136944
 -0.113074
  0.110580
 -0.066687
  0.110394
  0.078895
 -0.055730
 -0.169960
 -0.009566
 -0.086093
 -0.088195
  0.092479
 -0.063806
  0.009783
 -0.063518
  0.018642
  0.067342
  0.075779
 -0.075072
 -0.006122
  0.102084
  0.020273
  0.100646
  0.000744
  0.132985
  0.167228
 -0.186539
  0.123679
  0.002083
  0.074026
  0.098941
 -0.132084
 -0.002659
  0.089372
 -0.020377
 -0.083612
  0.020375
  0.058553
  0.049073
 -0.054844
 -0.052787
  0.014004
 -0.075707
  0.043628
  0.041918
 -0.116485
  0.119132
  0.056696
 -0.143680
 -0.046122
  0.071691
  0.053869
 -0.009485
  0.004972
  0.081232
  0.008436
 -0.022152
 -0.003743
 -0.060096
 -0.034530
 -0.060912
  0.133000
  0.074493
 -0.125615
 -0.026326
  0.084414
 -0.026599
  0.038111
 -0.027915
 -0.022307
  0.058188
 -0.076077
  0.099870
 -0.049381
 -0.001963
  0.117836
 -0.103705
  0.042931
  0.057952
 -0.219852
  0.089202
 -0.105272
 -0.044530
 -0.012812
 -0.031882
 -0.149211
  0.068927
  0.031582
 -0.106505
  0.098061
  0.107673
  0.062036
  0.024412
 -0.114067
  0.071984
 -0.082559
  0.005481
 -0.064393
  0.013600
 -0.054943
  0.068140
  0.113466
  0.062186
 -0.032517
  0.063285
  0.033915
 -0.117576
 -0.013733
  0.153794
 -0.055126
  0.016737
  0.014286
  0.009933
 -0.042200
  0.033131
  0.026542
  0.023172
  0.060198
  0.045681
  0.057589
  0.010370
 -0.051021
 -0.081955
  0.008415
 -0.060700
  0.144684
 -0.016789
  0.093355
 -0.209144
  0.005923
 -0.102943
 -0.131600
  0.046092
  0.195286
 -0.130327
  0.001490
  0.136543
 -0.023827
  0.180433
  0.113297
  0.037314
  0.066719
 -0.023044
  0.047580
  0.002721
  0.106992
 -0.038733
 -0.078678
 -0.133100
  0.001443
  0.054124
 -0.042612
 -0.010720
  0.046218
  0.060763
 -0.082304
 -0.080108
  0.029566
  0.161308
 -0.096904
 -0.011969
  0.007814
 -0.007859
 -0.041304
  0.016808
 -0.057886
  0.021891
  0.085035
  0.016232
 -0.106024
 -0.020890
  0.026832
 -0.009073
 -0.071293
 -0.096144
  0.016679
  0.060927
  0.166432
  0.024959
  0.009784
 -0.067582
 -0.133010
 -0.068872
  0.040122
 -0.011590
  0.039431
  0.034813
  0.077652
 -0.037977
  0.116113
  0.003166
 -0.012595
  0.034969
  0.006304
 -0.123421
  0.048827
  0.127064
 -0.053384
  0.009892
 -0.007014
 -0.208167
 -0.028878
  0.119783
 -0.056990
 -0.058963
 -0.033638
 -0.114345
 -0.109556
  0.020490
  0.161797
 -0.093277
  0.038517
  0.013836
  0.030307
 -0.011780
  0.008852
  0.068510
  0.079444
 -0.103008
 -0.057951
 -0.133124
 -0.031205
 -0.077207
  0.183351
 -0.089688
  0.001259
 -0.019569
 -0.017717
  0.112737
 -0.041631
 -0.043848
 -0.015416
  0.034022
  0.028516
 -0.099049
 -0.170117
  0.025021
 -0.091221
 -0.026590
 -0.162695
 -0.028083
  0.013163
  0.037666
  0.033235
  0.159958
 -0.032723
 -0.029212
  0.023586
 -0.066111
 -0.088246
  0.033691
 -0.139919
 -0.065016
  0.139430
 -0.027944
  0.079450
  0.150718
 -0.152007
  0.008149
 -0.040889
  0.033849
  0.044974
 -0.004523
  0.040162
 -0.032404
 -0.150114
 -0.014750
  0.102795
 -0.013669
 -0.028211
 -0.043010
  0.027544
 -0.078093
  0.049371
 -0.023739
  0.010346
 -0.013711
  0.079021
 -0.063852
 -0.006886
  0.003217
  0.038748
 -0.091647
 -0.086449
  0.056562
  0.007171
 -0.072183
  0.121037
 -0.114797
  0.080049
 -0.065346
  0.082827
  0.041714
  0.020391
  0.041141
 -0.141390
 -0.061039
  0.067237
  0.050568
 -0.148032
 -0.039641
 -0.004939
  0.137810
  0.107499
  0.066638
  0.132449
 -0.143489
  0.110021
  0.170499
 -0.040545
 -0.104599
  0.133685
  0.007640
 -0.008554
 -0.032822
 -0.010046
  0.024589
  0.082890
  0.086010
 -0.022865
  0.131517
 -0.102490
 -0.066540
 -0.000968
  0.135893
 -0.063602
  0.030274
  0.106433
 -0.008644
  0.107062
 -0.074610
  0.024353
 -0.048087
  0.067380
 -0.085603
 -0.050625
  0.055595
 -0.066303
  0.107105
 -0.083413
  0.030117
  0.051186
 -0.062187
  0.106793
  0.037542
  0.049463
 -0.046329
 -0.075593
  0.025035
 -0.120888
  0.003038
  0.133367
  0.004709
 -0.035330
  0.115786
  0.077209
 -0.011908
 -0.077753
  0.168527
  0.058757
  0.004544
  0.116628
 -0.032827
 -0.081918
 -0.092245
  0.034993
 -0.000712
 -0.068971
 -0.101036
  0.146208
  0.062695
 -0.045157
  0.137528
  0.092431
  0.000700
 -0.129675
  0.140434
 -0.023850
  0.041051
  0.134093
  0.045288
  0.030403
 -0.179701
 -0.121938
  0.013468
  0.168725
 -0.084329
 -0.046610
  0.064600
  0.038769
 -0.007011
  0.057669
 -0.077278
 -0.092751
  0.089572
  0.118798
 -0.022437
 -0.142111
 -0.101393
 -0.161813
  0.117193
  0.019884
 -0.014813
  0.045348
 -0.038903
  0.038092
  0.029045
 -0.001600
  0.037517
 -0.077436
  0.028965
 -0.111478
 -0.188394
 -0.038778
 -0.000964
  0.114216
 -0.034525
  0.002855
  0.114172
  0.062868
  0.000329
  0.002835
 -0.058147
 -0.095219
 -0.019476
  0.081072
 -0.048529
 -0.036069
  0.052192
  0.013606
  0.005889
  0.015003
  0.004581
 -0.063219
 -0.070357
 -0.091677
 -0.034066
 -0.114101
 -0.035017
 -0.067784
 -0.022032
  0.154118
 -0.107111
  0.083317
 -0.043134
  0.114508
 -0.033271
 -0.074983
  0.029294
  0.127718
 -0.009901
 -0.138625
  0.106414
  0.056373
  0.054529
 -0.092840
 -0.063695
 -0.047215
  0.090262
 -0.035870
  0.074286
 -0.101162
 -0.130517
  0.241325
  0.068335
  0.090562
  0.104945
 -0.017633
  0.009262
 -0.057180
 -0.040335
 -0.036091
 -0.080313
 -0.100818
 -0.050365
 -0.018911
  0.065212
  0.083484
  0.026164
  0.099339
  0.008170
 -0.132495
  0.035137
  0.024512
 -0.027005
 -0.141952
  0.018767
 -0.073753
  0.060601
 -0.088191
  0.214687
  0.003510
 -0.146186
  0.097004
  0.041349
  0.102819
 -0.051434
  0.043064
  0.107623
  0.021593
 -0.148846
  0.030098
 -0.137276
 -0.081078
  0.004624
 -0.001107
 -0.126357
  0.156795
 -0.028716
  0.062970
 -0.159700
 -0.064980
  0.106861
 -0.038598
  0.031246
 -0.057501
 -0.095564
  0.055837
 -0.135034
  0.172876
  0.016652
 -0.027041
  0.069476
 -0.032360
 -0.057184
  0.128776
 -0.061837
  0.113646
 -0.003698
 -0.037359
  0.046147
  0.195794
  0.015170
 -0.138971
 -0.077215
  0.007303
  0.062156
 -0.061713
  0.045662
  0.047319
  0.059407
 -0.136496
 -0.012232
  0.091207
  0.108018
 -0.069578
 -0.049779
 -0.032509
  0.132645
  0.121771
  0.191123
  0.075956
 -0.083033
  0.017885
 -0.131391
 -0.154767
 -0.160082
  0.033618
 -0.072140
  0.017489
  0.094018
 -0.060266
 -0.037643
 -0.040250
  0.093212
 -0.118383
  0.009976
  0.071212
  0.058193
 -0.014528
  0.019285
  0.059079
  0.037182
 -0.023802
 -0.150029
  0.011241
  0.023202
  0.072913
 -0.012582
 -0.135955
  0.088333
 -0.022804
  0.007203
 -0.065543
  0.009947
 -0.014050
  0.087315
  0.053643
 -0.096148
 -0.050720
  0.022684
  0.104774
 -0.061510
 -0.031806
 -0.037553
  0.192895
  0.034504
  0.023065
  0.013678
 -0.005343
 -0.106354
 -0.047897
 -0.081172
 -0.079733
 -0.075147
 -0.023202
  0.016377
  0.121304
 -0.059725
  0.005129
  0.210765
  0.057721
  0.026672
  0.036453
 -0.059695
 -0.023293
  0.141527
 -0.165634
 -0.071294
 -0.021576
  0.010960
  0.106373
 -0.095305
  0.111886
  0.093596
  0.079651
  0.142752
  0.052504
 -0.100368
 -0.110974
 -0.043705
 -0.001757
  0.053477
 -0.214969
 -0.058600
  0.017703
 -0.135751
  0.102095
 -0.013610
  0.057868
  0.042396
 -0.031316
  0.091049
  0.150628
  0.002671
 -0.038116
  0.009829
  0.069100
  0.086418
  0.083178
 -0.160102
 -0.018870
  0.180934
 -0.060286
 -0.078560
  0.020727
 -0.043602
  0.153555
 -0.076251
 -0.012211
  0.000839
 -0.142906
  0.082663
 -0.078752
  0.108031
 -0.046676
  0.014695
 -0.067060
 -0.044659
 -0.115788
  0.048288
 -0.190879
 -0.130114
  0.008409
  0.018815
  0.062503
  0.035154
 -0.093746
 -0.005805
  0.079032
  0.108640
  0.056999
 -0.002370
 -0.009175
  0.120830
 -0.048088
  0.058652
  0.148834
  0.032173
 -0.031360
  0.068452
  0.034445
 -0.067035
  0.030302
  0.098525
 -0.003081
 -0.023949
  0.034975
 -0.041069
 -0.020724
 -0.009807
 -0.010064
 -0.043221
 -0.040026
  0.024600
  0.093397
 -0.005643
  0.220405
 -0.090906
 -0.041028
 -0.081302
  0.158974
  0.093001
  0.028040
  0.037457
 -0.074987
  0.029973
 -0.024498
  0.090539
 -0.002550
 -0.011675
  0.009453
  0.165264
 -0.144000
  0.007482
  0.018704
 -0.005223
 -0.171662
  0.024070
 -0.101141
 -0.054837
 -0.031751
 -0.051797
 -0.035702
  0.081264
 -0.091505
  0.019542
 -0.019049
 -0.156193
  0.045330
  0.084542
  0.090310
  0.003787
  0.009136
  0.062135
 -0.032025
 -0.051482
  0.069664
 -0.005004
  0.112387
  0.090061
  0.008247
 -0.061694
  0.036431
  0.015488
  0.143931
  0.054801
  0.040818
 -0.039194
  0.031463
  0.133186
  0.037906
 -0.015388
 -0.141372
 -0.133570
  0.040369
  0.147918
  0.048796
 -0.062527
 -0.043269
 -0.162182
 -0.027070
  0.054562
 -0.064493
  0.037060
  0.051683
  0.032586
  0.097330
 -0.049036
  0.023116
  0.030497
  0.090472
 -0.001122
  0.065768
  0.111727
 -0.118604
 -0.051642
  0.102271
 -0.158120
  0.101664
  0.005246
  0.053024
 -0.012888
  0.087860
 -0.099940
  0.044208
 -0.083342
 -0.023945
  0.045253
  0.016022
  0.054403
 -0.093867
  0.065724
 -0.063882
 -0.033555
 -0.136933
 -0.129387
 -0.002412
  0.002309
  0.044529
 -0.001556
 -0.005992
  0.039363
  0.163237
  0.031201
  0.003344
  0.047083
  0.052115
  0.096565
 -0.160989
  0.052540
 -0.076725
  0.004532
  0.107473
 -0.036122
  0.040207
  0.089769
  0.175592
  0.206706
  0.016052
 -0.133702
 -0.058042
 -0.035970
 -0.048709
 -0.104560
  0.052051
  0.050735
  0.024804
 -0.054735
  0.016240
 -0.085852
 -0.169519
  0.055174
 -0.095147
  0.120723
  0.006347
 -0.012015
  0.013073
  0.002590
  0.022216
 -0.124510
 -0.035471
 -0.108548
 -0.019771
 -0.067770
  0.077811
  0.114893
 -0.069775
  0.087778
 -0.064357
  0.060782
  0.064939
  0.011146
  0.046937
  0.013293
 -0.081342
  0.069538
 -0.018339
  0.040983
 -0.081554
  0.044205
 -0.120286
 -0.225484
  0.035138
  0.001840
  0.096331
  0.103627
 -0.029231
 -0.027417
  0.082784
  0.019896
  0.071718
 -0.067397
 -0.048359
 -0.110433
  0.026363
 -0.005294
 -0.119465
  0.035164
 -0.082145
 -0.056711
  0.046584
 -0.024223
  0.047468
 -0.120985
  0.021671
 -0.161677
  0.001745
  0.028945
 -0.036538
  0.024232
 -0.008290
 -0.136017
 -0.023107
 -0.034281
 -0.092818
  0.078934
 -0.045879
 -0.090776
 -0.124665
  0.030653
  0.115961
 -0.036052
 -0.010895
  0.059218
 -0.022634
  0.039296
  0.043940
  0.115180
  0.101853
 -0.002229
  0.065153
  0.032701
 -0.099897
  0.081516
  0.000151
  0.018196
 -0.103520
 -0.067081
  0.120809
 -0.104560
 -0.045715
  0.033752
  0.007078
 -0.170300
  0.013405
  0.079952
 -0.089698
  0.019837
 -0.049046
 -0.098631
 -0.016799
  0.058508
  0.126602
 -0.009354
 -0.090309
  0.013553
 -0.090444
  0.088202
 -0.054917
 -0.039885
 -0.071324
 -0.058626
 -0.022121
 -0.051352
  0.122677
  0.039006
  0.142325
 -0.043519
 -0.071421
  0.058759
 -0.087384
  0.015991
 -0.118816
  0.032971
  0.034000
 -0.045906
 -0.123556
  0.085678
  0.152645
 -0.036093
 -0.058031
  0.001980
  0.110756
  0.033083
 -0.105561
 -0.094003
 -0.069048
 -0.000389
  0.108369
  0.121223
 -0.073171
  0.080150
  0.042156
  0.032143
  0.023604
 -0.049415
 -0.063790
  0.102214
  0.104054
  0.036681
 -0.106988
 -0.077688
  0.013208
 -0.088388
  0.008288
  0.004450
  0.037389
 -0.038178
  0.139255
 -0.029740
  0.048427
 -0.102607
  0.027390
 -0.062700
  0.000931
  0.123921
  0.029369
 -0.155319
 -0.021305
 -0.020064
  0.000357
  0.083301
 -0.037408
  0.034990
  0.131555
 -0.087169
 -0.128276
 -0.066252
  0.094813
 -0.009887
  0.047358
 -0.160565
 -0.056934
 -0.046360
 -0.017369
 -0.043794
  0.006318
 -0.061667
 -0.063741
  0.070127
 -0.108896
  0.002884
  0.068180
  0.056246
 -0.023697
 -0.056631
  0.085575
  0.035599
 -0.015773
 -0.026190
 -0.029720
 -0.122706
  0.071940
  0.060955
  0.021984
 -0.076674
  0.003868
 -0.098172
  0.062018
 -0.022667
 -0.075073
 -0.081111
 -0.065225
  0.012202
  0.125646
 -0.106755
 -0.045763
 -0.014287
 -0.088842
  0.032717
  0.078989
 -0.010786
  0.032011
 -0.100382
  0.007521
  0.090290
 -0.004279
 -0.060387
 -0.011840
 -0.045660
 -0.218158
  0.025587
  0.116204
  0.005026
 -0.091628
  0.002041
  0.119422
  0.138829
  0.034182
  0.163840
 -0.021058
  0.134298
 -0.099569
 -0.006504
 -0.054829
  0.037335
  0.076407
 -0.161583
 -0.027308
 -0.058644
 -0.023748
 -0.010141
  0.012221
  0.023391
  0.003044
  0.117151
 -0.170811
 -0.034617
  0.010404
  0.036005
 -0.067299
 -0.031704
  0.187222
 -0.014698
  0.053317
 -0.037433
  0.059369
  0.054012
 -0.025532
  0.075314
  0.105780
 -0.169480
 -0.007466
  0.078272
 -0.004169
 -0.148979
  0.033479
 -0.043648
  0.054604
 -0.073053
 -0.069960
 -0.094943
 -0.036788
  0.010003
  0.117839
  0.059500
  0.003358
 -0.115452
 -0.067643
 -0.031979
 -0.082525
  0.006917
  0.010654
 -0.087826
  0.037738
 -0.088766
 -0.041062
 -0.060103
  0.106196
  0.052925
  0.076506
 -0.051364
  0.108411
 -0.014394
 -0.043769
  0.000549
  0.040997
 -0.090153
  0.065724
 -0.098067
 -0.106768
  0.038544
 -0.059621
  0.103432
 -0.094907
 -0.005668
 -0.017651
 -0.120967
  0.030537
 -0.112599
 -0.111904
  0.015704
  0.154151
  0.002932
 -0.021142
  0.055320
 -0.013930
 -0.036989
 -0.026919
 -0.046637
  0.073726
  0.099328
  0.030535
 -0.025300
  0.128912
  0.060662
 -0.009467
 -0.079903
  0.028374
  0.014965
  0.068085
 -0.126505
  0.044353
 -0.109333
 -0.085739
  0.011023
  0.098456
 -0.106437
  0.068338
 -0.096998
  0.013999
  0.040320
  0.007861
 -0.061415
 -0.077138
  0.068833
  0.034673
 -0.103263
  0.147038
 -0.112772
  0.188558
 -0.070692
  0.139917
  0.006983
  0.054469
 -0.050409
  0.072629
 -0.043404
  0.228119
  0.101008
 -0.117551
  0.086239
 -0.155002
 -0.000816
 -0.061282
 -0.001768
  0.085570
 -0.007059
 -0.027769
  0.100628
  0.014532
 -0.016778
 -0.022083
  0.002714
 -0.013453
  0.000688
  0.141371
  0.005669
  0.077327
  0.113134
  0.120371
 -0.080962
 -0.157136
  0.018626
  0.125161
 -0.027021
  0.172120
  0.052820
  0.030330
  0.125408
 -0.033173
  0.071749
  0.071276
 -0.037243
 -0.085368
 -0.041659
  0.115407
  0.010275
  0.068668
 -0.097782
  0.040165
  0.071779
  0.028844
  0.059417
  0.197321
 -0.110398
 -0.100394
  0.060929
 -0.001021
  0.036449
 -0.077538
  0.026510
  0.059316
  0.007513
 -0.096941
  0.134244
 -0.070812
  0.073877
  0.123931
 -0.013280
  0.041074
 -0.099495
 -0.026723
  0.030031
 -0.195184
 -0.087551
 -0.000318
 -0.099596
 -0.111487
 -0.006147
  0.163723
  0.035460
 -0.067656
 -0.119017
  0.005002
  0.010955
  0.037958
 -0.036246
  0.013052
 -0.012172
 -0.097654
 -0.060394
  0.207897
 -0.018240
 -0.055116
 -0.117487
 -0.173843
  0.159587
  0.013084
  0.018947
 -0.002376
  0.119994
 -0.164916
  0.075572
 -0.090723
 -0.031427
 -0.160746
 -0.318523
  0.114399
  0.090308
  0.063341
  0.032006
 -0.055476
 -0.151271
  0.062650
  0.028317
 -0.034275
  0.210700
 -0.034316
 -0.069002
 -0.011120
  0.115344
  0.129035
  0.006153
  0.164310
 -0.044842
 -0.011881
 -0.078366
  0.004093
  0.030101
  0.084534
  0.014188
  0.218610
  0.172436
 -0.070626
  0.058286
 -0.020837
 -0.002277
  0.059746
  0.000158
 -0.015421
 -0.070503
 -0.000092
 -0.065271
 -0.129991
 -0.087078
  0.043683
 -0.078788
  0.105552
 -0.087924
 -0.053964
  0.130880
  0.077010
  0.083167
  0.049843
 -0.125114
 -0.039394
 -0.049498
 -0.014433
 -0.047290
  0.045857
  0.060099
  0.094738
 -0.100845
 -0.004515
 -0.092975
 -0.050557
 -0.033278
  0.013792
  0.097515
  0.048815
 -0.105295
 -0.080479
  0.026935
  0.028645
 -0.061256
  0.124433
  0.005300
 -0.049232
 -0.055103
  0.057419
  0.008055
  0.106680
 -0.008310
 -0.075408
  0.012011
  0.037978
  0.015791
 -0.030805
 -0.009612
  0.019012
 -0.079581
  0.147255
  0.104153
  0.050178
 -0.007063
 -0.075144
 -0.072169
 -0.220407
  0.034928
  0.115522
  0.025857
 -0.059746
 -0.197116
  0.058089
  0.015048
  0.040051
  0.020362
  0.091848
 -0.073411
 -0.014974
 -0.043741
  0.038796
  0.099770
  0.057978
 -0.043109
  0.110444
  0.090389
 -0.020685
 -0.052518
  0.052791
 -0.114472
  0.050828
  0.123237
  0.128652
  0.152008
  0.203127
  0.164646
  0.387492
  0.276109
  0.286368
  0.156101
  0.313006
  0.292527
  0.323666
  0.406696
  0.330758
  0.334035
  0.375334
  0.453751
  0.410062
  0.469560
  0.419354
  0.416562
  0.287436
  0.322785
  0.400597
  0.330824
  0.352569
  0.351087
  0.449832
  0.309880
  0.217939
  0.081440
  0.309620
  0.154830
  0.244407
  0.321862
  0.358185
  0.278695
  0.407984
  0.254532
  0.285243
  0.408256
  0.216547
  0.260538
  0.322831
  0.255769
  0.337148
  0.301203
  0.194009
  0.188491
  0.196920
  0.147399
  0.263928
  0.313049
  0.419351
  0.461118
  0.526256
  0.645674
  0.582336
  0.683191
  0.896515
  0.924595
  0.786268
  0.778399
  1.000000
  0.767430
  0.686906
  0.844967
  0.654279
  0.663055
  0.634141
  0.348838
  0.335614
  0.264317
  0.279348
  0.323773
  0.256725
  0.143576
  0.395510
  0.148811
  0.125891
  0.266988
  0.146701
  0.003887
 -0.063407
 -0.010642
 -0.101114
 -0.001929
 -0.011464
  0.047310
  0.070074
 -0.055090
 -0.050525
 -0.014994
  0.009843
 -0.113453
 -0.042719
 -0.047792
 -0.029684
 -0.100946
  0.030513
 -0.089596
  0.000231
 -0.095565
  0.058592
 -0.097812
  0.105321
 -0.098966
 -0.118991
 -0.149602
 -0.217258
 -0.122922
  0.015622
 -0.043725
  0.099931
 -0.049542
  0.075306
  0.052620
  0.103914
  0.160073
 -0.081909
 -0.015846
 -0.006240
  0.004217
  0.040769
 -0.004149
 -0.159618
 -0.033114
  0.193421
  0.100161
  0.001340
 -0.116515
 -0.048094
 -0.083850
 -0.020683
  0.042418
  0.131665
  0.120725
 -0.052048
 -0.114931
 -0.134656
 -0.105254
  0.112950
 -0.057067
  0.112448
  0.004192
  0.057002
 -0.043826
  0.013101
  0.124085
  0.019387
 -0.014576
 -0.031094
 -0.070326
  0.075550
 -0.049540
 -0.005733
  0.015449
 -0.067096
  0.002439
  0.005073
  0.066578
 -0.086030
  0.017673
  0.080159
 -0.130079
  0.022202
  0.036374
 -0.018378
  0.095513
  0.023343
 -0.075798
  0.031103
 -0.064855
 -0.058590
 -0.032989
 -0.050693
  0.097009
 -0.062063
  0.121703
  0.051312
 -0.078787
 -0.093558
  0.021238
 -0.076889
  0.068283
 -0.095733
  0.043884
  0.014911
  0.199137
  0.017631
 -0.125567
  0.009269
 -0.031062
 -0.064744
 -0.092420
  0.017437
  0.063204
 -0.048925
  0.122016
  0.171063
  0.054800
 -0.013134
  0.044923
 -0.189201
  0.197718
 -0.005662
 -0.001594
 -0.047708
  0.044134
  0.012849
 -0.077886
  0.134811
  0.041328
  0.032296
  0.013644
 -0.037092
 -0.025812
  0.071904
 -0.063447
 -0.065744
  0.021379
 -0.005826
 -0.035378
 -0.078923
 -0.058495
 -0.000637
  0.124597
 -0.078973
  0.033790
 -0.115693
  0.053613
  0.167597
 -0.154164
 -0.094767
 -0.042688
  0.005962
 -0.057910
 -0.057762
  0.012521
  0.054585
  0.079817
  0.035481
  0.156987
 -0.075444
 -0.012112
 -0.081967
 -0.119254
 -0.040761
 -0.019461
  0.106250
  0.028030
  0.043581
 -0.058981
  0.004586
 -0.081070
 -0.027139
 -0.123823
 -0.006008
  0.060928
 -0.025548
  0.036677
  0.187577
 -0.013378
  0.098848
  0.102417
 -0.058587
 -0.058322
 -0.038380
 -0.078301
  0.008055
 -0.014387
  0.008127
 -0.044730
 -0.132338
  0.063705
 -0.127424
 -0.135522
  0.021186
 -0.063122
 -0.181365
 -0.010442
  0.081454
  0.109933
 -0.068052
  0.083640
 -0.028338
  0.080278
  0.020044
  0.061964
  0.048039
  0.161857
 -0.023249
  0.026212
  0.082830
 -0.151864
 -0.034715
  0.022082
 -0.097759
 -0.034603
  0.038925
 -0.045217
  0.142570
 -0.076499
  0.050597
 -0.063057
 -0.093475
 -0.022693
 -0.077521
 -0.018613
 -0.050407
 -0.106451
 -0.091330
  0.003325
  0.047874
 -0.006390
 -0.125966
 -0.074935
 -0.071672
  0.027705
  0.010209
  0.063076
  0.079904
 -0.032805
 -0.050510
  0.047221
  0.076927
  0.149234
 -0.119224
 -0.018331
 -0.021601
 -0.151435
  0.156155
  0.000168
 -0.070868
 -0.028965
  0.052373
 -0.068508
  0.013797
 -0.066915
  0.019415
  0.085706
 -0.041023
  0.170998
  0.007639
 -0.019711
 -0.011511
 -0.029313
  0.026776
  0.018311
 -0.068906
 -0.011286
 -0.103130
 -0.064009
  0.073480
  0.039751
 -0.090493
 -0.192837
 -0.184613
 -0.050373
  0.000109
 -0.071837
 -0.046375
  0.016914
  0.127226
 -0.073252
  0.089075
  0.005120
  0.027471
 -0.006968
 -0.006391
  0.112471
 -0.018708
  0.048489
 -0.102341
 -0.078300
  0.124539
  0.131380
  0.006314
 -0.003930
  0.007185
  0.019533
  0.052442
  0.033176
  0.219186
 -0.006048
  0.025318
  0.020687
 -0.063261
 -0.055841
 -0.013735
 -0.014191
 -0.009666
  0.039030
 -0.016179
 -0.112941
  0.020613
 -0.018338
 -0.006486
 -0.143203
 -0.038727
  0.005664
 -0.001190
  0.064840
  0.091848
 -0.091965
 -0.110986
 -0.059611
 -0.022083
  0.080546
 -0.078602
 -0.018959
  0.174025
  0.006013
  0.121889
 -0.021019
  0.040668
 -0.028995
 -0.042851
  0.062707
  0.012030
 -0.033860
 -0.131595
 -0.038757
  0.019304
 -0.021331
  0.082149
  0.150765
  0.097139
  0.021840
 -0.015523
  0.008110
  0.124370
  0.140769
  0.078491
  0.091444
  0.092049
  0.083774
 -0.070757
  0.074749
 -0.063210
 -0.149646
  0.108526
 -0.016731
 -0.143093
 -0.110216
 -0.140256
 -0.080109
  0.102271
  0.007267
 -0.067891
  0.093303
  0.089070
  0.123682
 -0.020557
  0.007295
 -0.041042
  0.036171
 -0.051688
 -0.172279
  0.010994
 -0.128184
 -0.063352
 -0.002992
  0.183212
  0.062939
 -0.000960
  0.057071
  0.069168
  0.025662
 -0.095789
 -0.021673
 -0.158904
  0.051528
 -0.063636
  0.039598
  0.021138
  0.075393
  0.036805
 -0.100072
  0.022525
 -0.099071
  0.092349
  0.073360
 -0.011394
  0.119281
 -0.087514
  0.071021
  0.085880
  0.013076
 -0.000754
 -0.011453
  0.073623
  0.097973
  0.070500
 -0.146398
 -0.175496
 -0.116857
 -0.023413
 -0.100819
  0.098176
 -0.111008
  0.052167
  0.220217
  0.045509
  0.162249
  0.038604
 -0.031929
  0.082643
 -0.092364
 -0.036818
 -0.008241
 -0.061091
 -0.096463
 -0.094718
  0.198201
  0.062691
  0.013810
 -0.088693
  0.016033
 -0.144571
 -0.022241
  0.090925
 -0.020896
  0.108399
 -0.030000
 -0.021398
  0.052343
 -0.019869
 -0.085036
 -0.052203
  0.021235
  0.142043
 -0.061691
  0.067206
 -0.173799
 -0.057665
 -0.037168
 -0.056387
 -0.061487
  0.013909
  0.042907
 -0.061301
  0.115675
  0.061440
  0.005354
 -0.016992
 -0.067989
  0.086845
  0.095797
  0.104301
 -0.042605
 -0.007463
 -0.090615
 -0.146620
  0.069015
  0.012114
  0.048226
  0.004447
  0.143835
  0.036172
 -0.132912
 -0.000201
  0.053700
 -0.090767
  0.067596
 -0.050675
  0.085534
 -0.114987
 -0.168745
 -0.018314
 -0.015720
 -0.030970
  0.093981
 -0.094774
  0.051354
  0.054867
  0.091582
  0.123982
  0.135281
  0.059190
 -0.061695
  0.046702
  0.082409
  0.172869
 -0.043239
  0.008862
 -0.055364
 -0.001141
  0.097917
 -0.023773
 -0.060610
  0.013749
 -0.068291
  0.074622
  0.097446
  0.109507
  0.048203
  0.127227
  0.146654
 -0.038980
 -0.088920
 -0.047571
 -0.172440
  0.115288
  0.028380
 -0.101004
 -0.047202
  0.025719
  0.125293
  0.077871
 -0.127878
  0.057264
  0.033209
 -0.074227
  0.076432
 -0.044847
  0.102961
 -0.108225
 -0.013627
 -0.096544
 -0.093488
  0.007378
  0.036847
 -0.004470
  0.010825
  0.136915
 -0.056850
 -0.020782
  0.012927
  0.132227
 -0.053796
  0.075271
  0.031034
 -0.057283
  0.088504
 -0.089003
  0.071386
 -0.095909
 -0.079102
  0.107306
 -0.066342
 -0.101534
 -0.046617
 -0.110711
 -0.083796
  0.082219
  0.048634
 -0.193388
 -0.018574
 -0.067086
 -0.062514
  0.077336
 -0.066187
 -0.073834
  0.062968
  0.127036
 -0.015092
  0.151288
  0.023299
 -0.062227
  0.008890
  0.081617
  0.012088
  0.157644
 -0.116265
  0.093765
 -0.006479
 -0.072421
  0.055207
 -0.045956
  0.025029
 -0.037454
  0.032484
  0.064860
 -0.045951
 -0.029923
  0.023459
  0.070828
  0.041144
  0.028075
 -0.163296
 -0.103501
 -0.057404
 -0.050933
  0.126413
  0.065707
  0.174184
 -0.089994
 -0.051012
 -0.084513
 -0.072540
 -0.026469
 -0.049072
  0.094043
 -0.049422
 -0.025091
 -0.020135
  0.129114
  0.078276
 -0.019118
  0.004252
 -0.028663
 -0.183110
  0.025061
  0.161790
  0.071422
 -0.030005
 -0.014700
  0.042526
  0.062384
 -0.021334
  0.012711
 -0.029518
 -0.055114
 -0.059263
 -0.128635
  0.018726
 -0.017034
 -0.033703
 -0.069461
 -0.050894
 -0.153504
  0.019059
  0.005429
  0.186710
 -0.027087
  0.034211
 -0.013524
  0.124470
  0.073208
  0.032227
  0.079986
 -0.023597
  0.011884
  0.043383
 -0.026664
  0.055495
 -0.039433
  0.154257
 -0.001193
 -0.061991
 -0.068834
 -0.003280
  0.104753
  0.001753
  0.195317
 -0.047194
 -0.051155
  0.094950
  0.040361
 -0.026472
 -0.012392
  0.026722
 -0.037569
  0.093936
  0.089352
  0.016194
 -0.082885
 -0.095329
 -0.201004
  0.030744
 -0.048955
  0.110513
  0.023789
 -0.018973
  0.157722
 -0.088525
  0.038516
  0.037914
  0.093883
  0.011185
  0.016513
 -0.087353
 -0.044652
  0.092792
 -0.101573
  0.049248
  0.000872
 -0.115571
  0.160337
 -0.064157
  0.012837
  0.117390
  0.000795
  0.094340
  0.007070
 -0.129782
 -0.045525
 -0.057252
 -0.005188
  0.010341
 -0.043195
 -0.018893
 -0.009640
 -0.115203
  0.061413
  0.053498
  0.127994
  0.047052
 -0.025155
 -0.014832
 -0.134890
 -0.010925
  0.130640
 -0.015045
 -0.044893
 -0.044686
  0.001362
  0.030626
  0.095630
 -0.053781
  0.006600
 -0.046585
 -0.056470
  0.000242
 -0.075821
 -0.080073
 -0.055245
  0.005055
 -0.051397
  0.048367
  0.112790
 -0.115316
  0.036881
 -0.022329
 -0.007366
  0.059478
 -0.050820
 -0.141641
  0.076698
 -0.138979
 -0.112437
 -0.096926
  0.124829
 -0.033256
  0.102581
 -0.031888
 -0.020417
  0.075218
  0.132600
  0.121997
  0.019390
  0.002512
  0.024211
 -0.054607
  0.138561
 -0.055405
 -0.067588
 -0.082377
  0.044613
 -0.168419
  0.046843
 -0.136342
  0.006679
 -0.023960
  0.168458
 -0.003665
 -0.112975
 -0.072993
 -0.072835
  0.034527
 -0.103869
  0.011673
 -0.064318
  0.150730
 -0.029433
 -0.056269
  0.013642
 -0.008806
  0.037695
 -0.102978
 -0.138683
 -0.011356
 -0.016205
  0.004275
  0.132574
 -0.014717
 -0.051140
  0.052172
  0.080872
  0.011972
  0.009595
 -0.078596
  0.017064
  0.164251
  0.127321
  0.030906
 -0.184068
 -0.060898
  0.075480
  0.005887
 -0.135345
 -0.047753
  0.009110
  0.045744
 -0.066412
  0.007319
  0.017775
  0.001441
 -0.023223
  0.036634
 -0.098513
 -0.111506
 -0.008600
 -0.038144
  0.007824
  0.012707
 -0.006144
  0.086301
  0.031730
 -0.007524
 -0.055185
 -0.041413
  0.050660
  0.021626
  0.046212
  0.098835
 -0.048880
 -0.007380
  0.035007
 -0.097624
 -0.021589
  0.068364
  0.032381
  0.190198
 -0.074851
  0.124056
  0.007121
 -0.008031
  0.011440
  0.058724
  0.082427
  0.060700
 -0.050905
 -0.001110
  0.078063
  0.001102
 -0.040923
  0.051604
 -0.067781
  0.000531
  0.095921
 -0.022608
  0.026390
  0.085536
  0.046024
  0.173214
  0.150153
  0.051931
  0.195435
 -0.132150
 -0.084521
  0.033655
  0.087528
 -0.168404
 -0.096261
 -0.017486
 -0.006581
  0.106593
 -0.006528
  0.080718
 -0.004614
  0.026922
  0.069341
  0.113835
  0.061854
  0.045954
  0.076263
 -0.003567
 -0.024725
 -0.055128
  0.223518
 -0.107353
 -0.078560
 -0.083891
  0.081134
  0.093847
 -0.056748
  0.066544
  0.021776
 -0.049685
 -0.040938
 -0.092936
 -0.018990
 -0.084324
 -0.085196
 -0.129454
  0.002472
 -0.063436
 -0.133045
  0.088690
  0.080645
  0.065899
  0.137649
 -0.024849
 -0.004287
  0.023279
 -0.050442
  0.067167
 -0.182332
  0.048367
  0.045379
  0.087123
 -0.020289
  0.050752
 -0.084443
  0.096933
  0.033830
  0.053578
  0.002228
 -0.185100
  0.103556
  0.021677
  0.047932
  0.063849
  0.024458
  0.012835
 -0.128232
  0.105672
 -0.070970
  0.025532
 -0.010253
  0.140208
 -0.094424
  0.076215
  0.015762
 -0.059237
 -0.022463
 -0.080753
 -0.006593
 -0.016040
  0.010064
  0.057593
  0.023454
  0.121200
  0.005953
 -0.023355
 -0.006695
  0.064318
  0.103914
 -0.050519
 -0.037874
 -0.088975
  0.063259
 -0.010853
 -0.028448
  0.150294
 -0.027691
  0.089628
 -0.043125
  0.022892
  0.061058
  0.054136
 -0.025015
 -0.045526
  0.054410
 -0.053612
  0.111241
  0.005543
 -0.104725
  0.124350
  0.075895
  0.067320
  0.143102
 -0.034897
 -0.015210
 -0.032617
  0.009055
  0.014241
  0.079960
 -0.097358
 -0.054887
  0.092171
 -0.070232
  0.107277
 -0.111900
 -0.010293
 -0.114440
 -0.004339
  0.030739
 -0.001039
 -0.078553
 -0.172647
 -0.014644
  0.038244
  0.036696
  0.022673
 -0.000458
  0.022056
  0.062157
 -0.059761
  0.041838
 -0.044445
 -0.020191
 -0.023856
 -0.057017
 -0.065272
  0.074176
 -0.083696
  0.025454
 -0.027005
 -0.125067
 -0.122311
  0.016580
 -0.092780
  0.088593
 -0.075037
 -0.077919
 -0.055295
  0.126009
 -0.024251
 -0.019519
 -0.145062
 -0.049987
  0.049587
 -0.029462
  0.005456
 -0.008314
 -0.034283
 -0.027922
  0.129307
 -0.004555
 -0.043178
 -0.037659
 -0.118880
  0.038710
 -0.070555
  0.014023
 -0.134576
 -0.015728
  0.009155
 -0.099061
 -0.136678
  0.025273
  0.055620
  0.014770
  0.117732
  0.130476
  0.085703
 -0.050343
 -0.015036
 -0.090053
 -0.103418
  0.001965
  0.012832
 -0.019014
  0.000555
 -0.125243
  0.004891
 -0.170907
 -0.052607
  0.045903
 -0.033673
 -0.073794
 -0.128527
  0.044957
 -0.095708
  0.078625
 -0.106751
  0.010167
  0.004489
  0.131005
 -0.051902
 -0.102499
  0.118216
  0.003086
  0.033356
  0.081678
  0.156436
  0.067454
 -0.018716
  0.061518
 -0.012332
  0.077380
  0.096918
 -0.087158
 -0.042738
 -0.025354
 -0.143823
 -0.000980
 -0.011124
  0.099875
 -0.147953
 -0.099600
 -0.048500
  0.016857
  0.093344
  0.039825
 -0.096792
 -0.028801
  0.045830
 -0.042410
 -0.063231
 -0.057273
  0.059232
 -0.023128
  0.077864
  0.092760
 -0.164655
 -0.081224
  0.076365
  0.198308
 -0.002766
 -0.028226
 -0.057756
 -0.095156
  0.041218
 -0.079203
  0.086310
  0.009022
  0.041873
  0.069061
 -0.074130
  0.028136
  0.014944
 -0.044907
  0.057622
  0.048695
 -0.074516
  0.050417
  0.006949
  0.004044
 -0.122961
  0.036421
 -0.030824
 -0.033543
 -0.219313
 -0.075771
 -0.107942
  0.202771
  0.141057
 -0.089535
  0.126434
  0.030100
  0.121212
  0.001592
  0.147892
 -0.082644
  0.008557
 -0.073206
 -0.209750
 -0.084894
 -0.003914
 -0.031949
 -0.082443
  0.107127
  0.135493
 -0.060799
 -0.042169
  0.036397
 -0.078622
 -0.069752
 -0.045135
  0.039832
 -0.119674
 -0.050004
  0.094581
  0.058448
  0.077868
  0.092255
 -0.026464
  0.133806
 -0.012143
 -0.030257
 -0.070360
 -0.032641
  0.097068
 -0.062374
 -0.076434
  0.068887
 -0.050908
  0.017575
  0.095488
 -0.011186
 -0.003743
  0.059957
 -0.057017
  0.047951
 -0.054945
  0.125777
  0.190207
  0.041436
 -0.122720
  0.045475
 -0.001685
 -0.122387
 -0.152629
  0.060966
  0.086201
 -0.131743
  0.066100
 -0.147450
 -0.072489
 -0.121731
  0.115128
 -0.050495
 -0.014719
  0.147816
  0.058628
  0.085963
  0.033717
 -0.063096
  0.086679
  0.108846
 -0.076057
 -0.082321
 -0.142417
  0.068627
  0.080056
  0.034045
 -0.202997
  0.024528
 -0.069866
 -0.042519
 -0.137940
  0.039056
  0.063478
  0.025419
 -0.022485
 -0.071587
 -0.001824
  0.056063
  0.020946
 -0.046898
 -0.009160
 -0.007959
  0.012175
  0.036305
  0.107205
  0.058579
  0.013847
  0.036843
 -0.003129
  0.092329
 -0.030927
  0.107506
  0.024968
  0.051272
 -0.049105
 -0.074620
 -0.004941
 -0.217109
 -0.031251
 -0.105382
 -0.158670
  0.034536
 -0.005362
  0.054312
 -0.095703
  0.071423
  0.143327
  0.040801
 -0.051713
  0.163845
 -0.006619
  0.005017
 -0.159126
  0.050078
 -0.105745
 -0.071611
 -0.070326
 -0.182125
  0.013914
  0.041282
  0.119462
  0.079061
 -0.042717
  0.094885
  0.027917
  0.006620
 -0.061074
 -0.056164
 -0.069593
  0.025020
 -0.125739
  0.058763
 -0.151965
 -0.060149
  0.167286
 -0.020299
 -0.030450
 -0.076254
  0.197108
  0.007027
 -0.035788
 -0.055372
  0.054111
  0.162809
  0.049235
  0.170093
 -0.098117
  0.068867
 -0.018436
  0.146395
  0.010642
 -0.066822
 -0.089712
 -0.049074
 -0.144842
  0.044064
  0.022954
  0.021222
 -0.033513
  0.043695
 -0.168316
 -0.238162
 -0.034894
 -0.117886
  0.085552
 -0.046520
 -0.060104
 -0.005772
 -0.056712
  0.133127
 -0.050064
  0.088664
 -0.007408
 -0.011749
 -0.067998
 -0.120380
  0.012538
  0.093113
  0.000491
  0.137059
 -0.058110
  0.031455
 -0.002994
  0.072374
  0.024343
 -0.066190
  0.025132
 -0.071136
 -0.102510
  0.079675
 -0.038252
 -0.018238
 -0.021069
 -0.090526
 -0.079333
 -0.032242
 -0.057716
  0.016443
 -0.113517
  0.061283
  0.002471
 -0.040262
  0.118570
 -0.035094
  0.146327
  0.071982
  0.044717
  0.252781
  0.067913
 -0.040273
  0.005414
  0.049646
 -0.037470
 -0.119556
 -0.054415
 -0.043191
 -0.069741
  0.166890
  0.098532
 -0.032635
 -0.131778
  0.038398
  0.195014
 -0.030664
  0.043423
  0.015461
 -0.043580
 -0.006210
 -0.153145
 -0.028188
 -0.034607
 -0.113030
  0.117524
  0.014665
 -0.069794
 -0.126222
  0.072107
  0.010096
  0.017721
 -0.064088
 -0.065892
  0.010543
 -0.080934
 -0.050627
  0.029377
  0.051516
 -0.057931
  0.024600
 -0.009985
  0.015100
  0.043316
 -0.044424
  0.045548
 -0.130661
 -0.019207
  0.100305
  0.119016
 -0.056882
  0.051309
 -0.067390
 -0.012028
 -0.165561
 -0.058471
  0.075215
  0.023772
 -0.029336
  0.041334
  0.113897
 -0.089285
  0.004681
 -0.093485
 -0.019373
  0.029219
  0.009869
 -0.037871
 -0.038673
  0.114472
 -0.161365
 -0.011492
  0.013839
 -0.107241
  0.103273
  0.037879
  0.040579
 -0.045890
 -0.019149
  0.040465
 -0.043418
 -0.022818
  0.003877
 -0.048678
  0.033500
  0.001163
  0.024791
 -0.049752
  0.040313
 -0.008227
 -0.049068
  0.066728
  0.083852
  0.041234
  0.008100
 -0.032302
  0.099558
  0.054429
  0.091576
 -0.133789
  0.223794
 -0.044406
  0.030561
 -0.036942
  0.136272
 -0.027072
 -0.023804
  0.085773
 -0.086060
  0.070600
  0.011726
 -0.098082
  0.008077
 -0.071475
  0.061915
  0.060929
 -0.120707
 -0.009692
 -0.001889
  0.019565
 -0.107024
  0.073730
 -0.079730
 -0.037935
  0.140747
  0.079678
 -0.097333
 -0.089114
  0.037587
 -0.148088
  0.005847
 -0.116399
 -0.060842
  0.040327
 -0.115632
 -0.040185
 -0.062557
  0.090195
  0.086357
  0.057868
  0.144308
 -0.037871
 -0.040431
  0.041444
 -0.062452
  0.004676
  0.045664
  0.034791
 -0.062341
  0.075157
  0.098139
  0.110429
 -0.009583
  0.024876
  0.210630
  0.082046
 -0.045935
 -0.024410
  0.081367
  0.216781
  0.126085
  0.025653
  0.053880
  0.052774
 -0.036608
 -0.131968
 -0.097972
  0.022961
  0.072257
  0.114525
  0.121987
 -0.027667
  0.066242
  0.072667
 -0.084308
  0.058449
 -0.018641
  0.063633
  0.054576
 -0.078828
 -0.010652
 -0.159680
  0.142381
 -0.052207
 -0.024658
  0.074251
  0.127399
  0.049836
 -0.031193
 -0.018818
 -0.131056
 -0.122111
  0.107748
 -0.022436
  0.043252
 -0.141276
 -0.023116
 -0.033905
 -0.036831
 -0.057726
  0.024071
 -0.052625
  0.012495
 -0.083088
 -0.061167
 -0.068506
 -0.002532
  0.190071
  0.154769
 -0.029962
 -0.239418
 -0.009237
  0.161895
  0.103602
  0.107275
 -0.086173
  0.057306
  0.091483
  0.003288
 -0.020881
  0.039873
 -0.052641
 -0.014409
  0.021908
 -0.003159
  0.020391
  0.138867
 -0.029420
  0.072429
  0.041518
  0.057279
 -0.027330
 -0.024474
  0.082994
 -0.091606
 -0.119605
  0.082398
  0.123748
 -0.051322
 -0.159952
  0.037371
 -0.172898
 -0.027737
 -0.021918
  0.108313
  0.062258
 -0.101946
  0.125307
  0.119554
  0.048506
  0.024490
  0.154152
 -0.046775
  0.125930
  0.124577
  0.110407
 -0.102300
 -0.159612
 -0.159730
  0.025939
  0.081102
 -0.030919
  0.022492
 -0.027237
  0.018932
  0.119705
 -0.052454
 -0.132247
 -0.010427
 -0.090263
  0.101388
  0.077942
 -0.037429
  0.099278
 -0.023398
 -0.005190
  0.076445
 -0.072059
 -0.069807
 -0.037561
 -0.081925
  0.028566
 -0.062837
 -0.013021
 -0.074470
 -0.099577
  0.019629
 -0.070607
  0.046938
 -0.058621
  0.101899
  0.051319
  0.026646
  0.101671
 -0.023339
  0.058847
  0.115466
 -0.010517
  0.011653
  0.010454
 -0.040800
  0.043600
 -0.074194
 -0.008751
 -0.014085
 -0.130454
 -0.041725
 -0.111815
 -0.049570
  0.096595
 -0.006345
 -0.043481
  0.181473
  0.125514
 -0.011058
  0.185619
 -0.023393
  0.048170
  0.042588
  0.049731
 -0.048209
 -0.149666
 -0.051749
  0.121607
  0.036513
 -0.050062
  0.047034
  0.067436
 -0.058573
 -0.112722
  0.182799
 -0.039994
 -0.005057
 -0.055807
 -0.042810
 -0.067576
 -0.125351
  0.117286
 -0.027494
 -0.019323
 -0.006198
  0.026302
  0.000995
 -0.102593
 -0.080062
  0.066653
  0.049790
  0.013090
  0.038024
  0.066114
  0.108381
 -0.179416
  0.109877
 -0.006848
  0.002173
 -0.024283
  0.001427
 -0.031484
 -0.000090
 -0.019209
 -0.054670
  0.116322
 -0.044853
 -0.135189
 -0.082886
 -0.120495
  0.136974
  0.157681
 -0.050256
  0.123614
  0.014206
  0.025580
 -0.084109
 -0.040755
  0.035693
 -0.075184
  0.027550
 -0.094721
  0.085330
  0.045954
 -0.145888
 -0.068948
 -0.011431
  0.117833
  0.014450
  0.007499
  0.073985
 -0.033674
  0.115007
  0.048230
 -0.132051
  0.053098
  0.064700
 -0.026357
 -0.035241
  0.058505
  0.067514
 -0.095904
  0.016044
 -0.088452
  0.004081
  0.075071
  0.095600
  0.027852
 -0.046680
  0.073825
 -0.178195
  0.070133
 -0.141683
 -0.000451
 -0.022337
  0.073207
  0.024082
  0.004107
 -0.030946
  0.097552
  0.180607
 -0.039455
  0.153878
 -0.199826
 -0.117350
 -0.046261
 -0.081958
 -0.002643
  0.074851
 -0.032621
  0.122488
 -0.022384
 -0.134200
 -0.053139
  0.009983
 -0.077924
 -0.062805
  0.067203
  0.057141
  0.054751
  0.040855
 -0.019606
 -0.044606
  0.074861
 -0.022684
 -0.061834
 -0.011942
  0.048482
  0.020204
  0.040672
  0.070985
 -0.009488
  0.070474
 -0.046355
  0.028996
 -0.142386
 -0.091386
 -0.036023
 -0.031828
 -0.089903
 -0.002846
 -0.017396
 -0.035605
 -0.043515
  0.059157
  0.132383
 -0.096081
  0.068597
  0.096584
 -0.095376
  0.021534
 -0.022644
  0.055055
  0.023019
 -0.000662
  0.112834
  0.047172
 -0.125978
 -0.166842
  0.036708
 -0.059899
 -0.105823
 -0.003486
 -0.181151
 -0.104985
 -0.047175
  0.072883
 -0.016998
  0.015893
 -0.143247
  0.094392
 -0.175306
 -0.059030
 -0.045512
  0.028116
  0.084077
  0.069288
  0.036498
  0.065079
 -0.053860
  0.055599
 -0.034432
 -0.009755
  0.122190
 -0.077757
  0.029463
  0.033817
 -0.039647
 -0.073041
 -0.039965
 -0.101618
  0.132535
  0.019243
  0.020226
  0.010853
  0.008562
  0.043502
 -0.023046
 -0.043942
  0.113062
 -0.062570
 -0.016615
 -0.101612
 -0.000429
  0.075659
  0.020646
  0.051459
 -0.077205
  0.019670
 -0.071415
 -0.040793
  0.035970
 -0.007144
  0.027446
 -0.024443
  0.016316
  0.161756
  0.019086
 -0.110381
 -0.017025
  0.169851
  0.018200
 -0.070894
  0.055140
 -0.075068
 -0.002093
 -0.063299
 -0.000518
  0.054572
  0.055386
 -0.006267
 -0.009888
  0.035888
  0.035207
  0.021619
  0.084172
 -0.049742
 -0.062517
  0.016131
 -0.012567
 -0.024669
  0.091617
  0.085718
  0.006514
 -0.166251
 -0.151620
  0.059625
 -0.040923
  0.046875
  0.198236
 -0.048242
 -0.002295
 -0.108342
  0.046242
 -0.107202
  0.020489
 -0.020196
 -0.038404
  0.184698
  0.022276
  0.086438
  0.070400
 -0.135165
 -0.154003
 -0.009672
  0.088538
  0.004445
  0.005636
  0.030663
  0.081318
  0.172627
 -0.065577
 -0.033189
 -0.155264
  0.141197
  0.003750
  0.108069
 -0.028063
  0.010244
  0.028519
 -0.128366
 -0.058109
 -0.013032
  0.025120
  0.076228
 -0.005191
 -0.013294
 -0.000405
  0.066512
 -0.136759
 -0.114539
  0.131223
  0.049067
 -0.071546
 -0.065582
 -0.139283
 -0.062166
  0.150666
  0.009798
 -0.100916
 -0.084911
  0.086825
  0.018589
  0.029619
 -0.017059
 -0.047925
  0.078361
 -0.143894
  0.071210
 -0.040605
 -0.141163
  0.128611
 -0.056873
 -0.046293
 -0.027401
 -0.045441
 -0.096682
 -0.004088
 -0.050261
  0.051628
 -0.189251
 -0.007084
 -0.109320
  0.106611
  0.015814
  0.087345
 -0.063391
 -0.052563
  0.054717
 -0.000212
 -0.077612
 -0.138614
 -0.014915
  0.105951
  0.179817
 -0.155677
  0.092942
 -0.059168
 -0.060733
  0.121822
  0.058105
  0.049636
  0.050022
 -0.000797
  0.061981
 -0.009882
 -0.014170
 -0.172547
 -0.009704
 -0.002425
 -0.098383
 -0.007825
  0.002238
 -0.106496
 -0.043878
 -0.067568
  0.057641
  0.002599
 -0.078646
 -0.024166
 -0.025664
 -0.067266
 -0.008367
  0.123715
 -0.001661
 -0.114532
 -0.062155
 -0.059684
 -0.038478
 -0.103146
 -0.036068
 -0.195267
  0.039454
 -0.001984
 -0.120369
  0.099995
 -0.076212
  0.016072
 -0.012376
  0.085878
 -0.010757
 -0.013956
  0.074622
 -0.022384
 -0.031727
 -0.004323
  0.024747
 -0.007854
 -0.065413
  0.161987
 -0.078422
  0.081332
 -0.056370
 -0.034584
 -0.072798
  0.002548
 -0.168370
  0.005480
  0.108874
 -0.075708
 -0.016601
 -0.073326
  0.019661
 -0.002828
 -0.007100
 -0.042724
 -0.038539
  0.047567
  0.139511
  0.095712
 -0.008470
 -0.107983
 -0.043669
 -0.007639
  0.043261
  0.001070
  0.009478
 -0.011349
  0.075759
 -0.015872
  0.038025
  0.026885
 -0.196790
  0.064097
 -0.066380
  0.018224
  0.055761
  0.081394
  0.063691
 -0.062763
  0.083638
  0.035253
  0.081187
  0.026691
 -0.070342
  0.155739
 -0.109943
 -0.154197
  0.153108
 -0.108158
 -0.008437
 -0.078464
  0.063897
 -0.091358
 -0.037439
 -0.078471
 -0.041032
 -0.017153
 -0.036173
 -0.068436
  0.049444
 -0.054267
 -0.047949
  0.006368
 -0.158260
 -0.061337
 -0.062439
  0.072433
 -0.068740
 -0.053306
 -0.100802
  0.034924
 -0.045885
 -0.056544
  0.023884
  0.023360
  0.078642
 -0.023128
 -0.125090
 -0.056084
 -0.065382
 -0.055136
  0.063406
  0.023623
  0.031450
  0.116913
 -0.065349
  0.053102
 -0.098401
 -0.067593
 -0.137935
  0.111111
 -0.161169
 -0.024874
 -0.027069
 -0.033318
 -0.133539
  0.056589
 -0.038552
 -0.065523
  0.096323
  0.133076
  0.081481
 -0.016728
  0.004925
 -0.042126
  0.077381
 -0.164171
 -0.102292
 -0.032818
 -0.009353
  0.040459
 -0.008301
  0.076911
 -0.118387
 -0.122387
 -0.154674
 -0.094719
  0.057536
 -0.041117
 -0.036095
  0.128802
  0.001056
 -0.054068
 -0.071628
 -0.082484
  0.054767
  0.089883
 -0.051303
  0.060429
  0.067780
 -0.094290
 -0.005803
  0.009444
 -0.003067
  0.010286
  0.057691
  0.077294
 -0.094257
  0.105491
 -0.094888
 -0.130835
 -0.096629
 -0.042447
 -0.224391
  0.068861
  0.029842
 -0.021503
  0.008944
 -0.091925
 -0.146180
 -0.013494
  0.023230
  0.051986
 -0.133995
 -0.029121
  0.005505
 -0.075222
  0.085700
  0.023272
  0.038511
 -0.047044
  0.013687
 -0.065868
****
