PROJECT: W75X_2014May15
NCH:     4096
BW:   2.50000e+07
VELOCITY:       0.00000
PV:      0.480000
FREQ:    2.2235080e+09
DATE:     2014       5      16
TIME:        3      57      15
POSITION:       309.654      42.6272
INTEGRATION TIMES:       30.0000      30.0000
MAX VALUE:      0.034299623
  0.071461
 -0.122708
  0.047518
 -0.003700
  0.101429
  0.009690
  0.006648
 -0.034275
  0.090047
 -0.051015
  0.026064
  0.041922
 -0.060343
 -0.001256
  0.058970
 -0.049264
  0.017581
  0.024024
 -0.023823
 -0.015010
 -0.048593
 -0.042979
  0.099164
  0.091090
 -0.112561
  0.103633
  0.040673
  0.098200
  0.102044
 -0.042518
 -0.024455
 -0.001782
 -0.016141
  0.034111
  0.049252
  0.014933
  0.040001
 -0.068851
 -0.125382
 -0.057352
 -0.105052
 -0.003631
  0.100026
  0.120130
 -0.037014
  0.075267
  0.095251
  0.032749
  0.093838
 -0.100236
 -0.005710
  0.074026
 -0.023317
  0.088932
 -0.009166
  0.032977
 -0.005661
  0.046408
 -0.047402
 -0.038894
 -0.062488
  0.001249
 -0.064619
  0.053386
  0.038018
 -0.058459
 -0.123537
 -0.173133
  0.019788
 -0.109994
 -0.004665
 -0.008442
  0.099299
 -0.056158
  0.119465
 -0.052820
 -0.120126
 -0.201696
  0.075460
 -0.027043
 -0.045890
  0.068677
 -0.106724
 -0.046542
  0.020576
 -0.056855
  0.114914
 -0.028244
  0.070787
 -0.067879
 -0.068678
 -0.033924
  0.011157
  0.044491
 -0.052417
  0.061714
 -0.126521
 -0.144612
  0.003398
 -0.070628
  0.010829
 -0.032621
 -0.079797
 -0.108849
 -0.096760
 -0.089763
 -0.015581
 -0.074806
  0.146881
  0.003308
  0.100377
 -0.073208
 -0.077470
 -0.214429
  0.069656
 -0.014234
  0.120845
 -0.041669
  0.033502
 -0.006140
  0.029571
  0.019544
 -0.030644
 -0.098096
  0.074249
 -0.022264
  0.055135
 -0.017076
  0.025683
 -0.108531
  0.135912
  0.048602
 -0.010757
  0.053410
  0.010554
 -0.021276
 -0.115344
  0.021762
 -0.059774
 -0.039017
 -0.138108
 -0.109157
  0.143437
  0.030516
 -0.005234
  0.032750
 -0.003624
  0.111193
  0.090508
 -0.092535
 -0.024205
 -0.228382
  0.067550
  0.009706
  0.087419
  0.040399
  0.006997
  0.132459
  0.136707
 -0.012866
 -0.005315
 -0.032671
  0.053899
  0.031465
 -0.014254
 -0.050405
  0.028060
  0.065645
  0.003147
 -0.056106
 -0.100991
  0.088541
 -0.092622
  0.120590
  0.051288
  0.038686
 -0.038842
 -0.023348
 -0.005108
 -0.026888
  0.053935
  0.014061
  0.068325
 -0.147436
 -0.107111
  0.038403
 -0.014667
 -0.060182
 -0.008380
  0.084714
 -0.090328
  0.052093
 -0.034588
 -0.063689
  0.011976
 -0.040480
 -0.101272
 -0.011893
 -0.058859
 -0.038034
 -0.072341
 -0.046115
 -0.068810
  0.040552
 -0.068717
  0.060104
  0.036622
  0.024522
 -0.063274
  0.035992
  0.013275
  0.081597
  0.021557
  0.004963
  0.059683
 -0.038128
 -0.080529
  0.056705
 -0.003088
  0.075532
  0.089258
 -0.005243
  0.040626
 -0.013854
  0.008526
 -0.010860
 -0.031900
  0.026397
  0.010363
  0.072670
  0.104871
  0.080626
 -0.049157
  0.064580
  0.117094
 -0.103297
  0.013853
  0.070342
 -0.008662
 -0.196279
  0.113542
 -0.047437
 -0.108294
  0.113018
 -0.022804
  0.065790
 -0.035092
  0.061056
 -0.134964
 -0.008441
  0.068253
  0.027655
  0.096561
  0.080999
  0.041193
  0.011559
  0.010696
 -0.069184
  0.082092
  0.139813
 -0.112719
  0.066506
  0.027638
 -0.038641
 -0.072657
 -0.092913
  0.057988
  0.039948
  0.138040
  0.067107
 -0.136921
 -0.002479
 -0.113272
 -0.093451
  0.080195
  0.004984
  0.022377
 -0.149014
 -0.143353
  0.137074
  0.050294
  0.112308
  0.012984
  0.022495
  0.031291
  0.104136
 -0.004435
  0.182656
 -0.043920
 -0.156018
  0.042441
 -0.039577
 -0.041673
 -0.001561
 -0.200755
 -0.034171
  0.118893
 -0.130020
  0.092308
  0.011499
  0.005284
  0.031849
 -0.134363
  0.045625
 -0.082908
  0.048197
  0.072178
 -0.037746
  0.002699
 -0.124710
  0.048888
  0.003011
 -0.141047
  0.199299
 -0.038482
  0.047189
  0.046749
  0.046596
 -0.054347
  0.092065
  0.037740
 -0.028585
 -0.009070
 -0.070717
 -0.017109
  0.083692
  0.005495
 -0.086657
  0.090372
 -0.080631
 -0.135309
  0.186795
  0.113628
 -0.090148
 -0.017472
  0.035428
  0.001500
  0.047409
 -0.038954
  0.094156
 -0.077181
  0.068156
 -0.022320
 -0.017471
  0.122723
 -0.078550
  0.004065
 -0.004628
  0.093477
 -0.185616
  0.137590
  0.011527
  0.019881
  0.041970
 -0.041438
 -0.012836
 -0.096006
 -0.141147
 -0.048812
 -0.156019
  0.026698
  0.006589
 -0.006785
 -0.154813
  0.033447
 -0.059222
 -0.055585
  0.088316
 -0.051118
 -0.093503
  0.044737
 -0.032705
  0.012907
 -0.090054
  0.067826
  0.049878
  0.028973
  0.019254
 -0.002090
 -0.046229
  0.054767
  0.037146
  0.185301
  0.063965
 -0.103368
  0.044743
  0.079865
 -0.046315
  0.023843
 -0.116278
 -0.010187
 -0.001945
  0.001569
 -0.023357
 -0.026533
  0.027259
  0.082435
 -0.072467
  0.003660
 -0.121601
 -0.061325
  0.032730
  0.034642
 -0.081429
  0.065541
 -0.079578
 -0.017606
  0.064808
  0.022913
 -0.024669
 -0.056568
 -0.074048
 -0.053682
 -0.003098
 -0.057855
 -0.051985
 -0.034504
 -0.117613
  0.080996
 -0.007496
  0.040781
  0.138111
  0.049112
  0.055411
  0.010076
  0.007160
 -0.053462
  0.119072
 -0.027706
 -0.026908
 -0.100591
 -0.055321
  0.036133
  0.035443
 -0.071065
 -0.051423
  0.069465
 -0.169730
  0.069627
  0.049664
 -0.064792
 -0.053431
 -0.009359
  0.106123
 -0.037727
  0.008072
  0.115252
  0.069381
 -0.136036
 -0.091480
 -0.078770
  0.023070
  0.102319
 -0.055817
 -0.087654
  0.036455
  0.000479
  0.134435
  0.182791
  0.045653
  0.068748
  0.090564
 -0.049581
 -0.015022
 -0.065848
  0.022190
  0.118075
  0.071261
 -0.055706
 -0.015897
  0.101657
 -0.054819
  0.181463
 -0.048926
  0.013141
  0.130892
  0.115007
  0.072969
 -0.020969
 -0.004273
 -0.022318
 -0.130666
 -0.102967
 -0.053579
 -0.002937
 -0.004696
  0.124163
  0.079722
  0.061207
 -0.035784
 -0.057100
 -0.068210
  0.047327
 -0.075281
 -0.052096
  0.059735
  0.043378
  0.157750
 -0.110401
  0.038525
 -0.096797
  0.050523
  0.009536
  0.063413
 -0.052377
  0.064753
  0.128450
 -0.016826
 -0.089900
  0.102769
  0.048321
  0.051505
 -0.045852
  0.061032
  0.096000
  0.036854
  0.069662
 -0.059975
  0.021407
  0.019764
  0.239033
 -0.004773
  0.126277
  0.029778
  0.035049
  0.056943
 -0.029959
 -0.046651
  0.114496
  0.117080
  0.039393
 -0.080183
 -0.023451
  0.021371
 -0.130482
 -0.041844
 -0.045550
  0.069109
  0.227101
 -0.068187
  0.045484
  0.086539
  0.090465
 -0.062958
  0.108523
 -0.010223
 -0.052331
 -0.018552
 -0.119263
 -0.065513
 -0.202669
  0.008126
 -0.069210
 -0.110486
 -0.007829
 -0.232514
  0.010061
 -0.054145
  0.178533
  0.040723
 -0.037441
 -0.009236
  0.003537
  0.033309
 -0.030244
  0.067187
  0.126524
  0.069103
 -0.073314
  0.076581
 -0.106603
 -0.047017
 -0.030130
 -0.037939
  0.087488
  0.047333
  0.129060
 -0.005117
  0.082401
 -0.042185
  0.000888
  0.069624
  0.008776
 -0.182859
  0.017953
 -0.006600
  0.034547
 -0.070668
  0.077813
 -0.098639
 -0.000685
 -0.079435
  0.104706
  0.052615
  0.125463
 -0.013726
  0.013693
  0.104155
  0.067547
 -0.037467
  0.050717
 -0.055109
  0.001861
 -0.028753
 -0.146640
  0.102972
 -0.061296
  0.186865
  0.010480
 -0.074906
  0.024082
 -0.087440
 -0.064062
  0.025008
 -0.093294
  0.028524
  0.047264
  0.019025
  0.041440
  0.025136
  0.129845
 -0.012302
  0.040045
  0.117347
 -0.005479
 -0.040250
  0.039047
  0.087825
 -0.033592
  0.056067
 -0.038912
 -0.170048
  0.081467
  0.124660
 -0.048991
  0.007305
 -0.076524
  0.144965
  0.066373
 -0.015990
 -0.080404
  0.000451
 -0.082551
  0.065887
  0.129007
 -0.088144
 -0.009713
 -0.099696
 -0.041705
 -0.019598
 -0.027922
 -0.092376
 -0.088334
  0.033256
 -0.017991
 -0.080153
 -0.159791
  0.124503
  0.060339
 -0.029796
  0.090798
 -0.013048
  0.001827
  0.040636
 -0.135636
 -0.038033
  0.031026
 -0.075027
  0.096324
 -0.024724
  0.013450
  0.035014
  0.173836
 -0.054366
  0.006559
  0.006175
 -0.078678
 -0.016472
 -0.115006
  0.043522
 -0.013167
 -0.041026
  0.056292
 -0.101772
  0.071286
  0.054117
  0.033361
 -0.072956
 -0.012345
 -0.076252
  0.088916
 -0.064568
 -0.058216
 -0.067862
  0.021337
 -0.120181
  0.029973
 -0.168487
  0.109972
 -0.030924
 -0.071784
 -0.077307
 -0.072597
  0.103752
  0.058148
 -0.024759
  0.118434
 -0.038066
 -0.022821
  0.037055
  0.083569
 -0.007929
  0.044370
  0.024743
  0.159594
 -0.038473
 -0.194540
  0.116820
 -0.033366
 -0.148636
  0.042150
 -0.049938
 -0.051698
 -0.016506
 -0.013516
 -0.036327
 -0.057556
 -0.009631
 -0.064055
 -0.088538
 -0.013674
 -0.051257
  0.004140
  0.054808
 -0.126993
 -0.094034
 -0.009731
 -0.036950
  0.116851
  0.080253
 -0.080032
  0.143446
  0.000877
 -0.043280
 -0.073757
  0.102657
  0.006411
 -0.102907
  0.028484
  0.079932
  0.156824
 -0.159431
  0.070278
  0.089117
 -0.035352
  0.032642
 -0.057126
  0.169016
 -0.049228
  0.043538
 -0.115645
  0.097714
  0.011060
  0.017646
  0.139287
  0.011257
 -0.094027
  0.055891
 -0.044221
 -0.090665
  0.098938
 -0.029927
 -0.014658
 -0.136940
  0.148101
  0.146923
  0.098653
 -0.016892
  0.116917
  0.038180
  0.071249
  0.045964
  0.108194
  0.019715
  0.081451
 -0.005834
  0.102644
  0.011276
 -0.082511
  0.146606
  0.041426
 -0.015312
  0.112736
 -0.068214
 -0.105515
  0.091069
 -0.068739
  0.021369
  0.144688
 -0.020935
 -0.001299
 -0.142610
 -0.047761
  0.093569
 -0.024747
 -0.068281
 -0.057978
  0.107832
 -0.000925
 -0.026184
 -0.024359
 -0.156629
 -0.069953
 -0.011220
 -0.050418
  0.053284
  0.001617
  0.036791
 -0.038933
 -0.156053
  0.108656
  0.004114
  0.028338
 -0.027464
 -0.020603
 -0.052182
  0.070410
  0.085296
 -0.026716
 -0.090291
 -0.071031
  0.068246
 -0.132459
  0.057444
 -0.032388
  0.071445
 -0.090005
 -0.090143
 -0.003975
  0.048772
 -0.121060
 -0.103574
  0.045749
 -0.142887
 -0.074005
  0.077855
  0.013392
 -0.118331
 -0.133043
  0.046547
  0.060268
  0.079669
  0.040062
 -0.109115
 -0.061489
  0.059460
 -0.133162
  0.002094
 -0.035615
 -0.029973
 -0.061658
 -0.171190
 -0.007289
  0.044513
  0.135436
  0.007633
 -0.152429
  0.119744
  0.022511
  0.069776
 -0.053047
 -0.128907
  0.033187
 -0.044484
 -0.121200
 -0.153803
 -0.090141
  0.083234
  0.014550
 -0.038485
  0.032713
  0.051061
  0.156104
 -0.020595
 -0.067956
  0.129373
 -0.101365
 -0.077609
  0.015362
 -0.118632
  0.056709
 -0.025207
  0.029374
 -0.031936
 -0.228795
  0.011244
 -0.148323
 -0.041745
 -0.117095
  0.017102
 -0.032763
 -0.054702
 -0.051148
 -0.081273
  0.090294
 -0.008937
  0.106090
  0.006800
  0.062183
  0.070986
  0.040597
  0.067216
 -0.064235
 -0.082314
 -0.134955
  0.054041
  0.014690
 -0.021324
 -0.130294
 -0.074369
 -0.003638
 -0.078738
 -0.035911
 -0.074907
 -0.136531
  0.121056
 -0.021333
 -0.018055
  0.063101
  0.036946
  0.036173
  0.138369
 -0.094258
 -0.035613
 -0.030445
  0.014817
 -0.035246
  0.063579
 -0.045167
  0.127392
  0.020826
  0.035274
  0.037902
 -0.045955
 -0.044292
  0.094250
  0.018595
 -0.090875
 -0.031745
  0.039364
  0.026642
 -0.055328
  0.070028
 -0.126174
  0.065954
 -0.060593
  0.012598
 -0.017714
 -0.048121
 -0.115254
 -0.015602
  0.087962
  0.026906
  0.000277
 -0.182246
 -0.011573
 -0.076046
 -0.116595
 -0.071880
 -0.006638
 -0.066027
  0.083772
 -0.026491
 -0.068309
 -0.146964
 -0.075825
  0.014977
 -0.072621
 -0.061135
 -0.004726
 -0.038544
  0.109914
 -0.046695
  0.085752
  0.096176
 -0.075533
 -0.102197
  0.142886
  0.089648
 -0.115003
  0.097949
  0.145420
 -0.050110
 -0.049411
 -0.046813
 -0.057399
  0.098390
  0.002014
  0.202150
 -0.017630
 -0.003254
 -0.009900
  0.006032
 -0.032594
 -0.016396
  0.059742
  0.002852
 -0.064593
 -0.094903
 -0.045427
 -0.082541
  0.014225
 -0.047525
 -0.013304
 -0.037245
  0.097807
 -0.088597
 -0.011572
  0.034560
  0.050859
  0.036558
 -0.077122
  0.063425
  0.049095
 -0.021516
  0.049087
  0.122479
  0.102986
  0.112265
 -0.138566
 -0.050622
 -0.059846
 -0.046357
  0.090288
  0.034166
 -0.013382
  0.117248
  0.058332
 -0.009828
 -0.076383
 -0.077278
  0.038991
 -0.004941
  0.014190
 -0.021684
 -0.194560
 -0.121541
  0.130011
  0.097614
 -0.027799
  0.062764
 -0.030363
  0.105291
 -0.003296
  0.053402
  0.147554
 -0.054728
  0.090783
 -0.174700
  0.033935
 -0.014775
 -0.001415
 -0.056593
  0.124395
  0.048811
 -0.035066
 -0.034422
 -0.129265
  0.026486
  0.102131
  0.129168
  0.083300
 -0.044130
 -0.078144
 -0.125574
 -0.042630
  0.072694
 -0.033065
  0.013351
  0.123750
 -0.029563
  0.062762
 -0.091398
 -0.036977
  0.019165
  0.081426
 -0.048118
  0.028882
  0.012271
 -0.142562
 -0.053144
  0.130856
 -0.068021
 -0.008407
 -0.126268
  0.079271
 -0.116903
 -0.068965
  0.009112
  0.044465
 -0.041741
 -0.020921
 -0.004504
 -0.165128
 -0.019654
 -0.116674
  0.100046
 -0.200597
 -0.053792
  0.099654
 -0.035447
 -0.041812
  0.082012
  0.025170
  0.086601
  0.035866
  0.134685
 -0.038456
 -0.041131
  0.003155
 -0.018281
 -0.077832
  0.071702
 -0.002846
 -0.004870
  0.101797
 -0.002228
 -0.012517
 -0.018235
  0.077134
  0.054407
  0.012079
 -0.025836
 -0.055576
 -0.028537
 -0.152218
 -0.002663
  0.053551
 -0.128635
  0.080286
  0.001130
 -0.047067
  0.058480
  0.023550
  0.034310
  0.034558
  0.004530
 -0.040767
  0.011120
  0.090500
  0.010417
  0.115920
  0.033162
 -0.005946
  0.056387
  0.085999
 -0.075347
  0.036887
  0.091834
 -0.041206
 -0.082429
 -0.097344
  0.079522
 -0.027174
  0.030333
  0.157709
 -0.079848
  0.002222
 -0.100207
  0.000327
 -0.002372
 -0.042418
 -0.104946
 -0.149281
  0.175235
 -0.086808
 -0.041894
 -0.038622
 -0.103425
  0.145093
 -0.063497
 -0.128720
 -0.100235
  0.046158
 -0.086879
  0.097824
 -0.043721
  0.013736
  0.063879
  0.031926
  0.008294
 -0.053329
  0.068766
  0.036569
  0.082069
  0.036041
 -0.089074
  0.049074
 -0.012409
 -0.002564
  0.003832
  0.096268
  0.025579
 -0.006128
 -0.096719
  0.138708
  0.196722
 -0.088532
  0.054695
 -0.072702
  0.083124
 -0.157366
  0.007719
 -0.083671
  0.096246
  0.016651
  0.036112
 -0.005067
 -0.123368
  0.036481
  0.058270
 -0.037291
 -0.036013
  0.179002
 -0.054676
  0.007590
  0.009942
 -0.058367
  0.210022
  0.056503
 -0.013664
 -0.025186
  0.023936
  0.086062
 -0.114113
  0.093739
 -0.037087
 -0.079719
 -0.019247
  0.182540
  0.028110
  0.133255
  0.012623
  0.049846
  0.104754
  0.018198
  0.245848
 -0.084040
 -0.040428
 -0.015910
 -0.072631
 -0.081952
 -0.083418
 -0.006259
  0.056792
  0.069465
 -0.074472
  0.043763
 -0.017557
  0.160160
  0.099007
  0.050667
  0.081872
 -0.075059
  0.006176
 -0.050806
  0.026841
 -0.165672
  0.165712
  0.046207
  0.002969
  0.069441
  0.125739
 -0.199857
 -0.130593
 -0.173319
  0.027901
  0.062821
  0.002277
 -0.074435
 -0.083784
  0.038727
 -0.022424
  0.072754
 -0.049922
 -0.018803
 -0.016237
  0.201553
 -0.076000
  0.079130
  0.091820
  0.026360
  0.020284
  0.025266
 -0.085480
 -0.102131
  0.044258
 -0.020802
  0.011825
 -0.022377
  0.016269
  0.009883
  0.006927
  0.069799
  0.048189
 -0.073720
 -0.073458
  0.041234
  0.146946
 -0.120523
 -0.057784
  0.103692
  0.014890
 -0.067812
  0.043628
  0.009641
  0.028713
 -0.070093
  0.094039
 -0.050364
  0.038799
  0.023041
 -0.053302
 -0.038092
  0.001829
 -0.124528
 -0.026002
 -0.069910
  0.110309
 -0.012197
 -0.103402
 -0.014104
  0.153692
 -0.139951
  0.064239
  0.122377
  0.105063
 -0.052091
  0.011898
 -0.097843
 -0.100619
  0.031737
 -0.065111
  0.027323
 -0.052055
 -0.066870
 -0.093366
  0.053252
 -0.113729
  0.055611
 -0.031157
 -0.008354
  0.204232
  0.036962
  0.017507
  0.000625
  0.015595
  0.017265
  0.094777
  0.136225
 -0.068670
  0.110596
  0.055027
 -0.095081
  0.097171
  0.219071
  0.203132
  0.074651
  0.028540
 -0.160715
  0.042845
  0.114576
  0.001962
 -0.043651
 -0.024619
 -0.058631
 -0.008834
 -0.038595
 -0.082111
 -0.006335
  0.021895
  0.009239
  0.085916
  0.080778
 -0.111463
 -0.174282
  0.018647
 -0.005944
 -0.078314
 -0.000736
 -0.049997
 -0.064147
  0.068707
 -0.095380
  0.045758
 -0.051962
  0.028425
  0.068877
  0.032670
  0.027994
 -0.154691
 -0.057569
 -0.014584
  0.145342
 -0.059748
 -0.086644
 -0.038368
 -0.075400
  0.081728
  0.033312
  0.059990
  0.006162
  0.028139
  0.027608
  0.075967
 -0.123580
  0.017286
 -0.017260
  0.094997
 -0.089983
 -0.014739
  0.003376
  0.087491
 -0.015986
  0.036265
 -0.108863
 -0.074090
 -0.015462
  0.040526
  0.118901
 -0.030106
  0.051852
  0.006128
 -0.030603
 -0.021541
  0.024120
  0.055115
 -0.052422
 -0.033808
  0.134043
 -0.166341
 -0.033007
  0.045770
 -0.029162
  0.025089
  0.083952
 -0.041794
 -0.093133
  0.091447
 -0.094465
  0.008492
  0.086371
  0.009528
 -0.038668
  0.045432
  0.040481
 -0.044046
 -0.097285
  0.149422
  0.010314
  0.014372
  0.037223
  0.014731
 -0.084634
  0.032828
  0.029991
  0.103465
 -0.013859
  0.163531
 -0.060156
 -0.045898
  0.053436
  0.045289
  0.060471
  0.043145
 -0.010118
  0.129956
 -0.072570
  0.031106
  0.052085
 -0.046993
 -0.033872
  0.102149
 -0.109467
  0.019454
 -0.080059
 -0.081061
  0.223560
  0.055167
  0.009646
 -0.009460
  0.026994
 -0.088339
  0.064597
 -0.007748
  0.085504
 -0.043823
  0.028973
 -0.176123
  0.036296
 -0.102617
  0.046221
 -0.046694
 -0.102685
 -0.042370
  0.092916
  0.045976
 -0.106521
 -0.054566
  0.051518
 -0.088252
 -0.122282
 -0.090306
 -0.096522
  0.118044
  0.085038
 -0.000889
  0.039575
 -0.166893
  0.037664
 -0.077921
  0.019469
 -0.034002
 -0.050285
 -0.030546
  0.122595
 -0.120004
  0.021595
 -0.010406
 -0.051155
 -0.004901
 -0.021226
 -0.027271
  0.005632
  0.012632
  0.029830
  0.000343
  0.078212
 -0.050081
  0.026035
 -0.023347
  0.066380
  0.104039
 -0.031640
  0.029144
 -0.102788
 -0.152136
  0.010540
  0.003942
 -0.046480
  0.027956
 -0.037906
  0.104765
 -0.115119
  0.111954
 -0.073610
  0.005941
 -0.049605
 -0.140196
  0.038802
 -0.026410
 -0.049800
 -0.103758
  0.127367
 -0.016615
  0.100313
 -0.042704
 -0.022596
  0.081413
  0.079539
  0.042839
  0.168279
 -0.012536
 -0.007301
 -0.080445
 -0.022190
 -0.045063
  0.020012
 -0.078569
  0.009990
  0.077178
  0.035764
 -0.045261
  0.055527
 -0.057273
  0.012796
 -0.093608
 -0.080908
  0.047782
  0.119119
 -0.013308
 -0.049264
 -0.025140
  0.020487
 -0.113715
 -0.069021
 -0.087161
  0.072670
 -0.075613
 -0.084499
 -0.002420
  0.062292
  0.181932
  0.064600
  0.160668
 -0.103946
  0.096074
  0.124917
 -0.078577
  0.033172
 -0.053606
  0.017337
 -0.054862
 -0.001690
  0.107175
  0.147728
  0.137152
 -0.110015
 -0.025768
 -0.063951
 -0.170844
 -0.009606
 -0.092342
 -0.107559
 -0.092680
  0.109226
  0.035357
  0.097538
  0.101588
  0.012760
  0.152272
 -0.004571
 -0.039236
 -0.037006
  0.074603
 -0.049384
  0.014667
 -0.005445
 -0.006701
  0.003444
 -0.099476
 -0.143584
 -0.124176
 -0.121825
  0.138024
 -0.043649
  0.170686
 -0.098930
 -0.101026
  0.183700
  0.048041
  0.062459
  0.035904
 -0.015269
  0.018677
  0.073553
  0.188775
  0.133951
  0.101249
  0.225254
 -0.078884
 -0.152685
 -0.008532
  0.078567
  0.032382
  0.106564
 -0.046582
  0.009144
 -0.019064
  0.048235
 -0.142882
  0.043425
 -0.114464
  0.004748
 -0.046405
  0.030738
  0.039587
 -0.019803
 -0.004948
 -0.080487
  0.086862
  0.130645
 -0.049004
 -0.068057
  0.020270
 -0.049100
  0.047848
 -0.035032
 -0.011361
  0.116945
 -0.062855
  0.038175
  0.100717
  0.068263
  0.018085
  0.025854
  0.124992
  0.251811
  0.032198
  0.041190
 -0.087362
 -0.022224
 -0.075090
  0.112395
 -0.099245
 -0.158313
  0.021417
  0.002510
  0.067032
  0.043054
  0.084080
  0.079770
  0.032815
 -0.034538
  0.010368
 -0.072569
 -0.087815
 -0.038252
 -0.066326
 -0.075488
  0.101047
 -0.011901
 -0.029673
 -0.024618
 -0.023716
 -0.022166
  0.068911
 -0.081678
  0.028310
  0.116566
  0.050315
  0.154652
  0.109613
  0.090157
 -0.025711
  0.120551
  0.000562
  0.058587
 -0.032694
 -0.019903
 -0.054762
  0.163035
  0.003917
  0.070132
 -0.056329
 -0.022739
  0.061804
  0.126323
 -0.071565
  0.013429
 -0.022659
  0.039129
 -0.013872
 -0.069608
 -0.001920
  0.091300
  0.039554
  0.013599
  0.022165
 -0.007194
  0.050958
  0.030183
 -0.097208
 -0.186337
 -0.009221
 -0.012533
 -0.006910
  0.029673
 -0.086875
 -0.010963
  0.081580
  0.060263
 -0.048668
 -0.079383
 -0.009078
 -0.050787
  0.157016
  0.090289
  0.127917
  0.060815
  0.027884
  0.236282
  0.098514
  0.151902
  0.151941
  0.298234
  0.207857
  0.263995
  0.297271
  0.332456
  0.341357
  0.270911
  0.363927
  0.473563
  0.420448
  0.365542
  0.310179
  0.458789
  0.322874
  0.285821
  0.185516
  0.249560
  0.209669
  0.196435
  0.260962
  0.275795
  0.213413
  0.338258
  0.298129
  0.323358
  0.241977
  0.267121
  0.224889
  0.283850
  0.458542
  0.304154
  0.171446
  0.265208
  0.163179
  0.180861
  0.178864
  0.188515
  0.300346
  0.087263
  0.287068
  0.176010
  0.100517
  0.129802
  0.315643
  0.441051
  0.345139
  0.309864
  0.614629
  0.601208
  0.623026
  0.737300
  0.762041
  0.755384
  0.745816
  0.739042
  0.672594
  0.696444
  0.587054
  0.469903
  0.440373
  0.324705
  0.291962
  0.232725
  0.406764
  0.274418
  0.204985
  0.197347
  0.147398
  0.041895
  0.091773
  0.071333
 -0.006120
  0.130376
  0.112390
  0.204087
 -0.051728
 -0.044557
  0.001895
  0.173070
  0.036553
  0.075348
  0.005719
 -0.135709
  0.085737
 -0.053204
 -0.098448
 -0.010820
 -0.042330
  0.132634
  0.014084
 -0.141004
 -0.033278
 -0.143075
 -0.071172
  0.034110
  0.193255
 -0.065808
 -0.143592
  0.004512
  0.050331
 -0.009235
 -0.107546
 -0.061643
  0.046001
  0.028242
  0.026874
  0.051140
 -0.024529
 -0.067607
 -0.123874
  0.104989
 -0.052578
 -0.021307
  0.037549
 -0.014885
 -0.080600
  0.199309
 -0.071944
 -0.043805
  0.014394
 -0.009401
 -0.062394
  0.071035
 -0.044942
  0.079044
 -0.026104
  0.075600
 -0.006086
  0.005061
 -0.120790
  0.040492
 -0.105620
 -0.166771
  0.061640
  0.117870
 -0.070672
 -0.148864
 -0.115964
  0.002835
 -0.038007
  0.056089
 -0.149085
  0.159043
  0.037435
  0.138193
 -0.038375
 -0.045192
 -0.000549
  0.041640
  0.094713
 -0.052976
  0.045408
  0.084521
 -0.078358
  0.014531
  0.133250
  0.045914
  0.074920
  0.000078
 -0.205487
 -0.127357
  0.055500
  0.055595
 -0.038124
  0.075116
 -0.061116
 -0.011451
  0.051815
 -0.058086
  0.041980
 -0.038565
  0.018393
 -0.064364
 -0.075840
 -0.008721
  0.070631
 -0.108457
 -0.068897
 -0.072804
 -0.036333
  0.146218
 -0.098636
  0.039846
 -0.169352
 -0.077143
  0.154890
 -0.064537
 -0.079546
 -0.136093
 -0.139646
 -0.036770
 -0.038018
 -0.031595
  0.088425
  0.034562
 -0.048745
  0.041111
 -0.000925
 -0.077302
 -0.106510
  0.113114
  0.052334
  0.105676
 -0.035890
 -0.000104
 -0.004581
  0.130040
 -0.001641
  0.037328
  0.062303
 -0.063837
  0.096341
  0.086216
 -0.078380
  0.040092
  0.008166
  0.012445
  0.036389
  0.055612
 -0.026277
 -0.070832
 -0.024838
  0.045098
  0.004931
 -0.093486
  0.062358
 -0.101182
  0.079908
 -0.119190
  0.008801
 -0.036246
  0.027027
  0.006927
  0.067466
 -0.038674
 -0.011800
  0.002432
 -0.008265
 -0.081652
 -0.020060
  0.037983
  0.167080
 -0.059347
  0.024981
 -0.045521
  0.091046
  0.118183
 -0.033212
 -0.068589
 -0.027417
  0.041877
  0.048480
 -0.045089
  0.060468
  0.033058
  0.096458
 -0.076709
 -0.047294
  0.049704
  0.057176
 -0.033025
  0.065802
 -0.044656
 -0.111190
  0.023112
 -0.102416
  0.068212
  0.014318
 -0.067437
  0.164024
 -0.101960
 -0.085926
 -0.015007
 -0.094697
 -0.004285
  0.171097
  0.079550
  0.075033
  0.032759
  0.013752
  0.078306
 -0.015265
  0.017837
 -0.023727
  0.127144
 -0.016625
 -0.043606
  0.114563
  0.121059
  0.068460
 -0.065274
 -0.050282
 -0.105435
 -0.095404
  0.113442
  0.107204
 -0.052595
  0.077717
 -0.053906
  0.036771
 -0.006720
  0.073118
  0.080435
  0.017687
  0.069210
 -0.041368
 -0.015338
 -0.086378
 -0.116051
 -0.097727
  0.095620
  0.088385
 -0.008231
 -0.081935
 -0.048661
 -0.042960
 -0.000592
  0.020123
  0.034732
 -0.002535
 -0.090400
  0.022809
  0.030481
  0.096833
  0.053714
 -0.005389
 -0.032054
 -0.013166
 -0.039805
  0.128991
 -0.060569
 -0.042466
  0.082398
  0.045406
  0.046968
 -0.024355
 -0.060614
  0.193978
  0.052359
 -0.018365
 -0.009448
  0.037173
  0.049689
  0.030526
 -0.017257
 -0.040398
 -0.084610
  0.040152
  0.071521
  0.059799
  0.033310
  0.090551
 -0.024377
  0.000084
 -0.131319
 -0.007173
  0.024164
 -0.083683
  0.058487
  0.035404
  0.015656
  0.023614
 -0.070484
 -0.100524
 -0.014725
  0.021766
  0.018909
 -0.037713
 -0.017945
  0.030397
  0.157223
 -0.068876
  0.032863
  0.043251
  0.101735
  0.038361
 -0.027504
  0.189633
 -0.089786
  0.024448
 -0.024592
 -0.100081
 -0.020550
 -0.097045
  0.005379
 -0.094687
 -0.080259
 -0.023377
  0.007693
 -0.042577
  0.017513
  0.017835
  0.081427
 -0.054470
 -0.176731
  0.032038
  0.086848
 -0.061601
  0.050978
  0.101255
  0.197596
  0.117732
  0.006704
 -0.019403
  0.046518
 -0.094836
  0.052714
  0.110754
 -0.052101
 -0.055024
  0.000828
  0.054800
 -0.090144
 -0.051192
 -0.014127
 -0.024578
  0.040956
 -0.001702
 -0.134593
 -0.105258
  0.021256
 -0.099479
 -0.081554
 -0.257432
  0.031866
  0.038980
 -0.067072
  0.015469
  0.009373
  0.151944
  0.078979
 -0.067265
 -0.040061
  0.109397
  0.025695
  0.090683
  0.135528
  0.053570
 -0.067862
 -0.009082
 -0.020295
 -0.235921
 -0.015502
  0.042865
  0.038846
  0.033770
  0.070524
  0.015148
 -0.071358
 -0.017408
 -0.067468
 -0.021144
 -0.055497
 -0.021074
 -0.117293
 -0.065251
  0.025419
 -0.161560
  0.020262
  0.057479
  0.014702
 -0.067303
  0.015153
  0.053734
  0.069388
 -0.073005
 -0.009077
 -0.076329
  0.032268
  0.048162
 -0.007643
 -0.036006
 -0.112575
 -0.014220
  0.179087
  0.114794
  0.181940
 -0.075131
 -0.031888
 -0.039136
 -0.029521
 -0.062542
  0.010951
 -0.007022
  0.100176
 -0.009566
 -0.109521
 -0.054474
 -0.006406
 -0.151530
  0.107601
 -0.086522
  0.112985
  0.077467
 -0.063588
  0.105727
  0.071286
  0.056247
  0.014220
 -0.097151
  0.029637
  0.111344
  0.010991
  0.038952
  0.003467
  0.066614
  0.045773
 -0.074838
 -0.020827
 -0.144907
 -0.033360
 -0.034531
  0.029364
  0.031279
  0.008071
 -0.049653
  0.155171
 -0.121971
  0.106155
 -0.042720
 -0.109120
 -0.096723
 -0.045118
 -0.002126
  0.009041
 -0.073407
 -0.130491
 -0.059841
 -0.079233
  0.046696
 -0.040571
 -0.080660
 -0.019462
 -0.029512
  0.192490
 -0.015199
  0.094177
 -0.073688
  0.081090
 -0.130851
  0.004997
 -0.060257
 -0.038126
 -0.014721
  0.010665
  0.092226
  0.086849
  0.053732
 -0.072679
  0.006484
 -0.121728
 -0.134209
 -0.054970
 -0.128922
 -0.060684
 -0.046785
  0.103778
  0.117798
 -0.027733
  0.015377
  0.001080
 -0.171077
  0.061110
 -0.033758
 -0.134258
 -0.055773
 -0.077780
  0.067424
 -0.019875
  0.037332
  0.016855
 -0.063396
  0.013215
  0.107849
 -0.160252
 -0.032633
  0.003341
 -0.036642
 -0.025439
 -0.057151
 -0.001580
  0.110431
  0.043827
 -0.079554
  0.077536
  0.046486
  0.041105
  0.091765
 -0.040426
  0.039996
 -0.008906
 -0.034657
 -0.058498
  0.113750
  0.020167
 -0.025673
 -0.006843
  0.018082
 -0.012303
  0.041119
 -0.006684
  0.065557
  0.040248
 -0.007702
  0.035106
 -0.123997
  0.067718
  0.120097
 -0.010246
 -0.016990
  0.003243
  0.023340
  0.039387
 -0.083082
 -0.011082
  0.028312
 -0.075351
 -0.063319
  0.047689
  0.043306
 -0.022123
 -0.032201
 -0.122313
  0.002804
 -0.070888
  0.002288
  0.040762
  0.009249
 -0.045657
  0.003453
 -0.059814
 -0.061662
 -0.091696
 -0.004148
  0.050898
 -0.005613
 -0.069175
  0.097665
 -0.020398
 -0.061655
  0.001529
  0.167935
  0.151754
  0.045362
 -0.022891
 -0.008656
  0.003614
 -0.065316
 -0.002689
 -0.039057
 -0.067452
  0.036182
  0.047129
  0.016562
  0.081449
  0.008125
 -0.014333
 -0.047503
 -0.078912
  0.062128
 -0.006890
  0.040203
  0.011919
  0.111533
 -0.028839
 -0.005504
 -0.059428
  0.034446
  0.110975
  0.030178
 -0.033859
  0.082801
  0.001696
 -0.102817
 -0.080835
 -0.026220
 -0.000640
 -0.096077
  0.124167
 -0.127576
 -0.132385
 -0.086067
  0.140100
  0.099129
  0.054761
 -0.164815
  0.061462
 -0.099359
 -0.125038
 -0.046965
 -0.044847
 -0.071145
 -0.046198
  0.064947
 -0.013388
  0.035442
  0.029578
  0.002299
  0.159080
  0.074981
 -0.046416
 -0.059257
  0.127752
 -0.068753
  0.096055
  0.146748
 -0.109584
 -0.062542
  0.066905
 -0.057627
 -0.034759
  0.011327
 -0.089726
 -0.004132
  0.128887
 -0.003082
  0.021214
  0.020214
  0.168342
 -0.016757
  0.002615
 -0.037088
  0.131417
  0.008561
  0.009085
 -0.051539
 -0.032436
  0.040763
 -0.030293
  0.025213
 -0.009494
 -0.049609
  0.075792
  0.104877
  0.077293
 -0.034614
 -0.110516
  0.013230
  0.069833
 -0.006190
  0.084030
  0.133168
 -0.000418
  0.116749
 -0.053676
  0.042313
  0.104248
 -0.112766
 -0.075630
 -0.021442
 -0.003742
 -0.058054
 -0.116299
 -0.085455
 -0.067803
 -0.065670
  0.026364
 -0.068067
 -0.109817
 -0.155498
 -0.021526
 -0.168842
 -0.039193
  0.038472
 -0.007429
  0.037926
  0.064222
 -0.013395
 -0.077033
 -0.174869
  0.044171
 -0.113781
  0.104841
  0.070033
 -0.149316
 -0.092347
 -0.101057
 -0.018532
  0.026986
  0.014769
 -0.035703
 -0.013420
 -0.006523
 -0.114263
  0.116350
  0.035446
 -0.040876
 -0.017921
  0.122968
 -0.167409
  0.001921
  0.129875
  0.004981
 -0.050097
 -0.070810
  0.046317
 -0.081560
  0.087168
  0.015495
  0.159132
 -0.135226
  0.069899
 -0.003990
 -0.088456
 -0.061222
  0.072876
 -0.017754
 -0.026523
  0.034407
  0.073307
 -0.007993
  0.041477
  0.110963
 -0.015580
 -0.086422
 -0.121142
 -0.053759
 -0.061756
 -0.098419
 -0.144244
  0.002807
 -0.043370
  0.021114
 -0.002361
  0.036778
 -0.117311
  0.076645
  0.032564
  0.172330
 -0.025596
  0.006008
 -0.097176
 -0.095310
  0.048835
  0.099385
 -0.019045
  0.091312
 -0.005456
 -0.090344
 -0.026339
  0.111446
 -0.035277
  0.121071
 -0.012075
  0.070325
  0.060925
 -0.089799
  0.045140
  0.009630
  0.041705
 -0.057620
 -0.057045
  0.063126
 -0.069552
 -0.068946
  0.044949
  0.078882
  0.044145
 -0.013765
 -0.139863
 -0.102034
  0.079649
 -0.088347
 -0.061859
  0.057897
 -0.081671
  0.002709
  0.107160
  0.021700
 -0.063728
 -0.012742
  0.007885
  0.072872
 -0.009046
  0.048137
 -0.053910
 -0.023369
  0.025032
 -0.032256
  0.071560
 -0.035511
 -0.152391
 -0.036009
 -0.079642
 -0.041360
 -0.106258
  0.085128
 -0.113407
  0.035528
  0.107628
 -0.052413
  0.119869
 -0.003452
 -0.095660
  0.028467
 -0.034046
 -0.122098
 -0.093317
 -0.041262
  0.161145
 -0.059269
 -0.022334
 -0.041508
  0.036003
 -0.020755
  0.113742
  0.041766
 -0.032572
 -0.094826
 -0.016733
 -0.099143
  0.003249
  0.069985
  0.039499
  0.049889
  0.003941
  0.051355
  0.089834
 -0.019568
 -0.092048
  0.170008
 -0.021032
 -0.151308
  0.058246
  0.005201
 -0.070819
  0.011474
 -0.121208
 -0.006642
  0.056914
  0.129202
 -0.180219
 -0.047189
  0.009033
  0.003315
 -0.086345
  0.024366
 -0.021765
  0.086963
  0.101750
 -0.059851
 -0.028771
 -0.043480
  0.053305
  0.075956
 -0.102448
  0.065098
 -0.074076
  0.027483
  0.032759
 -0.092115
 -0.002418
 -0.106541
 -0.019734
 -0.119305
  0.032931
 -0.007307
 -0.051361
  0.125427
  0.052267
  0.167142
  0.017526
  0.002417
 -0.107621
 -0.095571
  0.083284
 -0.084050
 -0.039088
 -0.037824
 -0.064821
  0.048375
 -0.039825
  0.068670
 -0.042881
 -0.012391
 -0.005037
  0.016490
 -0.071274
  0.164602
 -0.142640
  0.031053
  0.081941
 -0.039971
 -0.015819
  0.078286
  0.049267
  0.020785
 -0.015187
  0.029406
 -0.089998
 -0.041689
 -0.021109
  0.033994
  0.001177
 -0.156963
 -0.002434
  0.019729
  0.011409
 -0.066643
  0.036024
 -0.129983
  0.091118
  0.107823
  0.136840
  0.044492
  0.006142
  0.123434
 -0.066465
  0.034259
  0.036787
  0.052423
  0.124665
  0.168309
  0.014684
 -0.063299
 -0.140646
 -0.005398
 -0.054022
  0.067130
  0.061948
 -0.068317
 -0.008749
  0.050423
 -0.100753
 -0.012461
 -0.025581
  0.115193
 -0.011964
 -0.048933
 -0.101322
  0.027677
  0.064091
  0.138546
  0.091199
 -0.071935
 -0.096361
 -0.025542
  0.058900
 -0.014602
 -0.061234
  0.029040
 -0.009264
 -0.162425
  0.030027
 -0.053181
 -0.007843
  0.045835
 -0.055799
  0.005611
  0.164116
  0.055298
  0.016221
  0.121938
 -0.022926
 -0.065029
  0.011380
  0.041612
 -0.033477
 -0.150563
 -0.092394
 -0.033058
 -0.046720
 -0.119866
  0.049005
  0.247539
  0.007783
 -0.025234
 -0.062510
 -0.009267
  0.004282
  0.092511
  0.033739
  0.019008
  0.044586
  0.003829
  0.016852
  0.011536
 -0.003236
  0.013327
  0.016689
 -0.009719
  0.082586
  0.006477
  0.017067
  0.055662
  0.066859
 -0.049725
  0.018280
 -0.029909
 -0.016291
  0.092254
  0.007999
  0.148385
 -0.030326
  0.013202
 -0.122481
  0.068263
  0.001399
  0.034864
  0.091715
 -0.077351
 -0.068632
  0.063285
  0.019425
 -0.021970
 -0.003858
  0.105489
  0.022002
 -0.074139
 -0.011849
 -0.022282
 -0.030542
  0.025676
 -0.099390
 -0.020594
  0.008687
  0.067368
 -0.016380
  0.052518
 -0.043262
 -0.009672
  0.030763
 -0.093454
 -0.086241
 -0.010020
  0.072222
  0.061812
 -0.006937
 -0.003295
  0.019104
  0.067919
 -0.020294
 -0.165186
  0.087191
 -0.034960
  0.161049
 -0.016984
  0.048891
 -0.023148
  0.130216
  0.034703
 -0.052613
  0.142457
 -0.059941
  0.088457
  0.078509
 -0.059838
  0.096444
  0.045168
  0.048791
 -0.059156
 -0.004162
  0.033404
  0.078705
 -0.040757
  0.117619
  0.050352
  0.048702
 -0.040042
  0.053879
 -0.144091
  0.100227
  0.063272
  0.066124
  0.039642
  0.075299
 -0.039033
  0.074891
  0.112491
 -0.036962
 -0.046997
 -0.102814
  0.018138
  0.087397
 -0.094888
  0.023944
  0.054012
  0.111050
 -0.215414
 -0.057373
 -0.075286
 -0.128227
  0.075582
 -0.043290
 -0.084960
 -0.035615
  0.058240
  0.018772
 -0.099330
  0.013404
  0.001532
  0.089667
 -0.153189
 -0.006062
  0.029219
 -0.166044
  0.021968
  0.062403
  0.029471
 -0.008698
  0.018641
  0.078790
  0.050117
  0.038035
  0.156009
  0.059074
  0.174784
 -0.051544
  0.009113
  0.009396
  0.127294
 -0.015500
  0.015740
 -0.031592
  0.013427
  0.049308
 -0.080627
 -0.059213
  0.030851
 -0.037509
 -0.003064
 -0.053792
 -0.003474
 -0.088416
 -0.016556
 -0.051150
  0.077110
  0.084269
  0.051911
  0.013293
  0.038888
  0.101984
 -0.021152
 -0.130288
  0.035218
  0.036825
  0.034689
 -0.017066
  0.042735
 -0.009532
 -0.056226
  0.002782
 -0.124190
  0.032863
  0.012372
  0.093001
  0.093227
 -0.076730
  0.021523
  0.147519
  0.006860
 -0.056777
  0.075939
 -0.004451
  0.048728
  0.050282
  0.143706
 -0.086112
  0.001949
  0.004651
  0.129092
  0.065224
  0.173942
  0.044925
  0.079552
  0.003109
 -0.033927
 -0.036420
 -0.072132
 -0.025317
 -0.056981
  0.004864
 -0.044777
  0.074361
 -0.144667
  0.080743
 -0.095149
 -0.070964
 -0.086233
 -0.092983
  0.018395
  0.004959
 -0.129919
 -0.132182
 -0.008189
 -0.037460
  0.039803
 -0.008690
  0.114739
  0.158053
  0.010297
  0.038067
  0.090719
  0.078989
  0.096789
  0.016154
  0.111187
 -0.020593
  0.038016
  0.084942
  0.048131
 -0.023472
  0.050928
  0.034589
 -0.062411
 -0.037109
 -0.022019
  0.013315
  0.057359
 -0.052583
 -0.052100
 -0.003066
 -0.074665
  0.007348
 -0.098279
  0.033477
 -0.102715
 -0.080601
 -0.121485
  0.072474
 -0.039451
 -0.087557
  0.050101
  0.063527
  0.056134
  0.065596
 -0.105732
 -0.002003
  0.054243
  0.044682
  0.028094
 -0.008799
  0.021730
 -0.056208
 -0.004094
 -0.135281
  0.051854
 -0.138098
  0.049372
 -0.022730
 -0.066990
 -0.102995
 -0.114208
 -0.001691
 -0.039798
 -0.078186
  0.092980
 -0.183453
  0.065787
  0.052946
  0.189496
 -0.027925
 -0.012865
  0.068403
 -0.110366
  0.047731
  0.025831
 -0.086527
  0.079809
 -0.092318
 -0.033861
 -0.104133
 -0.008474
  0.041880
  0.043475
  0.014876
  0.106838
  0.020491
  0.017727
  0.108136
  0.009424
  0.020434
  0.018453
 -0.003869
  0.154191
  0.260452
  0.054622
  0.060532
  0.152896
 -0.070825
 -0.100434
  0.025998
 -0.173623
  0.125046
 -0.038130
  0.081453
  0.076295
  0.036619
  0.116782
 -0.042648
  0.113344
 -0.074472
 -0.016570
 -0.065672
  0.112457
  0.143228
  0.050819
  0.005164
  0.033008
  0.052819
  0.129421
  0.054840
 -0.049612
 -0.074841
 -0.008698
 -0.215244
 -0.017051
 -0.094319
 -0.095552
 -0.217101
 -0.126937
 -0.045649
  0.061742
 -0.091482
 -0.064427
  0.035077
 -0.005027
  0.051113
 -0.029241
  0.111373
 -0.019335
 -0.059149
  0.096219
  0.017061
  0.016303
 -0.082302
 -0.012026
  0.018420
  0.084746
  0.045046
  0.037759
 -0.017872
  0.148325
 -0.021406
  0.081196
 -0.032728
 -0.186784
  0.011415
 -0.061398
 -0.011778
  0.062558
  0.034762
  0.100821
  0.034389
  0.015737
 -0.064129
  0.081418
 -0.082581
 -0.093278
 -0.020964
 -0.055874
  0.056765
  0.017963
 -0.137675
  0.002327
 -0.065843
 -0.063507
  0.013963
  0.042017
 -0.040869
 -0.064802
 -0.008257
  0.084161
  0.144772
  0.005100
 -0.043418
 -0.078453
 -0.064705
  0.190559
  0.074990
 -0.096298
 -0.138378
  0.077401
 -0.007216
 -0.051478
 -0.060397
 -0.063232
 -0.076549
  0.044666
  0.057931
  0.146693
  0.170824
  0.044051
  0.064460
  0.045550
 -0.039353
  0.141423
 -0.095707
 -0.023522
 -0.023759
 -0.043553
 -0.037272
 -0.026377
  0.050977
 -0.007298
 -0.020378
 -0.118312
  0.066631
  0.015415
 -0.159590
 -0.044221
 -0.051667
  0.018669
 -0.086307
  0.073235
  0.109693
  0.017242
  0.002979
  0.135491
  0.071141
  0.097259
  0.139122
  0.033385
  0.091198
  0.192891
 -0.012339
  0.078978
 -0.056599
 -0.012961
  0.031083
 -0.026723
 -0.113533
  0.065266
 -0.008244
  0.081473
 -0.018587
 -0.017952
  0.086096
  0.072160
  0.014286
  0.042810
 -0.085776
 -0.132207
  0.120069
 -0.012320
 -0.030308
 -0.076797
 -0.066312
 -0.125453
  0.110950
  0.020641
  0.103766
  0.026411
 -0.098367
 -0.124662
  0.016240
  0.024900
  0.052559
 -0.098286
 -0.049352
  0.265656
 -0.060428
 -0.171744
 -0.133475
  0.086469
 -0.040451
  0.107081
  0.074513
  0.091899
 -0.020439
  0.074043
 -0.153663
  0.066352
  0.062803
  0.043556
 -0.084852
 -0.024901
 -0.024814
  0.044919
  0.019944
 -0.042879
  0.054223
 -0.059841
  0.063750
  0.059906
  0.124464
  0.063956
 -0.095438
  0.013420
 -0.072052
  0.107010
  0.007166
  0.133514
 -0.036493
  0.121762
 -0.092892
 -0.077816
 -0.003727
 -0.009736
 -0.104386
 -0.053958
 -0.002806
 -0.053432
 -0.153037
 -0.039633
  0.049156
 -0.085103
 -0.046383
 -0.005080
  0.001318
  0.080990
  0.067478
 -0.113018
  0.011381
  0.074607
 -0.113547
 -0.135331
 -0.063254
  0.056126
  0.070456
  0.115347
  0.029762
 -0.100879
 -0.042073
 -0.109305
 -0.108030
 -0.039363
  0.003557
 -0.011292
  0.005142
 -0.034592
  0.008320
 -0.039250
 -0.025751
  0.059807
 -0.007098
 -0.117861
 -0.189486
 -0.109659
 -0.082394
 -0.113875
  0.055755
  0.007755
 -0.090377
  0.106212
 -0.022905
  0.106810
  0.030890
 -0.028399
 -0.069924
  0.050506
 -0.051020
  0.083335
 -0.010235
 -0.026603
  0.002985
 -0.154507
 -0.016299
 -0.036935
 -0.074216
 -0.002047
  0.006639
 -0.063320
  0.010017
 -0.164268
  0.099787
  0.035152
 -0.051355
 -0.004143
 -0.102985
 -0.037656
  0.090418
 -0.048499
  0.115740
  0.082668
  0.105223
  0.069782
 -0.035512
  0.098314
  0.080165
  0.077432
 -0.062144
  0.114307
  0.042954
  0.027304
 -0.038540
 -0.186366
  0.050770
 -0.098362
 -0.015678
 -0.092381
  0.064932
  0.045075
  0.134384
 -0.089623
  0.045359
 -0.067647
 -0.088840
  0.046409
 -0.075511
  0.062071
  0.054064
 -0.046509
  0.019253
  0.056730
  0.039870
 -0.064120
 -0.121768
  0.060685
 -0.022256
  0.039911
  0.041439
  0.155843
 -0.033063
 -0.053360
  0.013206
 -0.045103
  0.012139
  0.046086
 -0.015629
 -0.079803
  0.029619
 -0.032370
  0.054343
  0.051668
  0.211462
  0.142204
  0.047659
 -0.024681
  0.056522
 -0.008705
 -0.056077
  0.108617
 -0.014243
 -0.001613
  0.006376
  0.014695
 -0.040029
 -0.044321
 -0.019183
  0.088474
  0.077745
 -0.174005
 -0.107447
 -0.003432
 -0.067669
  0.026287
 -0.029203
 -0.035080
 -0.080249
 -0.107183
  0.018490
 -0.056403
  0.059402
 -0.025434
  0.024266
 -0.060298
  0.027021
 -0.130823
  0.046230
 -0.165494
 -0.002324
  0.094234
  0.100734
 -0.166274
  0.068437
  0.048651
 -0.037622
  0.002599
 -0.153307
 -0.025330
  0.063405
  0.063945
 -0.094589
 -0.032135
 -0.023157
 -0.071756
  0.063463
  0.030152
  0.138598
 -0.112667
 -0.084658
  0.070029
 -0.008064
 -0.036677
  0.055284
 -0.072494
 -0.073134
  0.039781
 -0.022019
  0.060051
 -0.095175
  0.020062
 -0.085873
  0.084571
 -0.125685
 -0.045499
 -0.080057
  0.108921
 -0.095748
  0.056146
 -0.099775
 -0.072688
 -0.019831
 -0.014444
 -0.082953
  0.062605
  0.055761
  0.086121
 -0.014462
  0.036386
 -0.029573
 -0.079115
  0.003457
 -0.072916
  0.033413
  0.053534
  0.085707
 -0.191354
 -0.149924
  0.007339
 -0.031252
 -0.016336
 -0.021674
 -0.039410
  0.111624
 -0.086558
 -0.017894
  0.111266
 -0.139091
  0.011244
  0.019055
  0.114317
  0.141105
  0.073218
 -0.120227
  0.005345
 -0.109914
  0.100033
 -0.110861
 -0.012369
  0.087812
  0.038384
  0.045026
  0.027631
 -0.021099
  0.068015
  0.147774
 -0.100718
  0.102710
  0.071847
 -0.046470
  0.229741
 -0.154787
 -0.074489
  0.024499
  0.093433
  0.066697
 -0.061999
 -0.094700
  0.055610
  0.018305
 -0.039870
  0.033806
 -0.065072
  0.010673
  0.012305
 -0.110262
 -0.055089
 -0.083153
 -0.047299
  0.044418
 -0.074126
 -0.050803
 -0.114454
  0.030633
 -0.066857
  0.003430
 -0.019469
  0.005646
 -0.171599
 -0.142156
 -0.123127
  0.091766
  0.009855
 -0.056073
  0.149209
 -0.054909
  0.113916
  0.001472
  0.108872
  0.000287
 -0.077260
 -0.034527
 -0.030739
 -0.059650
  0.045610
 -0.028962
  0.069993
 -0.115080
 -0.100046
  0.006516
  0.040762
  0.036869
 -0.063593
  0.004127
  0.023366
 -0.068869
  0.030167
 -0.064821
 -0.028341
  0.068776
  0.083229
 -0.116902
  0.055673
  0.067274
  0.011801
  0.124150
 -0.119316
 -0.011893
  0.050476
  0.102073
  0.031346
  0.080388
 -0.090894
  0.022757
  0.004603
  0.200260
 -0.014368
  0.021194
 -0.084591
  0.055439
  0.095860
 -0.047293
 -0.047764
  0.085318
 -0.193889
 -0.154919
 -0.082911
  0.016300
  0.112313
 -0.053809
  0.106407
  0.067842
 -0.058023
 -0.020750
  0.034069
 -0.012416
  0.118538
 -0.106169
  0.057053
  0.151159
  0.021648
 -0.014093
  0.018494
  0.013022
 -0.016616
  0.152682
  0.044919
 -0.083672
  0.102133
  0.021760
  0.056000
  0.016562
 -0.080317
  0.116278
 -0.039596
 -0.029997
  0.064964
 -0.176332
 -0.085608
  0.012222
 -0.013315
 -0.017729
 -0.070585
 -0.017452
  0.051703
  0.038951
  0.064353
  0.209343
  0.094989
  0.075328
 -0.074647
  0.003869
 -0.037596
  0.004430
  0.065084
 -0.092082
 -0.090634
  0.040233
  0.073685
  0.032814
  0.039228
  0.026931
  0.043263
 -0.108438
 -0.002282
  0.077774
  0.119783
  0.091714
 -0.073374
 -0.031454
 -0.024873
  0.008798
 -0.070770
 -0.025049
  0.026967
 -0.020653
  0.061658
 -0.029720
  0.104155
 -0.086468
 -0.055711
 -0.029633
 -0.039737
 -0.041672
 -0.020865
 -0.125984
  0.156637
 -0.024549
 -0.030153
  0.165061
  0.006866
  0.105584
 -0.071134
  0.010004
  0.013569
 -0.004950
 -0.126924
  0.017908
  0.070377
 -0.068990
 -0.130942
 -0.090040
 -0.064926
  0.177535
  0.033978
 -0.018203
  0.081887
  0.069980
 -0.059028
  0.084900
 -0.042118
  0.083954
 -0.103968
 -0.051356
 -0.061965
 -0.085841
  0.003634
 -0.033104
 -0.014074
 -0.029912
 -0.012018
 -0.025571
 -0.051907
 -0.025818
  0.088046
 -0.022547
 -0.073448
 -0.108747
 -0.089280
  0.006590
 -0.078008
 -0.038401
 -0.099139
 -0.026907
  0.081531
  0.131706
 -0.124215
  0.147489
 -0.010545
 -0.054838
  0.012349
  0.070294
  0.000998
 -0.101554
 -0.002902
 -0.031479
 -0.043070
  0.003855
  0.010222
 -0.034862
 -0.067277
 -0.011002
 -0.007214
 -0.039907
  0.018124
 -0.064786
  0.142703
  0.096463
  0.027121
  0.065311
 -0.043487
 -0.073915
  0.036003
 -0.002798
  0.007849
 -0.001758
 -0.010768
  0.073065
 -0.033330
  0.063844
 -0.070943
 -0.046490
  0.026868
 -0.039271
  0.020866
 -0.129954
 -0.013509
  0.167263
  0.023313
  0.239763
  0.089960
 -0.078204
  0.084250
  0.101595
  0.089635
  0.003980
 -0.089299
  0.127691
 -0.184666
 -0.032980
  0.029609
 -0.025659
 -0.091139
  0.000169
 -0.057029
 -0.003968
 -0.085338
 -0.091270
 -0.142218
 -0.034423
 -0.010432
 -0.126526
 -0.115378
  0.051642
 -0.072267
  0.056086
  0.087357
  0.006518
  0.048708
  0.058805
  0.006898
 -0.051353
  0.007307
  0.091980
 -0.034200
  0.020716
 -0.095439
  0.040496
 -0.034381
 -0.069582
  0.094103
 -0.084827
  0.062379
  0.011071
  0.046619
  0.073427
  0.042831
  0.118719
  0.012544
  0.040866
 -0.093134
 -0.026155
 -0.136731
 -0.004735
  0.179618
 -0.039371
 -0.097444
 -0.140417
 -0.028255
  0.058689
 -0.008589
  0.092442
  0.003353
 -0.011165
 -0.017939
  0.122167
  0.059390
 -0.118989
 -0.185149
 -0.074990
  0.017367
  0.073201
  0.005972
  0.034089
 -0.078445
  0.257521
 -0.049920
 -0.058537
  0.046134
  0.023179
 -0.243789
 -0.017865
 -0.095590
 -0.053733
  0.083755
  0.006379
  0.098026
 -0.031361
  0.101026
 -0.123053
  0.157393
  0.005932
 -0.171527
  0.002992
  0.043316
 -0.039395
 -0.082337
 -0.188817
 -0.004912
  0.036485
  0.089113
 -0.028854
 -0.098763
  0.029361
 -0.051155
 -0.035534
 -0.109842
  0.027617
  0.085848
 -0.038859
 -0.096220
 -0.094701
 -0.065471
 -0.035685
 -0.018168
 -0.120949
 -0.106307
  0.003168
 -0.030797
 -0.006042
 -0.021749
 -0.074167
  0.018553
 -0.000465
 -0.025852
  0.246738
  0.010353
 -0.037481
  0.109220
 -0.105788
 -0.047062
 -0.062813
  0.051257
  0.110360
 -0.017220
  0.103576
 -0.112058
  0.052874
 -0.065770
 -0.057506
 -0.133215
 -0.013173
  0.029963
 -0.007872
  0.003892
  0.042265
 -0.019115
 -0.109497
 -0.103018
 -0.086316
 -0.089712
 -0.065283
  0.031360
  0.015508
 -0.145498
 -0.012662
  0.115809
  0.053147
 -0.027588
  0.046287
 -0.160335
  0.068347
  0.000091
  0.006002
 -0.069625
 -0.060859
  0.026359
  0.004721
 -0.040323
  0.011931
 -0.174188
 -0.012908
 -0.060960
 -0.126158
 -0.004442
  0.078567
  0.041004
  0.066091
  0.017208
 -0.114652
  0.065552
  0.119156
  0.045987
  0.006127
  0.087417
 -0.093576
  0.035677
 -0.037833
  0.044780
  0.068476
 -0.194974
 -0.072674
 -0.029653
  0.125895
  0.012021
 -0.071554
  0.113521
  0.048789
  0.003299
 -0.019088
 -0.027718
 -0.144041
 -0.059863
 -0.002493
 -0.045749
  0.042757
 -0.132235
 -0.057449
 -0.101303
  0.177225
  0.039554
 -0.115361
  0.011631
 -0.002030
  0.026123
 -0.123857
  0.125048
  0.145995
 -0.038300
  0.005929
  0.040431
  0.098770
 -0.043166
 -0.016790
  0.045253
 -0.084362
 -0.127417
  0.041340
 -0.054282
  0.046180
  0.003806
 -0.014994
 -0.046596
 -0.003488
 -0.023125
 -0.071908
  0.155741
 -0.007942
 -0.015515
  0.030732
 -0.017872
  0.025300
  0.023162
  0.060653
  0.024240
 -0.051528
 -0.049879
 -0.062774
 -0.009247
 -0.068267
  0.076194
 -0.093426
  0.084133
  0.039077
 -0.012607
 -0.093397
  0.128271
 -0.004549
 -0.186315
 -0.108895
 -0.014835
  0.012869
  0.046300
  0.048838
  0.042960
 -0.067583
 -0.108330
  0.025027
 -0.024063
  0.010028
  0.097460
 -0.047927
  0.008067
 -0.012358
 -0.041050
 -0.057186
 -0.056928
  0.054639
 -0.048049
 -0.135963
 -0.025006
 -0.035675
 -0.000856
 -0.003169
 -0.088033
  0.050864
  0.090277
 -0.037103
 -0.021030
 -0.091138
 -0.083556
 -0.117216
 -0.077408
  0.017364
  0.050068
  0.024619
  0.113269
 -0.038669
 -0.061568
 -0.028194
  0.025085
  0.097755
 -0.044099
  0.097424
 -0.051035
 -0.075886
  0.112266
  0.042594
  0.034621
 -0.067166
 -0.135712
 -0.158778
  0.013187
  0.045371
  0.154321
  0.137051
 -0.035397
 -0.003029
  0.094716
 -0.010488
  0.032747
  0.096579
 -0.061287
  0.014909
 -0.135888
  0.116208
 -0.035769
 -0.014547
  0.038630
  0.017088
  0.173764
  0.155201
  0.048277
 -0.015255
 -0.057768
  0.052235
 -0.031020
  0.112598
 -0.010472
 -0.044006
 -0.025368
  0.099219
  0.026818
  0.030278
  0.048686
 -0.006626
 -0.027608
 -0.150786
 -0.004706
 -0.000649
 -0.006889
  0.163218
  0.009704
 -0.043708
 -0.006381
  0.091597
 -0.172078
 -0.118562
 -0.053294
 -0.096790
  0.080968
 -0.047337
  0.059168
 -0.010157
 -0.090011
  0.137435
  0.116570
 -0.012655
  0.037729
 -0.051448
  0.016278
 -0.214866
  0.102847
  0.066633
  0.017651
  0.039206
 -0.023451
  0.071390
 -0.053554
  0.092832
  0.048465
 -0.015408
  0.015905
  0.043266
 -0.001853
 -0.077541
  0.041143
 -0.047382
  0.070655
  0.123818
 -0.014183
  0.030281
 -0.128152
 -0.046547
 -0.169399
 -0.024066
 -0.002838
  0.004020
  0.124037
 -0.031250
  0.025118
  0.008813
  0.008609
  0.143578
 -0.151030
  0.020894
 -0.084890
 -0.001936
 -0.006046
 -0.130735
  0.024303
 -0.045326
 -0.023940
  0.115028
 -0.035055
  0.078648
  0.137630
 -0.037336
  0.075811
  0.101985
 -0.176794
  0.006182
 -0.143389
  0.047710
  0.024136
  0.034913
  0.129159
 -0.019067
 -0.067839
 -0.059942
 -0.013860
  0.129403
 -0.101847
 -0.030856
  0.197939
  0.066464
  0.036855
 -0.070772
 -0.001700
  0.105190
 -0.024624
  0.034853
  0.077245
 -0.094383
 -0.115258
  0.106957
  0.008838
 -0.038191
 -0.095922
  0.039025
 -0.013879
 -0.090647
 -0.054555
 -0.015831
 -0.102870
  0.072254
  0.123353
  0.139520
 -0.124361
 -0.072273
 -0.115572
  0.221519
 -0.102173
 -0.094467
  0.120720
 -0.071505
  0.000382
  0.051487
  0.070494
  0.092422
  0.003823
 -0.099099
 -0.001057
 -0.063675
 -0.067878
  0.022933
 -0.094707
 -0.056373
 -0.058935
  0.086670
  0.158306
  0.062709
 -0.084722
 -0.005820
 -0.100248
  0.140210
 -0.055273
  0.087933
  0.023659
 -0.052147
 -0.007640
 -0.045289
  0.050636
 -0.102278
  0.000524
  0.031781
 -0.055290
 -0.084945
  0.019754
 -0.039939
 -0.061244
 -0.008347
  0.080190
 -0.074499
 -0.031749
 -0.024566
 -0.002066
 -0.134514
  0.054204
  0.011143
  0.081029
 -0.074854
 -0.084594
 -0.072887
  0.079611
 -0.036135
  0.067815
 -0.043745
  0.047016
 -0.026649
 -0.044031
 -0.033249
  0.021424
  0.016343
  0.093162
  0.054898
  0.003434
 -0.002312
  0.050280
 -0.120663
 -0.097216
 -0.043692
 -0.044676
 -0.004252
 -0.005533
  0.070165
 -0.030508
 -0.009221
 -0.018337
 -0.060870
  0.056047
 -0.137344
  0.057342
  0.158681
  0.081820
  0.034927
  0.067579
 -0.005398
  0.155938
 -0.034263
  0.036504
 -0.096499
 -0.044402
  0.034710
  0.056122
 -0.142560
  0.000891
 -0.082341
  0.099797
  0.043632
  0.022135
  0.005556
  0.038424
 -0.069250
 -0.029724
 -0.037002
  0.032370
  0.068679
 -0.104470
 -0.004695
  0.067740
 -0.065141
 -0.063376
  0.121168
 -0.213014
  0.008048
 -0.042624
  0.011260
 -0.095494
 -0.038066
 -0.094555
 -0.020889
 -0.089729
 -0.117994
 -0.100863
 -0.062855
  0.062898
 -0.013114
 -0.025191
 -0.007947
  0.045201
 -0.100053
 -0.010988
  0.019138
  0.036696
 -0.119140
 -0.091612
  0.135714
  0.064845
 -0.126589
 -0.102717
 -0.103865
  0.058479
 -0.032203
  0.025051
  0.028951
  0.173417
  0.031592
  0.073885
 -0.205942
  0.057246
 -0.046800
 -0.037638
 -0.005080
  0.107085
 -0.021681
  0.098778
  0.135780
  0.068153
  0.041943
 -0.082937
 -0.233346
 -0.039724
  0.017059
 -0.088610
 -0.136630
  0.018799
 -0.082492
 -0.034219
  0.097817
 -0.036785
 -0.101217
 -0.013012
  0.053783
 -0.060211
  0.037871
  0.073268
 -0.005409
 -0.031764
 -0.180932
  0.070469
  0.069636
  0.126445
 -0.060027
  0.152078
 -0.011164
 -0.180431
  0.186914
 -0.040236
  0.000567
  0.060206
 -0.042343
  0.123088
  0.001242
  0.071943
 -0.008791
  0.044454
  0.032394
 -0.147297
 -0.033831
  0.050772
 -0.039851
  0.066282
 -0.031504
  0.004307
 -0.031742
 -0.083884
 -0.063418
 -0.020655
 -0.017379
  0.105672
  0.035536
 -0.021826
 -0.104377
  0.044037
 -0.027086
  0.096863
 -0.095361
 -0.028651
 -0.056332
  0.052141
 -0.104449
  0.043464
  0.004280
  0.074352
  0.005186
 -0.037638
  0.014301
  0.053711
 -0.036381
 -0.019407
  0.010082
 -0.075454
  0.015836
 -0.102565
  0.054349
 -0.005714
 -0.027469
  0.043829
 -0.001603
  0.048543
 -0.053521
 -0.015549
 -0.080255
 -0.075814
 -0.026546
  0.054682
  0.066667
  0.142100
 -0.022520
  0.059771
  0.014761
  0.022121
  0.185565
 -0.015716
  0.065062
 -0.011146
 -0.209804
 -0.075807
 -0.045847
 -0.101482
  0.113140
  0.005430
  0.073872
  0.155437
  0.057824
 -0.081246
  0.124764
  0.022392
 -0.145365
 -0.012039
  0.088328
  0.066032
 -0.007707
 -0.013037
  0.070408
 -0.020139
  0.111057
 -0.109153
 -0.073348
 -0.079384
  0.016864
  0.002087
 -0.037545
 -0.019177
 -0.055819
 -0.020041
  0.080822
  0.032690
 -0.013202
  0.174106
 -0.025179
  0.086500
 -0.011535
 -0.012256
 -0.063393
 -0.020640
  0.026549
 -0.044836
 -0.005316
  0.061988
  0.088966
 -0.040955
  0.037308
  0.096453
 -0.100256
  0.037374
 -0.142006
 -0.089010
  0.075377
  0.076178
 -0.055855
  0.051032
 -0.052485
 -0.020972
 -0.130326
 -0.070603
  0.107846
  0.051855
 -0.110673
  0.076282
  0.078457
 -0.152859
  0.108089
  0.043293
 -0.161424
 -0.074824
 -0.017557
 -0.030021
 -0.215220
  0.056153
  0.044706
  0.106848
 -0.151239
 -0.004640
 -0.005907
 -0.098292
  0.000374
  0.103538
  0.038889
 -0.062049
  0.050952
 -0.028214
  0.053884
 -0.121648
 -0.071756
  0.020250
  0.033784
 -0.020280
 -0.035538
  0.060523
 -0.000938
 -0.044750
  0.036501
  0.081954
 -0.039583
  0.036179
  0.158357
  0.009104
 -0.144917
 -0.049588
 -0.013710
  0.049508
 -0.020885
  0.083399
  0.058479
 -0.044613
 -0.017276
  0.038289
  0.047897
  0.013707
  0.079607
  0.061928
  0.022746
  0.047532
 -0.062707
 -0.020646
 -0.064329
  0.011954
 -0.107552
 -0.031816
  0.128336
  0.061729
  0.082840
  0.024597
  0.001558
  0.017102
 -0.060924
  0.004022
  0.021912
  0.021499
  0.162835
 -0.070104
  0.121848
 -0.009659
  0.064632
 -0.019128
  0.066869
  0.141437
  0.082098
 -0.000390
  0.029982
 -0.036352
 -0.011932
  0.083363
  0.000579
  0.027739
 -0.041359
  0.095796
 -0.030226
 -0.132986
  0.070432
 -0.040307
  0.046608
 -0.096576
  0.064057
  0.022597
  0.039207
  0.002171
 -0.023752
 -0.025267
 -0.208595
 -0.002067
 -0.074687
 -0.138440
 -0.043191
 -0.099281
  0.087512
 -0.087867
  0.030141
  0.000337
 -0.064711
 -0.049964
  0.132354
  0.054659
 -0.026673
 -0.055220
  0.007767
  0.034380
  0.061757
 -0.058218
 -0.048051
 -0.058862
  0.094080
  0.030488
 -0.103924
 -0.021663
 -0.056235
  0.005100
 -0.022585
  0.083625
 -0.075046
 -0.003410
  0.059641
 -0.052281
  0.136580
  0.096338
  0.033339
  0.067257
  0.024542
  0.039718
  0.065304
  0.044456
 -0.042499
  0.025684
 -0.038897
 -0.023742
  0.078552
 -0.044986
 -0.015203
  0.202339
  0.095880
 -0.059976
 -0.031022
  0.141970
  0.076400
 -0.046895
 -0.079289
 -0.044529
 -0.005896
 -0.069881
 -0.155958
  0.016357
  0.129668
  0.101599
 -0.040021
 -0.029978
 -0.106830
  0.014706
  0.014389
  0.063210
  0.098353
 -0.063879
 -0.044695
  0.150460
 -0.128993
 -0.079215
  0.111919
  0.056051
  0.084892
 -0.022526
  0.036862
  0.041949
  0.173490
 -0.118922
 -0.011876
  0.035480
 -0.048604
  0.008629
  0.000102
 -0.032370
 -0.020796
 -0.076242
 -0.028573
 -0.133755
 -0.202919
  0.020227
 -0.033847
 -0.016841
  0.026727
  0.063647
 -0.055288
 -0.016007
  0.110553
  0.082449
  0.037462
  0.026059
  0.033231
 -0.067835
 -0.143465
  0.012411
 -0.114285
  0.101371
 -0.180750
 -0.133151
  0.115299
  0.091949
 -0.009874
  0.059013
 -0.122012
  0.031335
  0.013261
 -0.080830
  0.083630
 -0.146321
  0.058812
 -0.102301
  0.001206
 -0.040544
 -0.005966
  0.051460
  0.064927
  0.022546
  0.065805
 -0.048086
 -0.009752
 -0.057607
  0.099373
  0.034301
  0.091064
  0.052172
  0.002529
  0.028054
  0.073676
 -0.000070
  0.080996
 -0.003151
  0.017658
 -0.063443
  0.028383
 -0.023992
  0.048298
  0.056107
 -0.060068
  0.099269
 -0.004697
 -0.064624
 -0.017313
 -0.011548
  0.015602
 -0.003218
  0.014246
  0.001321
 -0.042617
  0.096717
  0.117373
  0.011364
  0.011583
 -0.005629
  0.127440
 -0.025480
 -0.072371
  0.071859
  0.055775
  0.005456
  0.064137
 -0.001094
 -0.102478
  0.002834
 -0.048243
  0.074337
 -0.082069
  0.130141
 -0.011815
 -0.156655
  0.020566
  0.043360
 -0.041062
 -0.043390
  0.101682
 -0.045514
  0.061567
 -0.037045
  0.081078
 -0.057337
  0.009422
  0.019230
  0.065764
  0.082010
  0.077469
  0.061740
 -0.066626
 -0.063119
 -0.056991
 -0.073049
  0.001328
 -0.001149
  0.012059
  0.094047
 -0.030157
  0.062051
  0.023410
  0.027599
  0.050227
  0.052901
  0.046227
  0.031844
 -0.159326
 -0.045204
 -0.037034
  0.013430
  0.086037
  0.051951
  0.030543
 -0.086912
  0.058177
  0.053489
  0.214887
 -0.073047
 -0.023060
  0.125461
 -0.031398
 -0.098487
 -0.035585
 -0.041693
  0.120726
 -0.035300
  0.001253
  0.058095
 -0.112521
 -0.076266
  0.069583
 -0.033208
  0.005809
 -0.156864
 -0.168479
  0.224236
 -0.010796
 -0.015122
 -0.026073
  0.094900
 -0.079707
  0.050894
  0.103661
 -0.008175
  0.007422
  0.099619
 -0.057284
 -0.054323
  0.014385
 -0.017287
  0.050679
  0.033088
  0.161909
  0.081519
  0.031151
 -0.156283
  0.161132
  0.050315
  0.144228
 -0.030096
  0.002731
  0.067821
 -0.076060
  0.019954
 -0.058417
  0.092800
  0.139045
 -0.163863
 -0.068655
 -0.129085
  0.060489
  0.010235
  0.012701
  0.018889
 -0.064662
  0.050880
 -0.058045
 -0.046711
 -0.030681
 -0.041229
 -0.046301
  0.080602
  0.061096
 -0.108947
 -0.043045
  0.012010
  0.159239
 -0.004800
 -0.037453
 -0.085153
 -0.129725
  0.026536
  0.057053
  0.076804
  0.033407
  0.162758
 -0.036951
 -0.055833
 -0.031478
  0.026086
  0.073590
  0.048395
 -0.013770
 -0.018934
 -0.018430
 -0.019264
 -0.017129
  0.029889
  0.110250
 -0.078606
 -0.090076
 -0.019398
 -0.163550
 -0.066683
 -0.034010
 -0.004918
 -0.004304
  0.105931
 -0.160658
  0.113194
 -0.095195
 -0.114025
  0.068722
 -0.123410
 -0.103918
 -0.053530
  0.033308
 -0.097251
 -0.031209
  0.081864
  0.011079
 -0.039872
 -0.036065
 -0.086173
  0.082083
  0.012979
  0.039253
  0.097380
 -0.148837
  0.113508
 -0.180458
  0.065334
 -0.059243
  0.033777
  0.080269
  0.118841
  0.042890
  0.031414
 -0.037950
 -0.041894
 -0.046524
 -0.075604
 -0.036167
 -0.025611
 -0.026506
  0.043241
  0.037071
 -0.037717
  0.063975
 -0.024760
 -0.020875
  0.048467
  0.034695
  0.032328
  0.010116
  0.069924
  0.056192
 -0.203244
  0.047551
  0.092683
  0.075607
  0.006451
  0.017454
 -0.102367
  0.065459
  0.112660
  0.016632
 -0.054896
  0.022613
 -0.074691
 -0.173226
  0.085239
  0.029464
  0.050993
 -0.060485
 -0.001124
  0.071078
 -0.063906
  0.047061
  0.081036
  0.084958
 -0.061175
  0.011206
  0.021872
  0.010252
  0.064509
 -0.060481
 -0.110847
 -0.025677
  0.062199
  0.057948
 -0.013677
  0.013405
 -0.071439
 -0.100869
  0.053907
 -0.004948
  0.098552
 -0.048449
 -0.118790
  0.003592
  0.085537
  0.063706
 -0.026153
 -0.021487
 -0.032996
 -0.017691
  0.052709
 -0.047048
  0.023785
 -0.039874
 -0.004196
  0.052832
 -0.077318
 -0.009671
  0.068005
  0.037527
  0.105015
  0.011441
  0.058826
  0.057578
 -0.056501
 -0.202864
 -0.095027
 -0.020746
 -0.158651
 -0.073482
  0.008957
  0.011539
  0.153446
 -0.013938
 -0.006257
 -0.057329
  0.084186
  0.080539
  0.005982
  0.005322
  0.023410
 -0.050242
  0.142733
 -0.003874
  0.033258
 -0.012543
  0.004688
 -0.019875
  0.067824
  0.018790
  0.209716
 -0.074151
  0.140250
  0.018604
  0.003687
  0.142756
  0.112408
 -0.161862
 -0.017659
 -0.067135
 -0.046241
 -0.114304
  0.128640
 -0.078429
 -0.067235
 -0.086836
 -0.112689
 -0.069945
  0.019624
  0.025196
  0.096007
 -0.102952
 -0.039451
  0.061163
  0.014131
  0.058069
 -0.029375
  0.104504
  0.020357
  0.032146
  0.023242
 -0.071299
 -0.019033
 -0.031275
 -0.069543
  0.061795
  0.111690
 -0.023039
  0.083916
  0.003121
 -0.007592
 -0.057848
 -0.052079
  0.067132
  0.013372
 -0.096942
  0.026277
 -0.073189
  0.019196
  0.079392
  0.044095
  0.116722
  0.033007
 -0.017609
  0.100013
 -0.026147
  0.128234
 -0.023001
  0.063992
 -0.059102
 -0.128659
 -0.080531
  0.008235
 -0.049679
 -0.110732
 -0.005169
 -0.071249
  0.150308
  0.135250
  0.013683
  0.028662
 -0.033825
  0.036105
 -0.023522
 -0.068837
  0.035461
 -0.038447
  0.089851
  0.015670
 -0.020931
 -0.146676
  0.089193
  0.142600
  0.017937
  0.026842
  0.104306
  0.001390
 -0.053956
 -0.041846
 -0.113177
 -0.008451
  0.077090
 -0.050937
 -0.016347
  0.064541
 -0.036594
  0.107252
 -0.046462
  0.058185
  0.113040
  0.113671
  0.001088
 -0.019453
  0.000391
  0.114177
 -0.040970
 -0.085758
 -0.089256
  0.038480
 -0.026297
 -0.013724
 -0.105470
 -0.083707
 -0.083177
 -0.060243
 -0.050739
  0.042347
  0.014704
  0.143352
  0.011746
 -0.051705
  0.099210
  0.044813
 -0.023813
  0.030287
  0.096030
 -0.080544
 -0.107384
 -0.025057
 -0.067022
  0.101602
  0.084199
 -0.014605
 -0.128501
 -0.012073
 -0.169372
  0.155989
  0.078187
  0.052940
 -0.042550
 -0.002175
 -0.019469
  0.074005
 -0.118939
  0.085567
  0.089835
 -0.105341
 -0.100643
  0.043833
  0.098173
 -0.070493
 -0.043452
 -0.134958
  0.021226
 -0.085769
 -0.053132
  0.105812
 -0.067849
 -0.070802
 -0.087471
 -0.055536
  0.088173
 -0.100323
  0.007955
 -0.026295
  0.039314
 -0.005038
  0.109562
  0.176849
 -0.138382
 -0.097160
  0.129382
 -0.045286
 -0.091481
 -0.039180
 -0.109264
  0.042249
 -0.119827
 -0.031081
  0.076990
  0.102771
  0.051573
  0.037339
 -0.045841
  0.036503
  0.005052
 -0.090150
 -0.135745
  0.026992
  0.086438
 -0.149315
  0.022369
  0.136224
 -0.106465
  0.024813
 -0.091473
  0.017824
 -0.020625
  0.116172
  0.005199
 -0.018861
 -0.003823
 -0.050403
 -0.034791
 -0.030991
 -0.037318
 -0.006748
 -0.016661
  0.017394
 -0.056001
  0.001797
 -0.059211
 -0.025220
  0.057460
 -0.107552
 -0.041267
  0.030292
 -0.065309
 -0.019335
  0.023549
 -0.019063
  0.103658
 -0.007898
  0.032551
 -0.016662
  0.069501
 -0.140855
  0.001236
 -0.037275
 -0.116105
  0.078802
  0.086900
  0.102689
 -0.063039
  0.009674
  0.047386
 -0.059056
 -0.039672
  0.065953
  0.003075
  0.039362
 -0.011661
  0.021397
 -0.038214
 -0.074178
  0.030639
  0.024367
 -0.022331
 -0.004506
 -0.074109
 -0.078334
 -0.012108
 -0.019227
 -0.131993
  0.146767
  0.045446
  0.050248
  0.101183
 -0.001730
 -0.011287
  0.124672
 -0.088679
 -0.125376
 -0.026525
  0.005410
 -0.084168
  0.102481
 -0.097669
 -0.006403
  0.054403
  0.092604
  0.000561
  0.215647
 -0.005530
  0.065619
 -0.029493
  0.071075
 -0.096051
  0.098756
 -0.033637
  0.067899
  0.027600
 -0.031557
  0.043775
 -0.010919
 -0.083813
 -0.070256
 -0.019786
  0.019339
 -0.079403
  0.069139
 -0.115780
  0.100635
  0.013412
 -0.013313
  0.013183
  0.081115
 -0.095151
  0.043797
 -0.019990
 -0.017959
 -0.153082
 -0.082292
  0.052742
 -0.044046
  0.232986
  0.038070
  0.044328
 -0.063605
  0.024023
 -0.020177
  0.115223
  0.129223
 -0.009943
  0.105147
  0.093640
 -0.042357
 -0.092030
  0.089398
 -0.047858
 -0.019478
 -0.090179
  0.007981
  0.070326
  0.051020
 -0.101592
 -0.078726
 -0.072566
  0.008541
  0.033468
 -0.023637
  0.151812
  0.017401
 -0.008889
  0.111794
 -0.120048
 -0.114328
 -0.076892
 -0.020292
  0.030683
 -0.035323
 -0.054330
 -0.131032
  0.076098
 -0.090013
  0.065733
 -0.078985
 -0.118159
  0.069161
 -0.023864
  0.086279
  0.025778
 -0.021509
  0.097408
  0.087148
  0.051556
 -0.019937
 -0.149148
  0.186672
 -0.038624
 -0.027682
 -0.109924
  0.001414
 -0.061847
  0.045950
 -0.064978
 -0.046631
 -0.028180
 -0.083187
  0.099970
  0.178172
  0.079164
 -0.000904
  0.130981
  0.043955
 -0.116849
 -0.065268
 -0.160250
  0.008848
  0.034237
 -0.035342
  0.053216
  0.006528
  0.049449
  0.103044
 -0.060190
 -0.074260
 -0.059267
  0.057247
 -0.076530
 -0.110811
  0.089818
 -0.031540
  0.111353
 -0.132581
 -0.016154
  0.005038
 -0.040535
 -0.029795
  0.062532
  0.117487
  0.069071
 -0.001596
 -0.026803
  0.032348
  0.164178
 -0.021481
 -0.026639
  0.117522
  0.069487
 -0.063174
 -0.059299
 -0.003603
 -0.140743
  0.057343
 -0.015852
 -0.037204
 -0.151097
 -0.043845
  0.119411
 -0.083287
 -0.042162
 -0.011852
 -0.053018
  0.065061
 -0.022090
 -0.034275
 -0.069885
 -0.002947
 -0.134479
  0.049726
  0.034343
  0.040975
  0.040740
  0.035170
 -0.043067
  0.027810
 -0.076353
  0.034632
  0.097212
  0.016672
 -0.042192
 -0.020017
 -0.064643
  0.194982
  0.066295
 -0.118725
  0.026163
 -0.008359
 -0.038876
 -0.013901
 -0.053747
 -0.081516
 -0.010140
  0.038110
  0.032824
 -0.077469
  0.014195
 -0.070441
  0.124460
 -0.057848
 -0.033328
 -0.013701
 -0.045639
  0.031974
 -0.024900
 -0.044067
  0.041219
 -0.121595
  0.044966
 -0.054084
  0.015093
 -0.039710
  0.047523
  0.066796
 -0.057303
  0.022613
  0.074083
  0.018431
  0.033620
 -0.022706
  0.001087
 -0.023384
  0.020254
 -0.021548
  0.011628
 -0.115443
  0.066755
  0.045961
  0.054407
 -0.090240
  0.010044
 -0.085565
  0.170866
  0.083095
 -0.039810
 -0.086926
  0.037648
  0.106207
 -0.092776
  0.086108
 -0.024185
 -0.036323
  0.026593
  0.033395
  0.010334
 -0.017534
 -0.085393
  0.095361
 -0.020217
 -0.063960
  0.043739
 -0.068181
  0.065372
  0.014558
 -0.023507
 -0.005947
 -0.058462
 -0.069943
 -0.017618
 -0.127902
  0.113057
 -0.088276
 -0.061561
  0.006443
 -0.088602
  0.065668
 -0.030776
 -0.052226
 -0.023330
  0.056227
 -0.022176
 -0.034042
 -0.154987
 -0.057410
  0.037816
  0.063953
 -0.030146
 -0.037091
  0.077439
 -0.105344
 -0.157884
 -0.001012
 -0.078811
  0.192619
 -0.051010
  0.023823
 -0.084777
  0.062305
  0.002080
 -0.199153
  0.022958
 -0.110896
  0.055478
 -0.075141
  0.032575
 -0.169979
  0.014974
 -0.050479
 -0.065830
  0.045510
  0.098270
  0.092711
 -0.000589
 -0.235884
  0.052891
 -0.008160
  0.006918
 -0.067088
 -0.098131
 -0.021360
  0.061133
  0.052731
 -0.009834
  0.007351
  0.067108
 -0.089093
 -0.074227
 -0.039878
 -0.019184
  0.056861
 -0.093784
 -0.030706
  0.002391
 -0.000624
 -0.088220
  0.045801
 -0.052568
 -0.072682
 -0.160942
  0.143618
 -0.051318
  0.052649
 -0.242073
 -0.028587
 -0.013656
  0.010306
 -0.075567
 -0.099859
  0.035011
 -0.109327
 -0.069915
 -0.047228
  0.038028
 -0.026997
  0.147961
  0.009523
 -0.134331
  0.043272
  0.163320
  0.091239
 -0.150007
 -0.097135
 -0.003328
  0.013034
 -0.172188
  0.067171
  0.009391
  0.046526
  0.070010
 -0.067986
  0.011221
 -0.052879
 -0.108494
 -0.031969
 -0.066115
  0.215366
 -0.072240
  0.020553
  0.066419
 -0.109510
 -0.044348
  0.183050
  0.101467
  0.049519
 -0.029666
 -0.105357
  0.078115
  0.070223
  0.160429
  0.232232
  0.240576
  0.239069
  0.295718
  0.176759
  0.093894
  0.318681
  0.203124
  0.438828
  0.357475
  0.476466
  0.422469
  0.411044
  0.352584
  0.393600
  0.346603
  0.424645
  0.346947
  0.437862
  0.331388
  0.384050
  0.378288
  0.330054
  0.186401
  0.245512
  0.177529
  0.256908
  0.214513
  0.184927
  0.229055
  0.373817
  0.325043
  0.501542
  0.424776
  0.341558
  0.446797
  0.352420
  0.272090
  0.339446
  0.205467
  0.196775
  0.273701
  0.169792
  0.177426
  0.142714
  0.164029
  0.283376
  0.096633
  0.449952
  0.272912
  0.484998
  0.447627
  0.604232
  0.710192
  0.745305
  1.000000
  0.917083
  0.972382
  0.924687
  0.941714
  0.956210
  0.852378
  0.636452
  0.551218
  0.655847
  0.575078
  0.583764
  0.481160
  0.386041
  0.477003
  0.230721
  0.180258
  0.199217
  0.190749
  0.111130
  0.180438
  0.090823
 -0.016809
  0.095139
  0.084259
  0.097062
 -0.014164
  0.071223
  0.065705
 -0.047110
  0.099038
  0.176575
  0.022492
 -0.086104
 -0.002073
 -0.009612
 -0.042650
 -0.033347
  0.020097
  0.048045
 -0.047562
  0.040730
  0.004267
  0.008891
  0.092115
 -0.027632
  0.137768
  0.032281
  0.001465
 -0.019181
 -0.039400
  0.091530
  0.015509
 -0.016667
 -0.147771
  0.048534
 -0.069073
  0.020014
  0.033712
  0.074164
  0.015696
 -0.022265
 -0.137493
 -0.067249
  0.088817
 -0.127595
  0.124578
  0.101472
  0.209251
  0.045429
 -0.039856
  0.013273
 -0.126052
 -0.030066
 -0.009818
 -0.009489
  0.063949
 -0.051639
 -0.026759
  0.043790
  0.017975
  0.097204
  0.022524
 -0.044569
 -0.053756
  0.099296
 -0.011654
 -0.028492
 -0.055513
 -0.013809
 -0.013448
  0.017458
  0.027565
 -0.005205
 -0.025081
 -0.000667
 -0.004314
 -0.027871
  0.052224
 -0.078548
 -0.090884
  0.031457
 -0.121534
 -0.062710
 -0.025587
  0.097275
  0.021172
  0.014107
 -0.071692
 -0.001216
  0.008177
 -0.063289
  0.169701
  0.068356
 -0.083772
 -0.085538
 -0.035428
 -0.007598
  0.001963
  0.038946
 -0.043610
  0.005165
 -0.010350
 -0.097477
 -0.015130
 -0.019438
 -0.005753
 -0.159099
  0.090182
  0.063368
  0.119510
  0.006635
  0.052713
  0.030348
 -0.011265
  0.127969
 -0.021080
  0.131026
 -0.047528
 -0.008351
  0.034245
 -0.120841
 -0.092107
  0.035792
 -0.001082
  0.044018
  0.013925
  0.090390
  0.048360
  0.040890
  0.042068
 -0.004548
  0.045325
 -0.010485
  0.075422
 -0.011702
  0.061582
 -0.017816
 -0.110975
  0.151086
 -0.177616
 -0.003617
 -0.047674
 -0.076650
  0.038771
  0.051994
  0.004335
  0.025670
  0.003772
 -0.067078
  0.088558
 -0.050622
  0.011482
 -0.064099
 -0.051237
  0.014819
 -0.057590
 -0.023593
 -0.016182
 -0.004169
 -0.024816
  0.010735
 -0.013530
  0.060214
 -0.114680
  0.022737
  0.076653
 -0.024373
  0.044055
 -0.018713
 -0.026358
 -0.038507
 -0.019791
 -0.017310
  0.060388
  0.007054
 -0.045333
 -0.098894
  0.091751
 -0.035335
  0.024908
  0.010803
  0.010673
  0.086173
  0.159433
 -0.160809
  0.004764
  0.026473
 -0.057505
 -0.130170
 -0.055938
 -0.028080
  0.011744
  0.060928
 -0.066834
  0.033308
 -0.036665
  0.076542
 -0.158984
  0.074248
 -0.115648
  0.000205
  0.068846
  0.053972
 -0.028533
 -0.056587
 -0.115188
  0.090451
 -0.107098
 -0.015685
 -0.072425
  0.052536
  0.057489
 -0.020451
 -0.010863
  0.043567
 -0.025483
 -0.074796
  0.139562
  0.050229
 -0.066465
  0.019842
 -0.118291
  0.007682
 -0.019426
  0.086415
  0.127974
  0.054401
 -0.103220
 -0.025666
  0.001280
  0.060350
  0.037124
 -0.057546
 -0.076735
  0.036117
  0.086804
  0.089859
  0.127056
 -0.003099
 -0.256386
  0.077438
  0.071829
 -0.087715
  0.053080
 -0.161812
 -0.102796
  0.036017
  0.065668
  0.046726
 -0.055595
 -0.004369
  0.113709
  0.010675
 -0.007854
  0.018840
 -0.006611
  0.014551
 -0.132302
  0.058806
 -0.049508
  0.003031
  0.081683
  0.104178
 -0.088047
  0.169032
  0.029209
  0.111382
  0.112134
 -0.097166
  0.115382
 -0.093041
 -0.117021
 -0.072083
 -0.012433
  0.095796
 -0.044032
 -0.198480
  0.132453
  0.038375
  0.080433
 -0.030913
  0.069948
  0.021875
  0.050349
 -0.136176
  0.012057
  0.100092
 -0.050954
  0.011803
  0.085566
 -0.084480
 -0.230838
  0.034093
  0.063190
 -0.058023
  0.037963
  0.005137
  0.035723
 -0.020941
  0.097107
  0.017396
  0.100474
  0.077340
  0.069949
  0.089559
  0.015022
  0.016270
 -0.210649
 -0.013218
 -0.009617
  0.046568
 -0.066517
  0.106117
 -0.087832
  0.018320
 -0.003351
  0.027519
 -0.100258
 -0.003750
 -0.074501
 -0.007603
 -0.013338
 -0.013936
  0.169860
  0.012864
  0.088300
 -0.016872
  0.165138
  0.037630
 -0.009940
  0.022045
 -0.105512
 -0.076066
 -0.191531
  0.039789
 -0.057461
 -0.013302
  0.034843
  0.057988
 -0.108541
  0.065890
 -0.045520
 -0.068600
 -0.028114
 -0.094976
 -0.074518
  0.043661
  0.122176
 -0.138562
  0.028807
  0.018247
  0.001140
 -0.111116
  0.073068
 -0.017760
 -0.073710
  0.147712
  0.143909
  0.056264
  0.049523
  0.017980
 -0.006975
  0.016835
 -0.097886
  0.127351
  0.006450
  0.069476
 -0.038843
 -0.153504
  0.098893
 -0.122412
  0.059589
  0.002901
 -0.014630
 -0.002077
 -0.231931
 -0.061815
  0.020345
 -0.105694
  0.112614
  0.099078
 -0.024525
 -0.242592
 -0.028740
 -0.042213
 -0.017093
  0.077858
 -0.008500
  0.061241
  0.018754
  0.041923
 -0.037457
  0.004730
  0.093024
  0.045902
  0.095869
 -0.053472
  0.128845
 -0.039745
 -0.021761
 -0.077959
  0.043046
  0.033755
 -0.003260
 -0.027431
  0.053227
  0.031473
 -0.047450
  0.007195
  0.147978
  0.024629
  0.063999
  0.147349
  0.002066
 -0.028229
 -0.102655
  0.046127
  0.022105
 -0.130049
  0.075369
  0.079268
  0.013637
  0.074193
  0.070263
 -0.063446
 -0.083767
  0.011529
  0.025542
 -0.027460
 -0.041992
  0.009653
  0.046081
  0.057591
 -0.003676
  0.107723
 -0.051411
 -0.008316
 -0.019424
 -0.005144
  0.058657
 -0.004559
  0.080650
  0.062144
  0.071822
 -0.077249
 -0.119439
 -0.025866
 -0.050976
  0.014711
 -0.034458
  0.162336
 -0.021848
 -0.052537
  0.007424
  0.001650
 -0.013252
  0.030635
  0.127164
 -0.009985
 -0.120628
 -0.005596
 -0.127974
 -0.108726
  0.016801
 -0.019460
  0.009157
  0.025472
 -0.035885
 -0.056705
  0.033730
 -0.055446
 -0.020948
 -0.017735
 -0.002091
 -0.024417
 -0.047381
  0.022250
  0.041662
  0.107982
 -0.027610
 -0.110128
  0.052472
  0.122349
  0.071434
 -0.086169
  0.074892
 -0.066747
  0.054382
  0.144971
  0.250060
 -0.087474
 -0.038885
 -0.028695
 -0.033777
  0.070722
 -0.055650
 -0.035805
 -0.108932
  0.083418
  0.077216
  0.149868
  0.030139
  0.028183
  0.028245
 -0.023508
  0.029601
 -0.054474
  0.142280
  0.011967
  0.054372
 -0.066267
 -0.000864
 -0.024930
  0.055016
  0.025077
  0.063351
 -0.031775
  0.103833
 -0.098202
  0.138139
 -0.024788
  0.008583
  0.132126
  0.064434
  0.024676
 -0.003576
 -0.022849
  0.000140
  0.000926
 -0.080282
  0.065698
  0.057495
 -0.209950
 -0.011558
  0.134575
  0.163356
  0.028996
  0.019085
  0.051195
  0.057525
  0.085279
  0.119681
 -0.070634
  0.015962
  0.046482
  0.056920
  0.093508
 -0.008099
 -0.006951
 -0.068558
  0.126413
 -0.014657
 -0.033012
  0.001893
  0.078859
 -0.002109
 -0.018479
  0.034718
 -0.049561
  0.037589
  0.115969
  0.060529
 -0.025354
 -0.013707
 -0.045838
 -0.129967
  0.116595
  0.000764
 -0.077691
 -0.060857
 -0.009428
 -0.051182
  0.019677
  0.006059
 -0.080959
  0.082263
  0.254323
  0.006985
 -0.066719
  0.051735
 -0.111596
 -0.150353
  0.035166
  0.202701
  0.024630
 -0.105334
 -0.026248
 -0.020680
  0.060506
  0.024413
 -0.004028
 -0.087769
  0.077144
 -0.003539
  0.108772
 -0.010292
 -0.108589
  0.011828
 -0.098644
  0.046461
  0.050554
  0.067608
  0.096492
 -0.004654
 -0.044324
 -0.060298
  0.133587
  0.018702
  0.019142
  0.041365
 -0.052712
  0.077546
 -0.093986
 -0.025953
  0.006153
 -0.029855
  0.035015
  0.167661
  0.077329
 -0.050013
  0.008012
  0.058672
 -0.029285
 -0.002205
 -0.016776
  0.064890
  0.090903
  0.046074
 -0.019820
  0.030164
  0.033973
 -0.082877
  0.107600
  0.006148
 -0.078891
  0.061927
  0.155501
  0.016448
  0.045717
  0.016032
 -0.102400
  0.022992
 -0.065759
  0.036943
  0.008812
  0.019465
  0.066748
 -0.106580
 -0.058354
 -0.147535
  0.012039
 -0.094926
 -0.033542
 -0.069251
  0.012523
 -0.084296
  0.051984
  0.031513
  0.046154
  0.036038
 -0.060562
 -0.026710
 -0.103761
  0.010379
  0.066824
 -0.037578
 -0.069684
  0.026982
 -0.153322
  0.106669
  0.035113
 -0.035112
 -0.121741
  0.005503
  0.040852
 -0.020013
 -0.016789
  0.105346
 -0.088723
  0.002820
  0.228806
  0.003808
  0.052022
 -0.045310
 -0.026298
 -0.087903
  0.091467
 -0.081658
  0.043033
  0.011041
  0.007464
  0.075454
 -0.058034
 -0.171844
 -0.081027
 -0.017910
 -0.036044
 -0.063739
  0.060313
 -0.089978
 -0.014812
  0.014426
  0.075354
 -0.063991
 -0.003851
 -0.016099
  0.142925
 -0.027040
  0.089660
  0.092643
 -0.061375
 -0.029898
  0.090520
  0.016991
  0.059897
  0.031806
 -0.048476
  0.006658
 -0.020500
 -0.157035
  0.009553
 -0.112227
 -0.128273
  0.009722
 -0.080444
  0.026054
  0.040591
  0.151599
 -0.066070
 -0.049470
 -0.062118
 -0.092343
  0.122846
 -0.053076
 -0.074176
  0.026494
  0.074464
 -0.052340
  0.005056
  0.061094
 -0.028000
  0.049394
  0.097349
  0.120018
  0.046867
  0.016393
  0.133628
 -0.100775
 -0.163337
 -0.013746
  0.196407
  0.172677
  0.080058
 -0.070229
  0.093054
 -0.137907
  0.031912
 -0.022018
 -0.037143
 -0.125074
  0.051927
 -0.054912
  0.109857
  0.009959
 -0.084111
  0.068875
  0.000736
  0.169560
  0.043656
 -0.187083
 -0.061568
  0.016128
 -0.161638
 -0.026854
 -0.173174
 -0.083270
 -0.003305
 -0.064809
  0.031452
  0.055053
  0.043884
  0.046423
 -0.014947
 -0.088043
  0.027602
  0.136849
 -0.101264
 -0.120107
  0.043732
  0.086006
  0.001831
 -0.060833
 -0.116262
  0.006171
 -0.042773
  0.060716
 -0.023721
  0.025308
 -0.077062
  0.023931
 -0.023244
 -0.036791
 -0.039459
 -0.024083
  0.059388
  0.026901
 -0.030638
 -0.190196
  0.026954
 -0.040484
 -0.033132
  0.061261
 -0.085481
  0.039527
 -0.071654
  0.080155
 -0.003137
  0.046202
  0.096907
  0.108217
  0.080421
  0.102190
  0.071963
  0.012333
  0.000187
  0.020967
 -0.074711
 -0.157256
  0.020494
  0.022991
  0.158178
  0.124781
 -0.065244
  0.100493
 -0.138497
 -0.054755
  0.043386
  0.033598
 -0.062684
 -0.002650
 -0.053132
  0.045322
  0.093921
  0.146882
  0.101360
  0.049631
  0.093526
  0.061120
 -0.116021
 -0.054016
  0.100341
 -0.014801
 -0.060099
 -0.098200
  0.075537
  0.032099
 -0.031980
 -0.245272
 -0.048956
  0.004273
 -0.066887
  0.011601
  0.020262
 -0.000414
 -0.198058
 -0.211815
  0.048782
  0.147924
  0.071486
 -0.125147
 -0.108665
 -0.073245
 -0.080627
 -0.005309
  0.025892
 -0.056794
  0.049777
 -0.047355
 -0.001302
 -0.015479
  0.054807
 -0.224040
  0.041887
  0.018494
  0.068796
 -0.006720
 -0.105613
 -0.059314
 -0.036973
  0.023727
  0.078883
  0.087868
  0.168310
 -0.065183
 -0.005527
 -0.147457
 -0.041259
  0.029614
 -0.084670
  0.049032
  0.159256
  0.023538
 -0.077845
 -0.025933
 -0.025691
  0.060538
 -0.042262
 -0.011285
  0.089233
 -0.074530
 -0.008914
  0.024818
 -0.048435
 -0.089109
 -0.006913
  0.168811
  0.112909
  0.081249
 -0.060504
 -0.003081
 -0.144580
  0.165391
  0.047201
  0.001183
 -0.169900
  0.097415
 -0.011574
 -0.087955
 -0.088649
  0.069730
 -0.025587
  0.094900
  0.091037
  0.021085
 -0.112684
 -0.078312
 -0.086225
 -0.055943
 -0.143207
  0.068877
 -0.153811
 -0.021093
 -0.175598
 -0.037555
  0.000223
 -0.007274
 -0.059599
  0.162619
  0.049021
 -0.048060
  0.092205
  0.000824
 -0.034789
 -0.109699
  0.082982
 -0.008325
  0.027869
 -0.041311
 -0.006526
  0.049665
  0.107287
  0.077660
 -0.000499
 -0.061555
 -0.063836
  0.033405
 -0.021658
 -0.081390
 -0.037564
  0.191118
  0.062593
 -0.066691
 -0.001145
 -0.131227
  0.091984
 -0.076507
 -0.015757
 -0.125647
 -0.060593
 -0.086789
  0.074496
 -0.137321
  0.025435
  0.027972
  0.056119
 -0.063608
 -0.108841
  0.063527
 -0.084247
 -0.025038
  0.078979
 -0.034575
 -0.134637
 -0.087605
  0.001803
 -0.094605
 -0.020486
 -0.077934
 -0.028832
  0.051057
  0.110246
 -0.113198
  0.111913
  0.134266
  0.027658
 -0.101460
 -0.085236
 -0.051232
  0.025083
 -0.055555
  0.134381
 -0.129367
 -0.035172
  0.016829
 -0.102382
  0.171755
  0.025515
 -0.060764
 -0.001051
  0.050881
  0.045337
  0.049488
 -0.028896
 -0.085366
  0.102457
 -0.147109
  0.123514
 -0.067143
  0.136478
 -0.008499
 -0.068352
  0.173743
 -0.031595
 -0.050848
 -0.065155
  0.007602
 -0.005565
  0.038128
  0.041512
  0.036872
 -0.053363
  0.045145
  0.007659
  0.014966
  0.023729
  0.066748
  0.077584
  0.100611
  0.093989
 -0.081685
 -0.011125
  0.050249
  0.028246
  0.095677
  0.080459
 -0.013713
 -0.012443
  0.024191
  0.064185
  0.094754
  0.011562
 -0.019482
  0.200905
  0.025710
 -0.033391
 -0.097930
 -0.055536
  0.020243
  0.053444
 -0.056576
  0.017928
 -0.122335
 -0.140785
  0.026960
 -0.091841
  0.037080
 -0.058245
  0.079150
  0.033586
 -0.014271
 -0.048947
  0.148268
  0.010840
 -0.035198
 -0.044080
  0.005814
 -0.059004
  0.066914
  0.074668
  0.069676
 -0.122245
 -0.019153
 -0.059819
  0.016066
  0.211835
  0.045679
 -0.116447
  0.165581
 -0.000981
  0.088727
  0.037319
 -0.147789
  0.025603
  0.011130
  0.131825
 -0.049783
  0.098644
  0.006891
  0.104056
  0.016443
 -0.079886
  0.099943
  0.032282
  0.013730
  0.071318
  0.010955
 -0.075192
  0.002601
 -0.185598
 -0.005656
 -0.110701
  0.036797
  0.024633
  0.011340
 -0.034304
  0.127025
 -0.014167
  0.118615
 -0.010852
 -0.103089
 -0.069114
  0.042982
  0.015293
  0.026079
 -0.055537
 -0.094685
 -0.015060
 -0.064888
  0.082366
 -0.066248
 -0.134854
  0.106127
 -0.193000
 -0.150198
 -0.130134
 -0.092586
 -0.047669
 -0.128664
  0.011899
  0.050411
  0.104912
 -0.071912
  0.046362
 -0.022970
  0.084442
 -0.070210
 -0.024886
 -0.120473
 -0.022455
  0.119831
 -0.001356
 -0.130831
 -0.007415
  0.005957
 -0.035422
  0.031248
  0.022720
 -0.006730
  0.068519
  0.067792
 -0.027514
  0.024238
 -0.003428
  0.057151
 -0.088286
 -0.021881
 -0.002581
  0.184301
  0.140434
 -0.102147
 -0.054208
  0.047768
 -0.033095
 -0.087289
 -0.096984
  0.002279
  0.008182
  0.055569
 -0.057376
 -0.145867
 -0.017072
 -0.006348
 -0.097356
 -0.069870
  0.043474
  0.037863
 -0.080814
 -0.039678
 -0.076705
 -0.082629
 -0.045480
 -0.068386
 -0.015319
 -0.027020
 -0.094014
  0.007830
 -0.102282
  0.018969
 -0.017609
 -0.010261
 -0.061554
 -0.127586
  0.002071
 -0.060466
 -0.047497
  0.021338
 -0.000959
 -0.014756
 -0.093134
 -0.036930
  0.082715
  0.001644
  0.037517
  0.037089
  0.095426
 -0.032861
  0.003306
 -0.064343
 -0.002749
 -0.114004
 -0.014418
  0.104496
  0.118129
  0.052397
 -0.020272
  0.029623
 -0.086856
  0.108209
 -0.001383
  0.008515
  0.090489
  0.001494
  0.066977
 -0.076317
  0.038473
  0.041274
  0.056614
 -0.156629
  0.025063
  0.146794
 -0.006457
  0.098109
 -0.086992
 -0.018043
 -0.069263
  0.062783
  0.155049
 -0.048982
 -0.024785
  0.088722
 -0.012255
  0.127227
  0.020917
  0.054169
  0.128238
 -0.070168
  0.019594
 -0.090131
  0.110107
  0.070862
 -0.004574
  0.002409
  0.006872
 -0.141832
  0.024331
 -0.062706
 -0.053955
 -0.052668
 -0.072988
 -0.049433
  0.013187
  0.062054
  0.092854
 -0.166813
 -0.013182
  0.042028
  0.021167
 -0.072503
  0.032230
 -0.035228
  0.019672
 -0.033825
 -0.040828
  0.064591
  0.007313
 -0.079756
  0.108876
  0.060855
  0.067638
  0.098524
 -0.061440
 -0.154262
  0.089841
 -0.025402
  0.022286
  0.062261
  0.046014
  0.026224
 -0.000551
 -0.011059
 -0.053123
 -0.010410
  0.043813
  0.073703
 -0.069931
 -0.215269
  0.101137
  0.035600
  0.217143
 -0.045776
  0.050199
  0.045490
  0.084270
 -0.029806
  0.034481
  0.084827
 -0.088879
  0.041422
 -0.061700
  0.027832
  0.040918
 -0.100555
 -0.005702
 -0.080536
 -0.138753
  0.016098
  0.028223
  0.005696
  0.057637
 -0.057455
 -0.077747
 -0.035385
  0.034392
  0.027891
 -0.088615
  0.118185
 -0.105695
  0.010237
  0.107147
  0.090472
 -0.079669
  0.000856
 -0.111724
 -0.064196
  0.103881
  0.013572
  0.033070
 -0.048393
 -0.070760
 -0.020495
 -0.048238
  0.070599
 -0.122634
 -0.008375
 -0.037326
 -0.015521
 -0.039158
 -0.033578
  0.012334
  0.045724
 -0.125085
  0.103016
  0.131172
 -0.066306
  0.070654
 -0.186672
  0.188058
 -0.118549
  0.069995
  0.008986
  0.195187
  0.038020
 -0.021983
 -0.040780
 -0.083809
  0.102826
  0.036003
  0.179852
 -0.031428
 -0.097295
  0.115143
 -0.003431
  0.140267
  0.046575
  0.011203
  0.022682
  0.082266
 -0.091108
  0.081989
  0.079460
  0.122828
 -0.065343
  0.049767
 -0.171483
  0.020254
 -0.000997
  0.096933
  0.017286
 -0.041410
  0.029190
 -0.040536
 -0.120810
 -0.013886
  0.010234
 -0.052679
  0.046142
 -0.026253
 -0.005547
  0.033619
 -0.131922
  0.064297
 -0.020324
 -0.015083
 -0.060932
  0.031887
 -0.062657
 -0.040229
 -0.185448
  0.007964
  0.067151
  0.074464
  0.071438
  0.014874
 -0.045221
 -0.068246
 -0.066916
  0.109413
  0.093335
  0.033104
 -0.090315
  0.006294
 -0.003679
 -0.071619
 -0.242363
 -0.138269
 -0.002110
 -0.020424
 -0.040444
  0.069340
 -0.098079
 -0.050127
 -0.068450
 -0.063075
 -0.083528
  0.013013
  0.003549
 -0.025766
 -0.006875
  0.014368
  0.182506
  0.101581
 -0.063343
  0.001965
  0.037900
  0.114381
 -0.155921
  0.039807
 -0.050079
 -0.043262
 -0.147513
  0.125215
  0.222010
 -0.010882
  0.052523
  0.149209
  0.037527
  0.087471
 -0.118219
  0.086988
  0.096186
  0.088327
  0.026587
 -0.083685
 -0.025223
 -0.028600
 -0.020497
 -0.084058
  0.020429
  0.048623
  0.087560
  0.055939
 -0.001071
  0.110584
 -0.101938
 -0.013634
 -0.013114
 -0.008830
 -0.022125
 -0.135113
  0.012136
  0.055832
  0.062408
 -0.000819
  0.075849
  0.084695
 -0.119807
 -0.055217
 -0.078250
 -0.047745
 -0.045832
 -0.123471
  0.104016
 -0.073094
 -0.024842
  0.014977
 -0.035372
  0.001283
  0.035547
  0.054446
  0.109524
  0.152313
  0.073566
  0.100639
 -0.138130
 -0.147739
 -0.030602
 -0.005087
  0.066389
 -0.054870
  0.020550
 -0.121250
  0.057711
 -0.123305
  0.091790
 -0.073899
  0.118528
  0.070094
  0.019603
 -0.148109
  0.071567
  0.079265
  0.069583
 -0.020513
  0.007723
 -0.061942
 -0.045617
  0.096526
  0.042863
 -0.024758
  0.082356
  0.030513
 -0.156749
 -0.054730
 -0.073372
 -0.024080
  0.035810
 -0.050320
 -0.021048
 -0.039712
 -0.081794
 -0.010948
 -0.099649
  0.001751
 -0.096740
  0.113520
  0.017653
 -0.007180
 -0.053238
 -0.011634
  0.043797
  0.023586
  0.082990
  0.018117
  0.108696
 -0.023206
  0.030027
 -0.177792
  0.018741
 -0.011267
  0.031795
  0.154303
  0.025989
 -0.030258
  0.046497
  0.016764
  0.009699
  0.079251
  0.068140
  0.022642
  0.062647
 -0.094772
 -0.021765
  0.106162
  0.001229
 -0.047656
  0.000940
  0.191098
 -0.106306
  0.039462
 -0.006872
  0.142081
 -0.006686
  0.070157
 -0.028351
  0.058994
 -0.042184
 -0.049814
 -0.078938
  0.024907
 -0.120884
 -0.023302
 -0.004910
  0.079797
 -0.000015
 -0.048459
  0.029752
 -0.040040
  0.088337
 -0.017720
  0.011111
  0.020407
 -0.138446
  0.078880
 -0.078027
 -0.054504
  0.007635
 -0.003751
  0.070640
 -0.030748
  0.033630
  0.009162
  0.029577
  0.154095
 -0.120934
 -0.015346
  0.032425
  0.017719
  0.023543
  0.003930
  0.054897
 -0.045984
  0.001505
  0.008282
  0.032311
 -0.040516
  0.074479
  0.017044
  0.073676
 -0.018150
  0.086964
 -0.069064
  0.068279
  0.074063
  0.041813
  0.002667
 -0.019003
  0.052671
  0.045110
  0.062576
 -0.020325
  0.046470
  0.037067
  0.085876
 -0.157000
 -0.025540
  0.033188
 -0.186253
 -0.083852
 -0.043318
 -0.063584
  0.035530
  0.102103
  0.002156
 -0.101967
  0.083033
  0.001915
 -0.002691
 -0.004836
 -0.000686
 -0.038398
  0.033734
 -0.130183
 -0.019622
  0.011882
  0.009492
 -0.015706
  0.039515
  0.019774
  0.068535
  0.093266
 -0.028560
 -0.030473
 -0.057284
  0.063963
 -0.018085
 -0.010472
 -0.065886
 -0.032645
  0.079755
  0.084982
 -0.089740
 -0.071341
 -0.028132
  0.095036
 -0.006343
  0.059924
 -0.004044
  0.081309
  0.144991
 -0.035015
  0.060098
  0.014747
 -0.017858
  0.018790
 -0.049308
  0.042640
  0.029546
 -0.034392
 -0.087538
  0.026307
 -0.130095
  0.004024
  0.054540
  0.014583
 -0.012640
 -0.038811
  0.079880
  0.155278
  0.063708
 -0.131141
  0.158759
 -0.077636
  0.019541
 -0.058864
  0.097161
  0.083913
 -0.018316
  0.073829
  0.061968
  0.127277
 -0.132445
 -0.021446
  0.067987
 -0.026233
  0.058955
 -0.037763
  0.025249
 -0.085133
 -0.087720
 -0.040379
 -0.088013
 -0.057406
  0.070547
  0.047501
 -0.085000
  0.029657
  0.019281
  0.096355
 -0.014735
  0.048649
 -0.045190
  0.171698
 -0.104947
 -0.170369
 -0.077176
 -0.039489
  0.101935
 -0.019116
 -0.071499
  0.063965
 -0.011074
 -0.107457
 -0.008225
 -0.053735
  0.087563
  0.183462
 -0.018100
 -0.051346
 -0.011244
  0.071694
 -0.116977
  0.122904
  0.003993
  0.033472
 -0.063793
  0.113695
  0.026123
 -0.041341
 -0.167002
 -0.004157
 -0.009486
 -0.023117
 -0.107797
  0.088956
 -0.157754
 -0.036693
  0.070780
  0.082243
  0.047347
  0.113039
  0.080034
 -0.189551
  0.070255
 -0.080846
  0.174140
  0.042078
  0.080427
  0.038274
 -0.060830
 -0.137438
 -0.045035
  0.052717
 -0.005167
 -0.189231
 -0.125654
 -0.019554
 -0.004801
  0.043864
  0.154411
  0.096761
  0.043094
 -0.060776
  0.098447
 -0.004097
 -0.019406
  0.039698
  0.135319
  0.107444
  0.104018
 -0.148655
 -0.053441
 -0.043411
  0.043431
  0.084623
  0.049845
 -0.000159
 -0.118383
 -0.026893
  0.001423
  0.053797
 -0.040659
  0.073980
  0.045864
 -0.126184
 -0.111647
  0.000581
 -0.013035
 -0.031783
 -0.078168
  0.000161
 -0.021139
 -0.002932
 -0.108070
  0.005192
  0.114198
 -0.077959
 -0.035491
  0.037636
 -0.084517
  0.079702
 -0.008119
 -0.025608
 -0.033693
  0.025694
 -0.039300
 -0.111425
  0.002739
  0.089972
 -0.005422
  0.012557
  0.004766
  0.133252
  0.053551
  0.020190
 -0.097307
 -0.027617
  0.068612
  0.059375
 -0.026330
  0.016233
 -0.030029
  0.003692
 -0.101887
  0.057633
  0.034528
 -0.007524
 -0.204143
  0.114082
  0.023649
  0.135010
 -0.008710
 -0.148144
 -0.029997
 -0.103221
 -0.088516
  0.004313
  0.012230
 -0.123291
 -0.123360
 -0.064891
 -0.021473
  0.019800
 -0.010055
 -0.116607
  0.024145
 -0.053677
 -0.019029
 -0.146140
  0.111961
  0.059440
 -0.086659
  0.030334
  0.078397
  0.108137
  0.019780
 -0.073091
  0.106834
 -0.085362
 -0.157908
  0.104357
 -0.070209
  0.066029
 -0.142289
  0.121661
 -0.004526
 -0.000104
  0.042561
  0.047223
  0.048381
  0.010576
 -0.053753
  0.030823
 -0.031479
 -0.133036
  0.005774
 -0.010099
  0.054447
 -0.017689
 -0.029689
  0.074876
  0.082254
  0.073065
  0.067410
 -0.011217
  0.021612
  0.022023
  0.111026
  0.011814
 -0.043270
  0.102942
  0.097981
 -0.104696
  0.115564
 -0.087150
  0.018132
  0.121104
  0.054588
  0.060853
 -0.156052
 -0.033913
  0.029457
 -0.013130
 -0.030100
  0.044992
  0.021387
  0.035097
  0.069250
  0.065780
  0.147875
  0.088581
  0.010462
  0.040120
 -0.027493
  0.133037
 -0.069473
 -0.005299
 -0.107835
 -0.009850
 -0.039804
 -0.019733
  0.076820
 -0.031403
  0.052633
 -0.078250
 -0.004727
 -0.008821
  0.146890
 -0.104651
  0.001663
 -0.058716
  0.042543
 -0.145494
  0.020663
  0.013899
 -0.056930
  0.032205
  0.137058
  0.233141
 -0.020873
  0.049309
  0.115217
 -0.122205
 -0.159031
 -0.121718
  0.087094
  0.065895
 -0.052029
 -0.114286
  0.022262
 -0.120625
 -0.134323
 -0.125972
  0.070393
 -0.023558
  0.060924
  0.059122
 -0.108459
  0.138364
 -0.143896
 -0.031147
 -0.056977
 -0.074427
  0.031072
  0.084024
  0.076456
  0.026044
  0.097714
  0.155638
 -0.062183
 -0.181138
  0.055669
 -0.052053
  0.214232
  0.032884
 -0.107719
 -0.116292
 -0.055654
  0.187199
  0.125647
 -0.039027
  0.088653
  0.108101
 -0.182529
  0.058496
  0.054451
  0.129108
  0.010870
 -0.088390
 -0.049771
 -0.129753
 -0.124571
  0.018736
  0.058506
  0.110710
 -0.051068
  0.035407
  0.092983
  0.080642
  0.116611
  0.042730
 -0.070977
  0.012320
  0.002885
  0.106031
  0.069247
  0.140564
  0.098438
 -0.017382
 -0.146159
 -0.024531
 -0.029111
  0.116685
 -0.046829
  0.002670
  0.047194
 -0.049391
 -0.097268
  0.106644
  0.004535
  0.086100
 -0.090375
 -0.141893
  0.090458
  0.047441
  0.102092
 -0.033799
 -0.054681
  0.012099
  0.130441
 -0.133086
 -0.035628
 -0.125098
 -0.026839
  0.087957
  0.011240
 -0.014663
  0.027467
 -0.049145
  0.132507
 -0.052522
 -0.123883
 -0.000639
  0.057568
 -0.032354
  0.081980
 -0.064456
 -0.069411
  0.081863
  0.039930
  0.074908
 -0.009846
 -0.012608
  0.104945
  0.066058
 -0.035615
  0.024397
 -0.026748
 -0.052272
  0.078222
 -0.009908
 -0.085978
 -0.026171
  0.033078
  0.053986
  0.042883
 -0.123665
 -0.034747
 -0.119684
 -0.039204
 -0.075659
  0.156370
  0.116508
  0.152003
  0.034730
  0.004282
  0.078743
  0.025711
 -0.096711
 -0.027802
  0.117152
 -0.046642
  0.020540
  0.031854
 -0.067570
  0.097413
 -0.118525
  0.015134
  0.033027
  0.244968
 -0.076522
  0.248970
 -0.159905
  0.067671
  0.218071
 -0.057952
  0.109232
  0.003906
  0.075965
  0.001491
 -0.082190
  0.051054
  0.020663
  0.100826
  0.062903
 -0.041675
  0.045142
  0.030745
  0.014066
 -0.045640
  0.018052
  0.155942
  0.005560
 -0.008875
  0.008732
  0.089894
 -0.106941
 -0.184945
  0.062791
  0.080332
 -0.011751
  0.105590
 -0.155981
  0.105262
 -0.068269
 -0.032214
  0.024441
  0.039303
 -0.042772
 -0.026222
 -0.018147
  0.050896
 -0.056536
  0.014707
  0.032373
 -0.128553
  0.124043
  0.046997
  0.102658
  0.062978
  0.049493
  0.065393
 -0.158384
  0.078010
  0.023894
  0.009007
 -0.080956
  0.110742
 -0.047054
  0.091085
  0.014472
  0.071669
  0.111987
 -0.061031
  0.035370
  0.018680
 -0.128146
  0.051179
  0.262564
 -0.070599
  0.080841
  0.017292
  0.148452
  0.087073
  0.116058
  0.053267
  0.103760
 -0.066171
 -0.006865
  0.039642
  0.013174
  0.142276
  0.040012
 -0.038077
 -0.018852
 -0.048899
 -0.006284
  0.015435
  0.056039
  0.131650
  0.017610
  0.020742
****
