PROJECT: W75Cal_2014Aug19A
NCH:     4096
BW:   2.50000e+07
VELOCITY:       0.00000
PV:      0.480000
FREQ:    2.2235080e+09
DATE:     2014       8      19
TIME:       21      22      10
POSITION:       81.8730     0.913333
INTEGRATION TIMES:       60.0000      60.0000
MAX VALUE:      0.037959012
  0.050227
  0.096242
 -0.019196
 -0.074213
 -0.024437
 -0.078266
  0.027190
 -0.124283
  0.060672
 -0.072901
 -0.062860
  0.080797
  0.091625
  0.008583
 -0.019851
  0.073843
 -0.027591
  0.005265
 -0.006297
 -0.020461
 -0.034434
  0.085406
 -0.076222
 -0.018642
 -0.055923
  0.092715
 -0.050554
 -0.011723
 -0.020528
  0.015439
  0.055073
 -0.075468
  0.034162
 -0.101682
 -0.070005
 -0.008318
 -0.000137
 -0.060196
  0.075455
 -0.080152
  0.011788
  0.041497
 -0.006452
  0.134537
  0.003902
 -0.055553
 -0.025380
  0.006720
 -0.003463
  0.041633
  0.022964
  0.060537
  0.021654
  0.072006
  0.052014
  0.008335
 -0.031524
 -0.056366
  0.019800
 -0.026196
  0.060005
  0.006519
 -0.003670
 -0.037586
  0.022046
 -0.012480
 -0.145074
  0.090974
  0.009952
 -0.047250
  0.065033
 -0.014846
 -0.025514
  0.076380
 -0.040374
 -0.016252
  0.048608
 -0.048607
 -0.037927
 -0.078686
 -0.016693
  0.087245
  0.056165
  0.052092
  0.047505
 -0.075795
  0.093225
 -0.029052
 -0.006942
 -0.039539
  0.008810
  0.008793
  0.013097
  0.036617
 -0.017582
  0.097580
 -0.009193
  0.054115
 -0.053852
 -0.042587
  0.046295
 -0.038198
 -0.046349
  0.033377
 -0.052729
  0.060631
  0.020848
  0.043785
  0.002856
  0.004054
 -0.014779
 -0.031378
 -0.030756
  0.068395
  0.059863
 -0.008874
  0.015236
 -0.081828
 -0.072853
  0.017469
  0.065216
 -0.034657
  0.072807
  0.013145
 -0.080817
  0.013637
 -0.028257
 -0.057661
  0.026320
  0.000304
 -0.022786
 -0.052920
 -0.027204
 -0.037037
 -0.013139
 -0.004815
 -0.011310
 -0.003127
 -0.081504
  0.000598
 -0.048451
 -0.001104
 -0.019575
  0.058199
 -0.070861
 -0.008761
  0.050407
  0.008773
  0.063458
  0.075561
 -0.006060
 -0.010641
 -0.011853
 -0.002019
  0.029910
  0.041299
 -0.050064
  0.008808
 -0.045637
 -0.009882
  0.069006
  0.004367
 -0.039858
 -0.006086
  0.015398
  0.049363
 -0.064007
 -0.049616
 -0.046341
 -0.070132
  0.002526
 -0.055910
  0.012873
 -0.037668
  0.005267
  0.054549
 -0.014630
  0.016470
 -0.091772
  0.048565
 -0.087966
  0.027396
  0.005574
 -0.043920
  0.102879
 -0.024428
  0.053962
  0.007801
  0.038488
  0.023339
 -0.007972
 -0.061128
 -0.025217
 -0.040637
 -0.070628
  0.092625
 -0.065616
 -0.002255
 -0.048817
 -0.012058
  0.060652
  0.000257
 -0.002966
  0.069276
  0.065777
 -0.062191
  0.060781
  0.038181
 -0.069433
 -0.016141
 -0.049218
 -0.037933
  0.129188
 -0.029993
 -0.011800
  0.054571
 -0.014414
 -0.023644
 -0.058237
  0.010028
  0.064184
 -0.016559
  0.081929
  0.082107
 -0.062288
 -0.013166
  0.016955
  0.074100
 -0.002424
  0.003325
  0.062884
 -0.025855
  0.016507
  0.016742
  0.061047
  0.136867
 -0.063275
  0.016481
  0.004913
  0.010200
  0.015002
  0.073381
  0.051115
  0.021545
  0.041180
 -0.028450
 -0.032330
 -0.012376
 -0.038753
 -0.026615
  0.038147
  0.036419
 -0.005301
  0.012123
  0.055829
  0.068880
 -0.034706
  0.054475
  0.027951
 -0.005429
 -0.119899
  0.004631
 -0.057267
  0.020179
 -0.042742
  0.008794
  0.081435
  0.038565
  0.041075
 -0.091589
 -0.019174
  0.013448
  0.025416
 -0.022159
 -0.013016
 -0.094689
 -0.043756
  0.021695
  0.020970
 -0.006337
 -0.024273
 -0.039535
 -0.025496
 -0.029338
 -0.135240
  0.080249
  0.055820
 -0.028275
  0.009913
  0.038053
  0.059029
  0.050699
  0.029832
  0.023977
 -0.127394
  0.047362
 -0.011193
  0.023723
  0.065643
 -0.002006
  0.082265
  0.131897
 -0.071547
 -0.027407
  0.023676
  0.000304
  0.087305
  0.011889
 -0.042777
  0.014838
 -0.016706
  0.026968
 -0.057292
 -0.033858
  0.012791
 -0.004840
  0.000677
  0.059470
 -0.006203
 -0.065957
 -0.009421
  0.015467
  0.096397
 -0.009343
  0.057107
 -0.021684
  0.063325
 -0.026131
 -0.089473
 -0.044380
  0.034985
  0.058739
  0.001130
  0.016280
  0.061671
  0.030008
 -0.097708
 -0.090657
  0.064124
 -0.042987
 -0.064868
  0.007425
  0.034589
 -0.086312
 -0.023797
 -0.013988
  0.021205
  0.007100
  0.008147
 -0.023578
  0.029998
 -0.058287
 -0.010504
  0.074310
  0.042333
 -0.037441
  0.033610
  0.028664
 -0.029935
 -0.066821
  0.015692
  0.079735
  0.036869
  0.031437
 -0.055528
 -0.010934
 -0.021714
  0.020284
  0.014103
 -0.120490
  0.059717
 -0.033011
  0.007414
  0.022961
 -0.023517
 -0.075269
 -0.055560
 -0.013056
 -0.077464
  0.003331
  0.080366
 -0.013807
 -0.081101
  0.054634
  0.113963
 -0.055453
  0.008327
 -0.013875
 -0.046150
  0.013200
  0.046659
  0.044215
 -0.012269
  0.024797
  0.032628
 -0.052187
 -0.033793
  0.008472
  0.038522
  0.053676
 -0.016506
  0.003446
  0.048478
 -0.019874
  0.091705
  0.014804
  0.004335
  0.007505
  0.045060
  0.088364
 -0.096899
  0.045701
  0.056381
 -0.072498
 -0.018450
  0.018939
 -0.017583
  0.013271
  0.000227
 -0.010601
  0.018365
  0.070802
 -0.077453
 -0.030599
  0.006975
 -0.010336
 -0.061729
  0.012766
  0.006557
  0.001747
 -0.039670
 -0.002078
 -0.072878
  0.022854
  0.043740
  0.018395
 -0.080506
 -0.061087
 -0.045709
 -0.081401
 -0.026420
  0.007141
 -0.032465
 -0.005059
  0.068677
  0.034500
  0.017010
  0.065067
  0.004550
 -0.027400
  0.074212
  0.004411
  0.034751
 -0.009779
  0.045191
 -0.073078
 -0.019607
  0.051139
  0.038951
  0.010035
  0.038851
  0.033291
 -0.009745
 -0.054739
  0.014990
  0.005286
 -0.062338
  0.019095
  0.072481
  0.010439
  0.012560
  0.003777
 -0.058912
 -0.029561
  0.003801
 -0.050236
 -0.075022
 -0.018082
 -0.016190
 -0.041722
 -0.018064
  0.009825
  0.042903
  0.007021
 -0.093417
 -0.005690
  0.093410
  0.088772
 -0.066070
 -0.045928
 -0.029453
 -0.070718
  0.031194
  0.049616
 -0.038967
 -0.092511
  0.033155
  0.050527
 -0.026871
 -0.052944
 -0.078275
 -0.013615
 -0.064119
  0.064959
 -0.005038
 -0.007183
 -0.015582
 -0.023258
 -0.020815
 -0.019673
 -0.029109
  0.018951
  0.013895
  0.032727
 -0.026951
  0.051163
 -0.033847
 -0.070905
 -0.011590
  0.036990
 -0.039479
  0.068950
 -0.034510
 -0.027971
  0.003496
  0.069285
 -0.014323
 -0.036353
  0.030408
  0.065245
  0.001011
  0.036722
 -0.012154
  0.025868
 -0.006630
  0.036149
  0.051991
  0.001942
  0.004288
  0.057016
  0.024109
  0.011423
  0.015639
 -0.094543
 -0.033043
  0.013249
  0.016624
 -0.015520
  0.042411
  0.009479
 -0.041377
 -0.062841
  0.082719
 -0.047212
 -0.019540
  0.038252
  0.050844
  0.030564
  0.022608
 -0.075440
  0.015618
 -0.033840
 -0.049102
 -0.000063
  0.022662
 -0.003907
  0.040564
 -0.036115
  0.089648
  0.004207
 -0.013577
 -0.029646
 -0.015266
 -0.029816
 -0.005689
  0.004206
  0.019674
 -0.059624
  0.070150
 -0.006360
 -0.080921
  0.049893
  0.011372
 -0.003167
 -0.105390
 -0.031377
 -0.003134
  0.008224
 -0.043835
 -0.082348
 -0.011947
 -0.068665
  0.017396
  0.005972
 -0.037474
  0.008797
 -0.083284
 -0.058822
 -0.023782
 -0.103130
  0.070830
  0.042552
 -0.021422
 -0.004683
 -0.064931
 -0.060311
  0.045801
 -0.061752
  0.009324
  0.041661
 -0.025578
  0.028062
  0.039542
  0.044633
 -0.003973
  0.002152
 -0.053382
 -0.002769
 -0.040892
  0.008441
  0.040790
  0.028759
  0.001941
  0.016248
 -0.007979
  0.051233
 -0.001700
 -0.050244
  0.011845
  0.041118
  0.096404
  0.003172
 -0.011192
 -0.022248
 -0.009132
 -0.040608
 -0.007923
  0.100467
 -0.013460
 -0.085068
 -0.017134
  0.045889
 -0.027887
 -0.040401
 -0.025022
  0.022398
  0.046645
  0.029673
 -0.008542
 -0.020354
 -0.032322
  0.077080
 -0.058999
  0.002848
 -0.017159
 -0.035788
  0.068733
  0.082304
 -0.052458
 -0.130855
 -0.024365
  0.072729
  0.065553
  0.100987
  0.030529
  0.033823
 -0.049452
  0.053712
  0.071240
  0.003243
  0.069864
  0.012592
  0.068283
 -0.026073
 -0.005898
  0.031240
 -0.035563
 -0.083665
  0.073697
 -0.033638
  0.008236
  0.016362
  0.021559
 -0.047003
 -0.007499
  0.063079
  0.094123
 -0.040648
 -0.088957
 -0.059431
  0.023205
 -0.053306
 -0.021744
 -0.052201
  0.008420
 -0.060023
 -0.014411
  0.073387
 -0.072263
 -0.017505
 -0.067476
  0.044860
  0.007013
 -0.052363
 -0.025457
 -0.004014
  0.015723
  0.036272
 -0.044221
  0.014402
 -0.010975
  0.077399
 -0.074242
 -0.051305
  0.086355
  0.008703
  0.036100
 -0.000077
 -0.022635
 -0.005145
  0.003326
  0.016979
  0.042996
  0.070909
  0.019205
  0.089732
  0.015377
 -0.003313
 -0.047129
 -0.036287
 -0.038243
  0.025864
  0.040678
 -0.013450
 -0.009544
  0.050289
 -0.011376
  0.024173
  0.046637
  0.024250
  0.021826
 -0.045914
  0.036709
 -0.032205
  0.006084
 -0.127553
  0.070205
  0.012331
  0.084663
  0.002064
  0.054189
 -0.001870
  0.066709
  0.021455
  0.001679
  0.003688
  0.018683
  0.071399
 -0.065477
  0.067099
  0.058146
  0.101864
  0.048757
  0.059738
 -0.057179
 -0.080727
 -0.003011
 -0.007701
 -0.028336
 -0.018023
  0.028438
 -0.043303
 -0.000252
  0.052866
  0.061176
  0.049159
 -0.081887
  0.016880
  0.074112
  0.048782
 -0.015820
 -0.032687
  0.035994
 -0.033694
  0.019589
  0.038306
  0.036696
 -0.015070
  0.036621
 -0.001359
 -0.041668
  0.038682
  0.001877
  0.038850
 -0.006251
  0.064218
 -0.051180
 -0.034963
 -0.015930
  0.058777
  0.009019
 -0.080660
  0.034231
  0.013379
 -0.036353
  0.044876
  0.000049
 -0.048533
 -0.000086
  0.009216
 -0.001746
  0.007117
  0.096500
 -0.013311
  0.043367
 -0.013858
  0.008137
  0.006496
 -0.069146
 -0.047282
  0.033277
  0.026090
 -0.003858
 -0.033031
  0.080979
  0.041201
 -0.022843
  0.010067
  0.043532
  0.083139
  0.039072
  0.016172
 -0.031106
 -0.006582
  0.007609
  0.013605
  0.021754
 -0.144796
 -0.069870
  0.020571
 -0.112612
  0.023331
 -0.059113
 -0.006196
  0.030913
  0.041913
  0.003715
  0.057059
  0.050283
  0.103949
 -0.007963
  0.001349
 -0.089356
  0.002857
 -0.110249
  0.066223
  0.060551
  0.090142
  0.018427
 -0.023383
  0.040322
  0.006688
  0.083245
 -0.092546
 -0.116176
  0.011363
  0.045131
  0.017713
 -0.059697
  0.020431
 -0.107484
  0.043304
  0.065846
 -0.020363
 -0.049744
  0.011856
  0.010971
  0.017158
  0.008764
 -0.041912
 -0.024264
 -0.030461
  0.040958
  0.058436
 -0.002060
 -0.016615
  0.012354
  0.089762
 -0.082221
 -0.054973
  0.030865
 -0.026713
 -0.059968
  0.003697
 -0.016237
  0.043266
 -0.007037
 -0.003080
 -0.060932
 -0.043428
 -0.015823
 -0.027634
 -0.007388
 -0.057472
  0.014380
  0.032674
 -0.010159
 -0.050579
 -0.091602
 -0.027713
 -0.030336
 -0.053254
  0.036291
 -0.121160
 -0.026703
  0.013779
  0.089685
  0.039926
 -0.026778
  0.040790
 -0.014675
 -0.057312
  0.021924
 -0.081664
  0.090289
 -0.014279
  0.019990
 -0.018854
 -0.015764
  0.052408
 -0.035275
 -0.066023
  0.034523
  0.045002
  0.030360
  0.005080
  0.007298
 -0.034466
 -0.045788
  0.014311
  0.012600
 -0.037485
 -0.036276
  0.062029
 -0.052461
  0.023668
 -0.000896
 -0.013000
 -0.039215
  0.001062
  0.050910
  0.037182
  0.078004
 -0.110490
 -0.057588
 -0.096577
  0.019534
  0.019274
 -0.045900
  0.031242
  0.073610
  0.027035
  0.105605
  0.010455
 -0.037500
  0.034281
  0.009131
 -0.068200
 -0.002229
  0.005911
 -0.040895
  0.022310
 -0.039296
 -0.019279
  0.019773
 -0.033139
 -0.028710
 -0.013905
  0.051607
 -0.055096
  0.018574
 -0.094998
  0.006663
 -0.030465
 -0.036775
 -0.051477
 -0.028185
  0.022720
 -0.052581
 -0.015027
 -0.051013
  0.016116
  0.049696
  0.027487
 -0.130861
 -0.070257
  0.006325
  0.011004
  0.101686
 -0.045260
 -0.016164
  0.010287
  0.020165
  0.007574
 -0.039134
  0.025932
 -0.055745
  0.074862
 -0.020034
  0.034093
 -0.002727
 -0.033771
 -0.034940
  0.034272
 -0.023054
 -0.068800
 -0.014153
 -0.027647
 -0.034937
 -0.039988
 -0.043169
 -0.119277
  0.069167
 -0.035396
 -0.063342
 -0.011569
 -0.008374
 -0.073961
  0.065817
  0.063966
 -0.014276
  0.070016
  0.010949
  0.019368
  0.005724
 -0.082208
  0.011081
 -0.014087
 -0.029631
  0.064969
  0.056771
  0.090186
  0.033779
  0.083264
 -0.005896
  0.006880
 -0.028491
  0.017840
 -0.031132
 -0.008358
  0.059737
  0.075709
 -0.056285
 -0.098955
  0.038298
  0.012975
 -0.035140
 -0.011650
  0.004618
 -0.001118
 -0.136721
  0.006372
  0.027128
  0.022657
 -0.055457
 -0.002537
 -0.071027
 -0.019096
 -0.013440
  0.015820
 -0.016470
  0.025172
 -0.087901
 -0.006356
 -0.004957
  0.048715
  0.049631
  0.092695
 -0.035941
  0.046189
  0.027916
  0.011917
  0.094705
 -0.075791
  0.043113
 -0.020050
  0.018044
  0.012991
 -0.045774
 -0.015474
 -0.027468
  0.046696
  0.040887
 -0.037989
  0.051641
 -0.036702
  0.071429
 -0.066617
  0.049936
  0.084022
  0.057602
 -0.093430
  0.063900
 -0.094120
  0.093939
 -0.038884
 -0.060207
  0.034793
  0.001200
 -0.000557
  0.053573
  0.018644
  0.026354
  0.028000
 -0.089547
  0.007865
  0.039096
 -0.025869
 -0.031801
 -0.019100
  0.022225
 -0.034085
  0.015198
 -0.001844
 -0.007313
  0.014069
  0.018021
 -0.012974
  0.097055
 -0.082761
  0.000872
 -0.087089
 -0.038988
  0.033811
  0.049884
 -0.054848
 -0.018258
  0.016949
 -0.069568
 -0.029230
  0.048943
  0.040520
  0.071745
 -0.023985
  0.087969
 -0.009032
 -0.081526
  0.009846
 -0.053249
  0.028993
  0.092391
  0.003523
 -0.012806
  0.069512
  0.017579
 -0.050299
  0.031376
 -0.006683
  0.082558
  0.026095
  0.003818
 -0.068017
 -0.012349
 -0.003372
  0.059374
  0.038178
  0.053432
 -0.035845
 -0.054659
 -0.020148
  0.007572
  0.041282
  0.003565
 -0.045646
 -0.012787
 -0.081511
 -0.005121
  0.074683
 -0.070085
 -0.045399
  0.018483
  0.026362
  0.031631
  0.043286
  0.046364
 -0.049745
  0.026260
  0.049974
 -0.025900
  0.026835
  0.005376
  0.002632
 -0.019591
  0.035496
 -0.054304
 -0.025121
 -0.001874
 -0.039112
 -0.049036
 -0.044582
  0.009536
 -0.032156
  0.019610
 -0.050396
 -0.058060
  0.025494
  0.062524
 -0.018076
  0.050460
  0.049203
 -0.036389
 -0.077815
 -0.052796
  0.003815
 -0.010752
 -0.008784
 -0.073118
 -0.065880
 -0.012110
 -0.034657
 -0.035784
  0.064374
  0.014040
  0.028498
 -0.012027
 -0.108774
 -0.024915
 -0.026820
  0.047975
  0.013677
 -0.050451
 -0.017803
 -0.013304
  0.014176
  0.035510
  0.014174
 -0.013286
  0.037388
  0.044834
  0.016483
  0.028925
  0.054734
  0.036428
 -0.065282
 -0.012647
  0.044458
 -0.020589
 -0.068277
  0.005052
 -0.038419
  0.068960
  0.094616
  0.019076
  0.002746
 -0.077373
  0.022161
 -0.045093
 -0.041261
  0.091126
 -0.065619
 -0.051001
  0.017755
  0.030814
  0.032624
 -0.007776
 -0.015744
 -0.014859
  0.106006
  0.045730
  0.030429
 -0.042022
  0.012152
  0.056806
  0.073279
  0.088632
  0.040336
  0.095857
  0.041396
  0.018986
  0.006914
 -0.076830
 -0.023591
 -0.013208
 -0.039763
 -0.070909
 -0.013657
 -0.014379
 -0.008033
 -0.042223
 -0.044057
 -0.029967
  0.002320
 -0.058578
  0.009965
 -0.025031
  0.046786
 -0.073360
 -0.004414
 -0.051472
 -0.091107
 -0.047874
  0.012491
  0.031833
  0.088134
 -0.097343
  0.038678
  0.035367
 -0.066621
 -0.005703
 -0.066898
  0.013633
  0.024695
  0.029674
 -0.026772
 -0.010271
  0.006602
 -0.036888
 -0.093697
  0.013860
 -0.027337
  0.041542
 -0.036951
 -0.015200
 -0.117729
  0.003141
  0.050807
  0.078106
  0.005353
  0.026368
 -0.023140
  0.048370
  0.089317
  0.067731
 -0.067970
  0.008801
  0.019122
  0.009149
  0.026715
  0.041182
 -0.000595
 -0.024450
  0.004015
  0.029164
 -0.025885
  0.045860
 -0.030690
  0.044932
 -0.027811
  0.036212
 -0.006649
  0.049160
 -0.023194
 -0.038858
  0.072965
  0.016573
  0.025572
 -0.012059
  0.006480
  0.036600
  0.001409
  0.017335
 -0.023894
  0.018824
  0.061203
 -0.073571
  0.016765
 -0.124360
  0.052089
  0.000042
  0.092482
  0.042601
 -0.008295
 -0.022490
  0.048217
 -0.031912
  0.013310
  0.001036
  0.038634
  0.000239
  0.051500
 -0.067133
  0.011766
  0.061854
  0.002053
  0.016116
 -0.049952
 -0.030021
 -0.076932
 -0.008785
  0.042218
  0.034791
  0.004826
  0.027091
 -0.003126
  0.032320
  0.116471
  0.017520
  0.033611
 -0.026264
  0.069244
  0.025527
  0.015757
 -0.004381
 -0.013567
 -0.033278
 -0.056854
 -0.027721
  0.076915
 -0.014632
  0.049910
  0.021804
  0.024383
  0.009625
  0.061487
  0.026664
 -0.029598
  0.081162
 -0.047982
 -0.044502
 -0.011446
 -0.030506
  0.005959
 -0.059660
 -0.018534
 -0.003287
  0.011359
 -0.031717
 -0.054907
 -0.033413
 -0.044836
  0.102174
 -0.017097
  0.121927
  0.094327
  0.078714
  0.036688
 -0.045083
 -0.017274
 -0.016239
 -0.027889
  0.094030
 -0.000803
 -0.041432
 -0.088641
 -0.048763
  0.046730
  0.026787
  0.025156
  0.024248
  0.077679
  0.062489
 -0.008634
 -0.061211
  0.074089
  0.014910
  0.003222
 -0.035402
  0.025948
 -0.062055
 -0.008903
  0.055218
  0.006626
 -0.061888
 -0.020314
  0.017599
  0.021167
 -0.023294
 -0.009309
 -0.050648
  0.045575
 -0.012728
  0.058230
 -0.066823
 -0.002335
 -0.014188
 -0.026630
 -0.028387
 -0.064191
 -0.074424
  0.054802
 -0.083545
  0.035047
 -0.078978
 -0.008208
  0.015864
 -0.022456
  0.060340
  0.044829
  0.080444
 -0.065843
  0.057353
 -0.051810
  0.008795
  0.035912
  0.010933
  0.008548
  0.053443
 -0.032121
  0.045984
  0.031747
  0.019274
 -0.003315
  0.126705
 -0.017593
  0.008846
 -0.013310
  0.027384
  0.101022
  0.005959
  0.033350
 -0.014093
 -0.014758
 -0.007427
  0.001428
 -0.076803
  0.090859
 -0.018368
 -0.019489
 -0.020790
  0.103658
 -0.139996
  0.044195
  0.001545
  0.063799
 -0.047008
  0.017985
  0.029089
 -0.017883
  0.043633
 -0.001273
 -0.073696
  0.037995
 -0.074109
  0.021550
 -0.018287
  0.007224
  0.093947
 -0.014092
 -0.017447
 -0.018685
 -0.061096
  0.105854
 -0.075913
  0.001315
  0.038027
 -0.053623
 -0.032253
 -0.073771
 -0.014265
 -0.068953
 -0.071651
  0.037715
 -0.001797
  0.062689
 -0.074848
 -0.078384
 -0.013766
  0.043108
 -0.024774
 -0.039035
 -0.026542
  0.008929
 -0.011895
 -0.047961
 -0.000536
 -0.076189
  0.052529
  0.057745
 -0.022705
 -0.033219
  0.014365
  0.124983
 -0.068976
 -0.002710
 -0.050761
 -0.002586
 -0.059140
 -0.015361
 -0.026461
 -0.010608
 -0.009656
  0.027491
 -0.044101
  0.022893
  0.007098
 -0.070505
 -0.014601
 -0.104321
  0.002935
 -0.016983
 -0.009378
  0.016761
 -0.042537
 -0.004294
 -0.012356
  0.034979
  0.081930
 -0.003576
  0.033993
  0.011523
 -0.067693
 -0.070831
  0.029551
  0.071919
  0.092273
  0.059185
  0.020203
 -0.005132
 -0.024450
  0.058590
  0.037646
  0.010724
 -0.013219
 -0.037377
  0.060392
  0.048396
 -0.041926
  0.088314
  0.080460
 -0.029057
 -0.030060
 -0.035343
  0.102634
 -0.045850
 -0.043159
  0.051538
  0.114964
 -0.041641
 -0.039436
 -0.045716
  0.014081
 -0.007252
  0.113339
  0.029425
 -0.021734
  0.095085
  0.015932
 -0.057851
  0.017725
 -0.050281
  0.008637
  0.009434
 -0.037179
 -0.007856
  0.015092
  0.015360
  0.098902
  0.036627
  0.012762
 -0.030502
 -0.001589
  0.013275
  0.038389
 -0.003115
 -0.074295
  0.004950
 -0.027407
 -0.043483
 -0.030810
  0.010950
 -0.035443
 -0.029671
 -0.035957
 -0.025804
  0.048152
 -0.008338
  0.025568
  0.048740
  0.037949
  0.036709
 -0.031737
 -0.025532
 -0.032148
  0.055325
 -0.020373
  0.002889
 -0.039515
  0.020723
 -0.024560
 -0.088920
  0.016609
  0.066135
 -0.034109
 -0.077925
  0.026463
  0.029176
 -0.000897
 -0.021174
  0.008243
  0.005975
  0.052852
 -0.078850
 -0.033975
 -0.071114
 -0.010121
 -0.015734
  0.040811
 -0.110656
 -0.020128
  0.068111
 -0.050809
  0.003226
  0.115787
 -0.035959
 -0.034447
 -0.064345
  0.092547
  0.021982
  0.006223
 -0.049139
  0.047753
 -0.031704
 -0.052555
  0.024121
 -0.023517
 -0.034737
  0.017066
  0.027927
  0.009520
 -0.054454
  0.049986
  0.056135
  0.029692
  0.045393
 -0.020696
 -0.050585
  0.098239
 -0.014009
  0.030978
 -0.027540
 -0.031006
 -0.100289
  0.095302
  0.067462
  0.076400
  0.014907
  0.031292
  0.008247
 -0.027453
 -0.025916
 -0.009144
 -0.022754
  0.069136
  0.079464
  0.067548
  0.047664
  0.032634
  0.071791
  0.068123
 -0.012079
 -0.013612
  0.094443
 -0.046619
  0.066346
 -0.073727
  0.109292
  0.043421
  0.056160
  0.073057
 -0.050387
 -0.015737
 -0.001352
  0.032894
  0.040664
  0.080168
 -0.097935
 -0.005531
 -0.013994
  0.065130
  0.027735
 -0.062744
 -0.024971
 -0.001330
 -0.083598
  0.038416
 -0.004976
 -0.050837
  0.072121
 -0.024590
  0.020182
  0.116176
  0.129135
  0.034993
  0.075769
  0.068889
  0.064060
  0.043972
 -0.001106
  0.056760
  0.090873
  0.082680
  0.191744
  0.042764
  0.117576
  0.157558
  0.026112
  0.095380
  0.062924
  0.129794
  0.163279
  0.095510
  0.195768
  0.099881
  0.145288
  0.156790
  0.206170
  0.062670
  0.087308
  0.074243
  0.094242
  0.089215
  0.037377
  0.017736
  0.025951
  0.049218
  0.086822
  0.130420
  0.093153
  0.115754
  0.087259
  0.027728
  0.110185
  0.102309
  0.141441
  0.174287
  0.104655
  0.286482
  0.298236
  0.339372
  0.411310
  0.492263
  0.526614
  0.623171
  0.716529
  0.718015
  0.748964
  0.745665
  0.752680
  0.735528
  0.877127
  0.901181
  0.838416
  0.821418
  0.913650
  0.781938
  0.653732
  0.582100
  0.405786
  0.263132
  0.152080
  0.085283
  0.103419
  0.141434
  0.084158
  0.116159
  0.068211
  0.041328
 -0.025874
 -0.005474
  0.051437
  0.103443
 -0.013958
  0.115287
  0.107803
 -0.024728
  0.003073
 -0.036638
  0.104285
  0.027379
 -0.066283
  0.120475
  0.012678
  0.070519
 -0.011568
 -0.006225
 -0.020760
  0.062348
  0.006822
 -0.036552
  0.042832
  0.000222
 -0.028542
 -0.114132
  0.062478
  0.019720
  0.003826
  0.033507
  0.003028
  0.074441
 -0.018140
  0.026125
 -0.064406
  0.008159
 -0.092619
  0.058854
  0.025166
  0.016378
 -0.023938
 -0.031462
  0.029891
  0.010425
  0.041079
  0.054080
  0.054315
 -0.059599
  0.010796
  0.009150
 -0.034480
 -0.020466
  0.018788
  0.060217
 -0.069184
  0.002576
  0.058656
  0.042365
  0.018627
 -0.025438
  0.019393
  0.029696
 -0.027195
 -0.013711
 -0.012751
  0.053285
 -0.099232
  0.017713
 -0.081172
  0.003763
 -0.017680
  0.020539
 -0.134702
 -0.061874
 -0.037573
 -0.001747
 -0.103187
 -0.020284
  0.019152
  0.096210
 -0.024874
  0.068612
  0.027313
  0.094691
 -0.063620
 -0.022122
 -0.061900
 -0.009836
  0.070447
 -0.058450
 -0.006865
 -0.053761
  0.073324
 -0.001127
  0.045487
 -0.008776
  0.050781
  0.018683
 -0.018953
 -0.006890
 -0.018430
  0.032381
 -0.010419
 -0.028419
  0.078046
  0.025132
  0.030444
 -0.006264
  0.019678
 -0.067674
  0.092094
  0.022734
  0.006347
  0.004103
 -0.036594
 -0.009411
 -0.005243
  0.056889
 -0.041794
 -0.099056
  0.007974
  0.042787
  0.071762
  0.037971
 -0.091780
  0.017830
 -0.072110
 -0.034089
 -0.054531
  0.046917
  0.000490
 -0.040808
  0.067924
  0.063534
 -0.106368
 -0.018678
  0.058841
  0.082189
  0.005978
 -0.031396
 -0.032726
  0.084800
 -0.064794
  0.018864
  0.013093
  0.018678
 -0.090321
 -0.039378
  0.009765
  0.011610
 -0.041408
 -0.048552
 -0.015267
  0.040500
 -0.025449
 -0.063277
  0.011201
  0.012436
  0.013271
  0.012056
 -0.045461
 -0.002167
 -0.056845
 -0.028153
 -0.029317
 -0.094824
  0.044647
 -0.007074
  0.058479
 -0.022788
  0.002596
 -0.021210
 -0.002167
 -0.016422
 -0.023505
  0.035367
 -0.017512
 -0.033619
 -0.046650
 -0.019512
 -0.022830
 -0.002341
 -0.000176
 -0.042492
  0.028966
  0.044579
  0.015047
  0.082320
  0.002584
  0.052083
 -0.040477
 -0.006055
  0.024598
 -0.063529
 -0.044285
 -0.000024
 -0.074004
  0.061142
 -0.024063
 -0.089892
 -0.020136
 -0.027692
  0.028070
  0.073004
  0.003144
  0.078424
 -0.008088
  0.054197
  0.023532
  0.071610
  0.025716
  0.090626
 -0.034026
  0.059165
 -0.037646
 -0.053297
  0.041570
  0.052233
 -0.114820
  0.021668
  0.001396
  0.022828
 -0.033742
 -0.017198
 -0.008218
  0.105983
 -0.055964
  0.077898
  0.019478
 -0.024098
  0.016916
  0.048999
  0.002800
  0.060526
 -0.014220
 -0.058065
  0.008311
 -0.039561
  0.053568
  0.037586
  0.065119
  0.028625
  0.046996
 -0.048637
 -0.013685
  0.039112
  0.009418
  0.024850
  0.000988
  0.029454
 -0.056828
  0.016227
 -0.007823
  0.079874
  0.034223
 -0.019446
  0.100191
  0.062661
  0.036355
  0.012809
 -0.008157
 -0.024862
  0.019874
  0.048887
 -0.112528
 -0.011245
 -0.003345
  0.046281
 -0.061443
  0.031293
  0.017183
  0.034748
 -0.007436
  0.087652
  0.026842
 -0.005700
 -0.096996
  0.057740
  0.020958
 -0.052896
 -0.117268
 -0.019796
  0.000156
 -0.126264
  0.106687
  0.008449
  0.043971
  0.046243
 -0.113198
  0.046516
  0.060600
  0.030634
 -0.057096
  0.025596
  0.026611
  0.036100
  0.091852
  0.008657
  0.055914
  0.013688
 -0.007920
  0.048831
  0.079868
 -0.001961
 -0.020519
 -0.100261
  0.069761
  0.066150
  0.013021
  0.012189
 -0.010801
  0.040884
 -0.058030
  0.061518
 -0.002276
 -0.007397
  0.042860
 -0.051211
 -0.003235
 -0.027271
 -0.008244
  0.043484
  0.114341
  0.044931
  0.015745
  0.014882
 -0.059113
  0.071331
 -0.038683
  0.047542
 -0.071113
  0.015338
  0.027986
 -0.030624
  0.058569
 -0.042026
 -0.006780
  0.008509
 -0.018785
  0.045030
 -0.003091
 -0.091984
  0.041093
 -0.057764
 -0.067597
 -0.021690
 -0.046260
 -0.041652
 -0.051059
 -0.035163
  0.027436
 -0.032565
  0.002587
  0.090066
 -0.012023
 -0.030287
  0.021803
 -0.018591
  0.046046
 -0.061182
 -0.075667
 -0.030785
 -0.036956
  0.020891
  0.029786
 -0.070699
 -0.040775
 -0.145591
  0.023177
 -0.031908
  0.043515
  0.027310
  0.084456
 -0.009791
  0.087610
  0.040803
  0.001182
 -0.022825
 -0.043524
  0.007309
 -0.076451
 -0.038538
 -0.017080
 -0.036105
 -0.051733
 -0.070469
  0.044367
 -0.036219
  0.046220
 -0.014470
 -0.007112
 -0.034263
 -0.022532
 -0.006341
 -0.089034
  0.021003
 -0.010838
  0.006516
 -0.006004
 -0.042383
 -0.007598
  0.013977
 -0.029243
  0.070342
  0.002066
 -0.063657
 -0.070809
 -0.076631
 -0.022373
 -0.009423
 -0.047228
  0.018989
 -0.000223
 -0.058382
 -0.070443
  0.040752
 -0.093371
  0.037151
  0.081489
  0.054775
 -0.005041
 -0.013108
 -0.021321
 -0.014921
  0.055798
  0.046563
  0.032822
  0.052667
  0.001672
 -0.058967
 -0.007444
 -0.066555
 -0.013508
  0.061698
 -0.062101
  0.087165
  0.051446
  0.042579
  0.007803
 -0.006059
  0.058060
 -0.027101
 -0.000002
 -0.105672
  0.080558
 -0.003209
 -0.069113
  0.004632
  0.079775
  0.022533
  0.074597
 -0.010434
  0.017163
  0.036542
  0.048355
  0.042246
  0.024741
  0.031102
 -0.011736
 -0.043340
  0.027701
  0.058321
 -0.034946
 -0.016359
  0.068825
  0.091549
 -0.001114
  0.045282
 -0.054317
 -0.010006
  0.046534
 -0.000555
 -0.065370
 -0.017556
  0.001276
 -0.036166
  0.027467
 -0.020629
 -0.060892
 -0.020301
 -0.028323
 -0.019998
  0.031661
 -0.018237
 -0.010030
  0.018435
  0.037453
  0.000799
 -0.014781
 -0.040395
  0.004375
  0.022834
  0.043995
  0.016189
  0.046132
  0.001043
 -0.034693
 -0.029806
 -0.024637
  0.033749
 -0.044431
  0.055044
 -0.050295
 -0.026258
  0.004453
  0.002725
 -0.019608
  0.042197
 -0.030025
 -0.052622
 -0.037658
  0.030772
  0.023911
  0.031737
 -0.003038
  0.004002
 -0.065939
 -0.078362
 -0.005316
 -0.035330
 -0.008928
  0.015610
  0.011367
  0.110993
 -0.072782
 -0.037777
 -0.081704
  0.001285
 -0.008883
  0.015932
 -0.056499
 -0.028531
 -0.009751
  0.068954
  0.048143
 -0.046914
  0.048078
  0.009266
  0.026703
  0.054612
 -0.000372
 -0.069992
 -0.047590
  0.028605
  0.009354
 -0.012590
 -0.072396
 -0.010139
 -0.112116
  0.023393
 -0.016756
  0.027467
 -0.123318
 -0.028438
  0.016222
 -0.021703
  0.005465
  0.026272
  0.046695
 -0.028403
  0.026235
 -0.032769
 -0.046836
 -0.046496
  0.025113
  0.023643
 -0.053084
  0.078017
 -0.022056
  0.028176
 -0.007362
 -0.048447
 -0.009993
  0.140434
 -0.028395
  0.057692
  0.050063
  0.065991
 -0.037279
 -0.068116
 -0.045847
 -0.018062
  0.104704
  0.039890
 -0.074538
 -0.046383
  0.015090
  0.088199
 -0.039895
  0.021699
 -0.109898
 -0.045137
 -0.016938
 -0.037456
  0.012576
  0.024216
  0.073389
  0.032157
 -0.088673
  0.038776
  0.008424
 -0.036175
 -0.064537
 -0.061339
  0.040995
 -0.005052
  0.045365
 -0.013713
 -0.046542
 -0.009554
  0.019442
 -0.051671
 -0.045323
  0.045079
  0.048585
 -0.029697
 -0.028881
  0.013495
 -0.071904
 -0.008248
 -0.074341
  0.014317
 -0.024448
 -0.018198
  0.041374
 -0.003390
  0.075561
  0.007653
 -0.050418
  0.025846
  0.076385
  0.036397
 -0.030051
  0.051401
 -0.045552
 -0.003065
 -0.019546
  0.010021
  0.025648
  0.051748
  0.015232
 -0.043915
 -0.053859
  0.034069
  0.029480
 -0.029977
  0.059093
 -0.004681
 -0.034067
  0.036529
 -0.054647
 -0.021384
  0.051487
 -0.008792
  0.004388
 -0.019460
 -0.133694
 -0.052670
  0.049497
 -0.013908
 -0.035539
 -0.021346
 -0.019185
  0.057119
  0.015072
 -0.066097
  0.097751
  0.014054
  0.041983
 -0.072778
  0.081089
  0.037720
 -0.003491
 -0.038728
  0.130004
 -0.032839
  0.043384
  0.044292
  0.007904
 -0.038599
  0.019626
 -0.001332
  0.064439
 -0.072656
 -0.043408
 -0.162682
 -0.072379
 -0.027153
 -0.032409
 -0.049145
 -0.013644
 -0.041851
  0.021386
  0.048987
  0.010544
 -0.051201
 -0.052048
 -0.014251
 -0.059074
  0.017704
  0.098081
  0.111042
 -0.033145
  0.016280
 -0.070475
 -0.049918
  0.007306
  0.095357
  0.069886
  0.015163
 -0.015651
  0.036539
 -0.000100
 -0.040285
  0.014915
 -0.057565
  0.058244
  0.008673
  0.028512
  0.123524
  0.014187
 -0.020344
 -0.014559
 -0.002008
  0.053093
 -0.038902
 -0.061106
  0.012640
  0.075099
 -0.032717
 -0.041837
 -0.051542
  0.039750
 -0.037866
 -0.043859
  0.027505
  0.049268
  0.047576
  0.049061
 -0.010625
  0.016060
 -0.011839
  0.002556
  0.007009
 -0.020868
  0.006099
 -0.007074
  0.073930
 -0.026359
 -0.105797
 -0.121238
  0.012091
 -0.005072
  0.042907
  0.062677
  0.029913
  0.006217
 -0.011665
 -0.019356
  0.001467
  0.032719
  0.035289
 -0.016796
  0.046858
  0.020306
 -0.016088
  0.040594
  0.093320
 -0.006058
 -0.069138
 -0.039981
  0.072601
 -0.057422
 -0.007956
 -0.076709
  0.000516
 -0.055208
  0.000016
  0.116440
  0.017995
  0.019504
  0.030487
 -0.011106
  0.033009
  0.008150
 -0.067346
 -0.044369
  0.065316
 -0.074652
  0.085728
 -0.012566
  0.043638
 -0.030749
 -0.050422
 -0.027400
  0.032873
  0.073547
  0.007810
  0.017542
  0.044558
 -0.049168
  0.036346
 -0.014428
  0.064500
 -0.025699
  0.009873
 -0.039527
  0.005802
  0.022980
 -0.022138
 -0.020046
  0.034536
  0.012526
  0.118918
 -0.032802
 -0.029314
 -0.005496
  0.031392
 -0.015649
 -0.009702
  0.005228
  0.063988
 -0.088796
  0.023347
  0.032052
  0.003750
 -0.055939
  0.023643
  0.005700
  0.020837
  0.013447
 -0.007198
  0.006382
 -0.013158
  0.021036
 -0.049762
 -0.117856
 -0.030496
 -0.001274
  0.013198
  0.003787
  0.020060
  0.079287
 -0.059424
 -0.076580
  0.031720
 -0.037787
  0.132290
 -0.041294
 -0.005908
 -0.007074
  0.038551
 -0.042224
 -0.007060
 -0.013882
 -0.088393
 -0.054715
  0.097183
 -0.069283
 -0.024286
  0.038293
  0.007836
  0.074374
 -0.088726
  0.110295
 -0.052493
  0.014996
 -0.118701
 -0.084190
  0.021185
 -0.026732
  0.041978
 -0.110097
 -0.043620
 -0.030481
 -0.002836
  0.002214
 -0.011257
 -0.014773
  0.009783
  0.064332
 -0.047654
 -0.019495
 -0.046229
  0.004480
  0.048495
  0.025518
  0.005076
  0.007876
  0.044217
  0.037551
  0.046339
 -0.076863
  0.028756
  0.031693
  0.015444
  0.011655
 -0.056283
 -0.036654
  0.025673
  0.018528
  0.055526
  0.017300
 -0.122187
 -0.107271
 -0.008643
 -0.025160
  0.015763
  0.031986
  0.069471
  0.054648
 -0.005568
  0.034557
  0.008377
 -0.030837
 -0.061537
  0.028733
 -0.020109
  0.011981
  0.028298
 -0.018069
  0.045634
 -0.023832
 -0.031870
  0.033827
 -0.006758
  0.045756
  0.032970
  0.031493
  0.118979
 -0.008429
  0.000618
  0.066186
  0.049003
 -0.031567
 -0.127751
 -0.011199
 -0.012054
 -0.016563
  0.044026
 -0.012666
 -0.001750
 -0.038386
 -0.010378
  0.049625
  0.022579
  0.004167
 -0.078605
  0.021868
  0.009680
 -0.042068
  0.027970
  0.031195
  0.003350
  0.033022
 -0.014787
  0.013533
 -0.057080
  0.029350
  0.029696
  0.017196
 -0.052826
 -0.048770
  0.042500
  0.004627
  0.020272
  0.042207
  0.111034
  0.094316
  0.004452
  0.019790
  0.042346
 -0.011998
  0.058286
  0.024708
  0.036656
 -0.078076
 -0.062849
  0.027912
  0.035046
  0.011070
 -0.009121
  0.020026
 -0.049396
 -0.106908
  0.020755
 -0.084655
 -0.087439
  0.032365
  0.004671
  0.093175
 -0.001556
  0.106325
  0.065009
 -0.020730
  0.039829
 -0.016826
 -0.007018
 -0.005213
  0.016703
  0.001091
  0.038142
  0.024276
  0.000182
  0.074610
  0.090352
  0.013950
 -0.029902
  0.006719
 -0.016184
  0.029098
 -0.043369
  0.003877
  0.027218
  0.007373
  0.036852
  0.019182
  0.016585
  0.009534
  0.089144
  0.009538
 -0.067582
 -0.062864
 -0.071211
 -0.005021
 -0.065268
 -0.038658
 -0.029910
  0.002571
  0.021607
  0.003514
  0.013021
 -0.003104
 -0.034573
 -0.063438
  0.035490
  0.033827
  0.068982
 -0.006738
 -0.051260
  0.089071
  0.017887
  0.022320
  0.029541
  0.043833
  0.002095
 -0.007314
  0.017159
 -0.073349
  0.011192
  0.025644
  0.043448
 -0.029694
  0.068619
 -0.014034
  0.005589
  0.006147
 -0.044649
  0.042417
  0.008859
  0.028687
 -0.020209
  0.003801
 -0.034738
 -0.002262
  0.042713
  0.009873
  0.003108
 -0.027291
  0.035755
 -0.042182
  0.050984
 -0.030326
 -0.058683
 -0.001677
  0.019614
  0.010707
 -0.069190
 -0.010989
 -0.008748
  0.046534
  0.006219
 -0.038273
  0.033936
  0.105877
  0.048334
  0.008254
 -0.023459
  0.043638
  0.035437
 -0.005187
 -0.003471
 -0.084381
 -0.049852
  0.020598
 -0.002411
  0.040755
  0.055376
 -0.007411
  0.038584
 -0.029715
  0.000811
 -0.027482
  0.025571
  0.045855
 -0.005734
  0.052253
  0.002908
 -0.048128
  0.078830
  0.055683
  0.026701
  0.026440
  0.009225
 -0.008188
  0.038852
 -0.033254
  0.092685
 -0.060122
  0.005747
 -0.022955
 -0.034750
  0.013896
 -0.107064
  0.035813
 -0.001148
 -0.000044
 -0.058130
 -0.024929
 -0.035527
  0.037097
 -0.085727
 -0.036793
  0.050674
 -0.006629
 -0.101816
 -0.035205
 -0.014747
 -0.016778
 -0.008033
  0.009594
  0.042957
  0.044161
 -0.051811
 -0.005652
  0.006433
 -0.001227
 -0.022007
  0.065050
 -0.055528
  0.004298
  0.014393
  0.088087
  0.046966
  0.162321
 -0.017493
  0.026851
 -0.037390
 -0.051065
 -0.105794
 -0.095884
 -0.015318
  0.063949
 -0.020529
 -0.004523
 -0.007791
 -0.117822
  0.059657
  0.002160
 -0.032648
 -0.072646
 -0.040955
  0.040851
 -0.015343
  0.015472
 -0.018744
 -0.053267
  0.013405
  0.026560
  0.036388
  0.061754
  0.009839
 -0.026271
  0.031822
 -0.102096
 -0.014832
  0.029809
 -0.039568
 -0.035272
 -0.005006
 -0.004541
 -0.006245
 -0.073961
  0.067661
 -0.020269
  0.033981
 -0.056549
 -0.014922
 -0.004607
  0.043665
 -0.131405
  0.063126
 -0.085893
  0.010364
 -0.153429
  0.030154
 -0.030430
 -0.039289
 -0.040306
 -0.053371
  0.073301
  0.023982
  0.074437
 -0.048711
 -0.042182
 -0.014708
  0.039196
  0.016652
 -0.053330
 -0.095212
 -0.010299
 -0.004223
 -0.059213
 -0.037231
 -0.011921
 -0.014294
  0.043642
 -0.066762
  0.049449
 -0.007539
  0.119011
  0.052733
 -0.040495
 -0.032557
  0.022230
 -0.049530
  0.010664
  0.047223
  0.022246
 -0.093222
  0.030677
 -0.092776
 -0.060812
  0.128820
  0.051100
  0.015765
  0.061895
  0.074529
  0.066172
  0.049519
 -0.032788
  0.036401
 -0.047134
  0.050449
 -0.050746
  0.007613
  0.080634
 -0.071316
  0.003027
 -0.018414
 -0.061484
  0.053895
 -0.007581
 -0.001710
 -0.000142
  0.011925
 -0.020237
  0.068415
  0.137569
 -0.046737
  0.003539
 -0.039232
 -0.000746
  0.113263
 -0.019481
 -0.015916
  0.048097
  0.065778
 -0.020985
  0.002022
 -0.010923
 -0.081510
  0.020332
 -0.015046
  0.028279
 -0.099385
  0.005418
  0.068947
  0.041561
  0.004856
  0.141361
 -0.015275
 -0.009935
 -0.000881
 -0.053004
 -0.037295
  0.033869
 -0.152580
 -0.004035
 -0.013569
 -0.061238
  0.044850
  0.017182
 -0.042285
  0.025947
  0.015101
  0.026317
  0.016717
 -0.031590
 -0.062272
  0.008631
 -0.035191
  0.098236
 -0.032362
 -0.014821
  0.024583
 -0.030605
 -0.052470
 -0.001896
  0.000123
 -0.076429
  0.032291
  0.059662
 -0.023540
 -0.082628
 -0.000828
 -0.029256
  0.046921
 -0.043551
  0.041706
  0.030204
 -0.008381
 -0.063778
  0.063142
 -0.003692
  0.048244
 -0.010945
  0.004565
  0.009239
  0.072933
 -0.008982
  0.071570
  0.005034
  0.018113
 -0.088440
  0.000982
 -0.069908
 -0.096204
 -0.092889
  0.051299
 -0.040969
  0.054888
  0.007022
  0.025277
  0.076597
  0.012461
  0.070731
 -0.034360
  0.051672
  0.037792
  0.098823
 -0.038342
  0.006696
  0.005088
 -0.033552
 -0.044356
 -0.087207
 -0.022115
 -0.038073
 -0.028104
 -0.026951
 -0.052010
 -0.002001
 -0.010955
 -0.115771
 -0.069929
  0.003509
  0.030474
  0.004586
 -0.033291
 -0.072190
  0.018562
 -0.051182
  0.093293
  0.023369
 -0.136349
 -0.021257
 -0.012325
  0.043195
 -0.010911
  0.007206
  0.025504
  0.009072
  0.047307
  0.057516
  0.073645
 -0.136517
 -0.035643
 -0.007512
 -0.001486
 -0.035145
  0.043974
  0.003303
  0.072970
  0.014869
 -0.084676
  0.042217
 -0.039199
 -0.073837
  0.001775
 -0.129320
 -0.036529
  0.046231
 -0.103578
  0.000865
  0.032453
  0.011304
 -0.030159
 -0.029817
  0.023958
 -0.011073
  0.075328
  0.033889
 -0.026384
 -0.094539
 -0.126151
  0.032820
  0.037843
 -0.000318
  0.001692
 -0.020925
  0.012031
 -0.060834
  0.050825
  0.010536
 -0.012919
 -0.074714
  0.062532
  0.016270
 -0.018584
 -0.019260
 -0.024295
  0.016357
  0.042365
  0.063682
 -0.018575
 -0.005700
 -0.032169
 -0.010154
  0.036233
 -0.051262
 -0.076164
  0.055662
 -0.068065
  0.047307
 -0.005013
  0.028053
 -0.043299
 -0.030399
  0.054530
 -0.051360
  0.012558
  0.033141
  0.073731
  0.116457
  0.007648
  0.051354
 -0.038721
 -0.038969
  0.024962
  0.051537
  0.124044
  0.025674
  0.051868
 -0.002428
  0.063157
  0.007836
 -0.032752
  0.055477
  0.016910
 -0.013020
  0.028583
  0.053587
  0.017064
 -0.068064
  0.053995
  0.107938
 -0.046417
  0.001573
  0.041845
  0.030213
  0.019259
 -0.055758
  0.015356
  0.036994
 -0.077987
  0.034930
 -0.027442
  0.003108
  0.043937
 -0.036712
  0.007245
  0.042926
  0.046680
 -0.048676
  0.034982
  0.122751
 -0.006411
  0.016522
 -0.004093
  0.055927
  0.009513
 -0.056700
  0.079339
  0.078352
  0.006654
 -0.000177
  0.020600
 -0.097419
  0.066657
 -0.086322
  0.030926
 -0.045488
  0.047486
  0.001964
 -0.024822
  0.007338
 -0.017618
 -0.034365
  0.011725
 -0.029241
 -0.038729
 -0.047674
  0.063836
  0.096667
  0.025041
  0.019332
  0.025723
  0.081397
  0.058834
  0.045184
  0.013801
 -0.011735
  0.046662
 -0.057916
 -0.060168
  0.009305
 -0.054673
 -0.044618
  0.062924
 -0.001640
  0.000971
  0.028242
  0.022486
  0.011882
  0.020643
  0.011250
  0.081838
  0.053703
  0.071304
  0.009741
 -0.040755
  0.021208
  0.019057
 -0.004046
 -0.081654
  0.010700
  0.068572
 -0.016979
 -0.023673
 -0.062573
  0.000388
 -0.041863
 -0.042293
 -0.026228
 -0.021759
  0.017349
  0.028657
  0.017926
  0.028216
 -0.026604
 -0.031935
  0.094464
 -0.000266
  0.012786
 -0.015472
  0.087478
 -0.025648
 -0.011866
  0.040909
  0.048090
 -0.012912
  0.023135
  0.038542
 -0.016475
 -0.043473
  0.021248
 -0.010826
  0.027457
  0.011036
 -0.161137
  0.064554
  0.010969
 -0.053935
  0.030486
 -0.008955
  0.040441
  0.034216
  0.000891
 -0.026670
  0.014200
  0.031575
  0.018915
 -0.015389
 -0.005734
 -0.005282
 -0.004279
 -0.004148
  0.029290
 -0.000871
 -0.063025
 -0.032764
  0.063580
  0.026586
 -0.053427
 -0.040367
  0.052049
 -0.010159
 -0.024167
 -0.024453
  0.082142
 -0.045638
  0.037790
 -0.032713
 -0.114021
 -0.086355
  0.035248
  0.011766
  0.055402
  0.006688
  0.049995
 -0.033701
  0.035106
 -0.031068
 -0.012790
 -0.057642
 -0.006840
  0.017299
 -0.024899
  0.107095
 -0.010244
 -0.036011
 -0.131399
  0.041915
 -0.048141
 -0.020434
 -0.063995
  0.032050
  0.082366
 -0.041165
  0.052241
 -0.061114
 -0.043897
  0.013334
 -0.007216
  0.017998
 -0.021078
 -0.113243
 -0.040818
  0.008076
 -0.032099
  0.026408
 -0.036601
 -0.017094
 -0.080244
 -0.004297
  0.056716
 -0.017870
  0.041815
  0.047947
  0.009908
  0.059424
  0.048574
  0.027474
 -0.023079
  0.063435
 -0.067806
  0.010360
  0.042850
 -0.094239
 -0.012117
 -0.072789
 -0.028245
 -0.018142
 -0.067834
 -0.006871
  0.059522
  0.010926
  0.017311
 -0.018915
 -0.011285
  0.053507
  0.071821
 -0.011499
 -0.037924
  0.007613
 -0.124279
 -0.039814
 -0.030676
 -0.018322
 -0.022283
  0.056836
 -0.076398
  0.032519
  0.003970
  0.077248
 -0.068639
  0.001078
  0.046992
  0.020086
  0.008030
 -0.031999
 -0.019314
 -0.034560
 -0.001913
  0.015333
 -0.037358
 -0.070150
  0.072711
  0.031866
 -0.004816
 -0.005640
  0.030428
  0.010261
 -0.079917
  0.047162
 -0.011579
  0.024228
  0.095492
  0.083689
 -0.040988
 -0.054149
  0.049208
 -0.018569
 -0.012842
  0.050393
  0.005786
 -0.037024
  0.048910
 -0.066358
  0.079887
 -0.000429
  0.023387
  0.055286
  0.005527
 -0.006196
  0.004666
 -0.007469
 -0.024452
 -0.044987
 -0.022813
  0.019402
 -0.009423
 -0.038197
  0.109128
 -0.019924
 -0.080991
 -0.035431
  0.060164
  0.043838
  0.006889
 -0.017250
 -0.010351
 -0.013667
 -0.079347
 -0.006465
 -0.039710
 -0.046383
 -0.027820
  0.013111
  0.031653
 -0.017881
 -0.084115
 -0.042209
 -0.003903
 -0.000941
 -0.003955
 -0.052367
  0.058473
 -0.016344
  0.125598
 -0.013150
 -0.076860
  0.007311
  0.023018
 -0.049116
 -0.072170
 -0.082914
  0.021348
  0.046208
 -0.047487
 -0.080311
  0.001202
  0.063330
  0.026878
 -0.043662
  0.040549
  0.062024
  0.005491
  0.081681
 -0.071868
  0.066680
 -0.019962
  0.011566
  0.041599
 -0.026051
 -0.017382
 -0.099993
 -0.119483
 -0.071353
 -0.128298
  0.020962
 -0.004076
  0.004742
 -0.010698
 -0.020894
  0.047977
  0.074266
 -0.047258
 -0.088869
  0.050203
  0.037520
  0.012433
 -0.026772
 -0.042514
 -0.077950
  0.016399
  0.055946
 -0.004903
  0.102843
  0.025829
 -0.116368
  0.060788
  0.076505
 -0.012542
  0.070464
  0.028570
 -0.071329
 -0.020486
  0.039596
  0.086229
  0.008540
 -0.074274
 -0.002260
 -0.007633
 -0.009710
  0.048186
  0.104609
 -0.080979
 -0.031690
 -0.015452
 -0.028041
  0.024643
  0.071158
 -0.106274
  0.008071
 -0.017909
  0.038488
  0.060894
  0.082612
 -0.056800
 -0.050162
  0.106921
  0.049760
 -0.035183
 -0.004880
  0.036637
 -0.029384
  0.031446
 -0.000555
  0.032468
 -0.014553
  0.062913
  0.058976
  0.032422
  0.085384
  0.005069
 -0.000459
  0.025044
  0.082650
 -0.009958
 -0.024487
 -0.055810
 -0.000311
 -0.060904
 -0.003200
 -0.002944
 -0.012079
 -0.013209
  0.029662
 -0.027507
  0.061476
 -0.042965
  0.001142
  0.005818
 -0.045965
  0.011379
  0.061988
  0.029862
  0.005155
 -0.051279
  0.038218
 -0.069908
  0.022668
  0.017764
 -0.036496
  0.024423
 -0.029684
 -0.030771
 -0.066295
  0.082858
 -0.039538
  0.011460
 -0.034479
 -0.132912
 -0.003930
  0.019442
  0.037666
 -0.008102
  0.006112
 -0.031349
 -0.012935
 -0.033573
  0.001312
  0.013420
  0.059327
 -0.063024
  0.097553
  0.106089
  0.029985
 -0.021454
  0.076186
 -0.067384
 -0.024810
  0.032848
  0.056512
  0.075921
  0.009756
 -0.000379
  0.051014
  0.092214
 -0.099773
 -0.004273
 -0.023416
 -0.022720
 -0.069965
 -0.011595
 -0.093028
  0.104632
 -0.110038
 -0.020365
 -0.098861
 -0.038941
 -0.038269
  0.006646
  0.000588
  0.023994
  0.033771
 -0.095501
 -0.083226
  0.004028
 -0.111454
 -0.035398
  0.065549
 -0.041955
 -0.052661
 -0.011288
  0.040624
  0.006012
 -0.021362
 -0.037230
 -0.046344
  0.010762
  0.007107
  0.008603
  0.057613
 -0.023636
 -0.030712
 -0.093645
 -0.051083
 -0.051286
 -0.086093
  0.079140
 -0.074166
 -0.039287
 -0.014497
 -0.034379
  0.007044
 -0.045957
  0.012848
  0.031005
 -0.024139
  0.074299
  0.067426
  0.010981
  0.006953
 -0.046970
  0.022480
 -0.007149
 -0.027290
 -0.085319
 -0.060732
 -0.075890
  0.110943
  0.018188
  0.016675
  0.018306
  0.018641
 -0.007311
  0.015983
 -0.016777
 -0.032153
 -0.022133
 -0.019086
  0.009161
  0.002489
 -0.002408
 -0.076947
  0.061077
 -0.049342
 -0.019671
  0.018202
 -0.036469
 -0.001553
 -0.060434
 -0.052529
  0.016297
 -0.002103
  0.067045
 -0.014945
  0.036285
  0.060644
 -0.045554
  0.031562
 -0.053368
  0.051684
 -0.010109
 -0.032060
 -0.045438
  0.062874
  0.005768
  0.036025
  0.010106
 -0.000698
  0.015780
  0.008536
 -0.036370
  0.072533
 -0.042670
 -0.003808
  0.012877
 -0.007561
 -0.104397
 -0.001764
  0.026133
 -0.039934
  0.005024
  0.056950
 -0.016093
  0.014526
  0.090808
 -0.003761
  0.062958
  0.025079
  0.006169
  0.018736
  0.021762
 -0.019274
 -0.026653
 -0.044305
  0.059634
  0.011346
  0.021326
 -0.016983
 -0.029651
  0.052625
 -0.023132
  0.111433
  0.005420
  0.039184
 -0.028344
 -0.010057
  0.039320
 -0.035025
 -0.030567
 -0.003582
  0.118997
 -0.047392
 -0.058082
 -0.035759
  0.025677
  0.036180
  0.050896
  0.029394
  0.002466
  0.012976
 -0.015708
 -0.007326
 -0.024002
  0.053364
  0.062270
 -0.113917
 -0.005059
  0.026691
  0.034364
 -0.031530
  0.008874
 -0.024120
  0.022424
 -0.043714
  0.017980
  0.061620
 -0.040749
 -0.055483
  0.063909
 -0.018276
 -0.009584
  0.006670
  0.050123
  0.058319
 -0.033353
 -0.011398
  0.089828
  0.030175
 -0.007698
  0.091455
 -0.052676
 -0.052159
 -0.027067
 -0.019278
  0.067784
  0.032931
 -0.011604
  0.043532
 -0.075855
 -0.171403
  0.012829
 -0.004082
  0.047302
  0.036442
  0.019140
  0.005950
 -0.011572
  0.011909
 -0.035651
 -0.010132
  0.053510
 -0.049811
  0.019707
  0.064042
 -0.029498
  0.053736
  0.021443
  0.000195
  0.076453
 -0.020180
  0.074771
 -0.024855
 -0.017540
 -0.070330
  0.022345
 -0.021413
  0.036794
 -0.093231
  0.065823
 -0.008134
  0.009504
  0.040410
 -0.026372
 -0.061301
 -0.089308
  0.027614
 -0.072902
  0.090814
  0.035548
 -0.009318
 -0.021137
 -0.021833
 -0.039707
 -0.003494
  0.044492
  0.060416
 -0.073445
 -0.005106
 -0.031918
  0.041729
  0.018665
  0.030053
  0.030121
 -0.046255
  0.013764
  0.006087
  0.033572
 -0.019996
 -0.052718
  0.006402
 -0.017999
 -0.040391
  0.037017
 -0.021388
 -0.036368
 -0.082171
 -0.011745
 -0.003534
 -0.022525
 -0.052429
 -0.016396
 -0.022101
 -0.038682
  0.008636
  0.019345
 -0.005443
 -0.001829
 -0.033322
  0.019938
 -0.034837
 -0.090678
  0.047403
  0.070699
  0.028249
 -0.038277
 -0.104372
  0.112854
 -0.071990
  0.062540
 -0.007846
  0.073391
 -0.005574
  0.015419
 -0.025774
  0.015915
 -0.020902
 -0.077159
 -0.007686
 -0.032294
  0.015715
 -0.036214
 -0.018857
 -0.013917
 -0.059308
 -0.082339
 -0.060966
 -0.013614
 -0.061281
  0.047421
 -0.021133
 -0.038036
 -0.023061
  0.028507
 -0.000673
  0.009904
 -0.004390
 -0.063544
 -0.037384
 -0.098968
 -0.016218
 -0.051714
 -0.002914
 -0.010637
 -0.123387
 -0.076085
 -0.059356
 -0.018062
 -0.042220
  0.031333
 -0.012413
  0.061578
  0.001951
 -0.009213
  0.017420
 -0.011906
 -0.040449
 -0.025856
 -0.001770
 -0.012177
  0.023179
 -0.118575
 -0.063424
  0.057761
  0.077070
 -0.040636
 -0.036999
  0.050981
 -0.005337
  0.008307
 -0.011126
 -0.007797
 -0.037776
 -0.004123
 -0.003758
 -0.036135
 -0.031381
 -0.027237
 -0.036079
  0.091549
  0.020086
 -0.082539
 -0.029258
 -0.112987
 -0.009936
  0.051624
 -0.052741
  0.000116
  0.011767
 -0.014575
  0.010717
  0.022552
  0.027583
 -0.028143
 -0.033989
  0.034370
  0.004753
 -0.020529
 -0.018000
 -0.050693
 -0.061082
 -0.007469
  0.030645
  0.056927
  0.004648
 -0.036410
 -0.124523
 -0.061364
 -0.080707
 -0.011206
 -0.031855
 -0.067148
  0.025080
  0.014234
  0.039036
 -0.072906
 -0.039452
 -0.083791
  0.025843
  0.024708
  0.023029
 -0.089644
 -0.005426
  0.020952
 -0.006404
 -0.009522
  0.011873
  0.053649
 -0.031261
 -0.021810
  0.039267
  0.035510
 -0.001949
 -0.108904
 -0.015428
 -0.023160
 -0.026336
  0.066506
  0.111412
 -0.012637
 -0.048752
  0.046092
  0.025955
 -0.039754
 -0.031657
  0.080161
 -0.016137
 -0.007001
  0.064463
  0.105785
 -0.119340
 -0.049071
  0.011507
  0.055356
 -0.036304
  0.080788
  0.019080
 -0.007933
 -0.010952
  0.002521
  0.005165
 -0.016713
  0.052655
  0.045929
  0.025275
 -0.097246
  0.013074
  0.016332
  0.032086
 -0.003486
  0.088940
  0.064253
  0.012188
 -0.091545
 -0.031783
 -0.015772
  0.037110
  0.037129
  0.039234
  0.034148
 -0.042724
  0.012962
  0.004876
 -0.030093
 -0.031174
 -0.003978
 -0.024758
  0.013174
  0.017253
 -0.009542
 -0.071529
  0.017082
  0.010898
 -0.015903
 -0.003732
  0.037641
 -0.045451
 -0.103799
 -0.023218
  0.060688
 -0.029729
 -0.078991
  0.052667
 -0.002510
 -0.038686
  0.028029
 -0.047496
  0.015639
  0.057292
 -0.013558
 -0.056252
 -0.004789
 -0.048279
 -0.052066
 -0.111623
  0.016245
  0.058230
  0.012709
 -0.049694
 -0.020977
 -0.016701
  0.034033
 -0.005199
 -0.069816
 -0.035734
 -0.058497
 -0.000857
  0.025994
 -0.027514
 -0.061673
  0.021384
  0.062027
 -0.012550
  0.062388
 -0.070892
 -0.072202
  0.009978
  0.032045
  0.021258
  0.019508
 -0.037589
 -0.125164
 -0.067178
 -0.025460
 -0.009351
 -0.021169
  0.007367
 -0.029997
 -0.049437
 -0.109279
 -0.008345
 -0.001083
  0.083000
  0.001043
 -0.051872
 -0.000848
  0.050801
 -0.002416
  0.015687
  0.012546
 -0.017426
 -0.032499
 -0.034019
 -0.000516
  0.085036
  0.038009
  0.017469
 -0.011561
 -0.072999
  0.021093
 -0.025838
  0.066223
 -0.023476
 -0.068850
  0.041957
  0.067931
 -0.005484
 -0.052985
  0.108790
  0.061801
  0.009416
  0.013214
  0.076740
 -0.055004
 -0.102636
  0.095629
  0.137437
  0.023309
  0.052320
 -0.098654
  0.086522
 -0.049319
 -0.073886
  0.000550
  0.065596
  0.004288
  0.098012
 -0.039714
  0.043102
 -0.098531
 -0.009429
  0.052116
  0.024953
  0.014802
  0.078812
  0.014347
 -0.083960
  0.084456
  0.037419
  0.011119
  0.051215
  0.017994
 -0.028496
 -0.048079
 -0.087313
 -0.004650
  0.038736
  0.034571
  0.051317
 -0.010596
  0.031380
 -0.059018
  0.012144
  0.057995
  0.009530
  0.015275
 -0.013669
  0.048365
  0.069998
  0.036806
 -0.055236
  0.034139
 -0.015710
  0.006993
  0.077140
  0.090568
  0.020933
  0.102790
  0.022493
 -0.040305
 -0.010305
 -0.125276
  0.028986
 -0.017644
  0.042739
 -0.046754
  0.006707
  0.077961
 -0.000561
 -0.069453
 -0.015205
 -0.010700
  0.070408
 -0.043444
 -0.021288
  0.075847
  0.101855
  0.041831
  0.043646
  0.064998
  0.032869
  0.072220
 -0.004884
 -0.046722
  0.050700
  0.054853
 -0.066885
  0.056622
  0.050132
  0.026387
  0.043659
  0.042627
  0.062679
 -0.001576
  0.018595
 -0.050878
  0.060804
  0.015339
 -0.078414
 -0.050000
 -0.024636
  0.009421
 -0.009680
 -0.042154
 -0.051426
 -0.031723
 -0.032864
  0.021640
  0.030331
  0.019090
  0.005636
  0.011792
  0.017382
  0.070633
 -0.016434
 -0.037528
  0.030134
 -0.010696
  0.011745
 -0.092441
 -0.013398
  0.032731
  0.003468
  0.006920
 -0.012454
 -0.066622
  0.009747
  0.002559
  0.123089
 -0.023738
 -0.010168
 -0.067526
 -0.013656
  0.042830
  0.017597
 -0.011713
  0.016753
 -0.006685
  0.101751
 -0.002686
 -0.006900
 -0.014152
 -0.045394
  0.080927
  0.085084
 -0.004681
  0.046983
 -0.032290
 -0.035062
 -0.041121
 -0.013212
  0.057266
  0.028804
  0.005321
 -0.058128
 -0.116658
 -0.003523
 -0.016804
  0.067606
 -0.043274
 -0.049338
 -0.059122
 -0.011550
  0.024017
 -0.145341
  0.054436
  0.041237
  0.003195
  0.026383
 -0.001567
  0.028357
  0.043922
  0.017848
 -0.004494
  0.007798
  0.046460
  0.018520
 -0.048986
  0.010418
  0.043679
 -0.037335
 -0.035434
 -0.044130
  0.034829
 -0.052268
 -0.076799
  0.092113
 -0.015881
 -0.063882
  0.027573
 -0.015714
 -0.024694
  0.009223
  0.006066
 -0.032506
  0.021053
 -0.040167
 -0.008010
 -0.047880
  0.081393
  0.015987
  0.060573
  0.009561
 -0.047782
 -0.037336
  0.000197
 -0.075341
 -0.023614
 -0.074945
 -0.028054
 -0.078997
 -0.055779
  0.053895
 -0.051183
 -0.016074
  0.023427
 -0.054003
  0.063569
  0.036253
  0.084165
 -0.025491
 -0.063812
 -0.093437
 -0.019861
 -0.037338
 -0.071374
  0.025780
 -0.026400
 -0.028719
 -0.015511
  0.061351
 -0.021436
 -0.008557
  0.060590
  0.059102
  0.050481
  0.037872
 -0.021425
  0.032714
 -0.048248
 -0.050645
 -0.065188
  0.084687
 -0.002571
 -0.060951
 -0.068051
  0.029953
  0.066270
  0.011803
  0.049106
  0.012670
 -0.047607
  0.050841
 -0.063531
 -0.023254
  0.016386
 -0.004602
 -0.021656
  0.051941
 -0.038037
 -0.017505
 -0.084603
 -0.020465
 -0.041731
 -0.026271
  0.007621
  0.038903
 -0.108795
 -0.072894
  0.058869
  0.075675
 -0.034394
 -0.041339
  0.019641
  0.051301
  0.097019
 -0.032167
  0.078751
  0.013814
  0.031108
  0.010939
  0.027222
  0.063109
  0.030220
  0.033204
  0.007347
  0.043960
  0.019669
  0.016663
  0.044847
 -0.068921
  0.023194
 -0.003081
 -0.040161
 -0.078173
 -0.016176
  0.041299
  0.008656
 -0.035721
 -0.060186
  0.035403
 -0.011138
  0.008971
 -0.011423
 -0.086411
  0.113106
  0.026988
  0.058976
 -0.078753
  0.071390
  0.006207
  0.052517
 -0.039369
 -0.125394
  0.069984
  0.032178
  0.041322
  0.046887
  0.049312
 -0.031445
 -0.088467
  0.042046
 -0.023861
 -0.069713
  0.006460
 -0.080600
  0.008878
  0.014420
  0.048057
  0.018678
  0.021055
 -0.003133
 -0.067472
  0.086116
 -0.080909
 -0.006927
  0.044281
 -0.055038
 -0.004687
 -0.033797
  0.019733
 -0.039304
  0.023527
 -0.002234
 -0.072904
 -0.009948
 -0.040847
  0.027868
  0.000716
 -0.074948
 -0.074792
  0.022784
 -0.011744
 -0.013411
  0.064630
  0.011505
  0.004199
  0.071257
  0.060129
  0.056664
  0.015687
  0.062550
 -0.001482
 -0.029923
 -0.069544
  0.002127
  0.014246
  0.063029
  0.056602
  0.071901
 -0.074555
 -0.025849
 -0.044635
  0.036030
 -0.075426
  0.063402
  0.048285
  0.024561
  0.001357
  0.061052
 -0.011077
 -0.111025
 -0.092754
  0.064463
  0.033142
  0.064609
  0.022364
  0.005305
 -0.008928
  0.000880
  0.047916
  0.046979
  0.042366
 -0.041469
  0.020338
 -0.109681
  0.047330
 -0.025600
 -0.035859
  0.002371
  0.042036
 -0.027440
 -0.075103
 -0.025666
 -0.035644
  0.035869
  0.032002
 -0.006670
 -0.065521
 -0.026510
 -0.035937
 -0.120689
 -0.029166
 -0.004339
 -0.002913
  0.038588
 -0.002962
  0.115757
 -0.018679
  0.052872
 -0.010801
  0.010430
 -0.003483
 -0.050829
 -0.086838
 -0.061592
 -0.047961
 -0.052937
  0.040896
  0.042538
 -0.038666
 -0.051430
  0.005087
 -0.006140
 -0.032654
 -0.043010
  0.029157
  0.016775
  0.003120
  0.021685
 -0.088901
  0.003403
 -0.021713
 -0.039851
  0.013530
  0.045495
 -0.017800
 -0.076327
  0.088383
  0.032367
  0.049314
  0.035491
 -0.036517
 -0.042586
  0.056701
 -0.032997
 -0.007628
  0.045366
  0.039918
 -0.001203
  0.105965
 -0.069140
  0.018577
  0.055290
  0.018498
 -0.008925
  0.025816
  0.057836
  0.065933
 -0.017176
 -0.057437
  0.018316
 -0.094864
 -0.024566
 -0.023541
 -0.068829
  0.012705
 -0.054882
 -0.080263
 -0.092829
  0.035683
  0.031218
 -0.001460
  0.050117
  0.008127
 -0.005687
 -0.075005
 -0.035142
  0.027844
 -0.008846
  0.038102
 -0.044567
  0.008061
  0.006472
  0.034844
 -0.038652
 -0.047869
 -0.080896
 -0.035143
 -0.006707
 -0.028748
 -0.034494
 -0.067429
 -0.048995
  0.118737
  0.099708
 -0.043324
 -0.014447
 -0.067985
 -0.011161
 -0.096832
  0.019310
 -0.035749
 -0.065942
 -0.044361
  0.039388
  0.036664
 -0.023267
  0.025399
 -0.023514
 -0.006727
  0.044260
  0.017850
 -0.035078
  0.006605
 -0.006188
 -0.036069
  0.010759
 -0.053956
  0.023842
  0.008412
 -0.004640
  0.076635
 -0.019985
  0.005004
  0.037656
 -0.049428
  0.000811
  0.047811
 -0.012726
 -0.016386
 -0.022774
  0.050218
 -0.008386
  0.025007
 -0.011888
 -0.014979
  0.041697
 -0.019728
  0.019587
  0.092558
 -0.012909
  0.010031
 -0.060848
 -0.019404
 -0.003877
  0.013347
 -0.089230
 -0.004564
  0.038477
  0.012304
 -0.040531
  0.007487
  0.057173
  0.006184
 -0.055735
  0.013491
 -0.035618
 -0.003501
  0.040382
  0.017560
 -0.005742
 -0.010149
  0.041572
  0.107717
 -0.034490
  0.029420
 -0.005941
  0.035869
 -0.049897
 -0.007644
 -0.017157
  0.018832
  0.002518
 -0.058643
 -0.049321
  0.015166
  0.038060
 -0.004687
 -0.002122
 -0.001375
  0.076236
  0.065564
  0.005512
  0.096870
  0.034580
 -0.071506
 -0.012937
 -0.033410
 -0.037131
  0.013137
 -0.023618
 -0.112514
  0.097471
  0.022593
  0.000017
  0.104539
 -0.008512
 -0.061313
  0.065766
  0.023163
 -0.044442
 -0.032662
 -0.044745
  0.057553
 -0.029997
 -0.026653
  0.016360
 -0.025594
 -0.022890
  0.047041
 -0.030727
 -0.008998
  0.103355
 -0.045322
  0.108606
  0.035378
  0.013555
 -0.023823
 -0.018234
 -0.023287
  0.048872
 -0.022741
 -0.059325
  0.028805
  0.001583
  0.028642
  0.022611
 -0.112420
 -0.046654
  0.078806
 -0.009761
 -0.002436
  0.032508
  0.083848
  0.018910
 -0.069896
 -0.032667
  0.037044
  0.071629
 -0.049953
 -0.081795
 -0.103623
 -0.001609
  0.044903
  0.040112
  0.090030
  0.040646
 -0.034124
 -0.077008
 -0.045603
 -0.078576
  0.074597
  0.033092
  0.034498
  0.039835
 -0.014639
  0.011865
  0.010601
 -0.001877
  0.027841
  0.072266
  0.113592
 -0.049041
 -0.054351
  0.020864
 -0.140669
  0.012652
 -0.032553
  0.005059
 -0.009546
  0.050818
  0.019356
  0.025053
  0.008980
  0.020371
 -0.008152
  0.002268
  0.022246
 -0.067903
 -0.052837
  0.085346
 -0.054473
  0.007611
  0.001364
  0.036532
 -0.003166
 -0.108100
 -0.040442
  0.059421
 -0.064784
  0.017102
 -0.016549
  0.082410
 -0.065032
  0.011560
  0.005303
  0.073793
 -0.028472
  0.000060
  0.090868
  0.082107
 -0.102988
 -0.012703
  0.065897
 -0.076942
 -0.016325
 -0.058202
  0.024762
 -0.101402
  0.060118
 -0.004725
  0.017179
  0.084515
  0.022807
 -0.010956
  0.060516
 -0.110818
 -0.029931
  0.050828
  0.071512
 -0.030622
 -0.053234
 -0.038614
 -0.089003
  0.002910
  0.060791
  0.029000
  0.041473
 -0.046260
 -0.058758
  0.010960
 -0.033659
 -0.019737
  0.017428
 -0.005907
 -0.000959
  0.008348
  0.050670
 -0.083616
 -0.024954
 -0.000688
  0.023151
  0.025907
  0.060625
  0.006376
  0.078334
  0.016609
  0.042282
  0.120474
 -0.021824
  0.030059
  0.031861
 -0.024237
  0.043209
 -0.044487
  0.116295
  0.012403
  0.008305
  0.045353
 -0.029016
 -0.024462
  0.006713
 -0.084606
  0.025605
 -0.001388
  0.004708
  0.011974
 -0.106377
  0.060233
  0.004457
 -0.057884
  0.045721
 -0.013648
 -0.031159
 -0.020182
 -0.031938
  0.042151
  0.001173
  0.042379
  0.070630
  0.064646
  0.073257
  0.008487
  0.031815
  0.013826
  0.022875
  0.022733
 -0.003934
 -0.133444
 -0.011895
  0.020893
  0.106494
 -0.105050
 -0.069780
 -0.002422
  0.028374
  0.046478
  0.048964
  0.029860
 -0.074018
 -0.006384
 -0.068526
  0.037640
  0.012102
 -0.039643
  0.034790
  0.025985
 -0.035582
  0.020723
  0.044930
  0.033489
  0.030413
 -0.021272
 -0.028425
  0.032419
 -0.063350
  0.087434
  0.009599
 -0.046171
  0.022278
 -0.042460
  0.048060
 -0.017295
  0.087316
  0.005837
  0.042386
  0.040646
  0.033050
  0.074130
 -0.017010
 -0.081373
 -0.014549
 -0.021880
 -0.004024
 -0.070490
 -0.004876
 -0.044528
 -0.040688
  0.049216
  0.048642
  0.035813
 -0.011120
 -0.068183
 -0.067421
  0.016112
  0.102728
  0.014848
 -0.057628
  0.112406
 -0.028188
 -0.049421
 -0.106084
  0.022785
 -0.009928
 -0.077186
 -0.054480
 -0.050800
  0.067293
  0.049182
  0.001970
  0.046710
  0.013540
 -0.066227
  0.135263
 -0.076341
 -0.010931
  0.011331
  0.006775
 -0.009677
 -0.039270
 -0.029424
 -0.063293
  0.036351
  0.107214
 -0.016477
  0.002219
  0.040230
 -0.019838
  0.038700
  0.002191
 -0.059968
  0.020114
 -0.031625
 -0.009303
  0.084203
 -0.111983
  0.011738
 -0.042122
  0.019262
  0.058167
 -0.044066
  0.031172
  0.016844
 -0.110272
  0.009889
 -0.002732
  0.071485
  0.082456
  0.037959
  0.048169
  0.030788
 -0.001918
 -0.003564
 -0.101752
  0.006154
  0.017189
 -0.002938
 -0.087797
 -0.061890
 -0.011045
  0.104386
 -0.067983
  0.026739
  0.021263
  0.003543
 -0.065916
  0.030570
  0.040798
 -0.051864
  0.002472
 -0.001900
  0.026650
  0.032505
  0.068080
  0.087744
  0.005661
 -0.069038
  0.001934
 -0.053972
 -0.063256
  0.003235
  0.093071
 -0.003993
  0.093707
  0.029485
  0.062229
 -0.063371
 -0.000815
 -0.058053
  0.012133
 -0.136695
 -0.004701
 -0.042723
  0.022147
  0.025122
  0.029584
  0.025333
  0.006490
  0.042534
  0.021957
  0.015297
  0.037570
  0.001402
  0.005822
 -0.019532
 -0.064447
 -0.029789
  0.013760
  0.028771
  0.036723
  0.073677
  0.010101
 -0.062390
  0.052588
 -0.026150
 -0.015308
  0.046900
  0.024560
 -0.016047
  0.072759
 -0.057253
  0.075178
 -0.015688
  0.049652
 -0.037759
 -0.035022
  0.018658
  0.004428
  0.005726
 -0.024414
 -0.034341
 -0.016154
 -0.143465
 -0.002213
  0.013875
 -0.020598
 -0.037753
 -0.086518
 -0.043421
  0.006844
  0.052026
  0.031616
  0.070414
 -0.034394
 -0.013859
  0.032369
 -0.057940
 -0.027618
 -0.072038
  0.034312
  0.074313
 -0.027411
 -0.029441
 -0.078622
 -0.010564
 -0.122770
 -0.061862
  0.058300
  0.018619
  0.061312
 -0.010739
  0.077078
 -0.021277
 -0.011611
  0.089662
  0.033705
  0.011693
  0.067731
 -0.046664
 -0.009635
  0.031308
 -0.024574
  0.001584
  0.002553
  0.017643
 -0.079831
  0.035191
  0.056497
  0.037590
 -0.001361
 -0.095436
  0.048896
  0.086897
  0.056280
 -0.042498
  0.075804
  0.032437
  0.032213
 -0.025242
 -0.038507
 -0.022437
 -0.028899
  0.008562
 -0.023339
  0.030916
 -0.036226
 -0.040849
 -0.021294
 -0.020840
  0.050424
  0.010297
 -0.046592
 -0.006276
  0.009749
 -0.036136
 -0.085453
 -0.005445
 -0.022702
  0.036842
 -0.001013
  0.052905
 -0.007620
 -0.046942
 -0.028241
  0.010557
  0.052833
  0.028752
 -0.005762
 -0.008989
  0.048214
 -0.070227
 -0.060681
 -0.028535
  0.087663
 -0.015143
  0.037359
  0.009458
  0.022551
 -0.053554
 -0.040284
  0.020936
  0.043760
 -0.037967
  0.071693
 -0.011102
  0.009155
 -0.100852
 -0.021450
  0.005405
  0.010604
 -0.037854
 -0.093867
 -0.063093
 -0.031559
  0.022332
 -0.016369
 -0.003972
  0.015644
  0.050632
  0.010259
 -0.025592
  0.042079
 -0.046957
  0.090871
  0.040063
 -0.066435
 -0.090617
  0.016956
 -0.014058
 -0.165346
 -0.001916
  0.022593
 -0.018707
  0.057973
  0.024127
 -0.096840
  0.028375
 -0.006564
 -0.010283
 -0.035950
  0.079525
 -0.102505
  0.004311
  0.080240
 -0.073042
  0.022731
  0.038066
  0.007661
 -0.037296
  0.005043
 -0.006512
 -0.030356
  0.008909
  0.064475
  0.066062
  0.033075
 -0.054480
  0.005557
  0.029645
 -0.082417
  0.056515
  0.050067
  0.032695
 -0.033142
 -0.001809
  0.014836
  0.072686
  0.004766
  0.046918
 -0.005630
 -0.075717
  0.007981
 -0.004981
 -0.034571
  0.028196
 -0.081970
 -0.035454
  0.041453
 -0.033237
  0.042447
  0.007082
 -0.121701
  0.027554
 -0.033242
 -0.065297
  0.032303
  0.030921
  0.013254
 -0.007273
 -0.060469
  0.154511
 -0.047559
  0.052745
 -0.054630
 -0.092098
 -0.023920
 -0.074833
 -0.081761
 -0.102703
  0.024679
 -0.072938
  0.005321
 -0.036877
 -0.059563
  0.102463
 -0.030851
 -0.086030
 -0.039987
 -0.057343
  0.019116
 -0.045040
  0.008810
  0.009055
  0.041512
  0.039502
  0.000366
  0.040303
 -0.033761
  0.154184
  0.041979
  0.069650
  0.006631
  0.064012
  0.052377
  0.050639
 -0.092526
  0.012853
  0.019438
  0.047793
 -0.082167
 -0.006017
  0.075492
 -0.043001
  0.006415
  0.068944
  0.015555
  0.036412
  0.031265
 -0.085490
  0.029823
  0.000833
  0.004457
 -0.064973
 -0.125128
 -0.018198
 -0.041564
 -0.052165
  0.034481
 -0.022872
  0.019433
 -0.027831
  0.000216
 -0.031376
  0.049068
 -0.079848
 -0.028609
  0.003271
  0.045798
  0.047618
 -0.006561
 -0.017709
 -0.065650
  0.055209
  0.069218
  0.024593
  0.013582
  0.045630
  0.035857
  0.019073
  0.032432
 -0.075117
 -0.065610
  0.009810
 -0.041855
 -0.017703
 -0.026726
  0.050367
 -0.026717
  0.022014
 -0.058880
 -0.032655
  0.036417
  0.143313
 -0.018258
  0.080264
 -0.111204
  0.053680
 -0.108687
  0.042661
  0.019202
 -0.007320
 -0.071138
 -0.018756
  0.045416
  0.040213
 -0.032804
 -0.026360
  0.044603
 -0.071791
 -0.023777
  0.026221
 -0.035339
  0.010455
 -0.000948
  0.043566
  0.062068
 -0.015901
  0.065021
 -0.021896
 -0.022289
 -0.079206
 -0.003478
  0.030468
 -0.016307
  0.043139
 -0.058835
  0.064759
  0.102574
 -0.028661
  0.067665
  0.002177
  0.000770
  0.009821
  0.085301
  0.115821
  0.048178
  0.005607
  0.029037
  0.001728
 -0.068749
 -0.100707
 -0.037429
 -0.044556
  0.006553
 -0.025241
  0.001062
 -0.033769
  0.038911
  0.082418
  0.052157
  0.010068
 -0.048880
 -0.057052
  0.039970
  0.036984
  0.018406
  0.022940
  0.101395
  0.024039
 -0.093832
  0.096222
  0.061916
 -0.008862
 -0.019078
 -0.038766
  0.035784
  0.059222
 -0.004662
  0.033014
 -0.051637
 -0.002616
 -0.056495
  0.058772
 -0.025178
 -0.095756
 -0.065578
  0.028110
 -0.023852
 -0.050565
  0.060919
  0.042631
 -0.035356
 -0.006697
  0.032940
  0.028496
  0.017929
 -0.054081
  0.021213
 -0.015766
 -0.027544
 -0.021857
 -0.008701
  0.020013
 -0.062160
  0.084572
 -0.048230
 -0.037143
  0.008078
 -0.021387
 -0.027184
  0.005599
  0.005466
  0.068443
  0.005255
  0.026555
  0.023312
 -0.050412
 -0.041889
 -0.004193
  0.035603
 -0.083079
  0.056947
  0.034946
  0.006203
 -0.085955
  0.109728
  0.017614
  0.102965
  0.019809
 -0.044924
 -0.038901
 -0.013394
 -0.015196
  0.081698
 -0.041286
  0.128369
  0.003486
  0.067639
  0.112939
  0.035707
  0.060150
  0.044264
 -0.051617
  0.006060
  0.132452
 -0.023734
  0.008162
 -0.059149
  0.035446
  0.053471
  0.022027
 -0.002735
  0.011659
  0.020005
 -0.033233
 -0.059634
  0.070622
  0.022489
 -0.055812
 -0.006408
  0.011916
  0.018951
  0.009024
  0.043705
 -0.071922
 -0.047377
  0.033705
  0.037943
 -0.023087
  0.098332
  0.028449
  0.008743
  0.013008
  0.026569
 -0.020144
 -0.042314
  0.004321
 -0.066289
  0.029182
 -0.040867
  0.025785
  0.018011
 -0.003940
  0.011649
  0.014225
 -0.029114
 -0.024905
 -0.051755
  0.027217
 -0.041646
  0.033981
  0.004047
 -0.041440
 -0.071378
 -0.084734
 -0.048627
  0.090576
 -0.020710
 -0.010669
 -0.066795
  0.001859
 -0.030388
 -0.062126
  0.051607
  0.046483
 -0.023599
  0.009498
  0.011589
  0.020624
 -0.038570
  0.077356
 -0.043536
 -0.078603
 -0.006328
 -0.020407
 -0.040265
 -0.052606
  0.056263
 -0.068243
 -0.058439
  0.082807
  0.003094
  0.048667
  0.002954
  0.022101
 -0.028421
 -0.055770
 -0.055573
 -0.032511
 -0.018574
 -0.068000
 -0.016268
 -0.055272
 -0.031576
  0.148883
 -0.023220
  0.035909
  0.056375
  0.045804
 -0.020457
  0.030855
 -0.014402
  0.030929
  0.080714
  0.131445
  0.044015
  0.087508
  0.047922
  0.045271
  0.060193
  0.105197
  0.048941
  0.151220
  0.260047
  0.131291
  0.135959
  0.121439
  0.097194
  0.102469
  0.023400
  0.094868
  0.241796
  0.067680
  0.157978
  0.180020
  0.212247
  0.117697
  0.127037
  0.050356
  0.170914
  0.163308
  0.095557
  0.195891
  0.150744
  0.143074
  0.144487
  0.117837
  0.047992
  0.115230
  0.062018
  0.135201
  0.018335
  0.060122
  0.027555
  0.069731
  0.098202
  0.109929
  0.122594
  0.165756
  0.224610
  0.194826
  0.340535
  0.424344
  0.505451
  0.532664
  0.583594
  0.692636
  0.824260
  0.714285
  0.719663
  0.882309
  0.921774
  0.887111
  0.839766
  0.946362
  1.000000
  0.884732
  0.912256
  0.705348
  0.516927
  0.421995
  0.394007
  0.302414
  0.166494
  0.084507
  0.052480
  0.039233
  0.035846
  0.005671
  0.049064
  0.120414
  0.087061
  0.042679
 -0.026563
 -0.009330
 -0.022705
  0.054553
 -0.013853
 -0.003373
  0.023541
  0.006840
  0.070595
  0.038677
  0.023929
 -0.073729
  0.081632
 -0.068418
  0.070455
 -0.006514
 -0.016163
  0.060361
  0.066421
  0.061085
  0.045140
 -0.021897
 -0.063556
  0.009166
 -0.008700
 -0.040491
  0.008932
 -0.074893
  0.015855
  0.048027
  0.051393
  0.074484
  0.001731
 -0.006819
  0.042138
 -0.007444
  0.005766
  0.025478
 -0.030253
  0.047771
 -0.022937
  0.036270
 -0.026734
 -0.078156
  0.054802
  0.026104
  0.091177
 -0.037857
 -0.029042
  0.046100
 -0.062710
 -0.028276
 -0.074901
 -0.019339
 -0.011677
 -0.006538
 -0.016126
  0.054198
 -0.043251
  0.021828
 -0.050640
  0.045656
  0.042157
 -0.014984
  0.016296
  0.033952
  0.078018
  0.034822
 -0.010430
 -0.021809
 -0.012644
  0.083345
  0.005434
  0.008975
  0.036243
 -0.032359
 -0.043774
 -0.017114
 -0.009398
  0.041506
 -0.031547
  0.072327
  0.020525
  0.025601
 -0.070033
 -0.026124
 -0.038158
 -0.049699
 -0.014581
  0.025940
 -0.027540
  0.031846
  0.049828
  0.002328
 -0.053413
  0.044531
  0.058891
 -0.081017
 -0.104327
  0.049723
 -0.024633
 -0.009552
  0.090610
  0.126489
  0.039415
  0.086246
  0.002372
  0.057236
  0.072393
  0.014194
 -0.040702
 -0.045045
 -0.027946
 -0.011923
 -0.011617
  0.049582
 -0.019198
 -0.030801
  0.020034
  0.017366
 -0.033820
  0.031443
 -0.093630
 -0.072158
 -0.076562
 -0.042264
  0.034090
 -0.016403
 -0.035014
  0.085277
 -0.003520
  0.021619
  0.044597
 -0.123811
  0.006861
  0.076279
 -0.049082
  0.011877
 -0.000848
 -0.125588
 -0.018366
 -0.015666
  0.074903
  0.078251
 -0.083110
 -0.014957
  0.004950
 -0.008949
  0.010136
  0.063267
 -0.005931
  0.033354
 -0.063037
 -0.040101
  0.020474
 -0.010119
  0.067896
 -0.089771
  0.008548
 -0.074551
 -0.015459
 -0.051797
 -0.024236
  0.017871
 -0.037665
  0.024841
  0.024307
  0.023764
 -0.045590
 -0.020704
 -0.074118
 -0.010892
 -0.016519
  0.005013
  0.019094
 -0.086270
  0.015182
  0.009504
 -0.024357
  0.000597
 -0.085730
  0.002189
 -0.040846
 -0.073411
  0.018417
 -0.033906
  0.038929
 -0.045078
 -0.011987
  0.030906
  0.021002
 -0.012093
  0.031025
 -0.041763
 -0.012082
 -0.060278
 -0.019837
 -0.019732
 -0.010959
 -0.003034
  0.006225
  0.062444
  0.010175
 -0.061478
 -0.030463
 -0.050559
 -0.019661
 -0.015003
  0.006193
  0.011989
 -0.000530
 -0.023057
 -0.005245
 -0.088051
 -0.000376
  0.030543
 -0.059924
  0.044401
  0.093912
  0.000682
 -0.023067
 -0.014118
 -0.023153
  0.046273
 -0.001448
  0.020940
  0.054618
 -0.059984
  0.018330
  0.015947
 -0.080820
  0.008524
 -0.064124
  0.031692
  0.082876
 -0.073325
  0.023551
 -0.018150
 -0.026840
 -0.105021
 -0.008635
 -0.039656
  0.019001
  0.038146
 -0.018756
 -0.036817
  0.054271
  0.068140
 -0.017034
 -0.104219
 -0.002862
  0.039448
 -0.049143
 -0.019003
  0.019220
  0.067717
  0.044589
  0.014573
 -0.058401
 -0.011640
  0.020252
 -0.010690
 -0.066960
  0.006233
 -0.026339
  0.027430
 -0.002311
 -0.038027
 -0.050117
 -0.021545
 -0.098379
  0.068342
  0.125860
 -0.038746
  0.112695
  0.048826
 -0.097389
  0.016441
 -0.014107
 -0.020241
  0.005820
  0.028404
  0.007691
  0.026917
  0.031815
  0.029813
 -0.080739
  0.015112
 -0.071509
  0.093980
 -0.027225
 -0.020604
  0.024293
 -0.031247
  0.004020
 -0.054615
  0.086497
  0.010983
  0.009783
  0.030283
  0.097897
 -0.015583
 -0.045660
 -0.083570
 -0.017915
  0.080808
  0.021127
  0.008801
  0.030614
  0.004114
  0.010759
 -0.046136
 -0.041063
 -0.016166
  0.007510
 -0.044225
 -0.061307
 -0.033141
  0.029289
  0.103443
 -0.085099
  0.007251
  0.059248
 -0.103395
  0.038314
  0.012831
 -0.041298
 -0.016654
 -0.010964
 -0.036674
 -0.023096
 -0.022727
 -0.024597
  0.007426
  0.080784
  0.012539
 -0.014797
  0.005535
  0.060005
 -0.011950
 -0.007250
 -0.010314
  0.020684
  0.029087
 -0.042245
  0.038108
 -0.068235
 -0.024303
  0.003405
 -0.028146
 -0.002149
 -0.025637
  0.012186
 -0.011012
 -0.057633
  0.025398
 -0.030104
 -0.098759
 -0.049874
  0.032922
 -0.000228
 -0.047781
  0.020671
 -0.000144
  0.048612
  0.016883
  0.078078
  0.035497
 -0.019053
 -0.042414
  0.065567
  0.004542
  0.033583
 -0.001323
 -0.013424
 -0.001185
  0.023402
 -0.037796
 -0.042246
 -0.004342
  0.000711
 -0.013181
  0.003145
 -0.000221
  0.025844
  0.103349
  0.022168
 -0.031373
  0.079613
 -0.063180
  0.047045
  0.027172
 -0.003048
  0.139359
 -0.019236
 -0.051185
  0.013009
  0.004323
  0.022685
  0.011312
 -0.055591
  0.018007
 -0.007387
  0.036247
  0.079560
 -0.040383
  0.002071
 -0.038532
 -0.034382
 -0.092312
 -0.000869
  0.033026
 -0.004977
 -0.005330
  0.011426
  0.082298
 -0.105993
  0.035899
  0.038222
  0.043558
 -0.035607
 -0.037505
  0.006736
 -0.076848
  0.005849
 -0.017905
  0.000733
  0.050201
  0.003149
  0.067511
 -0.007747
  0.025568
  0.033467
  0.014980
 -0.059614
 -0.038396
  0.004285
  0.061538
 -0.035374
 -0.003038
 -0.085280
 -0.070006
  0.000241
 -0.023217
  0.059955
  0.057159
 -0.012459
 -0.097373
  0.025302
 -0.076293
 -0.056344
 -0.010555
  0.056008
  0.041879
  0.016230
 -0.030113
 -0.011629
 -0.057119
 -0.032583
  0.011430
  0.033456
 -0.122793
  0.049387
 -0.091689
 -0.090626
  0.013840
 -0.033895
 -0.015698
 -0.088311
 -0.057170
  0.009795
 -0.027548
 -0.034751
  0.013084
 -0.019750
  0.063754
 -0.030037
 -0.023221
  0.063300
  0.000849
 -0.060200
  0.080260
 -0.055041
  0.002724
 -0.019712
 -0.025919
  0.058637
 -0.082186
  0.070326
  0.005417
  0.010711
 -0.110506
 -0.006903
  0.020528
  0.039644
 -0.054449
  0.031299
 -0.039139
 -0.040309
 -0.039815
  0.058742
 -0.085484
  0.080451
  0.007477
 -0.007357
 -0.019269
  0.018150
 -0.001034
  0.053737
  0.057990
  0.102014
  0.041610
 -0.022732
  0.111808
  0.017495
  0.011490
  0.061193
  0.070902
  0.062714
  0.103497
  0.052748
 -0.033803
  0.087538
  0.012478
  0.020325
  0.067272
  0.105048
 -0.013707
 -0.022960
 -0.024469
 -0.015492
  0.000609
  0.061312
  0.098213
  0.077953
  0.013000
 -0.066940
 -0.055112
 -0.063574
  0.007404
 -0.016919
 -0.054064
  0.060702
 -0.016805
  0.053889
 -0.008624
 -0.031294
 -0.021495
  0.034565
 -0.056986
  0.066265
 -0.046747
 -0.000794
  0.027396
  0.064081
 -0.044863
  0.060759
  0.006742
 -0.049466
 -0.052304
  0.025265
 -0.023926
  0.005771
  0.062048
 -0.065399
  0.047248
 -0.130733
 -0.092860
  0.008094
  0.033137
 -0.019918
  0.035115
  0.078333
 -0.070049
  0.042434
  0.018604
 -0.005476
 -0.036048
  0.017898
 -0.040222
 -0.075468
 -0.017727
 -0.012806
 -0.018061
  0.014488
  0.048253
  0.007528
  0.036053
  0.044361
  0.008332
  0.017089
  0.000588
 -0.012530
 -0.002602
  0.032115
  0.003508
  0.150286
 -0.010314
 -0.037135
 -0.000505
  0.013008
  0.007300
 -0.044129
  0.026377
  0.012089
 -0.019076
 -0.088263
 -0.072914
 -0.015340
  0.039971
 -0.095783
 -0.023000
 -0.008235
 -0.053896
  0.026688
  0.040360
  0.016672
  0.044626
  0.087608
 -0.051672
 -0.030069
  0.006489
 -0.058946
  0.034819
  0.009079
 -0.038388
  0.031590
  0.009755
  0.008571
  0.019950
  0.043854
  0.049716
  0.026085
 -0.022216
  0.025094
  0.001224
 -0.019399
 -0.042930
  0.025647
 -0.052014
  0.033620
  0.016261
  0.029409
  0.044182
  0.058781
 -0.032225
  0.073475
 -0.036540
 -0.001153
  0.014955
  0.049289
 -0.000679
 -0.028978
 -0.024816
  0.040510
  0.022677
  0.007597
  0.061241
 -0.022116
  0.066711
 -0.026711
  0.021726
  0.074324
  0.089044
 -0.020202
  0.043217
 -0.024125
 -0.081047
  0.018644
 -0.087094
 -0.121076
 -0.082513
 -0.076621
  0.009139
  0.072216
 -0.003183
 -0.025861
  0.055579
  0.033642
 -0.020299
 -0.089192
  0.007842
  0.061876
  0.053692
 -0.013480
 -0.066232
 -0.022403
  0.017792
 -0.013761
 -0.067895
 -0.035167
  0.015358
  0.065619
 -0.035340
 -0.032762
 -0.049450
  0.087579
  0.028449
  0.111918
  0.074352
  0.017821
 -0.000465
  0.053593
  0.006000
  0.117426
 -0.006820
  0.017916
 -0.001334
  0.047434
 -0.057598
  0.066470
  0.028729
  0.019148
 -0.022236
  0.002491
  0.013001
 -0.011753
 -0.003569
 -0.050249
 -0.046635
  0.032496
 -0.087439
  0.011339
 -0.037159
 -0.001788
  0.023460
  0.027114
  0.005124
 -0.021915
 -0.030118
  0.024087
  0.072927
 -0.048946
  0.021390
 -0.008473
 -0.015876
  0.045573
 -0.024780
  0.007662
  0.037037
  0.102790
  0.014911
 -0.012998
  0.047692
 -0.072345
  0.071492
  0.003889
 -0.033602
  0.101091
  0.018726
 -0.033762
  0.063289
 -0.025798
  0.106582
 -0.050825
 -0.015478
  0.006770
  0.019604
  0.026248
 -0.000732
  0.010973
 -0.014310
 -0.081737
  0.012499
 -0.000055
  0.068623
  0.081261
  0.042289
  0.069492
  0.017312
  0.012292
 -0.053299
 -0.044850
  0.019674
  0.019314
 -0.008153
  0.044542
 -0.065127
 -0.057797
  0.011983
  0.056202
  0.005267
  0.002632
 -0.003455
 -0.002883
 -0.061439
 -0.024817
  0.019232
  0.023602
  0.051837
 -0.007674
  0.032103
  0.033232
  0.085225
 -0.013051
 -0.041542
 -0.027768
  0.051848
  0.009476
  0.003660
 -0.011382
 -0.053031
  0.034186
  0.013513
  0.030125
  0.015298
 -0.012471
  0.054000
 -0.045913
  0.069566
 -0.061163
 -0.026330
 -0.087150
 -0.016245
 -0.017750
  0.042461
  0.050657
 -0.019885
 -0.024772
  0.081346
 -0.025027
 -0.040525
  0.015954
 -0.027885
 -0.046104
 -0.040707
  0.031743
 -0.041302
  0.004934
 -0.025512
  0.036445
  0.000901
  0.008905
 -0.063839
  0.044136
  0.022893
  0.068048
  0.014674
 -0.111701
  0.078746
  0.013757
 -0.037650
 -0.027276
 -0.060064
  0.077636
 -0.068469
 -0.002577
 -0.016647
 -0.003531
 -0.048625
  0.035855
  0.046935
 -0.040341
 -0.094199
 -0.111014
 -0.041055
  0.034811
 -0.048874
  0.028538
  0.012024
  0.074318
  0.054927
 -0.052361
 -0.009720
  0.058191
 -0.029701
  0.003668
 -0.060985
 -0.029575
  0.048447
  0.023974
  0.001991
 -0.005621
 -0.044367
 -0.055701
 -0.035201
  0.007545
  0.021795
  0.001142
  0.123282
 -0.027656
  0.078809
  0.036765
 -0.089763
  0.027389
  0.024070
  0.003120
  0.084371
 -0.058374
 -0.064955
 -0.033375
 -0.025941
  0.026035
  0.014001
  0.018237
  0.034486
 -0.020959
 -0.003186
 -0.053013
 -0.067322
 -0.045946
  0.056904
 -0.015942
  0.005981
 -0.088414
 -0.011134
  0.039975
 -0.046231
  0.010881
 -0.006736
 -0.101815
  0.078879
  0.004012
 -0.002672
  0.031421
 -0.008124
 -0.021101
 -0.014940
 -0.006699
 -0.045390
  0.015280
  0.031178
 -0.029807
  0.035879
 -0.090333
  0.016181
 -0.026402
  0.055894
 -0.028545
  0.024195
  0.087153
 -0.008036
  0.070138
  0.005069
  0.037873
 -0.050377
 -0.034783
  0.001695
 -0.043156
 -0.052042
  0.114346
  0.006040
  0.024604
  0.045423
 -0.053056
  0.060613
  0.044755
 -0.076713
  0.013198
 -0.034023
 -0.035638
  0.058972
 -0.009833
 -0.011583
 -0.032572
 -0.030272
 -0.004080
  0.000048
 -0.016322
  0.015008
  0.065042
 -0.074405
 -0.024193
 -0.012820
  0.050535
 -0.013154
  0.013362
 -0.055264
 -0.039572
  0.001278
  0.031280
 -0.042876
 -0.027160
  0.078100
 -0.036202
 -0.050300
  0.040686
  0.031173
  0.026200
 -0.006997
 -0.008851
  0.089081
 -0.023460
 -0.000718
  0.065663
  0.048245
  0.004145
 -0.032087
 -0.022492
  0.085792
  0.059764
 -0.138983
  0.000696
 -0.067075
 -0.059971
  0.048036
 -0.015745
 -0.034334
 -0.061266
 -0.009735
  0.002423
 -0.058171
 -0.001422
 -0.090929
 -0.015231
  0.033476
 -0.013300
  0.069860
  0.006460
  0.004635
 -0.009084
 -0.035649
 -0.020621
 -0.013281
 -0.026454
 -0.008611
  0.004228
 -0.058623
  0.018332
 -0.005245
  0.125328
 -0.051638
 -0.094960
 -0.018362
 -0.003049
 -0.040804
 -0.096059
  0.001416
  0.032234
 -0.009342
  0.026985
 -0.063657
 -0.026374
  0.030054
 -0.051743
  0.026892
 -0.025507
 -0.025909
  0.026977
 -0.059409
 -0.051231
  0.037706
  0.024237
 -0.001965
  0.010819
 -0.024398
 -0.001215
 -0.045474
 -0.047204
  0.004887
 -0.013720
 -0.040173
  0.029161
 -0.026525
 -0.040348
  0.060623
 -0.039708
 -0.064684
  0.056426
 -0.018215
 -0.051017
 -0.066669
 -0.110063
  0.013141
  0.069280
  0.009532
 -0.014465
 -0.009572
  0.041617
  0.085120
  0.045770
  0.030535
 -0.072681
  0.025450
 -0.009619
  0.072139
 -0.030939
  0.089015
  0.012940
  0.000875
  0.037265
  0.009602
  0.055033
 -0.000988
 -0.001947
  0.055846
  0.112777
  0.026085
  0.045456
 -0.002208
 -0.073409
  0.045976
  0.013266
  0.095048
 -0.057630
 -0.032313
 -0.069645
  0.016874
  0.006890
 -0.066874
 -0.062075
  0.048008
 -0.005290
  0.010722
  0.073964
  0.054093
  0.042478
  0.008115
 -0.040011
 -0.037984
 -0.002247
 -0.036834
  0.006766
  0.002892
 -0.051291
 -0.053477
  0.057159
 -0.087658
 -0.053741
 -0.051574
  0.065058
 -0.123754
  0.013026
  0.017242
 -0.021510
  0.010823
  0.096619
  0.008920
 -0.010161
 -0.019243
  0.029866
  0.036296
  0.109256
  0.034471
  0.063558
 -0.004339
 -0.057401
 -0.084301
  0.009535
  0.037189
  0.063113
  0.090590
 -0.014510
 -0.042305
  0.011936
 -0.071887
 -0.011960
 -0.044123
  0.003222
 -0.053161
  0.037477
 -0.011551
  0.081891
 -0.007978
  0.043990
  0.054575
  0.020819
 -0.010276
  0.044644
  0.004255
 -0.003993
  0.047993
 -0.047429
 -0.036980
  0.065572
 -0.009800
  0.046127
  0.014546
  0.043454
 -0.041928
 -0.108221
  0.005736
  0.048962
 -0.040952
  0.015501
 -0.053781
  0.038001
 -0.051844
  0.141658
  0.055638
 -0.018617
  0.070525
  0.029155
 -0.049623
  0.014937
 -0.036376
  0.027632
 -0.022413
 -0.000454
 -0.012537
  0.033035
 -0.086406
  0.042422
 -0.056168
 -0.014073
 -0.028903
 -0.023252
  0.054540
 -0.070580
  0.036125
 -0.083921
 -0.021499
  0.006280
 -0.037639
 -0.017405
 -0.007244
  0.032572
  0.033320
  0.002179
 -0.110507
  0.004765
 -0.013580
 -0.110785
  0.040118
 -0.000306
  0.023232
  0.064982
  0.065623
  0.024835
  0.002395
 -0.029120
  0.060179
  0.030574
 -0.009985
  0.030042
  0.087096
 -0.084108
 -0.024289
  0.059908
  0.031130
 -0.022100
  0.021273
 -0.062654
  0.077460
  0.071819
  0.033812
  0.015675
 -0.004864
  0.021093
 -0.018146
  0.042652
 -0.110633
  0.001268
  0.026029
 -0.056095
 -0.033436
 -0.008314
  0.056375
 -0.051849
 -0.000424
 -0.011944
  0.055361
 -0.044982
  0.051207
  0.014366
 -0.072089
 -0.013592
 -0.022988
 -0.006052
 -0.015189
  0.034650
  0.006044
  0.079456
 -0.025783
 -0.029927
  0.057600
 -0.083422
  0.051428
  0.027781
 -0.065628
 -0.187261
 -0.016768
 -0.053680
  0.045970
  0.055070
  0.024663
  0.043136
  0.017711
 -0.005129
 -0.049282
  0.007379
 -0.065086
 -0.087499
  0.062804
  0.019293
  0.051529
 -0.009626
 -0.030360
 -0.047797
  0.011267
 -0.028389
  0.003682
 -0.038180
  0.067114
 -0.042611
 -0.030333
  0.078373
 -0.037912
  0.014500
 -0.014193
  0.041638
 -0.054219
  0.042079
 -0.048860
 -0.062457
  0.013637
  0.022887
  0.055614
  0.016410
 -0.026126
 -0.004517
  0.058828
  0.017593
  0.019431
  0.065395
  0.014847
  0.063289
 -0.007766
  0.015266
 -0.018552
  0.023735
 -0.040986
 -0.003553
 -0.071416
  0.030419
  0.041783
  0.003318
  0.010049
 -0.070713
  0.038741
 -0.058903
  0.000333
 -0.034231
  0.011956
 -0.003256
 -0.011749
 -0.028726
  0.044523
  0.002620
  0.013888
  0.107344
  0.048704
 -0.027828
  0.079926
 -0.012235
  0.044262
  0.037796
  0.029178
  0.023802
 -0.026583
  0.031604
  0.025914
 -0.027791
 -0.083451
  0.013915
  0.007668
 -0.013404
  0.053463
  0.024861
  0.051493
 -0.009851
  0.073628
 -0.027202
 -0.036687
 -0.100467
  0.017827
  0.018497
  0.001609
 -0.011217
  0.040376
 -0.013604
 -0.027946
 -0.000509
 -0.068979
 -0.026511
 -0.040355
 -0.014716
 -0.063596
  0.013816
  0.062865
 -0.061407
 -0.027256
  0.101869
  0.010719
  0.063227
 -0.006139
 -0.114322
 -0.060784
 -0.048850
  0.032269
  0.032264
 -0.003356
 -0.069701
 -0.024092
 -0.012048
 -0.067583
  0.045143
 -0.006672
 -0.083996
  0.004498
  0.062336
  0.045998
  0.028413
 -0.018446
  0.031616
 -0.024004
 -0.063198
 -0.044773
  0.040632
  0.029346
  0.060993
 -0.076175
 -0.028780
  0.039220
 -0.002085
  0.101532
 -0.015819
  0.085137
 -0.068823
  0.013167
  0.095155
  0.094031
  0.032209
 -0.027272
  0.018605
 -0.006149
  0.007363
 -0.042703
  0.027931
 -0.044586
  0.008930
  0.053234
 -0.050559
  0.008271
  0.016054
 -0.056240
 -0.046961
 -0.013774
  0.021015
  0.022881
 -0.018099
 -0.022941
 -0.006294
 -0.035376
 -0.008263
  0.036323
  0.002759
 -0.018597
  0.088121
 -0.028829
 -0.068630
 -0.066303
  0.023917
 -0.021549
 -0.002200
  0.074530
 -0.001943
 -0.029181
  0.026616
 -0.011014
  0.016161
  0.055337
  0.048451
 -0.006295
  0.015313
 -0.104375
 -0.092804
 -0.046731
  0.014901
 -0.003808
 -0.072387
  0.009175
  0.025578
 -0.052282
  0.010485
 -0.011838
 -0.050262
 -0.039691
  0.078029
  0.010908
  0.094083
 -0.051959
  0.059945
 -0.038388
 -0.004410
 -0.046634
 -0.018639
 -0.034566
 -0.052515
 -0.080342
  0.055981
 -0.024492
 -0.000740
 -0.006531
  0.006938
 -0.081403
 -0.012556
 -0.047933
  0.063266
  0.049134
 -0.027379
  0.081675
 -0.033249
 -0.025307
  0.034190
 -0.006276
 -0.025515
 -0.040796
 -0.022842
  0.065821
 -0.014631
 -0.022654
 -0.007130
 -0.077322
 -0.041040
 -0.044243
 -0.008851
  0.084662
  0.062170
 -0.033740
  0.094585
  0.031083
 -0.075963
 -0.042168
 -0.012258
  0.026950
  0.027971
 -0.197655
  0.047715
 -0.029773
 -0.036751
 -0.030410
  0.041180
 -0.042168
  0.002957
  0.031702
  0.052754
 -0.080903
  0.018887
  0.059992
 -0.056982
 -0.002427
 -0.019306
 -0.040216
  0.035057
 -0.057468
 -0.047056
  0.055443
  0.050831
 -0.027604
  0.040242
  0.028421
  0.015791
  0.059340
 -0.032879
  0.054542
  0.039393
 -0.116232
  0.087088
  0.005812
 -0.043378
 -0.016747
 -0.013535
  0.001214
 -0.056719
  0.006005
 -0.076162
  0.012425
  0.022966
 -0.043896
 -0.007052
  0.027948
  0.012447
 -0.060672
  0.040758
 -0.050420
  0.118946
  0.115034
 -0.017631
 -0.031840
 -0.077627
  0.029713
  0.034226
 -0.009249
 -0.012707
 -0.003295
  0.053458
  0.045476
 -0.041684
 -0.063956
 -0.030694
  0.014912
  0.064687
  0.012859
  0.041123
 -0.050562
  0.007396
  0.093302
  0.000678
 -0.030290
  0.067323
  0.070496
 -0.030778
 -0.049955
 -0.091023
  0.046455
  0.005630
  0.029939
  0.002194
  0.015456
  0.003543
 -0.032284
 -0.022127
  0.020174
  0.106004
  0.025865
  0.008663
 -0.092086
 -0.029587
  0.067104
  0.040725
 -0.016555
  0.048283
 -0.056123
  0.015294
  0.046689
  0.051751
  0.044288
 -0.016390
 -0.050358
  0.031472
  0.012474
  0.021629
  0.045611
 -0.078783
  0.085292
 -0.020762
  0.071686
  0.030552
 -0.026094
  0.060584
  0.035724
 -0.016590
  0.036783
 -0.057878
 -0.058511
 -0.003228
  0.029466
 -0.065069
  0.028823
 -0.011785
  0.033140
  0.003869
 -0.034831
 -0.003167
  0.074654
 -0.078962
  0.013182
  0.008498
  0.041791
 -0.054148
  0.139426
  0.046547
 -0.042481
  0.013639
  0.041115
 -0.060238
  0.084526
  0.030456
  0.055886
 -0.000798
 -0.029978
  0.037045
 -0.016111
 -0.017148
  0.013347
  0.043997
 -0.019167
  0.024547
  0.050645
 -0.033859
  0.041186
 -0.002664
 -0.002646
 -0.034671
  0.012066
  0.002407
 -0.054993
 -0.030101
 -0.010067
 -0.058342
  0.179008
  0.116842
 -0.033238
  0.077600
  0.002922
  0.027718
  0.007730
 -0.043241
  0.015405
 -0.024343
 -0.010122
  0.047737
  0.049056
 -0.048572
  0.045097
 -0.039405
  0.014521
 -0.091038
 -0.085222
  0.044866
 -0.056685
 -0.081612
  0.024697
 -0.007429
  0.117042
  0.073492
  0.063296
  0.010155
 -0.012487
  0.010805
  0.050025
 -0.035996
 -0.009458
 -0.049966
  0.012647
  0.062169
 -0.040617
 -0.050348
 -0.005334
  0.021312
 -0.023792
  0.033234
  0.029454
  0.037470
  0.101301
  0.014371
  0.032377
  0.003885
  0.024278
  0.011173
 -0.007734
  0.027053
 -0.034040
 -0.066077
 -0.094152
  0.048239
  0.010539
 -0.013491
  0.035682
  0.026673
 -0.031932
  0.008307
  0.073411
 -0.040359
  0.010337
  0.020029
 -0.003232
 -0.043727
 -0.022452
  0.068988
  0.009207
  0.010454
 -0.006989
  0.024962
 -0.064717
 -0.137654
 -0.064588
 -0.062423
 -0.031194
 -0.032862
  0.002291
 -0.021413
 -0.049537
 -0.023730
 -0.027283
  0.035232
 -0.042072
 -0.110888
 -0.044697
  0.062548
  0.075219
  0.047787
 -0.073339
 -0.083452
 -0.086477
 -0.002998
 -0.069716
  0.038855
  0.009202
 -0.022498
 -0.057440
 -0.040924
  0.007440
 -0.066275
  0.013346
  0.003688
 -0.065188
  0.002862
 -0.021062
  0.039492
 -0.049317
  0.007443
 -0.014413
  0.040462
  0.048890
  0.077080
  0.005102
 -0.048918
 -0.043164
  0.009144
  0.028175
 -0.025747
 -0.051203
 -0.010362
 -0.083982
 -0.040568
  0.017931
  0.061001
 -0.084302
 -0.048109
 -0.042594
  0.000605
  0.013547
  0.018051
  0.111271
  0.047900
  0.102536
 -0.045769
  0.016380
 -0.002220
  0.024653
  0.053253
 -0.007225
  0.022241
  0.003620
 -0.007183
  0.059724
 -0.063727
  0.060769
  0.000495
  0.023943
 -0.021089
 -0.055024
  0.028583
 -0.037380
 -0.047093
 -0.031705
 -0.036093
 -0.009113
  0.081546
  0.040726
 -0.092360
  0.033200
 -0.058548
  0.021498
 -0.017320
 -0.006724
 -0.027454
  0.012950
 -0.016443
  0.019721
 -0.050240
  0.031218
 -0.010926
 -0.030683
 -0.026091
 -0.016536
 -0.020411
 -0.062257
 -0.036458
  0.119963
 -0.075105
  0.088893
  0.004981
 -0.010436
 -0.012897
  0.017843
  0.080288
 -0.015600
  0.043002
  0.018249
  0.001468
  0.037432
 -0.031819
  0.017369
  0.000817
  0.014818
  0.067939
 -0.079478
 -0.061426
 -0.003247
  0.040437
  0.013592
 -0.031586
  0.040550
  0.101752
 -0.046884
  0.017512
 -0.044492
 -0.082931
 -0.019753
  0.062501
 -0.019186
 -0.049563
  0.018810
 -0.018579
  0.008932
  0.093608
 -0.011025
  0.025290
  0.048104
 -0.084598
 -0.115410
 -0.017415
 -0.037032
 -0.012301
  0.007842
  0.034711
 -0.044286
  0.147685
  0.061280
 -0.047232
 -0.024748
  0.004197
 -0.011911
 -0.086923
  0.034906
  0.101104
  0.053867
  0.021527
 -0.010864
  0.022892
  0.046940
  0.026906
 -0.019714
  0.008324
  0.030483
 -0.022941
 -0.083867
  0.047028
  0.010334
 -0.094829
  0.007402
 -0.048876
 -0.034192
  0.082480
  0.014072
  0.064872
 -0.031252
  0.030200
 -0.002245
 -0.027508
 -0.001967
  0.056637
  0.003873
  0.024593
 -0.059986
 -0.024930
  0.080803
 -0.049413
 -0.009139
  0.039696
  0.026732
  0.009904
 -0.067519
  0.014009
  0.097817
  0.025280
 -0.110001
  0.003014
  0.093228
 -0.065940
 -0.005701
 -0.009778
  0.010877
  0.016465
 -0.026013
  0.010046
 -0.014775
  0.075241
  0.024290
 -0.014341
  0.017102
 -0.001878
 -0.008624
 -0.026697
 -0.037025
 -0.049637
  0.125770
 -0.101642
  0.022031
  0.041394
 -0.000620
  0.018514
 -0.038919
 -0.030270
 -0.051010
  0.030555
  0.052948
  0.032334
  0.051946
 -0.030891
 -0.001465
 -0.040600
 -0.013886
 -0.023968
 -0.053447
  0.015099
  0.035793
 -0.011531
  0.020482
 -0.016232
  0.051952
 -0.062458
  0.014530
 -0.096368
  0.047222
  0.026393
  0.010937
 -0.014813
 -0.003730
 -0.018067
 -0.026456
 -0.021446
 -0.033549
 -0.019744
  0.061915
 -0.077098
  0.022176
 -0.044809
  0.008020
 -0.084178
 -0.050441
 -0.033694
 -0.028627
 -0.050552
  0.014686
 -0.080950
 -0.088656
  0.031709
  0.043420
 -0.027142
  0.047033
  0.027539
  0.070406
 -0.071832
 -0.017228
  0.016462
 -0.031593
 -0.067730
  0.081388
  0.040435
  0.006097
 -0.111344
 -0.006745
 -0.029552
  0.004746
  0.026741
  0.029308
 -0.042428
  0.014405
  0.042617
  0.006953
  0.050812
  0.000786
 -0.051835
 -0.058280
  0.065905
 -0.024209
  0.048340
  0.020954
  0.029404
  0.097153
 -0.060489
 -0.013739
  0.047448
 -0.035986
 -0.003841
  0.019112
 -0.025509
 -0.012204
 -0.093909
 -0.079824
  0.050355
 -0.015721
 -0.074568
 -0.011864
 -0.108206
  0.003428
 -0.013295
  0.007072
  0.038364
  0.081441
 -0.080073
 -0.054604
  0.036308
  0.052160
 -0.010924
  0.000739
 -0.090327
  0.034307
 -0.007723
 -0.039505
 -0.012916
 -0.163287
 -0.034728
  0.009183
  0.020821
  0.005322
 -0.015092
 -0.058131
  0.071342
 -0.008207
 -0.088808
 -0.005704
 -0.034695
 -0.013473
 -0.056670
  0.029589
 -0.082613
 -0.050143
 -0.077272
 -0.066538
  0.027273
  0.048621
 -0.105691
 -0.026736
  0.029360
  0.070290
 -0.074481
  0.000619
 -0.095310
  0.068168
 -0.063265
  0.004812
  0.006942
  0.024180
 -0.053676
  0.026806
 -0.042512
 -0.024373
 -0.034371
  0.050550
  0.014520
  0.009409
 -0.040431
 -0.021786
  0.068552
 -0.007269
  0.018391
  0.008188
  0.034102
 -0.090356
  0.016317
  0.085252
 -0.003533
  0.028733
  0.053165
 -0.018744
 -0.051059
  0.003121
 -0.009891
  0.018254
 -0.079129
 -0.030923
 -0.016020
 -0.047096
  0.031705
 -0.032529
 -0.087915
 -0.061826
  0.017860
  0.031001
  0.041045
 -0.018831
  0.100926
  0.022264
 -0.189114
  0.036658
 -0.025132
 -0.080326
  0.036941
 -0.008696
 -0.066230
 -0.030246
 -0.034686
 -0.039278
 -0.037027
  0.011705
 -0.003453
 -0.021380
 -0.074235
  0.048593
 -0.011662
  0.005900
 -0.022984
  0.050999
 -0.025902
 -0.064965
 -0.037823
 -0.018034
  0.060457
 -0.004260
 -0.023495
 -0.002030
 -0.039570
  0.003329
 -0.063270
  0.093380
 -0.110532
  0.022386
 -0.001610
 -0.015790
 -0.004009
  0.053203
  0.025088
  0.049557
 -0.026660
 -0.047809
 -0.001241
 -0.066493
 -0.086772
  0.056537
  0.087662
 -0.098296
 -0.019143
 -0.016153
  0.064194
 -0.048275
 -0.005363
  0.010964
  0.025284
 -0.040286
 -0.012432
 -0.031970
****
