PROJECT: W75X_2015Nov22
NCH:     4096
BW:   2.50000e+07
VELOCITY:       0.00000
PV:      0.480000
FREQ:    2.2235080e+09
DATE:     2015      11      22
TIME:       22      36      16
POSITION:       309.654      42.6772
INTEGRATION TIMES:       60.0000      60.0000
MAX VALUE:      0.033985208
 -2.425628
 -1.108550
 -1.029004
 -0.750019
 -0.708766
 -0.786152
 -0.603900
 -0.619419
 -0.599774
 -0.569719
 -0.492131
 -0.567780
 -0.572260
 -0.572706
 -0.584988
 -0.438135
 -0.520473
 -0.551158
 -0.493499
 -0.610248
 -0.448636
 -0.498266
 -0.443029
 -0.528832
 -0.386603
 -0.489609
 -0.477204
 -0.536988
 -0.483782
 -0.416361
 -0.358085
 -0.468684
 -0.380198
 -0.356420
 -0.341650
 -0.487828
 -0.618962
 -0.486886
 -0.390201
 -0.482658
 -0.374638
 -0.246420
 -0.420524
 -0.354064
 -0.440339
 -0.228138
 -0.458515
 -0.391630
 -0.580034
 -0.398446
 -0.310697
 -0.417878
 -0.360979
 -0.354725
 -0.336328
 -0.341578
 -0.459466
 -0.306900
 -0.283908
 -0.359058
 -0.316283
 -0.377551
 -0.298508
 -0.261336
 -0.287023
 -0.308990
 -0.271748
 -0.306929
 -0.390199
 -0.319883
 -0.355788
 -0.325771
 -0.205852
 -0.303806
 -0.377739
 -0.237525
 -0.264310
 -0.156538
 -0.316558
 -0.019821
 -0.232555
 -0.388276
 -0.312549
 -0.254642
 -0.099905
 -0.324251
 -0.216813
 -0.152928
 -0.149045
 -0.317972
 -0.273206
 -0.199890
 -0.319260
 -0.220447
 -0.159894
 -0.190348
 -0.144174
 -0.192999
 -0.294193
 -0.131956
 -0.116146
 -0.240657
 -0.243320
 -0.090154
 -0.182606
 -0.338265
 -0.209979
 -0.148828
 -0.161843
 -0.175843
 -0.292236
 -0.225422
 -0.235325
 -0.109470
 -0.202296
 -0.112903
 -0.199666
 -0.159541
 -0.073224
 -0.054360
 -0.299575
 -0.243189
 -0.181901
 -0.197705
 -0.100055
 -0.131238
 -0.152778
 -0.004243
  0.019695
 -0.071613
 -0.146611
 -0.246214
 -0.033221
 -0.181415
 -0.116817
 -0.161429
 -0.004460
 -0.073057
 -0.131439
 -0.097778
 -0.102729
 -0.161471
 -0.066538
 -0.128308
  0.054013
 -0.089212
 -0.008434
 -0.015095
 -0.120758
 -0.079602
 -0.061106
 -0.117230
 -0.188436
  0.033924
 -0.037364
 -0.017648
 -0.146845
 -0.055565
  0.007335
 -0.033232
 -0.092398
 -0.109911
 -0.109823
 -0.000484
 -0.097560
 -0.084707
 -0.050260
 -0.019843
 -0.002032
 -0.100871
 -0.069960
 -0.165639
  0.007656
 -0.134517
 -0.089443
 -0.035327
  0.032452
 -0.014817
 -0.061602
 -0.062299
  0.039402
  0.072107
 -0.030833
 -0.249262
 -0.013894
 -0.060667
  0.040769
 -0.058072
 -0.005178
 -0.015049
 -0.020194
  0.031346
 -0.071507
  0.059337
 -0.038609
 -0.043645
 -0.026355
 -0.036128
 -0.020182
  0.026550
  0.003980
  0.067169
  0.070026
 -0.025037
 -0.047746
  0.005294
 -0.155995
  0.118541
  0.076922
 -0.034744
 -0.039579
 -0.112110
 -0.026711
 -0.019573
 -0.052724
  0.111282
  0.079110
  0.021676
  0.047924
  0.077941
  0.038873
 -0.014386
 -0.008706
  0.080866
 -0.025208
 -0.040852
  0.029935
  0.118663
 -0.117387
 -0.000170
 -0.050265
 -0.017089
  0.067925
  0.009158
  0.029378
 -0.002166
  0.073129
  0.072975
 -0.051296
 -0.007012
 -0.055584
  0.076062
  0.114540
  0.086722
 -0.026476
 -0.032575
  0.029297
  0.141499
  0.013253
 -0.021297
  0.031030
 -0.008290
  0.030239
  0.028158
 -0.033152
  0.065998
  0.061346
  0.071880
  0.000082
  0.114416
  0.152819
  0.097578
 -0.020042
  0.027240
 -0.070451
  0.150109
  0.152593
  0.144979
 -0.032901
  0.078373
  0.056338
  0.024089
  0.062297
  0.122659
  0.029583
  0.056322
  0.072670
  0.081857
 -0.019411
  0.073556
  0.062808
  0.063683
  0.058878
  0.072662
 -0.002360
  0.034536
  0.073752
  0.160462
  0.088386
  0.261427
  0.027220
  0.061821
 -0.026754
  0.170824
  0.088683
  0.009858
  0.026820
  0.119348
  0.046238
  0.174681
  0.071738
  0.022468
  0.159341
  0.096191
  0.017865
  0.036275
 -0.039164
  0.199142
 -0.040707
  0.167022
  0.166782
  0.097238
  0.152144
  0.040983
  0.060371
  0.073321
 -0.050761
  0.207073
  0.187853
  0.143481
  0.102827
  0.130002
  0.115465
  0.073811
 -0.011783
  0.091031
  0.142979
  0.189459
  0.010489
  0.218757
  0.088598
  0.086006
  0.031760
  0.132194
  0.068101
  0.111493
  0.052426
  0.090160
  0.063021
  0.159098
  0.082644
  0.203360
  0.113194
  0.054839
  0.139877
  0.057793
  0.068109
  0.057555
  0.142865
  0.209860
  0.158698
  0.066202
  0.178246
  0.050585
  0.118451
  0.082823
  0.093824
  0.139610
  0.073073
  0.008815
  0.129199
  0.059412
  0.013352
  0.127626
 -0.027471
 -0.073622
  0.109472
  0.090344
 -0.077717
  0.243298
  0.161873
  0.201996
  0.023336
  0.063940
  0.139905
  0.120605
  0.077241
  0.133434
  0.131821
  0.071513
  0.155754
  0.059861
  0.053187
  0.197573
  0.085474
  0.221787
  0.164878
  0.192576
  0.036304
  0.048397
  0.141396
  0.201058
  0.111497
  0.205330
  0.160514
  0.132810
  0.147524
  0.142084
  0.032751
  0.144596
  0.073984
  0.034944
  0.112023
  0.096346
 -0.036495
  0.142191
  0.034462
  0.166560
  0.109475
  0.135754
  0.005951
  0.115646
  0.140004
  0.169060
 -0.004283
 -0.028296
  0.082056
  0.193419
  0.079174
  0.106318
 -0.052078
  0.150431
  0.123652
  0.056738
  0.150387
  0.006660
  0.045872
  0.038623
  0.086300
  0.047485
  0.112312
  0.048482
  0.097948
  0.029618
  0.096744
 -0.020549
  0.071709
  0.025711
  0.125150
  0.064475
  0.036897
  0.016640
  0.024366
  0.119408
 -0.020621
  0.027016
  0.146387
  0.159527
  0.085063
  0.117268
  0.125879
  0.091952
  0.129399
  0.132833
  0.107879
  0.102556
 -0.057551
  0.192949
  0.095194
  0.012623
  0.093167
  0.164595
  0.108460
  0.120627
  0.011287
  0.088107
  0.070538
  0.075960
  0.184431
  0.040499
 -0.013392
  0.008591
 -0.016601
  0.059569
  0.091896
  0.050346
  0.101768
  0.132847
  0.066098
  0.098079
  0.070577
  0.085750
  0.089442
  0.135983
  0.019713
  0.039405
  0.160644
  0.124182
  0.136578
  0.031544
  0.106813
  0.072300
  0.114212
  0.082867
  0.045719
  0.051721
  0.032690
  0.122544
  0.115972
  0.088669
  0.036046
  0.037723
 -0.011575
  0.015939
  0.061500
  0.079190
 -0.038350
  0.110105
  0.076603
  0.066798
  0.101826
  0.097835
  0.010660
 -0.048895
  0.027729
  0.126374
  0.108790
 -0.030948
  0.105539
 -0.027220
 -0.014007
  0.101378
  0.177425
  0.088449
 -0.028206
 -0.041455
  0.133346
  0.107099
  0.095346
  0.065866
  0.096853
 -0.043541
  0.016703
  0.063921
 -0.015849
  0.064461
  0.119446
  0.032081
  0.127739
  0.065917
 -0.085250
 -0.090845
 -0.005609
  0.127815
 -0.073639
  0.133838
  0.060632
  0.005772
  0.068122
  0.023879
 -0.095748
 -0.042453
  0.153377
  0.057382
 -0.136630
  0.049834
  0.000123
  0.046520
  0.082590
  0.077308
  0.021229
  0.036086
  0.056292
  0.133593
  0.133619
 -0.030522
  0.070208
  0.083346
 -0.035475
  0.045462
  0.104778
  0.160774
  0.147747
  0.040338
  0.035497
  0.057229
  0.037742
  0.100480
  0.034867
  0.017332
 -0.101898
  0.100793
  0.094108
 -0.107735
 -0.092773
  0.072274
  0.049054
  0.027534
  0.078378
  0.068968
  0.015532
  0.006659
 -0.003419
  0.005157
  0.109311
  0.111934
  0.130858
  0.181444
  0.021241
 -0.009174
  0.010974
  0.039105
  0.031160
 -0.003837
  0.038343
  0.076067
  0.046026
 -0.077166
 -0.032685
  0.066709
 -0.033285
  0.005839
 -0.015341
  0.015440
  0.091119
 -0.067187
 -0.121173
 -0.072938
 -0.011940
 -0.028583
  0.112484
 -0.055814
 -0.075438
 -0.064147
 -0.062062
  0.006045
  0.058687
 -0.176977
 -0.002705
  0.085873
 -0.069167
  0.032060
 -0.008290
  0.085958
  0.034311
 -0.018671
  0.009354
 -0.190968
 -0.099448
 -0.130681
 -0.095549
 -0.015515
  0.021464
 -0.036691
  0.021639
  0.021788
  0.088889
  0.016720
 -0.081634
  0.021614
  0.044363
 -0.104655
  0.139569
 -0.123475
 -0.057643
  0.093247
  0.054612
 -0.077249
 -0.081576
 -0.060047
  0.009351
 -0.099515
 -0.019288
 -0.113357
  0.027746
 -0.006159
 -0.015553
 -0.025252
 -0.034499
 -0.024281
  0.000897
 -0.019459
 -0.187173
 -0.066650
 -0.120027
 -0.018597
  0.008905
 -0.141037
 -0.079164
 -0.102698
 -0.033111
 -0.051961
  0.016200
  0.104232
 -0.019411
 -0.179247
 -0.008334
  0.023351
  0.004989
 -0.080391
  0.042568
 -0.045844
 -0.098376
 -0.120479
 -0.003181
 -0.232810
  0.016312
 -0.051986
 -0.055396
  0.012522
 -0.080032
 -0.059637
  0.004245
 -0.164614
 -0.146222
 -0.113945
 -0.012019
 -0.075764
 -0.060190
  0.068232
 -0.153663
 -0.125598
  0.053393
 -0.049117
 -0.074020
 -0.185352
 -0.049272
  0.009016
  0.002423
 -0.163591
 -0.102976
 -0.056585
  0.041052
 -0.047725
 -0.155573
 -0.049793
 -0.094397
 -0.156556
 -0.075025
 -0.033015
 -0.109747
  0.056623
 -0.059195
  0.059784
 -0.090941
  0.030453
 -0.007613
 -0.031062
  0.097024
 -0.134581
 -0.045012
 -0.069433
 -0.231081
 -0.008839
  0.013978
 -0.033884
 -0.065828
 -0.030474
  0.001191
 -0.068660
 -0.037080
  0.034560
 -0.044527
  0.010381
 -0.062188
 -0.086328
 -0.021045
 -0.022304
 -0.222376
 -0.045115
 -0.067781
 -0.119502
 -0.132248
  0.012825
 -0.199947
 -0.177801
 -0.051455
 -0.039509
 -0.170036
 -0.024471
 -0.221767
 -0.034698
 -0.161475
 -0.099510
 -0.153756
 -0.073327
 -0.029098
 -0.059699
 -0.133086
 -0.070620
 -0.147394
 -0.062463
 -0.034226
 -0.019987
 -0.060020
 -0.025010
 -0.053108
 -0.152730
 -0.132266
 -0.051803
 -0.256172
 -0.123659
 -0.072453
 -0.160828
 -0.039509
 -0.074026
 -0.125109
 -0.093053
 -0.042334
 -0.093270
 -0.167701
 -0.165998
 -0.105367
 -0.054054
 -0.086902
 -0.032161
 -0.031185
  0.029580
 -0.111138
 -0.097274
 -0.266380
 -0.162234
 -0.012123
 -0.003397
 -0.154060
 -0.102772
 -0.140849
 -0.145245
 -0.143726
 -0.039397
 -0.125399
 -0.050336
 -0.138110
  0.029112
 -0.161489
 -0.071838
 -0.050824
 -0.034613
 -0.001497
 -0.125670
 -0.169094
 -0.157335
 -0.221797
 -0.084818
 -0.128927
 -0.109087
 -0.021252
 -0.071618
 -0.139869
 -0.094226
 -0.067369
 -0.117885
 -0.196546
 -0.098727
 -0.125921
 -0.153808
 -0.206409
 -0.147986
 -0.204415
 -0.111231
 -0.094375
 -0.123205
 -0.217215
 -0.123139
 -0.053405
 -0.072367
 -0.046790
 -0.093465
 -0.067596
  0.007331
 -0.148029
 -0.046649
 -0.112342
 -0.032328
 -0.085706
 -0.130843
 -0.215825
 -0.191681
 -0.097593
 -0.146263
 -0.193826
 -0.052473
 -0.135937
  0.031493
 -0.165036
 -0.025600
 -0.188693
 -0.109211
 -0.072672
 -0.161828
 -0.167725
 -0.075244
 -0.141752
 -0.041021
 -0.129502
 -0.120298
 -0.038307
 -0.185032
 -0.096250
 -0.131944
 -0.071997
 -0.191049
 -0.195986
 -0.232438
 -0.041704
 -0.097753
 -0.113691
 -0.144839
 -0.085948
  0.004204
 -0.063027
 -0.044998
 -0.102760
 -0.141243
 -0.088237
 -0.137565
 -0.099703
 -0.120666
 -0.150033
 -0.054987
 -0.076043
  0.036922
 -0.103543
 -0.190873
 -0.079844
 -0.155757
 -0.139526
 -0.011802
 -0.078037
 -0.167483
 -0.196061
 -0.163533
 -0.098841
 -0.166535
 -0.113499
 -0.108226
 -0.044238
 -0.180272
 -0.178286
 -0.245433
 -0.178826
 -0.157333
 -0.158748
 -0.165845
 -0.127276
 -0.074527
 -0.080087
 -0.209116
 -0.258857
 -0.168729
 -0.105564
 -0.127272
 -0.046329
 -0.143579
 -0.160317
 -0.133480
 -0.185695
 -0.083848
 -0.164503
 -0.045734
 -0.187153
 -0.143008
 -0.109809
 -0.161076
 -0.110869
 -0.113677
 -0.086994
 -0.124760
 -0.146572
 -0.044383
 -0.100496
 -0.058511
 -0.060112
 -0.048804
 -0.092383
 -0.184692
  0.017095
 -0.137127
 -0.072802
 -0.179208
 -0.114118
 -0.136632
 -0.263542
 -0.194541
 -0.067602
 -0.106721
 -0.145112
 -0.072500
 -0.087944
 -0.149459
 -0.134783
 -0.067958
 -0.142877
 -0.096577
 -0.143552
 -0.209876
 -0.114772
 -0.103032
 -0.082832
 -0.155359
 -0.190451
 -0.154072
  0.061062
  0.034019
 -0.083050
 -0.283400
 -0.077566
 -0.059326
 -0.052965
 -0.131660
 -0.115298
 -0.017467
 -0.173722
 -0.095311
 -0.053758
 -0.058820
 -0.148621
 -0.153213
 -0.100422
 -0.071378
 -0.005757
 -0.001405
 -0.101152
 -0.103466
 -0.117287
 -0.084943
 -0.188827
 -0.061535
 -0.113900
 -0.061735
 -0.141462
 -0.173878
 -0.180365
 -0.153935
 -0.065743
 -0.056009
 -0.122777
 -0.170136
 -0.200276
  0.047080
 -0.191618
 -0.097410
 -0.039492
 -0.018944
 -0.012200
 -0.031628
 -0.110597
 -0.080437
 -0.010816
 -0.004540
 -0.036847
 -0.219520
 -0.097222
 -0.094213
 -0.077428
  0.025524
 -0.006873
 -0.085536
 -0.158415
 -0.134863
 -0.099570
 -0.080862
 -0.086066
  0.021193
 -0.065936
 -0.150946
 -0.188736
 -0.103892
 -0.053934
 -0.061022
 -0.085925
 -0.074607
 -0.077658
 -0.152782
  0.029611
 -0.088523
 -0.042627
  0.007323
 -0.129755
 -0.072414
  0.036358
 -0.170481
  0.002653
 -0.011719
 -0.001583
 -0.105888
 -0.168601
 -0.024449
 -0.092432
 -0.071489
  0.011457
  0.038776
 -0.032829
 -0.082783
 -0.135723
 -0.120402
 -0.157707
 -0.123603
 -0.072217
  0.023448
 -0.055062
 -0.057006
 -0.041112
 -0.120716
 -0.118867
 -0.054753
 -0.109719
 -0.004143
 -0.050504
 -0.042318
 -0.178028
  0.015200
 -0.187557
 -0.082147
 -0.052029
 -0.075880
  0.019767
  0.010300
 -0.078423
 -0.042131
 -0.185185
 -0.045572
 -0.100899
  0.014714
  0.064951
  0.015258
  0.012447
 -0.050634
 -0.118095
 -0.092610
 -0.074614
 -0.020907
  0.014161
 -0.110191
 -0.029417
  0.011805
 -0.005813
  0.064938
  0.011634
 -0.091950
 -0.120856
  0.120802
 -0.059905
 -0.056620
 -0.018207
  0.063776
 -0.120952
  0.018897
 -0.076298
 -0.015728
 -0.014587
 -0.058094
 -0.009216
 -0.054501
 -0.079562
 -0.020165
 -0.091362
  0.021029
  0.036007
  0.076785
 -0.150587
 -0.168284
 -0.095718
 -0.023555
 -0.077910
 -0.051807
  0.018205
  0.008611
 -0.011642
 -0.107313
  0.024224
 -0.001376
 -0.014903
  0.023409
  0.097074
  0.047096
 -0.040534
  0.058753
  0.092211
 -0.078315
 -0.009906
 -0.055592
  0.041813
  0.126568
  0.001643
  0.008222
 -0.148517
  0.047783
 -0.100282
  0.048215
  0.109974
 -0.054372
  0.007844
  0.063773
 -0.003559
  0.117799
  0.151362
 -0.038466
  0.002652
  0.014886
 -0.038694
  0.087185
  0.062946
 -0.064547
  0.049791
 -0.055399
  0.137520
  0.018682
  0.067475
 -0.003635
  0.092056
 -0.035815
 -0.086682
 -0.022364
 -0.062846
  0.175267
  0.065714
  0.052864
 -0.032394
 -0.038083
 -0.120491
  0.075977
  0.158718
 -0.031947
 -0.006990
  0.008211
  0.103014
  0.059530
  0.156558
 -0.011312
  0.049973
  0.084633
  0.070039
 -0.065574
  0.026914
  0.020535
  0.038595
  0.026203
 -0.005107
  0.088623
 -0.030428
  0.104209
  0.015588
  0.007928
  0.049527
  0.014181
  0.150640
  0.084991
  0.131371
  0.168403
  0.067810
  0.043715
  0.033596
 -0.008267
  0.017369
 -0.001535
 -0.069066
  0.064439
  0.145933
  0.070509
  0.099766
  0.007328
  0.026605
  0.132409
  0.123537
  0.000198
  0.169704
  0.104052
  0.068470
  0.063109
  0.110592
 -0.028758
  0.051374
  0.054561
 -0.014060
  0.157393
  0.097569
  0.084052
  0.143534
  0.051868
  0.032877
  0.006426
  0.051593
 -0.050174
  0.116626
  0.003754
  0.056631
  0.030935
  0.107776
  0.251974
  0.153486
  0.047212
  0.143151
  0.103705
 -0.000236
  0.168810
 -0.040426
  0.017418
  0.013190
  0.141497
  0.041298
  0.032742
  0.106825
  0.024493
  0.117811
  0.071306
  0.142217
  0.005628
  0.067297
  0.051550
  0.141671
  0.116652
  0.061504
  0.102685
  0.108767
  0.045263
 -0.003101
  0.030796
  0.059783
 -0.003116
  0.024844
 -0.035043
  0.141239
  0.107465
  0.112613
  0.078297
  0.130964
  0.005815
  0.028495
  0.154824
  0.087661
  0.149192
 -0.002449
  0.171988
  0.213150
  0.071273
 -0.026337
  0.156265
  0.033666
 -0.027417
  0.059266
  0.106779
  0.072959
  0.047428
  0.068993
  0.109164
  0.087899
  0.172130
  0.145043
  0.228712
  0.093148
 -0.061281
  0.084468
  0.079517
  0.134136
  0.139896
  0.102166
  0.122483
  0.045394
  0.049865
  0.101943
  0.197497
  0.055541
  0.040023
  0.120073
  0.184794
  0.134652
  0.176354
  0.140250
  0.050248
  0.037587
  0.057452
  0.048870
  0.035287
  0.115483
  0.035923
  0.265595
  0.209499
  0.058286
  0.140040
  0.132962
  0.079299
  0.123435
  0.166457
  0.227545
  0.196150
  0.091061
  0.229218
  0.078102
  0.019273
  0.112569
 -0.012271
  0.105210
 -0.009402
  0.184048
  0.115721
  0.097561
  0.198054
  0.169268
  0.139670
  0.128077
  0.174386
  0.234759
  0.123491
  0.184922
  0.117079
  0.123228
  0.152804
  0.265902
  0.061805
  0.132420
  0.142725
  0.074301
  0.001745
  0.114323
  0.169445
  0.118606
  0.034364
  0.232372
  0.124886
  0.210475
  0.131250
 -0.027928
  0.214169
  0.159014
  0.168222
  0.093524
  0.116525
  0.254671
  0.136995
  0.175636
  0.089551
  0.276785
  0.114835
  0.248451
  0.085089
  0.324583
  0.171945
  0.143220
  0.171503
  0.146691
  0.017742
  0.043290
  0.155068
  0.220219
  0.130496
  0.059938
  0.106161
  0.098010
  0.110549
  0.047865
  0.284170
  0.126359
  0.189016
 -0.047768
  0.180737
  0.129189
  0.008038
  0.051703
  0.035364
  0.115769
  0.117451
  0.037306
  0.144895
  0.148660
  0.245706
  0.202297
  0.048791
  0.179589
  0.083309
  0.178940
  0.177257
  0.112466
  0.150041
  0.146253
  0.168721
  0.056456
  0.081944
  0.209045
  0.049925
  0.052514
  0.135973
  0.085119
  0.170137
  0.095199
 -0.003112
  0.065689
  0.138559
 -0.006686
  0.096686
  0.134214
  0.065073
  0.000065
  0.109564
  0.112693
  0.116339
  0.023982
  0.124905
  0.191203
  0.069395
  0.138338
  0.043855
  0.149686
  0.019624
  0.018770
  0.148839
  0.108837
  0.219021
  0.123641
  0.158097
  0.184270
  0.163682
  0.020008
  0.070126
  0.158727
  0.013553
  0.078858
  0.140325
  0.171901
  0.117141
  0.092172
  0.018360
  0.104334
  0.026443
  0.181643
  0.160378
  0.181871
  0.181300
  0.130704
  0.016523
  0.262996
  0.166108
  0.101722
  0.214603
  0.156465
  0.102450
  0.108094
  0.105689
  0.095421
  0.087519
  0.153274
  0.127331
  0.189928
 -0.036511
  0.177182
  0.094987
  0.025455
  0.103101
  0.081453
  0.013500
  0.033995
  0.213601
  0.068290
  0.077202
 -0.039049
  0.098152
  0.182491
  0.042101
  0.090340
  0.069853
  0.168341
  0.175646
  0.008806
  0.256167
  0.225365
  0.071506
  0.148060
  0.028562
  0.156653
  0.194117
  0.014821
  0.126020
  0.024604
  0.186467
  0.130477
  0.080286
  0.255830
  0.105913
  0.064761
  0.076979
  0.077788
  0.064175
  0.056017
  0.023792
  0.059446
  0.082701
  0.147297
  0.095071
  0.070091
  0.132905
  0.110025
  0.202832
  0.147606
  0.229669
  0.050553
  0.208598
  0.155876
  0.251817
  0.089820
  0.092141
  0.126368
  0.175399
 -0.064260
  0.087418
  0.126474
  0.073658
  0.105175
  0.087389
  0.088745
  0.075072
  0.029468
 -0.042168
  0.092127
  0.102069
  0.213250
  0.052067
  0.031854
  0.080712
  0.143274
  0.114521
  0.101133
 -0.010864
  0.043196
  0.169336
  0.022064
  0.117617
  0.009144
  0.150311
 -0.060033
 -0.008512
  0.105419
  0.026650
  0.091222
  0.039712
  0.136167
  0.204048
  0.120693
  0.110371
 -0.012311
  0.005825
  0.056996
  0.069871
 -0.021244
  0.058378
  0.086035
  0.172304
  0.186069
 -0.003635
  0.061223
  0.117769
  0.276857
  0.132604
 -0.051345
  0.012296
  0.075119
  0.075690
 -0.002827
  0.139074
  0.001152
 -0.002182
  0.046318
  0.106959
  0.108971
  0.144778
  0.041058
  0.205507
  0.020326
  0.061304
 -0.049321
 -0.002602
  0.074167
  0.132264
  0.032315
  0.047967
  0.038566
  0.026851
  0.081837
 -0.054224
  0.098172
 -0.078589
  0.103753
  0.015506
  0.003813
  0.137620
  0.029433
  0.094749
 -0.008611
  0.014645
 -0.000515
  0.125859
  0.036148
  0.028330
  0.077843
 -0.020843
 -0.047600
  0.049766
  0.043054
  0.023614
  0.074602
 -0.059480
  0.111968
 -0.087196
  0.002143
 -0.027303
  0.012349
  0.194052
  0.091089
  0.116877
 -0.024087
  0.161081
 -0.051595
  0.043884
 -0.018986
  0.044951
 -0.088442
 -0.092683
  0.062209
  0.071420
  0.118908
  0.104753
  0.047780
 -0.011037
  0.092209
 -0.046520
 -0.013071
 -0.151962
 -0.019097
 -0.004328
  0.081048
  0.122391
 -0.069992
  0.009646
 -0.068017
 -0.039525
 -0.001641
  0.068071
  0.045531
  0.057351
 -0.117803
  0.027099
 -0.047965
 -0.069516
  0.122578
 -0.117944
  0.065228
 -0.116949
 -0.095043
  0.152309
 -0.015459
  0.102444
 -0.034539
  0.027692
  0.093752
 -0.001387
  0.004558
  0.047528
  0.123933
  0.020155
 -0.014471
  0.034494
  0.099839
 -0.056224
 -0.012336
  0.048398
 -0.011558
  0.020682
  0.134415
 -0.025349
  0.045126
  0.028423
 -0.112824
  0.015803
  0.028003
  0.000973
 -0.024262
 -0.099098
  0.022676
  0.009335
  0.112890
  0.113715
 -0.067675
 -0.053640
 -0.043676
  0.037178
  0.071786
  0.139432
  0.232371
  0.048150
  0.088539
  0.033372
 -0.022134
  0.155342
 -0.029289
  0.037675
  0.038507
 -0.044448
 -0.101549
 -0.051930
 -0.019738
 -0.021148
  0.091835
  0.095857
  0.171277
  0.094189
  0.067534
  0.106716
  0.105250
  0.086206
  0.167190
  0.108209
  0.011155
  0.150143
  0.234726
  0.153282
  0.282604
  0.407579
  0.442477
  0.451157
  0.442399
  0.344737
  0.388533
  0.442104
  0.481779
  0.382213
  0.353426
  0.354375
  0.375367
  0.373165
  0.356930
  0.334432
  0.327315
  0.343404
  0.294666
  0.244067
  0.363343
  0.259234
  0.379070
  0.421511
  0.508634
  0.807550
  0.833218
  0.926925
  0.975755
  0.916813
  0.873433
  0.900568
  0.829142
  0.900948
  0.715755
  0.655844
  0.645729
  0.630444
  0.588744
  0.571165
  0.343230
  0.492218
  0.545307
  0.467773
  0.320605
  0.409777
  0.266642
  0.362486
  0.244729
  0.127231
  0.207046
  0.239623
  0.352259
  0.310996
  0.172492
  0.145720
  0.107748
 -0.014345
  0.007245
  0.062461
 -0.034268
  0.137017
  0.049226
  0.028032
  0.018982
  0.139865
 -0.184962
  0.068743
  0.021294
  0.040153
  0.047836
 -0.014820
 -0.039859
 -0.065034
 -0.189227
  0.022322
 -0.001881
  0.039133
 -0.074302
 -0.195883
 -0.005051
 -0.148604
  0.050911
 -0.081373
 -0.073751
 -0.000716
  0.093763
 -0.024530
 -0.167042
 -0.096537
  0.055653
 -0.061404
  0.091031
  0.090184
 -0.028327
 -0.082105
  0.045892
 -0.072695
  0.022007
 -0.082632
 -0.135517
 -0.084605
 -0.012479
 -0.040391
  0.017827
 -0.036255
  0.053328
 -0.049007
 -0.075288
  0.042241
  0.062871
 -0.116308
 -0.114761
 -0.089272
  0.106993
  0.023833
 -0.135996
 -0.072706
 -0.067248
 -0.119401
 -0.128115
 -0.133277
 -0.035393
 -0.031859
 -0.169492
 -0.186952
 -0.139893
 -0.186472
  0.027642
  0.028120
 -0.094291
 -0.147366
 -0.072390
 -0.014744
 -0.022613
 -0.065517
 -0.017662
 -0.110493
 -0.084277
  0.058041
 -0.024343
  0.082280
 -0.105927
 -0.108896
  0.007320
 -0.140224
 -0.069960
  0.020033
 -0.091007
 -0.042811
 -0.019230
 -0.051590
 -0.015713
 -0.201206
 -0.170253
 -0.143515
  0.045777
 -0.019855
 -0.057588
  0.078113
 -0.121692
 -0.029732
 -0.109047
 -0.111127
 -0.017102
 -0.051540
 -0.152864
 -0.046756
 -0.140244
 -0.198416
  0.114741
 -0.177019
  0.063232
 -0.055995
 -0.050912
 -0.036445
 -0.097494
 -0.194532
 -0.039099
 -0.074545
 -0.188394
 -0.083771
 -0.081212
 -0.076977
 -0.005645
 -0.074440
 -0.142272
 -0.011281
 -0.139960
 -0.075741
 -0.117172
 -0.016824
 -0.068593
 -0.191053
 -0.031720
 -0.104810
 -0.176191
 -0.095202
 -0.051643
 -0.094717
 -0.148126
 -0.032254
 -0.062926
 -0.022743
 -0.124853
 -0.127844
  0.025336
  0.031455
 -0.121591
 -0.046458
 -0.017531
 -0.155751
 -0.152794
 -0.022916
 -0.017659
 -0.055065
 -0.176945
 -0.010685
 -0.097799
 -0.142297
 -0.028652
 -0.222425
 -0.107111
 -0.175065
 -0.097057
 -0.077752
  0.020259
 -0.100449
 -0.054668
  0.061879
 -0.062423
 -0.014766
  0.145214
 -0.137426
  0.016126
 -0.219213
 -0.104600
 -0.028970
 -0.017358
 -0.004494
 -0.066650
  0.047722
 -0.003511
 -0.046879
 -0.012002
 -0.098579
 -0.034549
 -0.055175
 -0.004975
 -0.054215
 -0.164736
  0.053601
 -0.118943
 -0.122303
  0.061768
 -0.090830
 -0.059571
  0.069790
 -0.012444
  0.009637
 -0.059577
 -0.164128
 -0.071730
 -0.179295
 -0.200528
 -0.030554
 -0.042980
  0.043162
 -0.104635
 -0.024317
  0.085783
 -0.008633
 -0.095315
 -0.128284
 -0.050023
 -0.126997
 -0.080845
 -0.082820
 -0.040995
  0.073104
 -0.128522
 -0.137285
 -0.103709
 -0.083310
 -0.157329
 -0.136170
 -0.089905
 -0.069599
 -0.105366
 -0.096249
 -0.099259
 -0.121605
 -0.049804
 -0.092630
 -0.021593
 -0.119566
 -0.101458
  0.046531
 -0.057649
 -0.031304
  0.027678
 -0.129539
  0.002957
 -0.043246
  0.033150
 -0.093763
 -0.125096
 -0.060716
 -0.153831
 -0.049813
 -0.155867
 -0.173401
 -0.166799
 -0.099229
 -0.065762
 -0.017963
 -0.107062
 -0.043362
 -0.089718
 -0.105658
  0.055325
 -0.175958
 -0.071420
 -0.035277
  0.018694
 -0.072675
  0.032975
 -0.052546
 -0.152882
  0.006983
  0.002697
 -0.060789
 -0.079743
 -0.087824
 -0.125489
 -0.066030
 -0.051959
 -0.011458
  0.000096
 -0.028846
  0.020559
 -0.106794
  0.062593
 -0.223662
 -0.230036
 -0.044212
 -0.007258
 -0.012135
 -0.089450
  0.021071
 -0.019528
 -0.074163
 -0.086389
 -0.003634
 -0.186697
 -0.034470
  0.083899
 -0.135716
 -0.090524
 -0.099970
 -0.052270
 -0.100094
 -0.219604
 -0.093448
 -0.018656
 -0.078476
 -0.044743
  0.009595
 -0.118670
 -0.005908
 -0.097409
 -0.092021
 -0.161355
 -0.026397
  0.018647
 -0.058114
 -0.082441
 -0.013959
 -0.042895
 -0.118103
 -0.091576
 -0.151608
 -0.035715
 -0.123083
 -0.048171
 -0.100559
 -0.067596
  0.007450
 -0.139477
 -0.061182
 -0.078532
  0.053394
  0.011414
 -0.196303
 -0.084656
 -0.234695
 -0.011682
  0.162994
 -0.178673
 -0.019438
 -0.103673
 -0.118461
 -0.218767
 -0.058611
 -0.160191
 -0.106524
  0.043840
 -0.051782
 -0.083411
 -0.051238
 -0.032893
 -0.075842
 -0.076123
 -0.168075
  0.013592
 -0.182227
 -0.200295
 -0.088598
 -0.069308
 -0.085123
 -0.093929
 -0.074957
  0.005384
 -0.093742
 -0.021320
 -0.134901
 -0.057087
 -0.101294
  0.051398
 -0.192642
 -0.126007
 -0.047870
 -0.097316
 -0.177049
 -0.075496
  0.039101
  0.030473
 -0.114139
 -0.087099
 -0.086719
 -0.092734
 -0.018436
 -0.019438
 -0.008059
 -0.065595
 -0.136326
 -0.035843
 -0.032195
 -0.133278
 -0.016363
 -0.115463
  0.047067
  0.031127
  0.022867
 -0.048058
 -0.026364
 -0.165720
 -0.005931
 -0.062370
 -0.105098
  0.024560
 -0.067937
 -0.050741
 -0.119998
 -0.058887
  0.043717
 -0.050266
 -0.106420
  0.143107
  0.042188
  0.032698
  0.003085
 -0.103199
 -0.109559
  0.122782
  0.043713
 -0.046202
 -0.003698
 -0.056393
 -0.070015
 -0.064709
 -0.081245
 -0.019534
 -0.047584
 -0.106289
 -0.068052
 -0.045711
 -0.055477
 -0.143429
  0.096674
 -0.081493
  0.026644
 -0.056899
  0.041659
 -0.133074
 -0.190875
 -0.082429
 -0.036888
 -0.043714
  0.008127
 -0.086124
  0.012425
 -0.015133
 -0.076877
 -0.042586
 -0.020878
 -0.046327
 -0.111384
  0.047329
  0.006601
 -0.118278
 -0.086274
 -0.106208
 -0.020537
 -0.034923
  0.038553
 -0.025576
 -0.011067
 -0.119100
 -0.106851
 -0.040286
 -0.211575
 -0.187645
 -0.083243
 -0.101503
 -0.060448
  0.047200
 -0.106109
 -0.079904
 -0.174286
 -0.053036
  0.020668
  0.014224
 -0.121712
 -0.058496
 -0.036005
 -0.117166
 -0.022207
 -0.113677
 -0.020240
 -0.062878
  0.031379
  0.012652
 -0.074947
 -0.094365
 -0.043202
 -0.012274
 -0.156397
 -0.057933
 -0.055492
 -0.025590
  0.002567
 -0.222364
 -0.011453
 -0.077111
 -0.044728
  0.030385
 -0.112191
 -0.021538
 -0.032473
 -0.099926
 -0.038131
 -0.180574
  0.050320
 -0.167431
 -0.155916
 -0.067586
 -0.089043
  0.114805
 -0.012796
 -0.089304
 -0.051326
  0.022141
 -0.137871
  0.103449
 -0.080234
 -0.077432
 -0.058411
 -0.077891
 -0.007513
 -0.036841
 -0.109206
 -0.086068
 -0.137269
 -0.172626
  0.000672
  0.054290
 -0.185163
 -0.001308
 -0.062611
 -0.029250
 -0.101192
 -0.052247
 -0.043841
  0.018958
 -0.029875
 -0.009834
 -0.151971
  0.054782
  0.010434
 -0.014927
  0.021908
 -0.012086
 -0.045299
  0.048178
 -0.032665
 -0.123662
  0.065952
 -0.092120
 -0.030049
 -0.196199
 -0.021665
  0.003897
 -0.055915
 -0.068695
  0.007252
  0.037950
 -0.077960
  0.031884
 -0.042477
 -0.057447
 -0.054655
 -0.099074
 -0.083668
 -0.180469
  0.003959
 -0.033446
 -0.026401
 -0.031266
 -0.068405
  0.022060
 -0.059272
 -0.032247
 -0.022375
 -0.044063
  0.024537
 -0.048558
 -0.021379
 -0.065088
 -0.082980
 -0.076107
 -0.151986
  0.086747
 -0.130133
 -0.096493
  0.088946
 -0.148974
 -0.090978
  0.000942
  0.019748
 -0.018207
 -0.071083
 -0.058078
 -0.098523
 -0.024077
 -0.113147
 -0.060309
 -0.057395
  0.074324
 -0.029159
 -0.060447
 -0.061529
 -0.230641
 -0.019064
  0.091289
 -0.012485
 -0.042162
 -0.134391
 -0.036714
 -0.174647
 -0.061852
 -0.136424
  0.025880
  0.049271
 -0.041133
 -0.092642
 -0.086852
  0.011847
 -0.015237
 -0.035535
 -0.028827
 -0.005378
 -0.115123
  0.042917
  0.005373
  0.057166
 -0.003300
 -0.022080
 -0.022838
 -0.098934
 -0.034793
  0.087038
 -0.102429
 -0.016288
 -0.080277
  0.070916
  0.130586
  0.024782
  0.025851
 -0.097023
 -0.031763
  0.006785
  0.035796
 -0.074931
 -0.029770
 -0.095394
  0.032768
 -0.030535
  0.058212
 -0.084621
  0.062576
  0.032341
 -0.035016
  0.035840
  0.048350
 -0.107971
  0.023670
  0.102990
 -0.100245
 -0.091434
 -0.021752
 -0.073722
 -0.008470
  0.065820
  0.018846
  0.016343
  0.078967
 -0.032126
 -0.101000
 -0.019642
 -0.021859
 -0.078319
 -0.026331
 -0.019657
 -0.007318
 -0.025349
 -0.101508
 -0.049109
  0.044423
 -0.007399
  0.025018
  0.034097
 -0.023573
 -0.069799
 -0.101791
  0.114915
 -0.073450
 -0.072863
  0.123053
 -0.071548
 -0.120994
  0.014603
 -0.080004
  0.003494
 -0.052093
  0.016382
 -0.097887
  0.054049
  0.071252
 -0.027354
 -0.087966
 -0.085768
 -0.030223
 -0.060661
 -0.126297
 -0.116481
 -0.006705
  0.000134
  0.056013
  0.064764
  0.078245
  0.131094
 -0.010549
  0.040856
 -0.076080
 -0.056137
 -0.052130
  0.038453
  0.019102
 -0.023490
  0.142013
 -0.037688
  0.035118
  0.004008
  0.046549
  0.064335
 -0.186711
 -0.021550
  0.031891
  0.028571
 -0.009157
 -0.001416
 -0.011964
  0.009459
 -0.082454
 -0.150191
  0.114631
  0.148612
 -0.058319
  0.096956
 -0.060383
 -0.031984
 -0.074268
  0.015293
  0.007473
 -0.062410
  0.025157
 -0.059457
  0.045311
  0.048336
  0.033121
  0.114562
  0.070779
  0.088760
  0.070481
  0.100539
  0.116516
 -0.057292
 -0.068767
  0.159269
  0.130933
 -0.057621
 -0.020309
  0.060892
  0.097850
  0.156261
  0.088692
  0.030753
 -0.025851
 -0.003947
 -0.037060
  0.148912
 -0.064510
  0.062430
  0.092794
 -0.002296
 -0.012733
 -0.109809
  0.036694
  0.029800
  0.010708
  0.008411
 -0.157760
 -0.083880
  0.034400
  0.078394
  0.067089
  0.091266
 -0.067066
  0.110311
 -0.003828
  0.109998
 -0.042719
 -0.002463
  0.002453
  0.021140
  0.031675
 -0.088821
 -0.004239
  0.053773
 -0.058924
 -0.025319
 -0.010759
 -0.000987
  0.060645
 -0.093744
 -0.023689
  0.186191
  0.068870
 -0.073049
 -0.054937
  0.106524
  0.068863
  0.056569
  0.104265
  0.055890
  0.018892
  0.009798
  0.019214
  0.185761
  0.081260
 -0.096943
  0.008235
  0.051893
  0.006605
  0.020178
 -0.004143
  0.034684
 -0.055970
  0.022892
 -0.020229
  0.054064
 -0.030263
  0.092631
  0.021571
  0.013711
  0.015831
  0.022883
  0.054725
  0.058209
 -0.095157
  0.014468
  0.137880
  0.086348
  0.064808
  0.066550
 -0.014771
  0.032598
 -0.023800
  0.095920
 -0.008570
  0.030021
  0.038021
 -0.001614
  0.090677
  0.060620
  0.063759
 -0.001785
  0.093336
  0.095325
  0.048638
  0.036737
  0.016676
  0.089313
  0.133223
 -0.028282
  0.043329
  0.116227
 -0.035666
  0.155533
 -0.100043
 -0.024960
  0.074879
 -0.015861
  0.108664
  0.174052
  0.078925
  0.077732
  0.025421
  0.103284
  0.117037
  0.005442
  0.120917
  0.090006
  0.012192
  0.088139
  0.064492
  0.080974
  0.007960
  0.131278
  0.043009
  0.129909
  0.132811
  0.033603
  0.054392
  0.121346
  0.069918
  0.151624
  0.160934
  0.001018
  0.058806
  0.065873
  0.063032
  0.021223
 -0.095300
  0.077011
  0.039478
 -0.054583
  0.019504
  0.128450
  0.131449
 -0.015914
  0.058545
  0.048654
 -0.074420
  0.008748
 -0.052330
 -0.010132
  0.073005
 -0.039081
 -0.000564
  0.095932
 -0.140866
  0.141421
  0.009454
  0.071463
  0.048792
  0.046490
  0.028949
  0.089827
  0.100576
  0.098417
  0.104157
  0.155414
  0.035292
  0.004027
  0.235460
  0.040271
  0.043395
  0.081874
  0.041580
  0.104798
 -0.008666
  0.081168
 -0.006946
  0.041008
  0.076462
  0.076650
  0.022099
  0.196601
  0.037433
  0.009339
  0.007675
  0.009886
  0.140005
  0.022056
  0.064485
  0.101092
 -0.002471
  0.076761
  0.005270
  0.100159
  0.155346
  0.072585
 -0.047007
  0.092668
  0.162997
  0.151525
  0.138143
  0.046432
 -0.020930
  0.079554
  0.025317
  0.165625
  0.151557
  0.093818
  0.107735
  0.035414
  0.003824
  0.111335
  0.039491
  0.092748
  0.002029
  0.057894
  0.100474
  0.124809
  0.061063
  0.100723
  0.076491
  0.095569
 -0.049128
  0.091016
  0.089632
  0.146133
  0.046586
  0.175430
  0.077657
 -0.071370
  0.044182
  0.121953
  0.093321
  0.087832
  0.026555
 -0.015949
  0.168080
  0.192575
  0.003888
  0.068410
  0.026330
  0.109012
  0.022876
  0.168169
  0.048472
  0.094836
  0.065991
  0.029256
  0.130515
  0.008540
  0.195770
  0.188983
  0.050186
  0.061545
  0.160237
  0.137657
  0.010189
 -0.014796
  0.094893
  0.049385
  0.035004
  0.093565
  0.056673
  0.051277
  0.051200
  0.049598
  0.064373
  0.136000
  0.236301
  0.096323
  0.155514
  0.168670
  0.194891
  0.083708
 -0.014783
  0.112950
 -0.006116
  0.193370
  0.115719
  0.016552
  0.000187
  0.262903
  0.088113
  0.086785
  0.007661
  0.152444
  0.245310
  0.107479
  0.028217
 -0.017512
  0.095053
  0.146826
  0.022028
 -0.016011
  0.158683
  0.171106
 -0.052000
  0.052243
  0.095462
  0.015626
 -0.096756
  0.126569
  0.102794
  0.062896
  0.076993
  0.082949
 -0.009807
  0.169734
  0.235944
  0.108548
  0.076899
  0.089859
  0.063273
  0.001310
  0.002912
  0.010623
  0.036299
  0.156537
  0.044009
  0.026960
  0.082469
  0.151999
 -0.020758
  0.178704
 -0.038269
  0.007995
  0.057351
  0.098713
  0.066122
  0.182945
  0.046924
  0.097303
  0.114314
 -0.082048
  0.012611
  0.064172
 -0.050037
  0.088714
  0.091316
  0.096710
  0.074394
  0.032275
  0.154560
 -0.125478
  0.183007
  0.017113
  0.006546
  0.128275
  0.130348
  0.080611
 -0.041158
  0.140605
  0.029596
  0.086137
  0.060336
 -0.011059
 -0.030809
  0.006842
  0.093731
  0.108361
  0.114338
  0.004019
 -0.014154
 -0.034454
 -0.003320
  0.186503
  0.007979
  0.039749
 -0.041485
  0.139744
  0.050256
  0.127577
  0.144284
  0.026107
  0.048472
  0.088596
  0.053748
  0.104553
  0.120907
  0.052271
  0.269917
  0.031241
 -0.040929
 -0.008129
  0.001090
  0.000380
  0.050406
  0.068247
  0.125208
 -0.040478
  0.034931
  0.031868
  0.001294
 -0.031540
  0.043649
  0.065322
  0.098602
  0.134222
  0.103759
  0.013391
  0.135493
  0.021080
  0.096673
 -0.002119
  0.007420
  0.056208
  0.114861
  0.200672
  0.186557
 -0.009180
  0.121451
  0.040949
  0.051409
  0.124934
  0.000602
  0.062822
  0.108099
  0.070153
 -0.083149
  0.043732
  0.084758
  0.043208
 -0.115331
  0.080712
  0.001319
  0.036563
  0.020197
  0.062095
  0.007537
  0.100237
  0.094017
 -0.040939
 -0.066682
  0.062540
  0.067777
 -0.036721
  0.020684
 -0.055259
  0.058122
  0.169884
  0.128586
  0.039650
  0.084051
 -0.009588
  0.067422
  0.155156
  0.070691
  0.125516
  0.077753
  0.104240
 -0.019296
  0.123341
  0.029054
  0.058376
  0.051620
 -0.068986
  0.108489
  0.084762
  0.159680
  0.082862
  0.126155
 -0.003127
 -0.016634
  0.128065
 -0.123970
 -0.006642
  0.041357
 -0.043430
  0.054689
  0.136783
  0.077772
  0.022999
  0.184029
 -0.048331
  0.023051
  0.141541
  0.164766
 -0.029095
 -0.044373
  0.013070
 -0.111029
  0.074245
  0.095146
  0.064222
  0.015035
  0.085383
 -0.044619
 -0.013703
  0.019293
  0.091497
  0.026011
  0.019924
  0.052718
 -0.026876
 -0.036320
  0.057342
  0.116048
  0.067940
 -0.023457
 -0.021486
  0.005210
 -0.036817
  0.049458
  0.067246
  0.103372
  0.110155
  0.061633
 -0.000967
  0.095718
  0.010180
 -0.083662
  0.054724
  0.149361
  0.025539
  0.007296
 -0.006174
  0.075290
  0.018617
  0.068896
 -0.017517
  0.004080
  0.138016
 -0.145023
 -0.047878
 -0.052272
  0.068651
 -0.061996
 -0.069100
  0.099059
  0.101193
  0.065611
 -0.071606
 -0.099871
  0.111640
  0.019529
 -0.052633
 -0.023983
  0.073862
 -0.058822
 -0.018606
  0.012294
 -0.049598
 -0.007418
  0.121729
 -0.160396
 -0.049004
 -0.070369
 -0.070937
 -0.078748
  0.101547
  0.002205
  0.081217
 -0.049264
  0.021410
 -0.048466
  0.074588
  0.040528
 -0.063776
  0.011289
 -0.101736
 -0.182617
  0.101008
  0.108636
  0.000137
 -0.008379
 -0.073985
 -0.056288
  0.032821
  0.057827
  0.029010
 -0.020710
  0.080128
  0.010777
 -0.088536
 -0.071993
 -0.044898
 -0.116831
 -0.061322
 -0.044758
  0.053397
 -0.034089
  0.014786
  0.049245
 -0.094239
 -0.041758
 -0.062196
 -0.031788
  0.196865
 -0.016420
 -0.027467
 -0.062648
 -0.041950
  0.064928
 -0.039695
 -0.145387
  0.127167
 -0.024049
 -0.035541
 -0.110846
  0.112553
 -0.042051
  0.006107
 -0.006731
 -0.007442
 -0.103752
 -0.051604
  0.122479
 -0.018458
 -0.052774
 -0.106839
 -0.048400
 -0.033295
 -0.038855
 -0.028439
 -0.110613
 -0.068335
  0.143424
  0.016339
 -0.018212
 -0.085388
 -0.225104
 -0.053535
 -0.052158
 -0.038847
 -0.089302
 -0.127043
 -0.054890
  0.057881
  0.024394
 -0.090121
  0.000626
 -0.052526
 -0.031157
 -0.135756
 -0.040507
 -0.084437
  0.025808
 -0.029780
 -0.023034
 -0.004897
  0.020542
 -0.048297
 -0.107905
 -0.013588
 -0.115040
 -0.055568
 -0.080358
 -0.092106
 -0.065291
 -0.232916
 -0.041548
 -0.063974
 -0.139553
 -0.018694
 -0.077964
 -0.048553
 -0.031295
 -0.026123
  0.082767
 -0.034317
 -0.067664
 -0.072726
 -0.171115
  0.030964
  0.023011
  0.063430
  0.080060
 -0.043752
 -0.041219
 -0.100789
 -0.015583
 -0.196347
  0.075788
 -0.174065
 -0.107816
 -0.018953
 -0.068137
 -0.011695
 -0.184264
 -0.011891
 -0.129140
  0.056315
 -0.009531
 -0.112433
 -0.011920
 -0.100700
  0.036417
 -0.083720
 -0.178794
  0.024949
 -0.066848
  0.055314
 -0.033305
 -0.083439
 -0.003114
 -0.075493
 -0.101411
 -0.065610
 -0.055345
  0.011315
  0.022744
  0.034167
 -0.009457
 -0.101092
 -0.187469
 -0.120824
 -0.057498
  0.039264
 -0.103511
 -0.025471
 -0.120853
 -0.078812
 -0.067484
 -0.153398
 -0.035956
 -0.109775
 -0.029305
 -0.023079
  0.002175
 -0.124810
 -0.091655
 -0.066733
 -0.069848
  0.020770
 -0.110146
 -0.053035
 -0.145878
 -0.005560
 -0.005805
 -0.197048
 -0.024702
 -0.078383
 -0.120510
 -0.020070
 -0.079626
 -0.041094
 -0.036859
  0.125758
 -0.176651
 -0.159647
 -0.112033
 -0.009534
 -0.115105
 -0.060124
 -0.024251
 -0.024856
 -0.013243
 -0.251124
 -0.132795
  0.002046
 -0.099983
 -0.054423
  0.077311
  0.014872
 -0.028673
 -0.143201
 -0.091450
 -0.159715
 -0.074096
 -0.107981
  0.001951
 -0.001394
 -0.076211
 -0.078489
 -0.119159
 -0.085290
 -0.092859
 -0.205250
  0.090283
  0.098260
 -0.067604
 -0.153077
  0.000038
 -0.101978
 -0.047713
 -0.079529
 -0.013680
 -0.187300
 -0.063424
 -0.162641
 -0.009692
 -0.058657
 -0.150259
 -0.084356
  0.093113
 -0.082574
 -0.033028
  0.012916
  0.001511
 -0.066478
 -0.056802
  0.005124
 -0.160369
 -0.034042
 -0.009863
 -0.027348
 -0.004123
 -0.022522
 -0.040955
 -0.154468
 -0.038734
 -0.121072
 -0.161105
 -0.033678
 -0.083679
  0.040480
 -0.193768
 -0.042318
 -0.026771
 -0.008174
 -0.076451
 -0.035264
 -0.029922
 -0.055954
  0.018374
  0.052058
 -0.116609
  0.006442
  0.050835
 -0.210411
  0.009535
  0.054625
 -0.107477
 -0.026366
  0.009336
 -0.004827
 -0.062212
 -0.115603
  0.013897
 -0.171104
 -0.068748
 -0.045467
  0.000238
 -0.075882
  0.030455
  0.023827
  0.056198
 -0.101820
 -0.117045
  0.124405
 -0.193885
 -0.035517
  0.004186
 -0.008202
 -0.099820
 -0.000500
 -0.085753
 -0.074397
 -0.138737
 -0.038743
 -0.254612
  0.019082
 -0.016747
 -0.184277
 -0.008309
 -0.016325
 -0.103204
 -0.101955
 -0.002165
 -0.097291
 -0.120202
  0.030282
  0.007450
 -0.036252
  0.000394
 -0.050120
  0.062757
 -0.135312
 -0.044075
 -0.024586
 -0.015133
  0.039977
  0.046181
 -0.067374
  0.026255
  0.039232
  0.015989
 -0.018541
 -0.116435
 -0.010297
 -0.170161
  0.021126
 -0.012759
 -0.035127
 -0.012994
 -0.047358
 -0.173878
 -0.033293
  0.075656
  0.017070
 -0.010691
 -0.039908
 -0.078493
 -0.138245
  0.039552
  0.003872
 -0.099875
  0.056056
  0.042539
  0.054365
 -0.043772
 -0.075415
 -0.007208
 -0.033264
 -0.085546
 -0.098663
  0.160156
 -0.021972
  0.028562
 -0.038690
 -0.084445
 -0.024814
 -0.009828
 -0.104558
 -0.054402
 -0.127342
 -0.038187
 -0.136496
 -0.026334
  0.064238
  0.000849
 -0.070435
 -0.101177
  0.055852
  0.014481
 -0.092228
 -0.161156
 -0.029374
  0.029969
 -0.068677
  0.015985
  0.055997
 -0.152377
 -0.002049
 -0.110260
  0.009092
 -0.104167
 -0.026330
 -0.076044
  0.091837
  0.007882
 -0.113525
  0.122339
 -0.148147
  0.054358
  0.034581
 -0.043272
 -0.036164
  0.105651
  0.058593
  0.087986
  0.036228
 -0.070804
  0.005403
 -0.089836
 -0.020896
 -0.029961
  0.097691
 -0.017588
 -0.028951
 -0.005631
 -0.052673
  0.110274
 -0.076854
 -0.098891
  0.081330
  0.045923
 -0.160763
 -0.102593
 -0.036336
 -0.024053
 -0.075856
 -0.099735
 -0.112875
 -0.087526
 -0.006396
  0.006269
 -0.073591
  0.126337
 -0.074560
  0.006010
 -0.043692
  0.132165
  0.054714
 -0.004497
  0.039970
 -0.107081
 -0.109775
  0.040796
 -0.021785
 -0.070674
  0.067144
 -0.052358
 -0.089397
 -0.013246
  0.088058
  0.120167
 -0.039860
  0.103970
  0.054884
 -0.030487
 -0.019323
  0.075148
  0.106381
  0.125653
  0.080106
 -0.176633
  0.041961
 -0.043064
 -0.001102
  0.072625
 -0.051341
 -0.135842
  0.091187
 -0.025551
  0.109971
  0.000353
  0.054357
 -0.055820
  0.080384
  0.050200
  0.031681
  0.095387
  0.020324
  0.076120
  0.141448
  0.138580
  0.095127
  0.033595
 -0.084689
 -0.103250
 -0.025525
  0.060577
  0.111441
  0.046508
 -0.045888
  0.086255
  0.062744
 -0.049115
 -0.012325
 -0.080210
 -0.003116
  0.052431
  0.051220
  0.066888
 -0.101310
  0.135363
  0.059416
 -0.089295
  0.004542
  0.010044
  0.038745
  0.083573
  0.018952
  0.046101
  0.012161
 -0.028305
  0.084123
 -0.063495
  0.097812
  0.111681
 -0.073410
  0.044575
  0.057611
 -0.016202
  0.042039
 -0.031520
  0.010484
  0.009705
  0.072992
  0.008356
 -0.034814
 -0.023736
 -0.028484
 -0.082344
 -0.037349
 -0.008143
 -0.022872
  0.115446
 -0.000069
  0.098951
  0.045726
  0.092924
 -0.098732
  0.109034
  0.046155
  0.108396
  0.087649
 -0.081052
 -0.010485
  0.113572
 -0.008725
 -0.014662
  0.095757
  0.134224
  0.111572
  0.079366
  0.063153
  0.058367
  0.077814
  0.055903
  0.087824
  0.000236
 -0.035407
 -0.007182
 -0.090332
 -0.031532
  0.151352
  0.034974
  0.006056
  0.055483
 -0.039272
 -0.005594
  0.150085
 -0.000121
  0.036489
  0.084441
  0.060669
  0.050193
  0.028821
  0.123896
  0.030550
  0.150591
  0.144426
  0.085822
  0.053581
  0.035447
  0.068830
  0.041155
 -0.037448
  0.078065
  0.079023
  0.002148
  0.093331
  0.007381
  0.015476
  0.096406
 -0.000457
  0.010582
  0.093509
 -0.011828
  0.047701
 -0.132088
  0.071651
  0.037966
  0.018548
 -0.037572
 -0.021615
  0.105593
 -0.006921
  0.027966
  0.129854
 -0.017726
  0.126903
  0.038876
  0.043057
  0.130362
  0.041971
 -0.009852
 -0.111955
  0.038903
  0.103488
  0.010957
  0.033337
  0.005339
  0.009968
 -0.048014
  0.075492
 -0.035047
  0.077132
  0.043272
  0.084449
  0.010217
 -0.087080
 -0.018481
  0.067495
 -0.018435
  0.078245
  0.037460
  0.018770
  0.104856
 -0.082417
 -0.087225
  0.070354
  0.012698
 -0.005568
 -0.006858
  0.048270
  0.063710
 -0.033827
 -0.079099
  0.064747
  0.070642
  0.122074
  0.006591
 -0.082214
  0.001390
  0.081356
  0.040593
  0.020697
 -0.023872
  0.004098
  0.054310
  0.118453
 -0.092259
  0.182900
 -0.060681
 -0.066313
 -0.006082
 -0.057204
  0.108865
  0.032794
  0.015109
 -0.105268
  0.037580
  0.095667
  0.041459
  0.020234
  0.067183
 -0.078445
  0.023776
 -0.013599
  0.093948
 -0.071885
 -0.056560
  0.080217
 -0.015953
 -0.101806
  0.021170
  0.031302
 -0.026093
 -0.047780
  0.023905
 -0.037249
  0.019484
  0.029011
 -0.051268
  0.097656
 -0.021948
 -0.038652
  0.018790
 -0.021342
 -0.071770
 -0.144510
 -0.052538
 -0.021988
 -0.089182
 -0.029355
 -0.034880
 -0.049912
 -0.079633
 -0.029787
  0.043080
  0.105210
 -0.083515
 -0.001391
 -0.112964
 -0.068365
 -0.069621
 -0.012902
 -0.098192
 -0.045849
 -0.078890
 -0.032965
 -0.142834
 -0.227112
 -0.187115
  0.117205
 -0.067613
  0.036312
 -0.086797
  0.011094
 -0.178285
 -0.004816
  0.038980
 -0.050516
 -0.091294
  0.003615
 -0.117529
 -0.112517
 -0.014047
 -0.179375
 -0.119651
 -0.068285
 -0.068227
 -0.119102
 -0.069196
 -0.061822
 -0.059559
 -0.212321
 -0.127264
 -0.039947
 -0.025266
 -0.122099
 -0.162558
 -0.218718
 -0.087538
 -0.090232
 -0.071115
 -0.217810
 -0.157693
 -0.118250
 -0.222754
  0.063933
 -0.201391
 -0.051867
 -0.093040
 -0.182143
 -0.136317
 -0.096128
 -0.163333
 -0.210212
 -0.217370
 -0.066603
 -0.088362
 -0.209530
 -0.145554
 -0.178076
 -0.223948
 -0.192783
 -0.193194
 -0.172467
 -0.170588
 -0.168607
 -0.213210
 -0.119040
  0.006265
 -0.050533
 -0.187166
 -0.079111
 -0.120513
 -0.161546
 -0.113724
 -0.252748
 -0.190487
 -0.169603
 -0.171436
 -0.237486
 -0.111970
 -0.151296
 -0.303768
 -0.279382
 -0.277834
 -0.242028
 -0.170568
 -0.217214
 -0.211827
 -0.292844
 -0.250768
 -0.256552
 -0.131145
 -0.225311
 -0.323509
 -0.191261
 -0.285322
 -0.245470
 -0.231803
 -0.196703
 -0.264449
 -0.333561
 -0.237998
 -0.208028
 -0.384333
 -0.195044
 -0.275524
 -0.227923
 -0.339569
 -0.300236
 -0.220186
 -0.425478
 -0.199932
 -0.324198
 -0.189664
 -0.314804
 -0.386136
 -0.178403
 -0.383994
 -0.315176
 -0.354765
 -0.329565
 -0.331030
 -0.289588
 -0.326156
 -0.297282
 -0.339148
 -0.456489
 -0.352764
 -0.429708
 -0.311798
 -0.356252
 -0.246326
 -0.446905
 -0.407680
 -0.330414
 -0.509169
 -0.294163
 -0.415124
 -0.303460
 -0.384369
 -0.320115
 -0.374228
 -0.307424
 -0.340272
 -0.349707
 -0.558471
 -0.353664
 -0.402667
 -0.445697
 -0.404324
 -0.545052
 -0.433020
 -0.348235
 -0.462765
 -0.595611
 -0.362147
 -0.515057
 -0.529889
 -0.464118
 -0.440976
 -0.592710
 -0.471759
 -0.441297
 -0.533218
 -0.439714
 -0.390291
 -0.536537
 -0.551191
 -0.459255
 -0.385465
 -0.421655
 -0.462878
 -0.605173
 -0.670474
 -0.547172
 -0.605331
 -0.535810
 -0.538372
 -0.590765
 -0.464548
 -0.461209
 -0.457450
 -0.491902
 -0.673305
 -0.530645
 -0.502063
 -0.523548
 -0.649442
 -0.702503
 -0.519902
 -0.670944
 -0.602015
 -0.636999
 -0.620511
 -0.489876
 -0.580959
 -0.491187
 -0.703379
 -0.653283
 -0.556787
 -0.518849
 -0.746627
 -0.533014
 -0.621705
 -0.732279
 -0.041332
  0.111269
  0.065015
 -0.020397
  0.040298
  0.008468
  0.015174
 -0.038330
  0.071439
  0.069097
  0.006896
 -0.009454
  0.082343
  0.060477
 -0.010820
  0.020424
  0.033891
 -0.041338
 -0.062502
  0.038136
  0.069511
 -0.117819
  0.030525
  0.079770
 -0.000047
 -0.023366
 -0.020113
 -0.037681
  0.098142
  0.099597
 -0.029214
 -0.015194
 -0.080808
 -0.023271
  0.036605
  0.030945
 -0.031574
 -0.009962
  0.014540
 -0.042573
  0.110515
  0.022149
  0.013926
 -0.038658
 -0.002346
 -0.040130
  0.030014
 -0.086574
  0.054890
  0.024489
  0.002645
  0.028253
  0.056355
  0.001956
 -0.053721
 -0.007763
  0.034855
  0.066652
 -0.131848
  0.008778
  0.034522
  0.032491
  0.020629
  0.056646
 -0.011491
  0.033980
 -0.019586
  0.042551
 -0.050951
 -0.070853
 -0.012546
  0.069043
 -0.069293
  0.018812
 -0.026508
  0.003521
 -0.050658
  0.011511
  0.034601
 -0.018015
  0.004790
  0.036512
 -0.006709
  0.049796
  0.001787
  0.010110
 -0.084022
 -0.024388
  0.026733
  0.076958
 -0.046358
  0.063638
  0.079298
  0.026360
 -0.053208
  0.018705
  0.005849
  0.036201
  0.070366
  0.022347
 -0.065044
  0.103313
  0.051681
 -0.031869
  0.076526
  0.094028
  0.019623
 -0.050090
  0.041731
  0.005481
 -0.003479
 -0.004784
  0.006345
  0.082467
 -0.068918
 -0.049465
 -0.027124
  0.007486
 -0.018160
  0.102344
 -0.002260
 -0.030309
  0.053974
 -0.037811
  0.011971
  0.023124
 -0.001449
  0.008105
 -0.044623
  0.036527
  0.115836
 -0.043965
 -0.040139
  0.031427
 -0.054677
  0.005587
  0.027730
  0.053588
 -0.115364
  0.015183
  0.039244
  0.008091
  0.028243
 -0.074277
 -0.093978
 -0.096579
 -0.089476
 -0.006936
 -0.027871
  0.077000
  0.023137
  0.041239
 -0.013172
  0.114405
 -0.005080
 -0.013987
 -0.066081
 -0.014866
  0.107104
  0.047039
  0.001880
  0.053207
  0.062749
  0.092126
 -0.036044
 -0.032773
 -0.002034
  0.053693
  0.036350
 -0.014776
  0.032990
 -0.100558
 -0.053569
 -0.028370
 -0.042608
  0.030516
 -0.060886
 -0.033016
 -0.002364
  0.017585
 -0.080649
 -0.018606
  0.091845
 -0.000233
 -0.106162
 -0.060424
  0.048132
  0.068634
 -0.003831
 -0.055449
  0.026645
  0.002856
 -0.071776
 -0.023611
 -0.002200
 -0.032673
 -0.035018
  0.054020
 -0.011219
  0.051830
 -0.004337
  0.008841
 -0.077847
  0.020486
 -0.064945
  0.032755
 -0.039828
 -0.007077
 -0.054021
 -0.013349
  0.057564
  0.030667
 -0.092333
  0.054183
 -0.100302
 -0.012191
 -0.069964
  0.134923
  0.029377
 -0.082289
  0.004746
  0.058838
 -0.005411
  0.021062
 -0.049573
 -0.019676
 -0.036640
 -0.050767
 -0.031486
  0.074585
  0.030431
  0.061206
 -0.091033
 -0.050996
 -0.097402
 -0.001420
 -0.019135
  0.087214
 -0.026479
  0.033184
 -0.051988
 -0.056271
  0.027290
 -0.010721
  0.011559
 -0.040627
 -0.056703
  0.119674
  0.050740
 -0.177559
 -0.065574
  0.007163
 -0.006101
  0.084516
  0.108998
 -0.063763
 -0.055517
  0.011823
 -0.033611
  0.016711
 -0.139193
  0.020337
  0.003716
  0.038381
  0.014970
 -0.041729
 -0.029139
 -0.017646
 -0.018873
 -0.132662
  0.007205
  0.117024
  0.118670
 -0.055719
 -0.083973
 -0.022277
 -0.075907
  0.037840
 -0.071006
 -0.009791
  0.017757
  0.031244
 -0.007492
  0.145159
 -0.040918
 -0.048817
  0.021011
  0.081870
 -0.059010
  0.018315
  0.041251
 -0.011693
  0.031363
 -0.026448
 -0.037998
  0.033320
 -0.010918
 -0.021899
  0.021287
  0.036577
  0.067989
  0.010848
  0.042905
 -0.098299
  0.044426
  0.011583
 -0.005498
  0.044350
  0.024926
  0.038995
  0.072048
  0.037115
 -0.023515
 -0.050646
  0.016200
  0.038022
  0.034824
 -0.021116
  0.072694
 -0.009311
 -0.046786
 -0.050693
 -0.037394
  0.074580
 -0.048233
  0.020651
  0.055417
  0.011594
  0.031145
  0.014271
  0.061687
  0.033116
  0.014061
  0.018732
 -0.021976
  0.028744
 -0.025994
  0.085480
  0.128677
  0.103376
 -0.004069
  0.015943
  0.045908
 -0.010543
 -0.039143
 -0.023057
  0.007840
 -0.020706
 -0.039443
  0.057499
 -0.043765
  0.044621
 -0.044963
  0.062058
  0.006345
 -0.079517
 -0.032648
 -0.005304
  0.041829
  0.061814
 -0.080234
  0.039826
  0.057189
  0.016898
  0.027043
  0.064689
 -0.011411
  0.135485
 -0.030675
  0.117299
 -0.034932
 -0.128313
  0.009347
  0.070780
  0.097823
 -0.022789
  0.083888
 -0.030489
  0.011745
  0.014443
 -0.006618
 -0.139176
 -0.067928
  0.020072
 -0.107546
  0.043849
 -0.016706
  0.005626
 -0.068191
 -0.022721
 -0.045863
  0.013224
  0.031205
 -0.004586
  0.035231
  0.018673
 -0.043000
  0.019366
 -0.051804
 -0.039247
 -0.002988
  0.052906
 -0.012280
 -0.013583
  0.042366
  0.089642
  0.029866
  0.004241
  0.075412
  0.069178
  0.003842
 -0.001099
 -0.017388
  0.003845
 -0.072213
 -0.021649
  0.050404
 -0.009601
  0.009812
 -0.032804
 -0.013438
  0.049904
  0.011761
 -0.077100
 -0.003244
 -0.045058
  0.100938
  0.047197
 -0.084590
 -0.128212
  0.122419
 -0.049552
 -0.014398
 -0.022037
 -0.039082
  0.053677
 -0.014068
  0.020237
  0.002059
  0.027414
  0.017242
 -0.055989
  0.080386
 -0.004024
 -0.000553
  0.028975
 -0.069538
  0.003187
 -0.115072
  0.084680
  0.046609
 -0.022732
  0.009891
  0.011127
  0.056127
  0.003176
 -0.078196
 -0.048840
  0.086633
 -0.124634
 -0.017409
  0.049909
  0.003596
 -0.062943
 -0.034767
 -0.069895
  0.039494
 -0.023922
  0.046767
 -0.060999
  0.043777
 -0.087105
 -0.023760
  0.164653
 -0.015209
  0.027276
 -0.000810
  0.059502
  0.096754
  0.027742
 -0.006403
 -0.036467
 -0.085658
  0.006538
  0.001810
 -0.026816
 -0.026088
 -0.003153
 -0.010921
  0.002284
 -0.010287
 -0.089397
 -0.062441
  0.039124
  0.031589
 -0.061434
  0.073566
 -0.026121
 -0.020352
 -0.057462
  0.017792
  0.035283
  0.007591
 -0.008344
 -0.070669
 -0.099653
  0.091990
  0.034336
 -0.045193
 -0.000993
  0.040024
  0.050620
  0.002100
 -0.107548
 -0.094742
  0.011249
  0.028293
 -0.036108
 -0.011135
  0.037706
  0.031348
 -0.020276
  0.148367
 -0.015886
  0.011812
  0.019067
 -0.022586
  0.061091
 -0.065954
  0.013794
 -0.077866
  0.016966
 -0.052380
 -0.021059
  0.063941
  0.134446
 -0.037887
 -0.065089
  0.004644
  0.041466
 -0.023730
  0.002113
 -0.025068
 -0.089566
  0.089318
 -0.029506
 -0.073065
  0.034159
 -0.049393
  0.029479
  0.014829
  0.035293
 -0.057928
  0.010419
 -0.037201
 -0.007063
  0.045826
  0.031290
  0.027401
  0.032202
 -0.058142
  0.019314
  0.036533
 -0.021609
  0.018645
 -0.098575
 -0.104064
  0.010392
 -0.083636
  0.013118
  0.014233
  0.098293
 -0.070084
 -0.056406
 -0.079560
  0.073212
 -0.027069
  0.021900
  0.005498
  0.022289
 -0.046833
 -0.004826
  0.076144
 -0.069478
 -0.038265
 -0.074576
  0.038974
  0.079682
 -0.086949
  0.025612
 -0.039916
  0.085616
 -0.029698
  0.000016
 -0.021129
  0.002191
  0.048596
  0.088015
  0.066499
 -0.095536
  0.079678
  0.061424
 -0.028240
  0.022745
 -0.006214
  0.036960
  0.034459
 -0.185626
  0.095029
  0.080530
 -0.029533
  0.021090
 -0.025197
 -0.012271
  0.049404
 -0.004189
 -0.000820
 -0.053206
 -0.087296
 -0.013902
  0.067985
 -0.071238
 -0.028701
 -0.009307
  0.008154
 -0.040499
 -0.089451
  0.020249
  0.011755
 -0.002992
 -0.024639
 -0.063883
 -0.043590
 -0.027512
  0.059574
 -0.029217
  0.013316
  0.021794
 -0.088666
  0.079210
  0.053809
  0.010762
 -0.076477
  0.102140
 -0.055748
 -0.096725
 -0.036922
 -0.088247
  0.025189
 -0.050189
  0.043972
  0.045882
 -0.046492
  0.056156
  0.022172
  0.058472
  0.063977
 -0.108512
 -0.101669
 -0.080062
 -0.044326
  0.018877
  0.013965
 -0.070244
 -0.032028
  0.014032
  0.042995
  0.057037
 -0.039563
 -0.062384
 -0.100123
  0.026191
  0.014005
 -0.054558
  0.035347
  0.078528
  0.008880
  0.052926
  0.015210
 -0.022447
 -0.006231
  0.077570
  0.052377
  0.073130
 -0.025087
 -0.038449
  0.123219
  0.001939
  0.014734
 -0.015303
 -0.003055
 -0.043711
  0.047664
  0.035199
  0.049159
  0.028899
 -0.026058
 -0.053276
  0.031357
  0.008232
  0.067462
  0.073813
 -0.000945
 -0.075900
 -0.005313
 -0.013861
  0.033408
  0.017175
  0.016000
  0.032788
 -0.007137
 -0.043046
  0.035642
  0.063691
  0.010654
 -0.035253
  0.095684
 -0.078656
  0.032864
  0.084298
  0.040254
  0.039154
  0.039799
 -0.098380
  0.019476
 -0.060092
 -0.028749
  0.008016
  0.041495
  0.059349
 -0.009683
  0.011511
  0.015997
  0.012646
  0.000765
 -0.006671
  0.061272
 -0.040709
  0.021912
  0.111509
 -0.074044
 -0.119193
 -0.084725
  0.077907
  0.066441
  0.127839
  0.085760
 -0.002684
 -0.034112
  0.024161
 -0.019917
  0.019788
  0.045148
 -0.017154
 -0.040267
 -0.015558
  0.039192
 -0.016407
 -0.008474
 -0.060806
  0.049632
  0.033848
  0.013113
 -0.007074
  0.039156
 -0.016150
 -0.008448
 -0.028155
 -0.021960
  0.012693
  0.009776
  0.030905
 -0.024311
 -0.086461
 -0.025109
  0.027166
  0.029414
 -0.074546
  0.012530
 -0.047376
  0.083384
  0.007761
  0.052695
  0.008935
 -0.032941
  0.070296
 -0.074918
 -0.007214
 -0.083381
 -0.039736
 -0.013081
  0.014843
 -0.078420
  0.095366
 -0.038142
 -0.053848
 -0.179767
 -0.030445
  0.014697
 -0.024187
 -0.084250
 -0.040992
 -0.000196
 -0.067708
 -0.046940
  0.031241
  0.027049
 -0.005063
 -0.087323
  0.077121
  0.052527
  0.066171
 -0.067406
 -0.085786
 -0.068616
 -0.077672
  0.082871
 -0.051337
 -0.029410
 -0.046909
 -0.072958
  0.002962
 -0.017059
  0.068641
 -0.004565
 -0.006699
 -0.005689
 -0.107163
 -0.030268
 -0.045204
  0.026477
 -0.005702
  0.009817
  0.111327
 -0.021256
 -0.006253
  0.043306
 -0.055097
  0.007643
  0.021903
 -0.028271
 -0.008222
  0.054406
  0.066153
  0.076784
 -0.025069
 -0.047433
  0.063506
  0.030119
  0.083700
  0.015647
 -0.019245
 -0.000175
  0.004426
 -0.088416
 -0.006337
  0.008755
  0.040200
  0.066689
 -0.023719
  0.001027
 -0.031075
  0.045985
  0.000620
 -0.051396
 -0.043686
 -0.097078
 -0.039311
  0.001196
 -0.021394
 -0.062823
  0.016206
  0.021597
 -0.019231
 -0.019877
  0.036658
 -0.030795
  0.010528
  0.018026
  0.014004
  0.024703
 -0.155162
  0.068491
  0.087627
  0.089006
 -0.064728
  0.078623
 -0.080463
  0.032057
  0.048570
 -0.051396
 -0.018659
  0.020415
 -0.082790
  0.035808
  0.033317
  0.072919
  0.002005
 -0.036918
 -0.049388
  0.015665
  0.028096
  0.045430
  0.035862
  0.005969
  0.031132
  0.003316
  0.062457
 -0.045075
 -0.008964
 -0.033391
 -0.085450
  0.036891
 -0.080961
  0.046503
  0.023261
 -0.032646
 -0.027299
  0.011237
 -0.041092
 -0.105122
  0.051441
  0.062529
  0.009964
 -0.041787
 -0.015317
 -0.032885
  0.003557
  0.030567
  0.030681
  0.068685
  0.060510
 -0.054436
  0.004290
 -0.040292
  0.008786
 -0.000504
  0.033583
 -0.043006
 -0.045093
 -0.031428
  0.011208
 -0.050567
 -0.045941
 -0.078120
 -0.037138
 -0.038841
 -0.010505
  0.069341
 -0.009572
  0.047298
  0.034714
 -0.029759
 -0.062452
 -0.059348
 -0.005955
  0.080315
 -0.059585
  0.058469
  0.006984
 -0.005166
  0.076488
  0.023840
 -0.035595
  0.047051
  0.093737
  0.127933
  0.095443
 -0.058900
 -0.046557
  0.072506
  0.055408
 -0.021270
 -0.018813
  0.037557
  0.101731
 -0.046102
 -0.054421
 -0.058496
  0.049477
  0.031880
  0.013290
  0.028155
 -0.058261
  0.055532
 -0.005091
  0.105474
  0.069634
  0.031267
 -0.007394
 -0.009327
  0.148418
  0.052885
  0.013599
 -0.000120
 -0.017646
  0.082482
  0.033257
  0.012042
  0.059756
  0.042016
  0.078079
 -0.083189
  0.014583
  0.000588
  0.054232
 -0.006482
  0.027670
 -0.013033
  0.016746
  0.100540
  0.034468
 -0.040920
 -0.052901
  0.023108
 -0.012560
  0.038459
 -0.064202
  0.083417
  0.043471
  0.071742
  0.031850
 -0.080298
 -0.012520
 -0.010982
  0.149581
  0.025499
 -0.110525
  0.026905
 -0.120461
  0.015116
 -0.116273
 -0.013789
  0.003011
  0.042993
 -0.024845
  0.007113
  0.050810
 -0.041147
 -0.049375
 -0.018940
  0.034135
  0.076916
  0.048676
 -0.077474
  0.042881
 -0.047404
  0.016086
  0.005404
 -0.044080
  0.003782
  0.066409
 -0.065458
  0.011326
 -0.036638
 -0.018722
  0.069856
 -0.076023
 -0.009396
 -0.016508
  0.003787
 -0.027351
 -0.055367
  0.058797
  0.063326
  0.023659
 -0.015782
 -0.078945
 -0.001967
  0.098491
 -0.006393
 -0.028335
  0.022025
  0.059373
  0.147333
 -0.021358
  0.061685
 -0.066891
 -0.178464
  0.082687
  0.113141
  0.016894
 -0.017150
 -0.018142
 -0.062338
 -0.074313
  0.002112
  0.020773
  0.133730
  0.048513
  0.070369
 -0.030225
 -0.083466
  0.018661
  0.009592
  0.031048
  0.072017
  0.014795
 -0.026313
  0.068683
 -0.050613
  0.024957
  0.012845
 -0.040006
 -0.011615
 -0.101079
  0.088481
 -0.038896
  0.060452
  0.037974
  0.047110
 -0.034821
  0.011166
 -0.016227
 -0.007245
  0.044857
  0.050819
 -0.108921
  0.030079
  0.042393
 -0.022742
 -0.010772
  0.087135
  0.083057
  0.033964
 -0.005723
  0.024726
 -0.067843
 -0.069234
  0.016947
  0.070709
 -0.004295
 -0.029104
  0.037232
 -0.070174
  0.053942
  0.006273
  0.093935
  0.009879
 -0.022576
  0.087940
  0.043736
 -0.030829
 -0.031007
 -0.009840
 -0.059720
  0.072127
 -0.028840
  0.039709
 -0.027066
 -0.037325
  0.076889
 -0.036542
  0.049446
 -0.064451
  0.018670
 -0.039429
  0.044986
  0.024225
 -0.043750
  0.160459
 -0.068367
 -0.084031
 -0.067896
 -0.039107
 -0.086591
 -0.016065
 -0.026805
  0.054966
  0.026847
  0.019518
 -0.004691
  0.084887
 -0.082637
  0.020387
  0.000192
 -0.048404
 -0.036856
  0.064259
 -0.001068
  0.008768
 -0.014220
  0.011544
 -0.005060
  0.050742
 -0.040430
 -0.033140
  0.138613
  0.111871
 -0.034878
 -0.092993
 -0.099851
  0.060126
  0.026002
 -0.095396
 -0.053203
 -0.059072
 -0.019603
  0.036487
 -0.072840
 -0.035867
  0.031874
 -0.044817
 -0.044633
  0.033698
  0.098650
  0.072824
 -0.042257
 -0.063825
  0.047913
 -0.035801
 -0.017664
  0.025934
  0.080154
 -0.042167
 -0.012449
  0.002046
  0.031253
  0.032253
 -0.083109
 -0.051265
  0.061793
 -0.017292
  0.004385
  0.036676
  0.038744
  0.005326
 -0.004642
 -0.087312
 -0.011978
  0.033262
  0.001335
 -0.004397
  0.042207
  0.034703
  0.026135
  0.093025
  0.058456
 -0.015519
 -0.055423
 -0.020336
 -0.001213
  0.003667
 -0.081281
 -0.085678
 -0.102575
  0.054840
 -0.014768
 -0.012199
 -0.065179
 -0.066613
  0.034914
 -0.021548
 -0.049201
  0.045344
 -0.175259
 -0.032473
  0.057834
 -0.029095
  0.009278
 -0.068523
 -0.013725
  0.016549
  0.033282
  0.057092
 -0.056377
 -0.048671
  0.043579
  0.011508
  0.023496
 -0.033926
  0.103794
 -0.059341
 -0.011838
 -0.044062
 -0.087435
  0.040609
  0.041133
  0.033352
  0.010334
 -0.096863
 -0.003660
 -0.045699
  0.008838
  0.129358
  0.026282
 -0.014989
 -0.037852
 -0.050231
 -0.010741
 -0.040203
 -0.053275
  0.060473
  0.064318
  0.014481
  0.005370
  0.095500
 -0.107916
  0.063372
 -0.011819
  0.059514
  0.031172
 -0.113513
 -0.001946
  0.016433
  0.037917
 -0.056946
  0.048197
  0.000138
  0.002753
 -0.016347
  0.059998
 -0.019635
  0.026383
  0.008934
  0.011151
 -0.028490
  0.027152
 -0.113549
 -0.020719
  0.060186
  0.027654
 -0.023385
  0.117299
 -0.071539
 -0.008276
 -0.049376
 -0.055533
 -0.058346
  0.037527
  0.029992
  0.089659
 -0.088940
  0.077809
  0.021893
  0.026380
  0.026725
 -0.036543
  0.021486
 -0.000542
  0.005770
 -0.034429
  0.026800
 -0.039190
 -0.030778
 -0.008646
 -0.006982
 -0.108562
  0.015650
 -0.010343
  0.073258
  0.052963
 -0.104299
  0.023589
  0.050385
 -0.057260
  0.058255
  0.086329
 -0.062589
 -0.026991
  0.008072
 -0.016141
 -0.070512
 -0.049652
 -0.009294
 -0.027414
  0.024815
 -0.053368
 -0.060547
 -0.010062
  0.070343
  0.063690
  0.026194
  0.076786
 -0.067967
  0.054529
 -0.018005
 -0.031580
 -0.037665
  0.104702
 -0.006733
 -0.008794
  0.003852
  0.050459
  0.016930
 -0.051713
 -0.055556
 -0.026610
  0.074387
 -0.001063
  0.043311
  0.034946
 -0.129463
  0.002895
  0.050502
 -0.014755
  0.065588
 -0.081218
  0.037005
 -0.053889
 -0.003785
 -0.000708
  0.070675
 -0.022263
 -0.094821
 -0.058238
  0.027731
  0.029268
 -0.011492
  0.028101
 -0.073491
 -0.017055
  0.020088
  0.019008
  0.064581
 -0.102828
 -0.005157
  0.058107
  0.051143
  0.004765
 -0.041884
  0.013426
  0.019683
  0.052378
 -0.005054
 -0.039813
  0.011276
 -0.119688
 -0.122903
 -0.019507
 -0.099029
  0.044459
  0.057568
 -0.032323
 -0.077887
 -0.018922
  0.039773
  0.031900
 -0.060748
 -0.035236
  0.003805
  0.004016
  0.071301
 -0.081108
 -0.068505
 -0.070850
 -0.003768
 -0.039451
 -0.096318
  0.008631
 -0.008560
  0.078981
  0.044971
  0.063256
  0.011670
 -0.026696
  0.081549
  0.085203
  0.045171
 -0.010179
 -0.035515
 -0.020596
  0.041936
 -0.093190
 -0.074000
  0.005403
 -0.042679
  0.042504
  0.017068
  0.097312
  0.038625
  0.049111
 -0.030274
 -0.005317
 -0.000480
 -0.020224
 -0.066050
 -0.051154
 -0.022307
  0.096432
 -0.032547
  0.133823
  0.029463
  0.108796
 -0.067876
  0.086958
  0.037657
 -0.066570
  0.040353
  0.034054
 -0.090002
  0.077862
 -0.045330
  0.066887
  0.005635
 -0.002957
  0.023982
  0.027535
  0.205616
 -0.039941
 -0.031348
 -0.018840
 -0.002701
 -0.005206
  0.024551
  0.020855
 -0.072835
 -0.018432
 -0.019705
  0.012235
 -0.133651
 -0.014021
  0.111580
 -0.084861
 -0.009810
 -0.036912
 -0.017761
  0.074652
 -0.000014
 -0.024365
  0.062035
  0.033232
  0.083965
  0.006920
  0.028808
  0.023121
  0.026905
 -0.127465
  0.007036
 -0.056815
 -0.051753
  0.041858
 -0.085549
 -0.114069
  0.021586
  0.070467
  0.006203
 -0.016777
 -0.024867
 -0.068842
  0.113646
 -0.025699
 -0.032576
 -0.078919
 -0.020702
 -0.009797
 -0.100130
  0.016984
 -0.044652
 -0.013518
 -0.098980
 -0.061912
  0.015813
 -0.086146
  0.017761
  0.072457
 -0.052193
  0.050659
 -0.024667
 -0.115049
 -0.069448
  0.015196
  0.113118
 -0.021710
 -0.020564
 -0.016934
  0.004243
  0.070122
  0.083291
  0.117490
  0.016488
  0.024751
 -0.054785
 -0.032968
 -0.058004
 -0.006347
 -0.058530
 -0.016919
  0.002560
  0.064478
 -0.050490
 -0.078928
  0.014646
  0.030063
  0.130536
 -0.009650
 -0.035164
 -0.057794
 -0.016327
 -0.038693
  0.017239
  0.000498
  0.083606
  0.012783
  0.018065
  0.008818
  0.050895
  0.036316
 -0.000463
 -0.035312
 -0.065698
  0.077593
  0.015003
  0.022452
  0.017072
 -0.000424
 -0.021471
 -0.029724
  0.067477
  0.037310
 -0.026477
 -0.038077
 -0.071702
 -0.079341
 -0.080206
  0.053130
 -0.034525
 -0.050945
 -0.028899
 -0.003482
  0.018064
 -0.022224
 -0.030994
 -0.144674
 -0.051604
  0.052804
  0.011115
 -0.043520
 -0.076376
  0.059020
 -0.002346
  0.024995
  0.013107
 -0.061753
 -0.093170
  0.013273
 -0.026244
  0.097104
 -0.078166
  0.021775
  0.081836
 -0.019631
  0.050845
  0.027274
 -0.024351
  0.055017
 -0.003129
 -0.008809
 -0.024275
 -0.099210
 -0.037050
 -0.012234
  0.000049
 -0.079595
  0.037140
 -0.009780
  0.044601
 -0.056481
 -0.085450
  0.005527
  0.030577
 -0.025419
 -0.044666
 -0.058834
 -0.087562
  0.080253
 -0.005516
  0.000627
  0.077501
 -0.074656
  0.067814
 -0.007710
  0.093877
  0.021243
  0.064453
 -0.000462
  0.059644
 -0.030384
  0.000818
 -0.070809
 -0.028949
 -0.102411
  0.002805
 -0.008496
  0.075465
 -0.003072
 -0.071472
 -0.018466
 -0.036571
 -0.023068
  0.027381
 -0.068031
 -0.052424
 -0.040887
 -0.003545
  0.077716
  0.097490
  0.036986
  0.030186
  0.001497
  0.030083
  0.072122
  0.060317
 -0.019698
  0.002778
 -0.056298
 -0.016602
 -0.056798
  0.047841
  0.019333
  0.032657
 -0.097185
  0.018191
  0.030724
  0.024940
  0.012268
 -0.030211
 -0.011490
  0.033677
  0.041547
  0.084905
  0.039167
 -0.023811
  0.010872
  0.022941
  0.100106
 -0.015998
 -0.013424
 -0.077381
  0.060692
  0.042343
 -0.093157
  0.036193
  0.057120
  0.111323
  0.084511
 -0.063633
 -0.011840
  0.027164
 -0.005744
 -0.054899
  0.030910
 -0.047266
  0.020348
 -0.064528
 -0.004034
 -0.111034
 -0.055618
  0.027294
  0.061709
 -0.085071
  0.080200
 -0.079362
 -0.052744
 -0.037824
  0.048961
  0.007152
  0.067234
 -0.004942
 -0.039706
  0.028691
 -0.052313
  0.074071
 -0.061430
  0.033849
  0.023656
  0.006895
 -0.052537
  0.003140
 -0.015203
 -0.003887
  0.016020
  0.060592
  0.057229
 -0.045214
  0.010800
  0.073485
  0.112737
 -0.017933
  0.000253
  0.026251
  0.043880
  0.106241
  0.078107
  0.162290
  0.029885
  0.047086
  0.007689
  0.162370
  0.033781
  0.190960
  0.087164
  0.049219
  0.183413
  0.040687
  0.027030
  0.163584
  0.201698
  0.017291
  0.086287
  0.132293
  0.121528
  0.154571
  0.250267
  0.304418
  0.428269
  0.426112
  0.428296
  0.442413
  0.366455
  0.425835
  0.487607
  0.508970
  0.433215
  0.511569
  0.354421
  0.283765
  0.295695
  0.305746
  0.412568
  0.310022
  0.387783
  0.281022
  0.378881
  0.290681
  0.339516
  0.452505
  0.562809
  0.594056
  0.649506
  0.871065
  0.882734
  0.901379
  0.958600
  0.997661
  1.000000
  0.969146
  0.796340
  0.758557
  0.669813
  0.667115
  0.670229
  0.574617
  0.626161
  0.618498
  0.570359
  0.576673
  0.614116
  0.554541
  0.545076
  0.498504
  0.319151
  0.318446
  0.275030
  0.339527
  0.337670
  0.176438
  0.247933
  0.355942
  0.107195
  0.144155
  0.171154
 -0.032779
  0.124110
  0.022704
  0.089073
  0.053750
  0.025318
 -0.037567
  0.117295
  0.068202
  0.008917
 -0.031364
  0.018851
  0.038452
  0.049927
 -0.054740
  0.001112
  0.078419
  0.001903
  0.037017
  0.056994
  0.030607
  0.040002
  0.049265
  0.016910
 -0.018455
  0.094457
  0.004059
 -0.091725
  0.005175
  0.071105
  0.058967
 -0.080796
  0.106035
 -0.083652
 -0.044913
  0.086153
 -0.069089
 -0.102365
 -0.024051
  0.050366
  0.070176
  0.021683
 -0.089164
 -0.034780
  0.031918
 -0.007625
  0.003838
  0.019011
  0.065092
 -0.032089
 -0.080363
  0.061010
  0.027911
 -0.014659
  0.010734
  0.047161
  0.028968
 -0.016707
  0.052469
  0.008956
 -0.128768
 -0.098101
  0.039078
  0.004456
  0.045938
  0.027543
 -0.033453
 -0.055089
  0.000233
  0.040132
 -0.076878
  0.001816
  0.034124
  0.000129
  0.036889
  0.019028
 -0.067459
 -0.070713
 -0.027686
 -0.061853
  0.057863
 -0.063438
  0.138253
  0.014207
  0.036787
  0.039399
 -0.014603
 -0.064015
  0.012719
 -0.016472
  0.017187
 -0.046376
 -0.059979
 -0.003512
 -0.029003
 -0.029402
 -0.011319
 -0.096603
 -0.033270
 -0.022311
 -0.055360
  0.042866
 -0.063191
  0.005525
  0.038137
  0.012353
  0.009704
  0.091348
 -0.078892
  0.036610
 -0.014958
  0.033822
  0.021016
 -0.038524
  0.057634
 -0.015093
  0.027410
  0.026695
 -0.064189
 -0.033287
  0.025703
  0.068430
  0.003490
 -0.133133
  0.056916
  0.061303
  0.070186
 -0.020342
  0.120159
  0.055674
  0.101553
 -0.011038
 -0.052367
 -0.046344
 -0.076573
 -0.022478
 -0.022100
  0.034424
 -0.027704
 -0.130200
 -0.014951
  0.158452
  0.022009
 -0.042647
 -0.025761
 -0.041422
 -0.006849
 -0.037534
  0.012931
 -0.086707
  0.003929
 -0.000746
  0.129546
  0.009067
  0.082041
  0.087827
  0.086680
 -0.041577
 -0.037824
  0.026934
  0.009440
 -0.029352
  0.058551
  0.022587
 -0.010882
 -0.055284
  0.065744
  0.076894
  0.047821
 -0.054327
  0.035814
  0.031483
 -0.010675
  0.019260
  0.065927
 -0.050196
 -0.013082
  0.015052
 -0.001009
  0.013732
  0.166447
  0.025061
  0.011843
  0.186350
  0.141211
  0.063529
  0.062421
 -0.041166
  0.174714
 -0.044972
  0.115693
 -0.113845
 -0.022499
 -0.027161
 -0.050027
 -0.013958
  0.187854
 -0.012999
 -0.103147
 -0.049100
  0.060473
  0.079414
  0.081034
  0.063585
  0.036272
  0.040342
 -0.045573
 -0.020358
  0.046026
  0.027222
 -0.042154
  0.011665
  0.000115
  0.051744
 -0.013406
 -0.016199
 -0.044084
  0.078112
 -0.027096
 -0.016132
  0.081753
  0.007915
  0.056097
  0.075521
  0.037497
 -0.012343
 -0.089798
  0.062567
  0.020767
 -0.014209
 -0.020157
  0.024789
 -0.022094
  0.031537
 -0.048002
  0.062812
  0.101306
 -0.001629
 -0.166740
  0.004823
 -0.070450
  0.021507
 -0.039512
  0.019791
 -0.074656
  0.076218
  0.002246
  0.063234
  0.070026
  0.012703
  0.009093
 -0.022664
  0.047187
  0.080941
  0.008456
 -0.056289
 -0.073879
  0.059609
 -0.027791
  0.033202
  0.089004
 -0.116328
  0.015088
 -0.033151
  0.030863
 -0.081804
  0.013519
 -0.065749
  0.127360
  0.017938
  0.049810
  0.023554
 -0.014376
  0.119344
  0.008187
  0.062043
  0.004643
  0.004064
  0.005240
 -0.035982
  0.056339
  0.003685
  0.026861
 -0.030297
  0.013254
 -0.002337
  0.032201
 -0.025018
  0.007366
 -0.062299
  0.065677
  0.078479
  0.055856
  0.030922
 -0.051501
 -0.088343
  0.028220
  0.058973
 -0.023770
 -0.042363
 -0.006759
 -0.040498
  0.031132
  0.011601
  0.007731
  0.047910
 -0.134997
  0.096343
  0.075377
 -0.046879
  0.062798
 -0.011120
 -0.072740
  0.023996
  0.032089
  0.086128
 -0.056609
  0.035707
  0.071304
  0.076027
 -0.003743
 -0.087486
  0.028699
  0.089190
 -0.011111
  0.024751
  0.000738
 -0.004845
 -0.057049
  0.029225
 -0.047582
 -0.065204
  0.033373
 -0.057818
  0.007736
 -0.021831
  0.098403
 -0.039106
  0.029848
 -0.037606
 -0.073740
  0.002009
  0.081471
 -0.039506
 -0.021659
 -0.064060
 -0.020707
  0.097599
 -0.054014
 -0.042747
 -0.030323
 -0.078796
 -0.094206
 -0.024872
 -0.034689
  0.114441
  0.068306
 -0.032136
  0.112552
  0.076071
  0.021625
  0.035406
  0.006073
 -0.042004
 -0.039381
  0.070341
  0.034631
 -0.062428
 -0.063881
 -0.029737
 -0.000257
  0.104440
  0.074378
  0.041753
  0.048406
 -0.002035
  0.020363
 -0.002065
  0.144034
 -0.040570
 -0.019797
 -0.045232
  0.033870
 -0.067164
 -0.025231
 -0.097574
 -0.078041
  0.008617
  0.060735
 -0.027922
 -0.059127
  0.013120
 -0.021499
 -0.035654
  0.026272
 -0.025089
 -0.128644
 -0.000696
 -0.012054
  0.098491
 -0.013100
  0.063433
 -0.044323
  0.036316
  0.017548
  0.035434
  0.028998
  0.044633
 -0.079455
 -0.005585
 -0.058575
  0.000820
  0.108804
  0.057841
 -0.077118
 -0.054673
 -0.010312
 -0.047250
 -0.031901
 -0.073563
  0.048932
  0.077003
 -0.005722
 -0.000506
 -0.105203
 -0.034233
 -0.060774
 -0.050214
  0.014001
 -0.031672
  0.048160
 -0.015070
  0.037655
  0.073627
  0.015015
  0.078194
 -0.036715
 -0.036793
  0.021090
 -0.004808
  0.088951
 -0.021870
  0.107992
 -0.049067
  0.016572
 -0.030164
  0.066830
 -0.013047
  0.077926
  0.042240
 -0.000417
  0.047490
  0.035069
  0.042577
 -0.038807
  0.052249
 -0.030945
 -0.087532
 -0.117706
  0.081758
  0.074573
  0.086668
 -0.022176
 -0.085336
  0.024382
 -0.031359
 -0.058019
 -0.018491
  0.035917
  0.003195
 -0.015099
 -0.010324
 -0.048613
 -0.016655
 -0.033468
 -0.012284
  0.027637
 -0.052621
  0.084981
  0.069269
 -0.081835
 -0.001170
  0.005142
  0.011096
  0.029364
  0.060943
 -0.001185
  0.004929
 -0.004545
  0.015812
  0.010121
 -0.076152
 -0.040352
  0.051769
  0.031971
  0.018899
 -0.082344
 -0.068699
 -0.047278
  0.067779
  0.071879
 -0.018240
 -0.008816
  0.060600
 -0.074896
  0.027433
  0.043865
  0.018405
 -0.034768
 -0.042512
  0.032303
  0.027231
 -0.022088
 -0.073403
 -0.040090
  0.017602
 -0.132127
 -0.026846
 -0.059223
 -0.120384
 -0.044610
  0.079058
  0.105726
 -0.036266
 -0.021257
 -0.048462
 -0.011011
 -0.072852
 -0.197449
  0.102952
 -0.008870
 -0.014684
  0.069524
  0.005164
  0.021220
  0.023220
  0.013383
  0.022871
  0.127785
 -0.048225
  0.012762
  0.021279
 -0.088798
 -0.033472
  0.068383
 -0.033265
 -0.048480
 -0.047342
 -0.039741
  0.010082
  0.010820
 -0.107883
  0.036786
 -0.004924
  0.037087
  0.003835
 -0.085774
 -0.064407
 -0.141903
 -0.030754
 -0.068759
  0.047761
  0.007329
  0.027646
  0.074311
 -0.120378
  0.029742
 -0.013551
 -0.082296
  0.071000
 -0.024113
 -0.006191
 -0.021545
 -0.041369
  0.041957
 -0.023576
  0.028720
 -0.008782
 -0.067888
  0.041785
  0.022662
 -0.009568
  0.025204
 -0.102184
 -0.029694
 -0.006066
 -0.026637
 -0.063582
  0.031485
 -0.014296
 -0.043937
  0.047294
  0.000467
 -0.048876
  0.024916
 -0.038349
  0.039226
  0.079275
 -0.093528
 -0.029402
  0.047307
 -0.031047
  0.021714
 -0.000506
 -0.023066
 -0.056921
 -0.011694
 -0.003439
 -0.026652
  0.040352
  0.011079
 -0.025525
  0.002613
  0.050429
 -0.024735
 -0.014235
 -0.011127
 -0.100381
  0.005505
 -0.034570
 -0.085852
  0.060208
 -0.075284
 -0.010871
  0.077466
  0.036931
 -0.144209
 -0.004189
 -0.032952
  0.018046
  0.064772
 -0.016593
 -0.005512
  0.057360
 -0.019699
  0.002369
  0.017623
 -0.089260
  0.028715
  0.087480
 -0.022424
  0.058528
  0.017131
  0.039748
 -0.000113
 -0.044065
 -0.006791
  0.001047
  0.033992
 -0.061901
  0.085032
 -0.004135
 -0.038573
 -0.090915
  0.014902
 -0.010620
  0.078753
  0.010557
 -0.021445
  0.076647
  0.053138
 -0.027940
 -0.045459
 -0.058374
  0.002161
  0.046320
  0.069711
  0.055133
  0.041376
 -0.015355
  0.014448
 -0.009764
 -0.050567
  0.075531
 -0.154297
 -0.060845
 -0.075777
 -0.059097
 -0.021629
  0.013293
 -0.056620
 -0.055806
 -0.033480
 -0.139546
  0.025197
  0.077368
  0.045488
  0.027384
  0.010467
  0.036969
 -0.015993
  0.013837
  0.035605
 -0.005515
  0.035315
  0.064236
  0.111657
 -0.071701
  0.051770
  0.125694
 -0.016311
  0.046187
 -0.037090
  0.044187
 -0.052367
 -0.049562
 -0.052626
 -0.040514
 -0.099707
 -0.026630
  0.024853
 -0.047275
  0.016797
 -0.071322
 -0.033311
 -0.014834
 -0.019150
  0.055209
  0.011716
 -0.010892
 -0.065656
 -0.070669
 -0.052785
  0.008756
  0.019264
 -0.030233
 -0.084848
 -0.048224
  0.059071
  0.018183
 -0.082314
 -0.031780
  0.068479
 -0.056838
  0.098442
  0.019698
  0.015689
 -0.022181
 -0.038889
  0.029771
  0.043456
  0.040944
 -0.015642
  0.030583
  0.015080
 -0.089327
 -0.076588
 -0.074509
 -0.023954
  0.033840
 -0.033718
 -0.048631
  0.043060
 -0.029855
  0.020578
 -0.021964
 -0.039730
 -0.073968
  0.024272
  0.009762
 -0.038243
  0.060272
 -0.094725
  0.048271
 -0.016587
 -0.005414
  0.081852
  0.123322
  0.012549
 -0.036812
  0.010658
  0.140374
 -0.018520
 -0.048180
  0.016777
 -0.107718
  0.000545
 -0.004583
  0.069247
 -0.079339
 -0.065323
 -0.062191
 -0.036748
  0.012243
 -0.012452
 -0.040505
  0.053825
  0.022002
 -0.057252
  0.022737
  0.092074
 -0.007983
 -0.029905
  0.028094
  0.062589
  0.013706
 -0.004399
  0.018516
  0.020568
 -0.084949
 -0.041718
  0.024785
  0.005029
 -0.156722
  0.001758
 -0.016525
  0.003224
 -0.072268
 -0.045201
 -0.052338
 -0.035282
  0.046419
  0.021212
  0.117549
  0.032168
 -0.033611
  0.045891
  0.021534
 -0.034520
  0.009118
  0.077529
  0.071501
  0.039479
  0.095205
 -0.085509
  0.004826
  0.018660
 -0.029455
  0.048606
 -0.029854
 -0.010077
 -0.069048
 -0.067554
 -0.001308
  0.014148
 -0.016826
 -0.040327
  0.036979
 -0.011021
  0.036472
  0.061109
 -0.108762
 -0.005129
 -0.000972
 -0.080740
  0.083086
 -0.008694
 -0.041473
 -0.055256
  0.049438
 -0.058628
  0.016130
  0.080692
 -0.074876
 -0.040507
 -0.004090
 -0.085442
  0.025797
  0.032230
 -0.037178
  0.066394
  0.038837
 -0.074412
 -0.009679
  0.099647
 -0.011100
 -0.076538
  0.003907
  0.023082
 -0.007531
 -0.019348
  0.015636
  0.059599
 -0.050110
 -0.041131
  0.065580
  0.020057
  0.044632
 -0.090457
  0.038441
 -0.120589
  0.022367
  0.003347
 -0.053135
  0.081293
 -0.044317
  0.019712
 -0.028493
  0.125729
 -0.064213
  0.021517
  0.121122
  0.011987
  0.001528
 -0.026435
  0.114369
 -0.043992
  0.042745
  0.033227
  0.083065
 -0.021756
  0.011813
 -0.030161
 -0.036524
  0.031871
 -0.031799
  0.030767
  0.074722
 -0.034240
 -0.035976
  0.092702
 -0.014587
  0.023849
 -0.018254
 -0.011977
 -0.060198
  0.019699
 -0.055556
 -0.176575
 -0.048102
 -0.012528
  0.024682
  0.008312
  0.013609
  0.125137
 -0.038975
  0.078614
  0.046175
 -0.081145
  0.077970
 -0.045800
 -0.028006
 -0.027778
  0.051731
  0.027965
  0.066319
  0.003492
  0.003888
 -0.176470
 -0.099371
  0.034032
 -0.087482
 -0.042948
  0.036998
 -0.090908
 -0.024011
  0.012577
 -0.043362
  0.070927
 -0.083373
  0.014397
  0.011141
 -0.050053
  0.036553
 -0.004995
  0.104069
  0.059829
  0.066512
  0.038958
  0.035144
 -0.056384
 -0.010143
 -0.072408
  0.045822
  0.069955
  0.043431
  0.037144
  0.073182
 -0.035124
 -0.026679
  0.075401
 -0.012060
 -0.021258
 -0.004051
 -0.082712
  0.071052
 -0.066897
  0.016037
 -0.008211
  0.109067
  0.040361
 -0.001936
  0.016658
 -0.070564
  0.037513
  0.019676
 -0.048086
 -0.090994
 -0.101716
 -0.038215
  0.018704
 -0.031385
 -0.036341
 -0.016925
  0.071804
  0.077060
  0.031208
  0.055396
  0.012355
 -0.049245
 -0.042048
  0.013955
 -0.006123
  0.046445
  0.052782
 -0.023335
 -0.023486
 -0.020094
 -0.029148
 -0.039633
 -0.016158
 -0.022576
  0.004341
  0.018097
 -0.048652
  0.054866
 -0.085326
  0.013670
  0.063484
 -0.003238
 -0.059688
  0.046577
  0.041207
  0.039055
  0.043899
  0.114370
  0.015907
 -0.002465
  0.063677
  0.064663
  0.014883
 -0.019840
 -0.000234
 -0.081333
 -0.040619
 -0.006552
  0.088415
  0.060938
  0.001599
  0.038107
  0.038959
 -0.011988
 -0.050645
  0.054390
  0.046942
  0.002450
  0.057516
  0.000551
  0.025217
  0.052210
  0.027677
 -0.021593
  0.036499
 -0.085053
 -0.014991
 -0.068273
 -0.028992
  0.001194
  0.039218
 -0.010790
  0.009151
 -0.020465
 -0.014534
 -0.078129
  0.103004
 -0.055235
 -0.021683
  0.013813
  0.063112
 -0.043107
  0.051821
 -0.017402
 -0.038116
 -0.076709
  0.037817
 -0.012053
 -0.035704
  0.082204
  0.090127
 -0.050192
 -0.106206
  0.107172
  0.006685
  0.033643
 -0.055698
  0.020120
  0.070429
 -0.016910
 -0.003323
  0.035356
  0.037087
  0.165341
  0.038533
  0.037895
  0.005438
  0.001222
 -0.019135
  0.072143
  0.034601
 -0.004441
  0.036062
 -0.092999
  0.023558
  0.045927
 -0.019638
 -0.024000
 -0.007843
 -0.037552
  0.021205
  0.007600
  0.013231
 -0.015685
 -0.028593
 -0.011393
 -0.055504
  0.039696
 -0.079687
  0.054869
 -0.011096
 -0.059678
  0.057724
  0.052628
  0.010209
 -0.035270
  0.035437
  0.055534
  0.126665
  0.043012
  0.024157
 -0.022966
  0.064260
 -0.014680
  0.035654
  0.025585
  0.212201
 -0.060376
  0.145186
  0.089048
  0.068443
  0.023492
  0.068637
  0.004232
 -0.093464
 -0.069949
 -0.002579
  0.063903
  0.002608
  0.110700
 -0.000007
 -0.024060
 -0.076029
 -0.001906
  0.074947
  0.137621
 -0.053660
  0.050043
 -0.025593
 -0.093676
 -0.056934
 -0.103045
 -0.019059
  0.034103
 -0.090703
  0.010154
 -0.070726
 -0.055116
  0.046567
  0.011888
 -0.015048
  0.056071
  0.023719
  0.047331
 -0.046654
  0.079912
 -0.049051
 -0.040934
  0.058291
  0.065040
  0.103903
  0.080647
  0.083958
 -0.056293
 -0.013803
  0.060325
 -0.043378
 -0.031977
  0.011651
  0.078952
 -0.033934
 -0.001529
 -0.050595
  0.051441
  0.114439
  0.061596
 -0.001988
  0.016550
  0.059448
 -0.060639
  0.035309
 -0.001399
 -0.023041
 -0.067813
  0.005823
  0.021077
 -0.060305
  0.030751
 -0.025857
 -0.044499
  0.036043
  0.002980
 -0.068112
 -0.053692
 -0.043240
 -0.023366
 -0.056091
 -0.035338
 -0.083922
 -0.027376
 -0.043300
 -0.068660
  0.032250
  0.065011
  0.021483
  0.035694
 -0.030355
  0.013426
 -0.086291
 -0.044968
 -0.037818
  0.031456
  0.027780
  0.024488
 -0.098540
 -0.027150
 -0.069307
  0.042631
 -0.045091
 -0.114254
  0.002380
 -0.025558
  0.063952
  0.102385
 -0.091265
  0.001393
 -0.084553
 -0.022705
  0.074031
  0.078366
  0.011239
 -0.009542
 -0.015698
  0.020289
 -0.075362
 -0.051169
 -0.057464
  0.042403
  0.092523
  0.075832
  0.011288
  0.025545
  0.074175
  0.032799
  0.045975
 -0.058350
 -0.064839
  0.031451
  0.007459
 -0.079009
  0.017550
  0.033568
 -0.034303
  0.011018
  0.046712
 -0.026443
 -0.050404
  0.000283
  0.072387
  0.021955
  0.052436
 -0.014067
 -0.011775
  0.077368
 -0.036237
 -0.034349
 -0.053095
 -0.049427
 -0.037112
  0.014698
 -0.018270
 -0.004852
 -0.086539
 -0.001720
  0.055452
 -0.043139
  0.045768
  0.041550
 -0.073943
 -0.037906
  0.004263
  0.037663
 -0.044015
  0.053017
  0.076400
  0.022578
  0.069090
 -0.040276
 -0.036651
  0.050518
 -0.020759
  0.022422
 -0.005684
  0.063164
 -0.008059
 -0.001913
  0.074876
 -0.039005
 -0.050626
  0.029028
 -0.006104
  0.093145
 -0.107170
  0.027092
  0.036299
  0.029250
 -0.035268
 -0.052310
 -0.101795
  0.021808
  0.005901
 -0.005255
  0.007742
 -0.021810
  0.080543
  0.000256
 -0.003717
  0.015934
  0.035731
 -0.052787
 -0.066519
  0.054465
 -0.019641
  0.100918
  0.035044
  0.049730
  0.028917
 -0.039905
 -0.011481
  0.057773
  0.052325
 -0.004388
 -0.016888
  0.078541
 -0.087230
  0.008554
 -0.074429
 -0.049195
 -0.047291
 -0.060586
 -0.031859
 -0.038104
 -0.031847
  0.071056
  0.031679
 -0.030938
 -0.053291
 -0.005648
  0.068862
 -0.091577
  0.088424
  0.054765
 -0.067534
 -0.054047
 -0.016783
 -0.021333
 -0.014167
 -0.094408
  0.042460
  0.037977
  0.022053
 -0.061455
 -0.040323
  0.132019
 -0.051758
 -0.039091
  0.030056
 -0.016592
  0.064343
 -0.030026
 -0.028035
  0.078082
  0.002107
  0.106215
 -0.100405
  0.011222
 -0.052054
  0.056535
  0.008138
  0.024511
  0.030339
 -0.063010
  0.012738
  0.089875
 -0.132430
 -0.010850
 -0.095309
 -0.016306
 -0.014151
  0.116209
 -0.045290
  0.100374
  0.026905
 -0.005057
  0.063406
 -0.061094
  0.031951
 -0.083682
 -0.043927
  0.017606
  0.014466
 -0.035105
 -0.044689
  0.001515
  0.034747
  0.061597
  0.010560
  0.044846
 -0.021407
 -0.209864
  0.055948
  0.072685
 -0.049333
  0.068833
 -0.065390
  0.040297
 -0.019467
 -0.040819
 -0.002474
  0.055607
  0.113682
 -0.062840
 -0.055777
  0.036225
  0.035581
  0.010558
 -0.012365
 -0.035046
 -0.046204
 -0.017558
 -0.014851
  0.009434
 -0.001418
  0.104205
 -0.019963
  0.034784
  0.081286
 -0.026991
  0.000325
  0.036245
 -0.028169
 -0.036755
 -0.106440
 -0.055372
  0.016417
 -0.018839
 -0.093526
  0.036284
 -0.027703
 -0.041997
 -0.031885
  0.034453
 -0.083931
 -0.053885
 -0.065865
 -0.029440
  0.085451
  0.007932
 -0.016778
  0.058237
  0.090759
 -0.064697
 -0.035103
 -0.043713
  0.054687
  0.040709
  0.010295
 -0.063923
  0.087502
 -0.016597
 -0.002301
  0.065896
 -0.054952
 -0.081516
 -0.003038
 -0.033394
 -0.030250
 -0.048002
 -0.001630
  0.052292
 -0.000707
 -0.053223
 -0.012033
 -0.115392
 -0.069547
 -0.046401
  0.126096
 -0.006495
  0.058221
 -0.085831
 -0.071481
 -0.102663
  0.018333
 -0.070788
  0.004616
 -0.027707
 -0.029887
 -0.084781
 -0.053528
 -0.106638
 -0.018787
 -0.014896
 -0.132766
 -0.002282
 -0.035437
 -0.030902
  0.091165
  0.037248
 -0.063551
  0.016400
  0.024766
  0.037460
  0.081624
 -0.032339
 -0.012241
 -0.043157
  0.014462
 -0.042457
 -0.093054
  0.011908
  0.109497
  0.016517
  0.069106
  0.022913
 -0.026128
 -0.082589
 -0.005499
 -0.040679
  0.057140
  0.079626
 -0.039451
 -0.028122
 -0.029410
  0.008864
  0.007085
 -0.011682
  0.086255
  0.033354
  0.025353
 -0.043484
 -0.002535
 -0.007606
 -0.006527
 -0.006763
  0.058788
  0.025834
 -0.062778
 -0.092299
  0.018152
 -0.024463
 -0.078859
  0.133547
  0.058721
  0.010065
 -0.057381
 -0.008443
  0.007535
  0.028146
  0.013458
  0.017292
  0.006562
  0.024921
  0.045401
 -0.107349
  0.055666
  0.030067
 -0.006550
 -0.005733
 -0.067350
  0.064647
 -0.003419
 -0.058670
  0.047013
 -0.030571
  0.029352
  0.075844
 -0.081488
 -0.116513
  0.022220
  0.061834
 -0.118350
 -0.071253
 -0.018148
 -0.022532
 -0.032291
 -0.038915
 -0.055424
  0.083376
 -0.050055
 -0.020384
 -0.073251
 -0.052637
 -0.059734
  0.032164
  0.071043
  0.036230
 -0.028421
 -0.109027
 -0.059999
 -0.011901
 -0.061191
 -0.041240
 -0.009499
  0.005910
  0.058201
  0.071146
  0.093358
  0.047290
  0.062421
  0.077666
 -0.025940
  0.043432
  0.021700
 -0.016360
  0.018419
 -0.011838
 -0.056752
  0.009038
  0.102231
 -0.021004
  0.063009
  0.020043
  0.044932
 -0.017389
 -0.085080
 -0.022248
  0.072761
  0.042266
 -0.042380
 -0.088306
 -0.009836
  0.087971
  0.072553
 -0.031604
  0.054672
 -0.036210
  0.088869
 -0.025939
  0.017416
 -0.024093
 -0.063546
  0.033252
  0.005079
 -0.009737
  0.155754
  0.054376
  0.051573
 -0.021655
  0.085068
 -0.026631
 -0.018687
  0.031251
 -0.001748
 -0.012988
  0.082854
  0.069937
  0.090894
  0.019839
 -0.089518
  0.023604
 -0.006572
  0.101310
  0.006945
 -0.046820
  0.054003
  0.028754
 -0.038265
 -0.004868
  0.019702
  0.009060
  0.026083
  0.048865
 -0.045277
 -0.073969
  0.017017
  0.042307
 -0.043767
 -0.000558
  0.095548
  0.043587
  0.028515
  0.084632
  0.029071
  0.032513
 -0.032823
  0.043757
 -0.121428
  0.087497
 -0.018099
  0.058037
 -0.007903
  0.076200
 -0.043523
  0.084388
 -0.023279
 -0.052115
  0.007279
  0.041111
  0.003159
  0.019177
 -0.068927
  0.006825
  0.067821
  0.056129
 -0.011792
  0.001489
 -0.011895
  0.040424
 -0.031905
  0.034763
 -0.105505
  0.090183
 -0.016838
 -0.007604
  0.010757
 -0.081153
  0.041598
  0.017389
 -0.070312
  0.078509
 -0.011908
  0.042969
  0.000004
  0.125588
 -0.093046
  0.025080
 -0.004994
  0.033690
 -0.047207
  0.004751
  0.011640
 -0.056425
 -0.024469
  0.060151
  0.094095
 -0.068918
  0.092164
  0.005424
  0.017984
 -0.024168
 -0.024565
  0.075518
 -0.010515
 -0.010125
 -0.083001
 -0.055654
 -0.013747
 -0.036065
 -0.014869
 -0.013963
 -0.019388
  0.074992
 -0.021988
 -0.019653
 -0.066845
  0.041614
 -0.110939
  0.010515
 -0.025863
  0.004188
  0.055161
  0.035597
 -0.040746
  0.015434
  0.007845
  0.000522
  0.025962
  0.010072
  0.031990
  0.102779
  0.030695
  0.067285
  0.102588
 -0.011499
  0.014239
  0.046135
 -0.030846
 -0.038889
  0.011776
  0.018673
  0.045875
  0.001409
  0.107401
 -0.065860
 -0.043244
  0.036722
 -0.115917
  0.040709
 -0.035368
  0.026641
  0.034612
  0.097565
 -0.001591
  0.032105
  0.066494
 -0.064963
 -0.070755
 -0.023591
 -0.021581
 -0.109557
 -0.008826
  0.071144
 -0.102426
 -0.109404
 -0.001371
 -0.079644
 -0.063499
  0.010396
  0.057906
 -0.087796
 -0.030076
  0.017305
 -0.062514
 -0.024367
 -0.019630
 -0.029555
  0.027447
  0.003814
  0.003984
 -0.122836
  0.062809
 -0.021173
  0.110528
  0.037896
 -0.000127
 -0.044085
 -0.004085
 -0.000815
  0.069047
 -0.061700
 -0.002774
  0.068355
  0.082601
 -0.044339
 -0.082832
 -0.058933
  0.031695
 -0.091781
  0.027656
  0.041012
 -0.014767
 -0.040065
 -0.031088
  0.059181
  0.032009
  0.011495
  0.017435
 -0.004881
 -0.020162
 -0.042668
 -0.027393
 -0.044056
 -0.092206
 -0.001509
 -0.096408
 -0.031616
 -0.044889
  0.137123
  0.046602
 -0.028577
  0.058297
  0.005702
  0.025282
  0.093978
  0.007687
  0.053869
 -0.002005
  0.086484
 -0.015829
 -0.116880
  0.008008
 -0.103381
 -0.094899
  0.025952
 -0.062473
 -0.013093
 -0.026525
 -0.041790
  0.005590
  0.048102
 -0.050741
 -0.000400
 -0.050392
  0.055247
 -0.044464
  0.001396
 -0.085522
  0.017547
 -0.026703
 -0.013866
  0.006185
  0.035584
 -0.006615
 -0.004854
  0.024744
  0.049485
 -0.092302
  0.063664
  0.068840
  0.048348
 -0.063578
  0.007289
 -0.101268
  0.009807
 -0.083627
  0.037021
 -0.109935
  0.005385
 -0.024032
  0.069731
  0.110267
  0.006698
  0.045543
 -0.015775
 -0.013515
  0.043143
  0.033539
  0.040498
  0.000216
  0.059867
  0.074080
  0.050485
 -0.054154
 -0.009554
  0.049981
 -0.166437
 -0.003439
 -0.072244
  0.128072
  0.023640
  0.026768
  0.006598
 -0.067586
  0.045636
  0.058675
  0.028283
  0.052161
 -0.007738
 -0.019911
 -0.003219
  0.010279
  0.065315
 -0.070885
 -0.016099
 -0.055160
  0.057820
  0.008146
 -0.152940
 -0.102412
 -0.122153
 -0.015978
 -0.010813
 -0.011896
  0.058283
  0.007599
 -0.198599
  0.050835
 -0.119324
  0.044076
 -0.034620
 -0.082715
 -0.086746
 -0.028817
 -0.045334
  0.070479
  0.025285
 -0.061353
  0.054290
 -0.030230
 -0.021031
 -0.023288
 -0.030667
 -0.056656
 -0.017363
 -0.037779
 -0.058261
 -0.000685
  0.012104
 -0.013441
  0.015803
  0.024172
 -0.111723
  0.003838
 -0.046019
  0.077948
 -0.040007
  0.035660
 -0.046176
 -0.073938
  0.104158
  0.064196
 -0.007789
 -0.061714
 -0.050458
 -0.033723
 -0.075471
  0.022062
  0.014053
  0.032288
 -0.002627
  0.056355
  0.000314
  0.093037
  0.024170
 -0.048093
  0.019412
 -0.072074
 -0.026719
  0.067299
  0.023620
 -0.066565
 -0.073375
 -0.043581
 -0.140460
 -0.016500
  0.053256
  0.004410
  0.051265
 -0.037547
  0.056210
 -0.119126
 -0.042892
  0.015723
  0.046493
 -0.024814
  0.006156
  0.021246
 -0.092966
 -0.142112
  0.101993
 -0.122062
  0.081674
 -0.068242
 -0.055127
 -0.085776
  0.025417
 -0.008290
 -0.027586
 -0.083275
  0.056269
 -0.082900
 -0.056895
  0.033177
 -0.079195
  0.062455
  0.004379
 -0.082168
  0.094859
 -0.023343
 -0.019936
 -0.000433
 -0.158048
 -0.004267
  0.013457
  0.034234
 -0.020494
 -0.053003
  0.031816
  0.011639
  0.034301
 -0.053033
 -0.008144
 -0.106947
 -0.010860
  0.054442
 -0.075905
 -0.121841
  0.046054
  0.038600
 -0.072468
 -0.029438
 -0.004920
 -0.026422
 -0.094057
 -0.140058
 -0.154620
 -0.012667
  0.035227
 -0.080298
 -0.061869
 -0.017481
  0.029391
 -0.010557
 -0.022855
 -0.076695
 -0.012196
 -0.014617
 -0.065072
 -0.093427
 -0.012613
  0.011811
 -0.033373
  0.015190
 -0.112864
 -0.098196
 -0.126410
  0.054499
 -0.028504
  0.009463
 -0.062193
  0.027203
 -0.030582
 -0.049653
  0.016252
  0.015218
  0.038987
 -0.081059
 -0.095463
 -0.094029
  0.004626
 -0.116207
 -0.061312
 -0.046673
  0.048068
 -0.091123
 -0.093238
 -0.007034
 -0.038737
 -0.051093
 -0.117079
 -0.071888
 -0.066211
 -0.106726
  0.078741
 -0.008390
  0.049180
 -0.084367
 -0.004032
  0.036111
 -0.074671
 -0.020999
 -0.064038
 -0.073790
 -0.129614
 -0.080387
 -0.023412
 -0.069476
  0.007637
 -0.078797
  0.069096
 -0.029342
 -0.041150
  0.119570
 -0.092773
 -0.009842
 -0.013703
 -0.018274
 -0.012037
 -0.009780
 -0.064727
 -0.130934
 -0.034916
  0.069255
 -0.055323
 -0.132644
  0.067275
 -0.042452
  0.030151
 -0.063035
 -0.006247
 -0.102491
  0.082159
 -0.055916
  0.048523
  0.016797
  0.064879
 -0.091074
  0.064624
  0.029626
 -0.002670
 -0.033317
 -0.045956
 -0.042009
 -0.057677
 -0.074486
 -0.027279
 -0.095466
 -0.130770
 -0.172933
  0.056315
  0.008341
 -0.052266
 -0.154269
 -0.046167
 -0.035177
 -0.061275
 -0.029378
 -0.047523
 -0.056994
 -0.067969
  0.013669
 -0.036177
 -0.021938
 -0.144183
 -0.109101
 -0.001663
  0.057040
 -0.037732
 -0.079818
 -0.034953
 -0.095293
 -0.070443
 -0.086057
  0.021026
 -0.111340
 -0.018966
 -0.069897
  0.048630
 -0.082687
  0.001656
 -0.070593
 -0.044993
 -0.028301
 -0.046919
 -0.052002
 -0.060429
****
