PROJECT: W75X_2015Jan24
NCH:     4096
BW:   2.50000e+07
VELOCITY:       0.00000
PV:      0.480000
FREQ:    2.2235080e+09
DATE:     2015       1      24
TIME:       16      18      14
POSITION:       309.654      42.6272
INTEGRATION TIMES:       30.0000      30.0000
MAX VALUE:       0.11392245
 -0.186112
 -0.028062
 -0.078636
 -0.033290
 -0.033795
  0.023576
  0.001792
 -0.042673
 -0.013049
 -0.076488
  0.012314
 -0.019127
 -0.017477
 -0.015089
  0.047830
 -0.093626
 -0.027456
 -0.047509
 -0.010762
  0.008907
 -0.030159
 -0.027164
 -0.013249
 -0.002741
 -0.034304
 -0.039483
 -0.006996
 -0.005023
  0.024661
  0.025509
  0.008262
  0.004439
 -0.050284
  0.004666
  0.014401
 -0.010762
 -0.027345
  0.017409
  0.000427
  0.025533
 -0.018758
 -0.007966
 -0.043934
  0.016571
 -0.028655
  0.003763
 -0.004026
 -0.029169
 -0.022555
 -0.007771
 -0.017437
 -0.012210
  0.009415
  0.012215
 -0.033007
 -0.003523
 -0.047414
  0.039868
 -0.014910
  0.042407
  0.019080
 -0.000274
  0.009823
 -0.029859
 -0.007552
  0.023873
  0.000073
 -0.021231
  0.033998
  0.019335
 -0.001186
  0.038403
 -0.015670
  0.008582
 -0.036444
 -0.010801
 -0.006066
  0.037380
  0.033639
 -0.006157
 -0.005342
  0.009580
 -0.017632
  0.029297
 -0.027354
 -0.016955
  0.002146
 -0.029338
 -0.005105
 -0.023926
  0.028483
  0.010699
 -0.029850
  0.020443
  0.014970
 -0.035785
 -0.008761
  0.041824
 -0.017440
  0.004476
 -0.042239
  0.019347
  0.005570
  0.012775
  0.022715
  0.027152
 -0.035000
  0.000675
  0.036942
 -0.018696
  0.036034
  0.012872
 -0.022345
 -0.004446
  0.013502
  0.039702
  0.002293
  0.011246
 -0.012720
 -0.027289
  0.006398
  0.020657
  0.002421
 -0.005920
  0.020030
 -0.034279
  0.012673
  0.042029
 -0.002548
  0.023833
  0.010744
  0.050819
  0.001216
 -0.006720
  0.002216
  0.002373
 -0.025733
  0.015370
  0.008607
 -0.027940
 -0.017861
 -0.035062
  0.004108
  0.040580
 -0.028427
 -0.005194
  0.027070
 -0.011048
 -0.012537
 -0.021889
  0.006661
 -0.011582
  0.019900
 -0.005921
 -0.009129
  0.010432
  0.007920
 -0.022617
 -0.021752
 -0.053383
 -0.039480
 -0.012186
 -0.026630
  0.002577
  0.010706
 -0.009221
 -0.002321
 -0.015361
  0.038070
 -0.014242
 -0.003395
 -0.011585
 -0.011072
  0.029015
  0.039284
  0.002840
  0.044354
 -0.009059
  0.002218
  0.026748
 -0.051261
  0.004126
  0.011772
 -0.020640
  0.003433
 -0.010526
 -0.028934
 -0.002705
  0.007140
  0.034942
  0.006915
  0.017325
 -0.032234
 -0.010682
  0.026888
 -0.023485
  0.016179
  0.022049
 -0.020869
  0.046300
  0.005954
 -0.027139
 -0.004569
 -0.029992
  0.002966
  0.014591
  0.013258
 -0.016025
  0.003824
 -0.033003
  0.005741
 -0.006658
  0.012151
  0.011217
 -0.042559
  0.007638
 -0.007015
 -0.010680
 -0.000092
  0.031618
  0.004805
 -0.021955
  0.027586
  0.015285
 -0.013081
 -0.006443
 -0.015998
 -0.010113
  0.011103
  0.015895
 -0.025430
 -0.002868
  0.000184
 -0.029788
  0.007591
  0.023740
  0.001008
 -0.011574
 -0.000541
  0.018289
 -0.024253
 -0.027842
 -0.029741
 -0.015360
  0.005817
  0.005709
  0.026847
  0.038766
  0.026712
 -0.021387
  0.015010
  0.010379
 -0.030993
  0.000604
 -0.014268
  0.015256
 -0.021453
 -0.007348
 -0.007573
 -0.012222
  0.020042
  0.037033
  0.029948
 -0.002166
 -0.009456
  0.000069
 -0.025894
  0.014090
  0.006972
  0.022845
  0.000661
 -0.002640
  0.008801
 -0.007547
  0.003664
 -0.040489
 -0.016685
 -0.016265
 -0.031888
 -0.018531
  0.026109
 -0.020497
 -0.002236
 -0.012655
  0.015590
  0.006699
 -0.000533
  0.002009
  0.004688
 -0.010456
  0.025715
 -0.015063
 -0.050713
  0.006441
  0.013259
 -0.018575
  0.019841
 -0.014639
  0.052650
 -0.002286
  0.058424
  0.020067
 -0.039434
 -0.018017
 -0.008528
  0.019546
  0.006413
  0.020115
 -0.021077
 -0.003743
 -0.049386
  0.058304
 -0.016194
  0.015265
 -0.036799
 -0.006934
  0.023435
  0.021081
 -0.011198
 -0.019050
  0.051105
 -0.015087
 -0.025251
  0.032977
  0.032177
  0.030031
 -0.004516
 -0.031148
 -0.019089
  0.020464
  0.016486
  0.024818
 -0.029903
 -0.015253
  0.038087
 -0.009466
 -0.007035
 -0.056743
  0.011608
 -0.013287
  0.033936
  0.007587
  0.035943
 -0.004178
  0.035656
  0.022253
 -0.022042
  0.007922
 -0.022916
 -0.001518
 -0.033198
  0.003160
 -0.016697
  0.027507
 -0.026873
 -0.020304
  0.026215
 -0.027933
  0.001476
 -0.044462
 -0.005299
 -0.017930
  0.012825
 -0.040369
 -0.007321
 -0.016332
  0.012980
  0.027780
  0.003083
  0.022865
 -0.034283
 -0.013897
  0.007947
 -0.005705
  0.025193
 -0.013027
  0.000901
 -0.026440
  0.004189
 -0.021591
  0.027641
  0.009888
  0.009242
 -0.031339
 -0.020238
  0.012344
  0.006564
  0.003115
 -0.044325
  0.035147
  0.015513
 -0.010964
 -0.010671
 -0.017769
 -0.030878
 -0.013504
  0.053945
 -0.020659
  0.001511
 -0.022304
  0.012350
 -0.013352
 -0.022838
 -0.001506
 -0.013784
  0.005190
  0.015677
 -0.020486
 -0.010388
  0.003974
  0.006913
  0.046951
  0.005246
 -0.005963
  0.008862
 -0.015590
 -0.025456
  0.026751
  0.002775
  0.015205
 -0.033952
 -0.056734
  0.009277
 -0.017161
 -0.028507
 -0.016943
 -0.008734
 -0.011295
  0.021063
  0.012654
 -0.002446
  0.016260
 -0.005057
  0.002038
  0.019255
  0.015936
  0.058552
  0.011772
 -0.044177
  0.005539
  0.001488
 -0.034973
  0.008235
 -0.011751
  0.009214
 -0.004741
 -0.008229
  0.041454
  0.006466
  0.032555
  0.014956
  0.006946
  0.001839
 -0.011023
  0.031691
 -0.030021
 -0.007608
 -0.037405
 -0.047336
  0.006402
 -0.000906
  0.014917
 -0.019189
  0.004714
  0.050928
 -0.036127
  0.029139
 -0.000440
 -0.008758
 -0.011693
 -0.032339
  0.046484
 -0.030476
 -0.003278
  0.003574
 -0.017096
  0.037080
 -0.021379
 -0.032339
  0.001343
  0.007636
  0.006252
 -0.016798
  0.037233
  0.014473
  0.020397
 -0.035617
  0.017895
 -0.007544
  0.030092
  0.005624
  0.005047
  0.017761
  0.025852
  0.035643
  0.007128
  0.007709
 -0.004401
  0.050458
  0.021162
 -0.015011
 -0.001277
  0.003013
  0.022864
 -0.010367
 -0.044947
 -0.022915
  0.057268
 -0.020070
 -0.018998
 -0.021679
  0.000651
 -0.020903
  0.031658
  0.020982
 -0.016458
  0.001256
 -0.002817
 -0.002794
 -0.018900
  0.040252
 -0.034585
  0.005488
 -0.004957
  0.035314
  0.009380
 -0.013819
 -0.028246
  0.021286
 -0.038904
  0.035078
 -0.009229
 -0.055547
 -0.015565
 -0.045553
  0.053477
 -0.008100
 -0.014679
  0.025857
  0.005796
  0.001457
  0.037745
 -0.009586
 -0.017449
  0.016307
 -0.006773
 -0.009018
  0.009284
 -0.012439
  0.029330
  0.021047
  0.035871
  0.012598
  0.049459
 -0.003561
 -0.026176
 -0.057746
  0.027854
  0.012614
  0.003820
  0.037585
 -0.015006
  0.035649
 -0.026709
  0.046391
  0.015326
 -0.009412
  0.046896
 -0.028477
 -0.014834
 -0.012637
 -0.030033
  0.002488
 -0.001459
  0.013906
  0.006574
  0.028143
 -0.008536
  0.008733
  0.031205
  0.016808
  0.037508
  0.045088
 -0.019202
  0.033516
  0.011359
 -0.002783
 -0.015198
 -0.000509
 -0.001727
 -0.005656
  0.008632
  0.033374
 -0.020016
  0.060208
 -0.013009
 -0.005879
 -0.038293
 -0.013197
  0.024165
  0.010969
 -0.016528
 -0.009130
 -0.004494
 -0.009383
 -0.009775
 -0.010207
 -0.023699
 -0.014257
 -0.019734
  0.005766
  0.013634
  0.038982
  0.016033
 -0.053692
  0.018345
  0.009270
  0.024383
 -0.021679
 -0.009259
  0.030093
  0.011017
 -0.019543
  0.034601
 -0.032296
  0.003496
  0.012320
 -0.047484
 -0.011463
  0.003052
  0.023395
 -0.006834
  0.025556
 -0.002192
  0.001935
 -0.035810
 -0.023841
  0.002023
 -0.013701
  0.019037
 -0.021678
 -0.012099
 -0.008725
  0.023562
 -0.029705
 -0.006125
 -0.005654
 -0.021979
 -0.007024
  0.023815
 -0.012835
  0.029856
  0.017979
 -0.015147
 -0.005800
 -0.032658
  0.004997
  0.004373
 -0.016507
 -0.011314
  0.022862
  0.007503
 -0.007675
 -0.011718
  0.006435
 -0.014573
 -0.005267
 -0.009298
  0.014314
  0.010394
 -0.002592
  0.018471
  0.020601
  0.010271
 -0.022444
 -0.014173
 -0.015655
  0.042199
  0.028944
 -0.035361
  0.016266
 -0.002278
  0.015088
 -0.002489
 -0.001958
  0.010157
  0.026954
  0.003385
  0.019077
 -0.003352
  0.045975
 -0.031133
 -0.000959
  0.017429
  0.051812
  0.044520
  0.029768
  0.009285
 -0.018922
 -0.002556
 -0.010447
 -0.023762
 -0.032220
 -0.024614
 -0.004977
 -0.030749
  0.004730
 -0.011901
 -0.004976
 -0.032657
 -0.030463
  0.023206
 -0.050703
 -0.009915
 -0.017704
  0.009597
 -0.000035
 -0.027320
 -0.025101
  0.022987
 -0.012522
 -0.015524
  0.009387
 -0.027020
  0.002894
 -0.018487
  0.026889
 -0.002087
  0.004332
 -0.046278
  0.035207
  0.002535
 -0.013550
 -0.031681
 -0.010836
  0.002660
  0.001668
  0.026081
  0.005977
 -0.003061
 -0.025973
  0.027561
 -0.031709
  0.010242
  0.021733
  0.026981
  0.018805
 -0.004316
 -0.029708
  0.013770
  0.007915
  0.009592
  0.022529
 -0.028107
 -0.001522
 -0.028553
 -0.012817
 -0.023171
  0.026013
 -0.029967
  0.043469
 -0.000277
 -0.009403
  0.011973
  0.011791
  0.001167
 -0.035363
  0.004512
 -0.020699
  0.016290
 -0.014569
  0.002849
 -0.002538
 -0.008564
 -0.005036
  0.002328
 -0.013900
  0.018308
  0.034330
  0.001213
  0.008520
  0.012749
 -0.018285
  0.008696
  0.030942
  0.005723
 -0.020037
  0.027102
 -0.019666
  0.052354
 -0.007820
  0.004615
  0.021575
 -0.003128
  0.031277
 -0.032560
 -0.037639
 -0.013225
  0.032174
 -0.021258
  0.040444
 -0.045633
 -0.028346
  0.016097
 -0.025987
 -0.059942
  0.026334
  0.028281
 -0.033848
  0.014995
 -0.008119
  0.023455
 -0.027747
 -0.037761
 -0.005583
  0.013235
 -0.019038
  0.014200
 -0.005972
  0.025371
  0.012957
  0.025501
 -0.027361
 -0.036078
  0.007958
 -0.006132
 -0.007237
  0.025526
 -0.002813
  0.008419
  0.044193
 -0.011102
 -0.003479
  0.017215
  0.005155
  0.004252
 -0.016458
  0.007951
 -0.001718
  0.013618
 -0.034677
 -0.028426
  0.007375
 -0.042874
 -0.013623
  0.009868
 -0.029554
 -0.008622
  0.004880
  0.000346
 -0.003607
  0.028812
 -0.015659
 -0.020049
  0.011602
  0.013971
  0.000438
 -0.015913
 -0.027727
  0.002829
 -0.035032
  0.015043
 -0.009567
 -0.006482
 -0.015350
 -0.002465
  0.007007
 -0.004817
 -0.047570
  0.014494
  0.009668
  0.021385
  0.018866
 -0.017101
  0.007373
 -0.041070
 -0.010676
 -0.037770
  0.008657
 -0.051869
  0.018881
  0.030400
 -0.005130
  0.028514
  0.049904
  0.009429
 -0.017146
  0.043158
  0.005488
 -0.006178
  0.019481
 -0.072223
 -0.038553
  0.012011
 -0.011421
 -0.015342
 -0.007300
  0.014980
 -0.003056
  0.017618
  0.002346
  0.025130
 -0.033058
 -0.015831
  0.006727
 -0.027009
 -0.034065
 -0.000023
 -0.006510
 -0.016506
 -0.021136
  0.035005
  0.014570
 -0.011018
 -0.007714
  0.001907
  0.019571
  0.036399
  0.010464
  0.034857
 -0.031791
  0.027771
 -0.014947
  0.035246
 -0.047746
  0.037527
 -0.021617
  0.021654
  0.022614
  0.012498
  0.029082
  0.015899
  0.001138
  0.031696
  0.021621
  0.032095
 -0.036018
 -0.011735
  0.033247
  0.003645
 -0.011108
 -0.010895
 -0.008699
 -0.014583
 -0.008851
  0.051977
  0.024502
  0.029277
  0.018682
 -0.023002
 -0.028950
  0.027174
  0.014706
 -0.054292
 -0.000573
  0.013366
 -0.012486
 -0.027922
 -0.009363
 -0.000829
  0.020725
 -0.018398
 -0.007911
 -0.018189
 -0.029810
 -0.009450
 -0.003178
 -0.000602
  0.013743
  0.022744
 -0.026950
  0.027031
  0.032984
  0.038313
 -0.011981
  0.039014
 -0.010085
 -0.029030
  0.020318
 -0.029815
  0.043685
 -0.013394
  0.000878
  0.038409
  0.019486
  0.030670
  0.004608
  0.010179
 -0.005419
  0.016530
 -0.006323
  0.009969
 -0.000774
 -0.001844
  0.026999
  0.013687
 -0.037948
  0.007744
 -0.036996
  0.025133
 -0.008206
 -0.018543
 -0.029053
  0.010774
  0.014080
  0.012306
  0.015937
 -0.017392
  0.028460
  0.021510
  0.003323
  0.017329
 -0.006196
 -0.012187
  0.042105
 -0.002914
  0.017159
  0.009044
  0.010832
  0.010404
  0.022304
 -0.012817
  0.020228
 -0.024231
 -0.053927
 -0.041376
  0.001680
 -0.015177
  0.016215
 -0.001536
 -0.003057
 -0.012631
  0.005851
 -0.016220
 -0.011389
  0.012008
  0.004452
  0.007622
  0.023436
 -0.066266
  0.012299
  0.046937
 -0.028598
 -0.040269
 -0.003071
 -0.017380
  0.009134
  0.006061
  0.010644
 -0.030321
 -0.011176
 -0.042975
 -0.001391
 -0.018270
  0.002775
  0.017206
  0.021843
  0.025658
  0.034853
  0.007355
 -0.005657
  0.004323
  0.071601
 -0.001550
 -0.017896
 -0.004289
  0.007997
 -0.012593
 -0.006136
 -0.006321
 -0.032763
 -0.055601
  0.004081
 -0.002364
 -0.024759
 -0.021425
  0.007833
 -0.016845
  0.037584
  0.025539
  0.000570
 -0.043630
 -0.028665
 -0.021325
 -0.012854
 -0.025440
  0.011779
  0.023999
 -0.023848
 -0.018469
  0.011775
  0.007484
 -0.042402
 -0.005483
  0.040639
  0.003135
  0.004166
  0.043630
  0.026889
 -0.016968
  0.010679
 -0.013676
  0.028373
 -0.004738
 -0.005427
 -0.010076
 -0.014363
 -0.005244
  0.012410
  0.015938
 -0.000958
  0.000690
 -0.014001
  0.014043
 -0.010177
  0.024504
  0.022831
  0.001109
 -0.014467
  0.033349
  0.027940
  0.036477
 -0.016522
 -0.015988
  0.031720
  0.007184
 -0.009217
  0.006120
  0.012880
  0.038699
 -0.031568
 -0.027736
  0.009598
 -0.025517
  0.050237
 -0.031920
  0.051133
  0.013358
  0.013175
 -0.043289
 -0.015057
 -0.021255
  0.007262
  0.020842
  0.006958
  0.010934
  0.041020
  0.001100
  0.007774
  0.035146
 -0.020263
  0.031156
  0.017617
 -0.010450
 -0.038021
 -0.032059
  0.025320
 -0.011014
 -0.019038
  0.001386
 -0.002686
  0.030760
 -0.024280
 -0.027878
 -0.019618
 -0.003634
  0.017038
  0.058859
  0.006535
  0.030792
 -0.000568
 -0.002710
  0.000477
  0.024222
  0.014680
  0.017379
  0.046783
  0.006321
 -0.016245
 -0.012010
  0.051101
 -0.000771
 -0.036545
  0.053295
 -0.007584
  0.011207
 -0.021491
 -0.010156
  0.008053
 -0.059386
  0.012618
  0.000143
 -0.011073
  0.012353
  0.000484
 -0.006521
  0.000261
 -0.019715
  0.014252
  0.042696
 -0.015527
 -0.014521
  0.040816
 -0.020709
 -0.031896
  0.046330
  0.027828
 -0.021541
 -0.002318
 -0.009864
  0.023263
  0.049597
  0.018262
  0.024192
  0.003956
  0.017100
 -0.034808
  0.007328
  0.000596
  0.003482
 -0.031915
  0.031312
  0.003290
 -0.012127
 -0.047802
 -0.008766
 -0.010343
  0.032206
 -0.009951
  0.004440
 -0.008515
  0.007073
 -0.003184
 -0.038724
  0.008049
 -0.014968
  0.021646
  0.027258
 -0.001262
  0.067346
  0.034523
  0.028291
  0.000103
 -0.014673
  0.023808
 -0.023620
  0.006575
 -0.015663
 -0.016845
  0.006773
  0.006430
 -0.032214
 -0.011933
 -0.019584
 -0.047903
 -0.058069
 -0.008733
  0.001738
 -0.016079
  0.007701
 -0.028959
  0.008753
 -0.018108
 -0.005227
 -0.044513
 -0.020898
 -0.015723
  0.000264
  0.013580
  0.057377
  0.016308
 -0.024672
  0.018604
 -0.024628
  0.017413
  0.004628
  0.019213
 -0.002753
 -0.003928
  0.018360
 -0.014404
 -0.009668
  0.025347
  0.043880
 -0.024041
 -0.014918
 -0.019277
 -0.020297
 -0.010984
  0.000218
 -0.046787
  0.012188
 -0.000589
  0.016224
  0.025387
  0.020396
 -0.018336
  0.018291
  0.008822
 -0.017634
  0.033303
 -0.029794
 -0.007085
 -0.010974
 -0.027793
  0.021819
 -0.005937
  0.040584
 -0.005069
 -0.022688
  0.031103
 -0.007472
 -0.014038
  0.001099
  0.000832
  0.025092
 -0.025474
 -0.026259
  0.009623
 -0.002704
 -0.043667
 -0.014397
 -0.004519
 -0.002362
 -0.017899
 -0.023213
  0.000742
  0.005474
  0.032078
 -0.028324
 -0.005690
  0.022152
 -0.008670
 -0.055498
  0.006731
  0.015634
 -0.069412
 -0.034540
  0.010403
  0.020181
  0.011631
 -0.017345
  0.017019
 -0.010461
  0.017270
 -0.048989
  0.033511
 -0.004104
  0.051712
  0.009255
 -0.006310
  0.005390
  0.035964
  0.015844
  0.035503
  0.026481
  0.017320
 -0.048476
 -0.020357
  0.018774
 -0.000746
 -0.010217
 -0.043953
 -0.013141
 -0.022991
 -0.020821
 -0.014112
 -0.003853
 -0.012843
  0.007808
  0.010994
 -0.004154
  0.023729
  0.032577
 -0.033477
 -0.011602
 -0.041923
  0.000156
  0.007540
  0.014655
  0.025091
  0.022474
 -0.001419
 -0.039667
  0.043868
 -0.019382
 -0.007058
 -0.005797
 -0.044224
 -0.016451
  0.024295
 -0.036667
  0.024399
  0.012591
  0.009912
  0.007924
 -0.041751
 -0.011303
 -0.004140
 -0.001739
  0.011615
 -0.018987
  0.019270
 -0.033036
  0.001215
 -0.013677
 -0.009509
  0.006156
 -0.017439
 -0.026564
  0.015236
 -0.026293
 -0.011319
  0.009071
  0.007085
 -0.008934
  0.000380
  0.051666
  0.019108
  0.001970
 -0.003826
  0.016700
  0.006674
 -0.014018
 -0.016160
 -0.026020
  0.015798
 -0.005865
 -0.033338
  0.016990
 -0.032663
 -0.037558
  0.029322
 -0.011170
  0.026020
 -0.010185
  0.013592
 -0.009077
 -0.021929
  0.049433
 -0.041510
  0.016941
 -0.001435
  0.019819
 -0.045861
 -0.007683
 -0.001743
  0.023407
  0.043902
 -0.014599
  0.006857
  0.002782
 -0.039019
  0.013244
 -0.003766
  0.004771
 -0.045823
 -0.078473
 -0.006669
 -0.019888
 -0.003648
 -0.011965
  0.008679
 -0.047009
  0.024119
  0.028375
  0.001354
 -0.000678
  0.008140
 -0.001523
 -0.030208
  0.021020
  0.008297
  0.025236
  0.015024
  0.037068
 -0.005305
 -0.017396
  0.001310
  0.024046
 -0.026842
  0.010592
 -0.050651
  0.023575
 -0.011171
  0.010614
  0.022971
 -0.012612
  0.003860
 -0.013311
  0.017957
  0.061786
  0.041231
 -0.002018
 -0.001721
 -0.038825
  0.020501
 -0.018376
  0.002309
  0.010959
  0.025852
 -0.003988
 -0.006877
 -0.015411
  0.010873
 -0.027224
  0.035872
  0.003153
  0.021791
  0.038838
 -0.017358
 -0.009800
  0.016816
  0.031254
 -0.013432
  0.005549
  0.027418
  0.013517
  0.048834
  0.016789
  0.041111
 -0.006709
  0.025177
 -0.027312
 -0.022567
  0.042262
  0.004618
 -0.030431
 -0.020489
  0.002500
 -0.043540
  0.008702
 -0.001687
 -0.004241
  0.010899
 -0.043204
 -0.001904
 -0.007442
 -0.014915
  0.014260
 -0.008012
  0.004296
  0.014326
 -0.025653
 -0.007795
 -0.024764
  0.021859
  0.015992
 -0.029310
 -0.002328
  0.007526
  0.031697
 -0.000269
  0.007022
  0.016486
 -0.024271
  0.036952
  0.020781
 -0.035902
  0.043404
 -0.013517
  0.013276
 -0.025085
  0.000428
  0.001800
 -0.027090
  0.028915
 -0.006037
  0.027485
 -0.044583
 -0.013672
 -0.005628
  0.017767
 -0.003068
  0.002541
 -0.026779
 -0.037540
  0.000260
 -0.008744
  0.022508
  0.017972
  0.033467
 -0.013762
 -0.037476
 -0.017390
  0.015492
 -0.021744
  0.005683
  0.028517
 -0.011030
 -0.032044
 -0.019715
 -0.019451
 -0.021525
  0.033640
 -0.036174
 -0.019050
  0.013833
 -0.007026
  0.012645
  0.023626
 -0.007994
 -0.020725
 -0.008016
  0.002560
 -0.008315
 -0.013707
  0.010138
  0.020702
  0.012814
 -0.004237
  0.013441
 -0.035749
  0.014235
 -0.038925
 -0.010292
  0.028542
 -0.057627
 -0.003891
  0.031962
 -0.012081
  0.052921
  0.017419
  0.029710
 -0.032600
 -0.042633
  0.024451
 -0.009501
 -0.015814
  0.008276
 -0.002692
 -0.019930
 -0.008363
  0.028159
 -0.006696
 -0.001980
  0.027728
 -0.014834
 -0.012100
 -0.008745
 -0.022423
  0.002396
  0.001526
  0.003687
  0.017627
 -0.015962
  0.004207
 -0.006030
 -0.008705
 -0.025085
  0.021631
  0.011978
  0.013594
 -0.041179
 -0.016018
  0.038250
  0.012672
  0.022755
  0.023015
  0.030469
 -0.007648
  0.001867
  0.003306
  0.046096
 -0.002677
 -0.034610
 -0.040990
 -0.020456
 -0.033753
  0.022381
 -0.036051
 -0.004406
 -0.009136
  0.016980
  0.007359
 -0.018806
  0.052839
  0.023638
 -0.027187
  0.007274
 -0.036271
 -0.020596
  0.005091
  0.028114
 -0.021050
  0.047203
 -0.019826
 -0.010401
 -0.005676
  0.000241
  0.018665
  0.036478
 -0.012884
 -0.020143
  0.001342
  0.009747
  0.019743
  0.054044
  0.042435
 -0.010065
  0.026706
  0.027489
 -0.008197
  0.000021
 -0.046429
 -0.025566
  0.019665
  0.013632
 -0.022973
  0.000447
  0.021645
 -0.012273
  0.020101
  0.027273
  0.013448
 -0.037361
 -0.002042
  0.001784
  0.022509
 -0.016794
  0.006266
 -0.037962
 -0.015334
 -0.050845
 -0.024503
 -0.030904
  0.007385
 -0.004897
 -0.009430
 -0.024697
 -0.024890
  0.048778
  0.012613
  0.001415
 -0.030459
 -0.009334
 -0.030593
  0.013561
  0.001015
  0.026388
  0.019785
  0.004105
 -0.044930
  0.012192
 -0.035241
  0.002707
  0.002444
 -0.009494
  0.007660
 -0.020767
  0.001620
  0.009163
 -0.006675
 -0.007834
 -0.054087
  0.029288
  0.007717
  0.030219
 -0.001347
 -0.037575
  0.000347
 -0.029773
  0.001486
  0.011176
 -0.015781
 -0.012160
 -0.023201
 -0.004836
  0.007350
  0.021954
  0.035018
  0.021818
  0.033849
  0.002429
  0.019660
  0.022563
 -0.000851
  0.028893
  0.046084
  0.019642
  0.056752
  0.061779
  0.042111
  0.024364
 -0.022099
  0.003651
  0.010518
  0.055562
 -0.008657
  0.036438
  0.037468
  0.018876
  0.040295
 -0.009280
 -0.017697
 -0.024545
  0.017614
  0.040908
 -0.005367
 -0.020704
  0.019616
  0.004023
  0.039702
  0.065408
  0.023239
  0.069945
  0.028986
  0.069399
  0.045952
  0.044993
  0.073856
  0.054221
  0.082437
  0.065451
  0.009794
  0.031653
  0.071388
  0.044188
  0.040252
  0.061571
  0.036722
 -0.000968
  0.020362
  0.036104
  0.049449
  0.041656
  0.071175
  0.087933
  0.172559
  0.153836
  0.206854
  0.237224
  0.331170
  0.432782
  0.469730
  0.572324
  0.611510
  0.702395
  0.776441
  0.748415
  0.780549
  0.772644
  0.688526
  0.610626
  0.585766
  0.538579
  0.433561
  0.379901
  0.320862
  0.199038
  0.176464
  0.094722
  0.095945
  0.095498
  0.054461
  0.029537
 -0.009229
  0.001399
  0.012867
  0.024955
  0.012833
 -0.006727
 -0.012890
 -0.002958
  0.004477
 -0.000371
  0.012082
 -0.007937
  0.024109
  0.038197
 -0.032885
  0.012645
 -0.028881
  0.036365
 -0.039450
  0.007063
 -0.013300
 -0.007693
  0.029911
  0.036982
 -0.037894
 -0.006724
  0.049795
  0.015831
 -0.025514
  0.029013
 -0.001765
 -0.000521
  0.019997
 -0.009467
 -0.027271
 -0.013259
 -0.007242
 -0.002605
  0.007769
 -0.013490
 -0.016726
 -0.020291
  0.018336
 -0.018827
  0.009988
 -0.006328
 -0.015644
 -0.007678
 -0.000838
  0.005122
  0.020936
  0.018782
  0.013526
 -0.002107
  0.008105
  0.021444
 -0.006060
 -0.038633
 -0.021037
 -0.034277
  0.021493
 -0.003098
 -0.038226
 -0.029734
  0.010425
  0.059933
  0.023844
 -0.030802
 -0.022129
  0.009794
 -0.019570
 -0.007749
 -0.032085
 -0.002043
 -0.017184
  0.000700
 -0.010590
 -0.018456
  0.014682
 -0.016379
  0.028706
  0.006672
  0.005301
 -0.001217
  0.042341
  0.028452
 -0.013458
 -0.011301
 -0.007694
 -0.007290
 -0.013149
  0.013864
 -0.010084
 -0.019091
 -0.024061
 -0.017590
 -0.002302
  0.003711
  0.003248
 -0.013651
  0.035378
  0.028626
  0.003173
  0.002062
  0.021389
 -0.023849
 -0.011622
  0.025955
 -0.006806
  0.016370
  0.050847
  0.034913
  0.023359
  0.012286
 -0.039882
  0.008013
 -0.011326
  0.015445
  0.013290
 -0.007152
 -0.050964
 -0.002030
  0.017643
  0.020244
  0.002652
 -0.008851
 -0.053583
  0.021392
  0.002986
 -0.012444
  0.006171
 -0.003319
 -0.033632
  0.009095
 -0.004894
  0.041048
  0.005230
  0.024660
 -0.009401
 -0.015930
  0.037601
  0.011028
 -0.007236
 -0.027857
 -0.019762
 -0.059774
 -0.002537
 -0.024157
 -0.005810
  0.009211
 -0.030778
 -0.026986
  0.025597
 -0.045562
  0.009098
 -0.029499
  0.016465
 -0.006884
 -0.007741
  0.038460
  0.021960
  0.053446
 -0.020152
 -0.001860
 -0.004321
  0.006084
 -0.019237
  0.019525
 -0.027725
 -0.028473
 -0.019852
 -0.017056
 -0.016506
 -0.017492
  0.001736
  0.016551
 -0.006304
  0.001122
 -0.030723
 -0.002818
  0.006968
 -0.012491
 -0.017484
  0.034380
 -0.048800
 -0.009348
 -0.023958
 -0.014268
 -0.015600
  0.008380
 -0.005803
 -0.006931
 -0.021475
  0.013759
  0.046923
 -0.011365
 -0.002299
  0.015989
 -0.025962
  0.009572
 -0.005591
 -0.039440
  0.031330
 -0.017645
 -0.002051
  0.007468
 -0.013774
  0.021023
  0.004876
 -0.028817
 -0.001138
  0.041611
 -0.014818
 -0.033526
  0.017889
  0.018861
  0.021833
  0.028314
  0.043944
  0.036011
 -0.027996
  0.039428
 -0.018591
  0.022292
 -0.028140
 -0.015091
  0.008635
 -0.000905
  0.008028
  0.030370
 -0.007446
  0.012286
  0.031008
  0.002462
  0.007401
  0.010541
  0.045058
 -0.034383
 -0.009740
 -0.007134
  0.002907
 -0.032392
 -0.017106
 -0.004375
 -0.021274
  0.047157
 -0.023632
  0.012653
  0.027882
  0.011070
  0.000006
  0.026762
  0.034388
 -0.024182
 -0.009210
  0.004079
  0.032181
  0.023615
 -0.012917
  0.014657
  0.015642
 -0.024916
  0.008008
 -0.018558
  0.013033
 -0.021328
 -0.005187
  0.021497
  0.046462
  0.044472
  0.017414
 -0.029182
  0.004807
  0.022331
  0.019772
 -0.002675
 -0.027780
  0.003298
  0.001199
 -0.006458
 -0.011820
  0.000151
  0.008589
  0.007702
  0.012359
  0.021692
  0.011364
  0.005531
 -0.006465
  0.002545
 -0.005311
  0.004493
  0.000913
  0.022215
  0.017245
  0.033360
  0.004481
  0.031345
  0.001266
  0.008519
  0.008018
 -0.011326
  0.013720
  0.002381
  0.045987
  0.008944
  0.003132
  0.027833
  0.032850
  0.001904
 -0.043661
 -0.004674
 -0.000969
  0.008309
  0.002545
 -0.012419
  0.005513
 -0.011349
  0.011040
 -0.015776
  0.003628
 -0.019868
 -0.014899
 -0.001946
 -0.006512
  0.045238
 -0.047902
  0.003385
 -0.000329
 -0.014735
  0.021104
 -0.006392
  0.018593
 -0.021457
  0.039832
 -0.040323
  0.034843
 -0.009698
 -0.029136
 -0.001185
 -0.009198
 -0.018701
 -0.020510
  0.010860
 -0.024306
  0.011169
 -0.044004
  0.030540
  0.026412
  0.007847
 -0.016902
  0.000770
  0.048375
 -0.010580
 -0.001558
  0.005040
 -0.013603
 -0.025364
 -0.022697
  0.016711
  0.010492
 -0.006759
 -0.006285
  0.037368
  0.014801
 -0.021862
  0.019338
 -0.031006
 -0.030325
  0.039354
 -0.038029
  0.002090
 -0.001328
 -0.004251
 -0.006908
 -0.020615
  0.011525
 -0.063840
 -0.059221
  0.025712
 -0.001728
  0.043981
 -0.004690
 -0.012434
 -0.056197
 -0.014274
 -0.001586
 -0.022211
  0.008882
 -0.012548
 -0.025006
 -0.000073
  0.011181
  0.013256
  0.017914
 -0.017543
 -0.006073
  0.011396
 -0.014958
 -0.001725
  0.019800
  0.007673
 -0.010895
  0.009161
  0.009337
  0.010958
 -0.006344
  0.022220
 -0.020056
 -0.039869
 -0.028401
  0.008724
 -0.006270
  0.004792
  0.021272
 -0.037375
  0.031001
  0.020467
 -0.007744
  0.010737
 -0.009362
 -0.014307
  0.006776
 -0.005263
  0.002852
 -0.010055
 -0.006717
  0.026069
  0.004181
 -0.008532
  0.028171
  0.010364
 -0.005236
 -0.040336
  0.005338
  0.023096
  0.022553
  0.005658
  0.010612
 -0.000344
 -0.010595
  0.039731
 -0.036542
 -0.000359
 -0.011907
 -0.003389
  0.019531
 -0.032600
 -0.008072
  0.006970
  0.028962
  0.030897
  0.048867
  0.021041
  0.003094
  0.020574
  0.007261
  0.034454
 -0.018173
  0.018366
 -0.000612
  0.009337
  0.022857
 -0.005194
  0.022719
  0.016874
  0.024171
  0.044190
 -0.000119
  0.012200
 -0.003396
  0.049019
 -0.016500
 -0.014611
  0.001691
  0.000501
 -0.015081
 -0.023481
 -0.017641
 -0.005416
  0.013714
 -0.013675
  0.011311
  0.041107
 -0.008476
  0.010519
  0.007214
 -0.007050
  0.004648
  0.024932
 -0.023955
 -0.000353
 -0.010584
  0.015953
  0.004667
 -0.000819
  0.018682
  0.005295
 -0.011029
 -0.032851
  0.018552
  0.033354
 -0.023494
  0.018526
  0.005523
  0.000962
 -0.011275
 -0.018518
  0.001844
  0.017559
 -0.009258
  0.032885
  0.024680
 -0.029997
 -0.001687
 -0.014190
 -0.004439
 -0.035078
 -0.044722
 -0.019343
 -0.013285
  0.018728
  0.001986
 -0.009660
  0.017434
 -0.005330
 -0.015956
  0.029139
  0.020538
  0.014616
 -0.013214
 -0.030165
 -0.002255
 -0.013584
  0.013927
  0.008794
 -0.038369
  0.041729
 -0.005329
 -0.000261
  0.001352
  0.040515
  0.011944
  0.017470
 -0.019968
  0.008470
 -0.032575
  0.026088
 -0.010030
 -0.001706
  0.009320
  0.041944
  0.009689
  0.008691
  0.006219
  0.024650
  0.026577
  0.014464
  0.005354
  0.000055
 -0.004106
  0.022455
 -0.019189
 -0.042144
 -0.015143
 -0.005532
 -0.019487
  0.004425
 -0.019000
  0.010236
 -0.014837
 -0.023237
  0.053982
  0.026526
  0.004923
  0.023984
 -0.009716
 -0.024780
  0.015748
  0.016165
  0.017517
 -0.025380
 -0.013956
  0.012428
  0.013331
 -0.059467
 -0.011082
 -0.026232
 -0.011266
 -0.007486
  0.008763
 -0.005415
  0.005340
  0.014573
 -0.009127
  0.040314
  0.006708
  0.032570
  0.021329
  0.004892
 -0.024810
  0.014011
 -0.006743
 -0.026136
  0.005390
 -0.028588
 -0.047734
  0.009065
  0.055830
 -0.001387
  0.022804
 -0.024320
  0.002205
 -0.003709
 -0.012924
 -0.004351
 -0.014388
 -0.021981
 -0.004270
  0.019973
 -0.044637
 -0.011085
  0.004082
 -0.025744
 -0.035106
 -0.001895
  0.035566
 -0.001743
  0.039981
  0.003427
  0.014808
  0.043558
 -0.013215
 -0.016846
  0.029918
 -0.024735
  0.008484
  0.031937
  0.012634
 -0.008751
  0.007049
 -0.003251
  0.045266
  0.005361
 -0.010779
  0.000146
 -0.015508
 -0.027709
 -0.032833
  0.022978
 -0.026103
 -0.014576
  0.011836
 -0.005283
  0.024487
 -0.040436
  0.018478
  0.030755
  0.008818
 -0.018085
  0.005873
 -0.026387
  0.059158
  0.031163
  0.004720
  0.010738
 -0.011525
 -0.014307
 -0.024358
  0.038204
  0.051342
  0.009382
 -0.029159
  0.003688
  0.005945
  0.032753
 -0.002657
 -0.006095
 -0.015757
  0.000717
  0.005123
 -0.008066
 -0.005392
  0.000463
  0.010511
  0.011723
  0.016882
 -0.016790
  0.017147
  0.013329
  0.012740
 -0.081947
 -0.014416
 -0.052422
 -0.048403
  0.012968
 -0.003933
  0.009971
 -0.000560
 -0.032342
 -0.003923
  0.009352
 -0.009097
  0.001469
  0.013852
 -0.013792
  0.013615
 -0.026522
  0.008520
 -0.020363
 -0.023892
  0.026223
  0.023570
  0.018959
 -0.023453
  0.016352
 -0.013273
 -0.008838
 -0.053762
  0.000942
  0.058311
  0.019318
 -0.013075
 -0.032514
 -0.018065
  0.038145
 -0.054752
 -0.021208
 -0.033264
 -0.006913
  0.003597
 -0.003997
 -0.004027
 -0.049619
  0.014985
  0.035296
 -0.016866
  0.035302
 -0.001591
  0.014247
  0.000377
 -0.039408
 -0.034597
  0.016041
  0.023980
 -0.024789
 -0.033965
 -0.008645
 -0.017789
 -0.034312
 -0.043961
 -0.002532
 -0.001669
  0.032615
 -0.080935
 -0.007668
  0.031636
 -0.023922
 -0.023905
  0.002540
  0.018765
 -0.017594
  0.039474
  0.008562
 -0.014049
 -0.033158
 -0.023908
 -0.005548
 -0.006716
 -0.010436
  0.022581
 -0.023724
 -0.018788
 -0.016090
  0.003173
 -0.011113
 -0.015337
 -0.005036
 -0.011468
  0.049999
 -0.027937
 -0.037227
  0.019089
 -0.025751
 -0.020144
  0.012780
  0.023642
  0.022664
 -0.081974
 -0.011825
  0.003389
 -0.024208
 -0.011751
 -0.011384
 -0.044359
  0.006726
 -0.003142
 -0.030489
 -0.021610
 -0.011530
  0.020589
 -0.017262
 -0.039328
 -0.036117
 -0.007009
  0.032085
 -0.035588
 -0.041984
 -0.034863
 -0.006649
 -0.021530
 -0.021025
 -0.000153
  0.020122
  0.026417
 -0.037720
  0.018134
 -0.029615
  0.033221
 -0.015723
 -0.000322
  0.009000
 -0.027840
  0.000909
 -0.048023
  0.020832
 -0.022617
 -0.017160
  0.012360
 -0.002545
  0.022499
  0.013055
 -0.012300
  0.009858
 -0.021814
  0.027248
 -0.018874
 -0.014827
 -0.003693
  0.008652
 -0.019775
 -0.003904
 -0.046117
  0.017575
 -0.001547
  0.010642
 -0.025438
  0.017845
  0.038693
  0.001757
  0.011310
 -0.009587
 -0.009222
 -0.027531
  0.029784
  0.023682
 -0.008197
  0.003805
 -0.000586
 -0.032844
 -0.015104
  0.011469
  0.013973
  0.035086
  0.019644
 -0.015558
 -0.014590
 -0.014450
 -0.016704
  0.038165
 -0.016952
  0.034508
  0.002509
  0.019485
 -0.007468
 -0.029862
  0.045079
 -0.033955
 -0.026440
 -0.013083
 -0.020364
 -0.020950
  0.031127
 -0.004652
  0.024652
  0.015253
  0.002966
  0.017101
  0.005898
  0.023910
 -0.002588
  0.001480
 -0.001251
  0.004775
  0.007849
  0.007648
  0.023630
  0.021316
 -0.001819
  0.006025
  0.031022
  0.048369
 -0.013122
 -0.026100
 -0.003599
  0.009098
  0.015050
  0.005209
 -0.046704
 -0.003933
  0.010472
  0.000593
  0.009038
  0.014157
  0.018789
 -0.040116
  0.012750
 -0.005145
 -0.002498
  0.028762
 -0.004070
  0.006946
  0.004897
  0.006999
  0.047428
 -0.001710
 -0.006117
 -0.038116
 -0.019544
  0.037148
 -0.034295
  0.016687
  0.027663
  0.003023
  0.025869
 -0.022187
 -0.048950
  0.020964
 -0.019288
  0.059310
  0.011060
  0.029390
  0.036058
  0.037304
  0.043594
 -0.058564
 -0.045511
 -0.006007
  0.072971
 -0.010233
 -0.021081
  0.006887
  0.011127
 -0.000984
  0.003493
 -0.013912
 -0.011517
  0.002714
  0.059176
 -0.012959
 -0.062497
 -0.011275
 -0.002256
  0.022365
 -0.014192
  0.006185
  0.013111
 -0.036820
 -0.012849
 -0.044175
 -0.016928
  0.017916
  0.016723
  0.016687
  0.041084
  0.026632
  0.011157
 -0.001163
 -0.036712
 -0.039781
  0.009368
  0.007461
  0.024603
  0.003908
 -0.017794
  0.013411
 -0.007587
  0.018691
 -0.025393
  0.017354
  0.027478
 -0.020124
  0.001080
 -0.023497
 -0.032844
  0.045990
 -0.015365
 -0.004055
  0.056142
  0.001441
  0.076888
  0.028752
 -0.028133
 -0.004990
 -0.017865
  0.080753
 -0.020814
 -0.018234
  0.049755
 -0.016117
  0.021524
  0.013071
  0.021635
 -0.003903
  0.027212
  0.015466
 -0.023404
  0.012781
  0.003215
 -0.012684
 -0.045836
  0.025329
  0.051727
  0.006845
  0.016428
  0.022993
 -0.012283
 -0.023486
  0.038783
  0.025022
  0.016683
  0.011517
  0.013173
  0.006762
  0.008194
 -0.001567
  0.032354
  0.020656
  0.000578
 -0.017353
  0.036080
 -0.057524
 -0.029562
  0.002176
  0.003905
 -0.032879
  0.044972
 -0.013272
 -0.031006
 -0.005136
 -0.002986
  0.010665
 -0.045677
  0.040556
  0.032151
  0.038947
  0.008400
  0.007096
  0.030607
  0.037949
 -0.002171
  0.029948
  0.001708
  0.019433
 -0.029468
 -0.011983
  0.033348
 -0.003562
 -0.001381
  0.022770
 -0.024543
 -0.044902
 -0.002873
  0.026971
 -0.021979
 -0.017958
 -0.007472
  0.003937
 -0.004148
  0.040816
 -0.014170
 -0.005934
 -0.019019
  0.047713
 -0.070574
 -0.034944
  0.013446
  0.004524
 -0.001835
 -0.027398
  0.024126
  0.014474
 -0.025732
  0.019425
  0.024003
 -0.004569
  0.038485
  0.012179
  0.014761
  0.020868
  0.022953
  0.013320
  0.016531
 -0.038798
  0.020474
  0.007961
 -0.021775
  0.031118
 -0.039806
  0.027067
 -0.002792
 -0.012208
  0.018236
 -0.025057
 -0.012157
 -0.031659
  0.041949
 -0.026498
 -0.037421
  0.023151
 -0.006461
  0.008009
 -0.018060
  0.018629
 -0.058329
  0.008357
  0.020787
 -0.033795
 -0.005801
  0.000605
  0.054398
 -0.020129
 -0.006662
  0.019855
 -0.025442
  0.018560
 -0.036166
 -0.010507
  0.004248
  0.039410
 -0.029052
 -0.027762
 -0.025745
 -0.024897
  0.015021
 -0.010378
  0.023101
 -0.000489
  0.042233
  0.006681
 -0.005275
 -0.030620
 -0.016341
  0.000187
  0.014652
  0.005579
 -0.004736
 -0.015761
  0.016473
 -0.043605
 -0.026062
  0.010038
  0.003409
  0.016321
 -0.005722
  0.001780
 -0.029061
 -0.034969
  0.054568
  0.028448
  0.010227
  0.019424
  0.003963
 -0.037709
 -0.009057
 -0.012579
  0.032852
  0.011992
 -0.060108
 -0.044637
  0.020174
  0.020209
 -0.060251
 -0.014488
  0.010513
  0.010928
  0.016663
  0.028543
  0.042286
 -0.004337
 -0.012846
 -0.001034
  0.015901
 -0.000392
 -0.002877
 -0.019093
  0.023197
  0.013154
  0.037488
  0.013156
  0.016351
  0.024994
 -0.006039
  0.021450
 -0.024996
 -0.003321
 -0.009839
 -0.009791
 -0.011759
 -0.019568
  0.019351
 -0.024694
  0.017481
 -0.011995
 -0.007583
  0.029418
 -0.003440
  0.008517
  0.027163
  0.027983
  0.027538
 -0.044813
 -0.005370
  0.021755
  0.010753
 -0.022157
  0.004182
 -0.024017
 -0.024986
 -0.000955
  0.026051
  0.013787
 -0.002705
 -0.021323
 -0.056401
 -0.011163
 -0.005634
 -0.001617
 -0.018782
  0.016609
  0.020879
 -0.002662
 -0.001686
  0.007657
 -0.020467
  0.017218
  0.010815
  0.034563
 -0.008764
 -0.018926
  0.053308
 -0.001151
  0.015846
 -0.037755
  0.049592
 -0.017890
  0.028888
  0.011427
  0.019079
 -0.024238
 -0.004295
 -0.033948
  0.024714
 -0.022170
  0.036256
  0.029634
  0.043023
 -0.007164
  0.002241
  0.020773
 -0.020421
 -0.003869
 -0.004600
 -0.024257
 -0.020945
  0.005868
 -0.017493
 -0.023389
  0.014174
  0.005335
 -0.008750
 -0.009624
 -0.041855
  0.031808
  0.021029
  0.006603
  0.050311
  0.021704
  0.042075
  0.006299
 -0.000123
  0.016564
  0.026499
 -0.019383
 -0.044640
  0.035168
  0.062299
 -0.026834
  0.007348
 -0.017015
 -0.009833
 -0.002817
  0.010036
 -0.042575
  0.013632
 -0.003209
 -0.028112
  0.001814
  0.051677
  0.022701
 -0.000264
 -0.000040
 -0.037051
 -0.018262
  0.008246
  0.010407
 -0.011493
  0.015341
 -0.020656
  0.001382
  0.014984
  0.003719
  0.019770
 -0.031418
 -0.022395
 -0.003718
 -0.012615
 -0.023184
  0.014390
  0.013530
 -0.004547
  0.008721
 -0.023119
  0.008594
 -0.022630
 -0.006811
 -0.014534
 -0.002620
 -0.005848
 -0.004744
 -0.065527
  0.035838
  0.001578
  0.032913
  0.055411
 -0.002274
 -0.004702
 -0.049045
 -0.016985
  0.024963
  0.001860
  0.001881
 -0.002444
  0.036317
  0.031607
  0.007122
  0.015736
  0.005923
  0.004361
  0.000743
  0.025211
  0.000915
  0.008392
  0.003831
 -0.038179
  0.016147
 -0.021537
 -0.023507
  0.013696
  0.000222
  0.040155
 -0.021171
 -0.015306
 -0.007548
  0.023519
  0.007824
 -0.053058
  0.025300
 -0.029960
 -0.036069
 -0.015455
 -0.007933
 -0.001983
  0.022364
 -0.018085
 -0.013201
 -0.049439
  0.040746
  0.009463
 -0.011725
  0.033166
  0.015149
 -0.015264
 -0.005485
 -0.041041
 -0.014602
 -0.048256
 -0.026645
  0.030382
 -0.018634
  0.007564
 -0.032174
 -0.005365
 -0.003402
 -0.019439
  0.010720
  0.004216
  0.011411
 -0.016236
 -0.030478
 -0.012524
 -0.027545
 -0.003873
 -0.006528
 -0.008426
 -0.008272
  0.003602
 -0.006271
  0.038644
  0.002810
  0.011910
  0.004362
 -0.019566
 -0.022346
 -0.026736
 -0.040097
  0.025571
  0.008594
  0.020566
  0.025501
 -0.032759
 -0.007887
  0.007299
 -0.010048
 -0.006979
 -0.043211
  0.003872
  0.000476
  0.008481
  0.014621
  0.005966
 -0.004637
  0.000901
 -0.015160
  0.035708
 -0.010086
  0.000103
 -0.031160
 -0.026101
 -0.000183
  0.003313
 -0.015885
  0.009441
  0.014042
  0.007770
  0.011244
  0.000223
  0.019220
 -0.003508
 -0.017080
 -0.020545
 -0.013044
  0.055486
 -0.033536
 -0.026631
  0.018007
 -0.022100
  0.008163
  0.009508
  0.012237
  0.022683
 -0.008397
  0.012497
 -0.001115
  0.001965
  0.034663
 -0.017170
  0.016973
 -0.012195
 -0.046779
 -0.004699
 -0.003271
 -0.032159
 -0.016017
 -0.030930
  0.033282
 -0.018865
 -0.004327
  0.009058
  0.007004
  0.016985
  0.010619
  0.008448
 -0.002390
 -0.023109
  0.004560
 -0.003611
  0.015471
  0.009282
 -0.009083
 -0.012727
 -0.034078
 -0.038377
 -0.035745
  0.029332
 -0.032112
  0.012438
 -0.022490
 -0.020000
  0.014342
  0.040613
 -0.032295
 -0.011835
 -0.007304
 -0.023684
  0.003300
 -0.010138
 -0.001526
  0.012304
 -0.019898
  0.016469
  0.066233
 -0.017418
  0.027275
 -0.005496
 -0.029285
 -0.019324
 -0.007094
  0.017804
 -0.005438
 -0.019889
  0.007477
  0.036679
 -0.015102
  0.020415
  0.012977
  0.033930
 -0.019340
 -0.004089
  0.035246
  0.018075
 -0.027305
 -0.008859
 -0.017700
  0.036307
 -0.014682
  0.012480
  0.028860
  0.008800
  0.028777
  0.003868
 -0.013395
 -0.018639
 -0.018862
  0.002437
  0.000368
  0.010726
 -0.017965
 -0.066575
 -0.000808
  0.047079
 -0.008591
 -0.013428
  0.009033
  0.003981
  0.021586
 -0.006964
  0.036925
 -0.002186
  0.008822
  0.018470
 -0.013505
  0.003466
 -0.024735
 -0.002535
 -0.017348
 -0.026833
 -0.053068
 -0.008808
  0.013924
  0.027781
 -0.022006
 -0.048842
  0.025520
 -0.017937
  0.038171
 -0.031190
 -0.030919
 -0.013306
 -0.035489
 -0.018966
  0.061807
 -0.026314
 -0.014007
  0.002452
 -0.011526
  0.029392
  0.035322
 -0.008800
 -0.049395
 -0.009243
 -0.016287
  0.030576
  0.013764
 -0.018928
  0.001855
 -0.036959
  0.008866
  0.033484
  0.010949
  0.037776
  0.013302
  0.024682
  0.016047
 -0.034770
 -0.004068
 -0.020653
 -0.015683
 -0.007696
 -0.003866
 -0.015432
  0.009978
 -0.017980
 -0.005554
 -0.003977
 -0.006926
  0.004871
  0.015826
  0.013078
  0.042077
 -0.010338
 -0.015907
  0.006713
  0.021761
  0.016832
 -0.016170
  0.047461
 -0.027472
 -0.047294
 -0.021576
  0.000694
 -0.018089
  0.009866
  0.001143
 -0.006806
  0.009212
  0.005911
  0.032778
 -0.001424
  0.038284
  0.015105
  0.006258
  0.015306
 -0.023777
  0.000395
 -0.018578
  0.018866
  0.020129
  0.016051
 -0.002968
 -0.006143
 -0.000413
 -0.003129
  0.002655
  0.006706
 -0.019443
 -0.002076
 -0.017337
  0.006799
  0.012389
 -0.017354
  0.013031
 -0.005397
 -0.015087
  0.012692
  0.009561
 -0.035232
  0.050282
 -0.026085
  0.004959
 -0.010905
 -0.013908
  0.034726
 -0.007949
  0.039021
  0.012543
  0.070795
  0.013611
  0.013870
 -0.037613
 -0.001463
  0.003447
 -0.018210
  0.016108
 -0.035549
  0.027475
 -0.014377
 -0.045550
 -0.000601
  0.014132
  0.025192
  0.015334
 -0.004748
  0.032897
 -0.020860
 -0.001384
  0.026795
 -0.029285
  0.024962
  0.041239
  0.016199
  0.012396
 -0.002227
  0.008510
  0.010884
  0.039632
  0.069046
 -0.037864
 -0.018975
  0.001365
  0.011615
  0.014560
  0.004445
  0.036053
 -0.017890
  0.007783
  0.032134
 -0.017274
  0.017304
  0.024465
 -0.025601
  0.015663
  0.007979
  0.003335
  0.030479
  0.021062
  0.000065
  0.024105
 -0.036745
  0.011252
  0.009494
 -0.032679
  0.021013
  0.033433
 -0.000582
  0.016840
 -0.001591
 -0.001957
 -0.040999
  0.033807
  0.041868
 -0.015443
 -0.001356
 -0.000883
  0.001699
  0.004267
  0.000449
 -0.021147
 -0.038080
 -0.031943
 -0.028261
 -0.002771
 -0.006154
  0.010163
 -0.011123
  0.009306
  0.010618
  0.018638
 -0.002892
 -0.001147
  0.030261
 -0.006940
  0.012336
  0.017996
  0.020857
  0.008400
  0.010441
  0.024719
 -0.021884
 -0.043393
 -0.019552
 -0.007193
  0.053464
 -0.012118
 -0.042191
 -0.003210
  0.021580
 -0.019448
 -0.005753
 -0.032466
  0.019055
  0.037089
  0.027817
 -0.018586
 -0.047740
 -0.003550
  0.009806
  0.012432
  0.005422
 -0.005798
 -0.017315
 -0.010495
  0.015439
 -0.011951
 -0.051080
 -0.048042
  0.030687
  0.003328
 -0.010900
  0.001749
  0.018089
 -0.013398
  0.010688
  0.019518
  0.005660
 -0.041302
 -0.002901
  0.003492
 -0.021365
 -0.007076
 -0.001079
 -0.031954
  0.014421
  0.004892
 -0.034264
 -0.007990
 -0.015369
  0.015155
  0.020981
  0.040974
  0.017958
  0.004252
  0.021859
  0.027182
  0.015133
 -0.009740
  0.049263
  0.019125
 -0.003800
 -0.018559
  0.002318
 -0.017054
 -0.011322
 -0.025113
 -0.024281
  0.017878
 -0.028608
 -0.006471
 -0.001696
 -0.024674
  0.027192
 -0.012069
  0.003255
  0.033057
  0.002760
 -0.033485
 -0.034076
 -0.017115
 -0.038616
 -0.036251
  0.008188
 -0.013106
 -0.055397
  0.047822
  0.000177
  0.026780
  0.024541
 -0.026902
  0.008663
  0.035870
  0.020964
  0.031025
  0.001635
 -0.003604
  0.000624
  0.016448
  0.000269
  0.019939
 -0.001878
  0.029403
 -0.008461
 -0.031515
  0.010827
  0.004169
 -0.044114
  0.016913
 -0.006534
 -0.002922
 -0.020584
  0.032176
 -0.025696
 -0.016508
 -0.043899
  0.001685
 -0.036012
 -0.034661
 -0.007079
  0.027006
  0.018749
 -0.005017
 -0.016989
 -0.007858
 -0.038888
  0.028420
  0.057249
  0.011584
 -0.004088
 -0.003812
  0.007495
  0.004089
 -0.016305
 -0.009921
  0.032320
  0.018288
  0.007469
 -0.033809
  0.004961
 -0.020956
 -0.006521
  0.043086
 -0.042749
 -0.054821
  0.015632
 -0.005172
 -0.006228
  0.005209
 -0.032270
  0.025659
  0.012546
  0.013983
 -0.015916
 -0.016229
  0.001558
 -0.022783
  0.039790
 -0.016510
 -0.018246
  0.029627
  0.010864
 -0.026712
  0.018940
  0.019231
  0.021853
  0.014172
  0.003379
  0.025780
 -0.028057
 -0.037939
  0.006513
  0.036636
 -0.013036
  0.020497
 -0.010154
 -0.003096
  0.011348
  0.000934
  0.005606
  0.017874
  0.011254
 -0.031652
 -0.003322
  0.012863
 -0.002316
 -0.007766
 -0.024333
  0.014489
  0.009784
 -0.014779
 -0.005443
  0.047973
 -0.050672
 -0.000205
 -0.025414
 -0.007600
  0.006116
 -0.026753
  0.027810
 -0.032909
  0.003484
 -0.016242
 -0.007088
 -0.012756
 -0.010363
  0.024570
 -0.003628
 -0.005523
 -0.004999
  0.010018
 -0.020660
 -0.012988
 -0.022659
 -0.041683
 -0.032452
 -0.020693
 -0.044499
 -0.004927
  0.006828
  0.009736
 -0.011998
 -0.011369
 -0.006611
 -0.025738
  0.028145
  0.001217
  0.005281
  0.032982
 -0.007516
 -0.020388
 -0.051616
 -0.001979
 -0.012353
 -0.018418
  0.016383
 -0.000871
  0.030805
  0.004833
 -0.017540
 -0.022776
 -0.017726
 -0.000055
  0.023289
 -0.014835
 -0.036536
  0.001964
 -0.017579
  0.016345
 -0.018158
 -0.018819
  0.007196
 -0.009291
  0.055884
 -0.007341
  0.005213
 -0.007147
  0.006430
 -0.026217
 -0.014951
 -0.004659
 -0.023151
  0.019657
 -0.035877
  0.009850
  0.005964
 -0.009855
 -0.037345
 -0.040165
 -0.037761
 -0.009346
 -0.003005
 -0.013372
 -0.029949
  0.026774
 -0.029685
  0.022762
 -0.020671
  0.014856
  0.038228
  0.017510
  0.035501
 -0.010285
 -0.006209
 -0.006672
 -0.016641
 -0.015076
 -0.049705
 -0.045512
  0.008168
 -0.061087
 -0.010106
 -0.011178
 -0.015272
  0.021882
  0.007404
 -0.006086
 -0.002706
  0.025728
 -0.009182
  0.056745
 -0.019524
 -0.071228
 -0.011057
 -0.016575
  0.027120
  0.007772
 -0.017801
 -0.009805
 -0.009848
 -0.007292
 -0.035087
  0.010050
  0.006014
 -0.041787
  0.052250
  0.011859
 -0.019879
  0.014768
 -0.008494
 -0.033480
 -0.005723
 -0.031826
  0.028913
 -0.024758
 -0.025382
 -0.032193
  0.051113
  0.001411
 -0.031703
 -0.025280
 -0.018018
 -0.041390
 -0.038475
 -0.000342
 -0.001446
  0.000550
 -0.021242
 -0.027954
 -0.027995
  0.008498
  0.005148
  0.031254
  0.032764
 -0.053754
 -0.025513
 -0.026375
  0.011197
 -0.000230
  0.000565
 -0.036356
  0.026858
 -0.007358
 -0.013151
  0.000378
  0.005612
  0.012515
 -0.029213
 -0.032649
 -0.008724
 -0.022433
  0.008629
 -0.004789
 -0.059613
 -0.017674
  0.023914
 -0.009807
  0.001909
 -0.040793
 -0.019951
 -0.036232
 -0.014619
  0.017493
 -0.019070
 -0.018010
 -0.039883
  0.033863
 -0.027638
 -0.006783
 -0.026950
 -0.004213
 -0.036978
  0.008584
 -0.033477
 -0.004419
  0.037317
 -0.037788
  0.021166
 -0.040135
  0.036590
 -0.011371
  0.014861
  0.020685
  0.022977
  0.002553
 -0.023155
 -0.031038
  0.008915
 -0.024741
 -0.032665
 -0.008634
  0.006496
  0.039157
 -0.007219
 -0.001744
 -0.002237
 -0.007711
 -0.026280
 -0.040574
 -0.034671
 -0.019959
  0.020168
 -0.004015
 -0.014032
 -0.025216
 -0.033641
 -0.019018
 -0.027629
  0.043368
 -0.048210
 -0.006212
  0.035878
 -0.038656
  0.002929
 -0.007244
  0.016085
  0.005022
 -0.020781
 -0.038772
 -0.047800
 -0.026625
  0.019189
 -0.008481
 -0.048222
 -0.010867
 -0.008133
 -0.019921
 -0.047949
 -0.031895
  0.027941
 -0.033418
 -0.011910
  0.013349
  0.013132
 -0.002290
  0.028170
  0.005876
 -0.023023
 -0.033307
 -0.060420
  0.011109
  0.008686
 -0.032137
  0.002541
 -0.049971
  0.025573
 -0.079996
  0.015131
 -0.050891
 -0.040729
 -0.025260
 -0.026096
 -0.027776
 -0.111275
  0.014146
 -0.004359
  0.002603
  0.047953
 -0.010712
 -0.004427
 -0.005684
 -0.040084
  0.008985
 -0.015333
 -0.042885
  0.000588
  0.000664
 -0.017009
  0.036678
 -0.009006
 -0.002715
  0.022977
  0.009193
 -0.012657
 -0.002496
 -0.009714
 -0.018728
 -0.000689
  0.005652
 -0.000184
  0.016292
 -0.021496
 -0.015741
  0.027042
  0.006440
  0.025074
 -0.017379
 -0.023702
 -0.007928
  0.030245
 -0.038769
 -0.030565
  0.024424
  0.007757
  0.058249
 -0.035391
 -0.006351
  0.042906
 -0.024234
 -0.027977
 -0.003838
 -0.009765
 -0.002376
 -0.018158
  0.022066
  0.011719
  0.007105
  0.022560
 -0.009868
  0.023540
  0.003924
 -0.025078
 -0.044946
  0.036829
  0.011362
  0.010628
  0.023163
 -0.009245
 -0.026221
  0.005658
  0.007464
 -0.003900
 -0.033176
 -0.022771
 -0.013449
 -0.003175
  0.036639
 -0.043230
 -0.000546
  0.031411
  0.010890
  0.013550
  0.036190
  0.037659
 -0.042713
 -0.010440
  0.003503
 -0.021900
 -0.008060
 -0.008564
 -0.018487
  0.016774
  0.022905
  0.011538
  0.012775
 -0.019567
  0.009378
 -0.016371
 -0.038069
 -0.033125
 -0.027701
  0.008924
  0.028211
 -0.009863
  0.049417
  0.008405
  0.008393
  0.013492
  0.033765
 -0.004951
 -0.043479
  0.007890
  0.005948
  0.008156
 -0.018070
 -0.027499
  0.030449
 -0.018000
  0.043506
 -0.000215
  0.060190
 -0.022795
  0.009042
 -0.000950
  0.014409
  0.024305
 -0.028576
  0.012317
 -0.022233
 -0.025101
 -0.012365
  0.015833
 -0.021511
 -0.003832
  0.024716
 -0.039098
 -0.042351
 -0.021683
 -0.009291
 -0.002546
  0.007580
  0.016941
 -0.008669
 -0.023977
  0.006626
  0.003581
  0.025937
 -0.001746
  0.008393
 -0.018362
 -0.034614
 -0.017713
  0.018311
  0.018649
  0.016275
 -0.008690
  0.006790
  0.036830
  0.007965
 -0.012615
 -0.028713
  0.017135
 -0.017086
 -0.030377
  0.048403
  0.049932
 -0.005700
 -0.000307
 -0.017807
 -0.010851
 -0.013718
  0.006690
  0.010627
  0.019724
  0.008295
  0.031568
  0.003948
 -0.005128
 -0.020233
  0.010202
  0.002188
 -0.027223
 -0.025137
 -0.046977
  0.026433
  0.023690
 -0.013464
  0.044949
  0.008229
  0.029422
 -0.014655
 -0.016844
 -0.002430
 -0.016125
 -0.034281
 -0.018124
 -0.030348
  0.017555
 -0.010299
  0.017105
 -0.044962
 -0.007962
 -0.041964
 -0.011544
 -0.046256
  0.004793
  0.005432
 -0.026143
 -0.028075
 -0.008716
 -0.014132
  0.010209
  0.009798
 -0.038039
 -0.004453
  0.021948
 -0.003457
  0.025576
 -0.002929
  0.018954
  0.021472
  0.027389
  0.021793
 -0.034628
 -0.056494
  0.025826
 -0.028473
  0.020230
  0.015619
 -0.003061
  0.018342
 -0.043821
  0.017581
  0.005545
 -0.004530
  0.039415
 -0.022680
 -0.017587
 -0.005029
 -0.080788
  0.050814
 -0.054452
 -0.026983
  0.056941
 -0.004010
 -0.006797
 -0.015287
  0.029553
  0.026203
  0.018520
 -0.012994
  0.032299
 -0.005863
  0.016918
 -0.003495
  0.039031
 -0.008141
  0.018815
 -0.012333
 -0.013580
  0.023568
  0.021827
  0.002318
 -0.004158
  0.038405
  0.004466
  0.000734
  0.008483
 -0.028869
  0.027921
 -0.013068
 -0.001724
 -0.027381
 -0.008393
  0.009591
 -0.001473
 -0.047472
 -0.013498
 -0.024354
 -0.008646
  0.000747
 -0.022355
 -0.014322
  0.036288
 -0.018746
 -0.029275
  0.036265
  0.033835
 -0.006887
  0.022723
  0.027675
 -0.027364
  0.011891
 -0.024854
  0.047830
 -0.021744
 -0.003105
 -0.004100
  0.032147
  0.016457
 -0.005065
  0.026071
  0.008286
  0.030278
  0.013676
 -0.017004
 -0.040848
 -0.033498
 -0.021938
 -0.006461
  0.004926
  0.016987
  0.036137
 -0.010228
 -0.014272
  0.009949
  0.001327
  0.000340
  0.025442
  0.003297
 -0.005096
  0.021155
 -0.044958
 -0.003871
  0.014581
 -0.013944
  0.046198
 -0.021162
 -0.020738
  0.034623
 -0.003722
 -0.022129
  0.031382
  0.005621
  0.014379
  0.012716
 -0.022725
  0.067222
 -0.011222
 -0.010633
 -0.054998
  0.014682
  0.045909
  0.024475
 -0.009587
  0.010506
 -0.023891
  0.001240
 -0.005061
  0.033179
  0.009844
  0.018006
 -0.038408
 -0.029569
  0.002112
 -0.008737
 -0.011023
  0.015507
  0.003779
  0.035936
 -0.006647
 -0.014482
  0.000062
  0.001672
 -0.005700
  0.010786
  0.015332
  0.037321
  0.014875
  0.010317
 -0.005797
 -0.021507
  0.014401
 -0.002314
  0.018290
  0.034630
  0.032213
  0.048964
  0.041890
  0.005483
  0.020385
  0.014332
 -0.003300
  0.002131
  0.034544
 -0.009751
  0.005146
  0.028389
  0.026948
  0.001158
  0.000950
 -0.004861
  0.017533
 -0.048695
 -0.012620
  0.004159
  0.014258
 -0.039000
 -0.052375
  0.034117
  0.029311
  0.011468
 -0.034008
  0.023969
 -0.007203
 -0.026359
 -0.038114
 -0.002573
 -0.055668
  0.039369
 -0.010340
  0.026501
 -0.024960
 -0.015958
 -0.019102
 -0.042723
 -0.008366
  0.024169
 -0.027398
  0.039054
  0.004596
  0.006098
 -0.011714
  0.001740
  0.011646
  0.023347
  0.010624
 -0.015238
  0.003154
  0.003212
 -0.014512
 -0.002286
  0.007405
 -0.016141
  0.014945
  0.021530
 -0.018619
  0.002939
 -0.034260
  0.024396
  0.015094
 -0.001186
 -0.036540
 -0.023075
 -0.012938
  0.019695
  0.004254
  0.009296
  0.005226
 -0.018439
 -0.033811
 -0.028187
 -0.022457
  0.015446
 -0.051420
  0.040361
 -0.012080
 -0.016319
 -0.011796
  0.021851
 -0.022073
 -0.016240
  0.000318
  0.005940
  0.004255
  0.003174
  0.026703
 -0.013301
  0.045412
 -0.012927
 -0.029865
  0.043589
  0.038256
 -0.011663
  0.001892
 -0.013910
  0.005260
 -0.016417
 -0.006768
 -0.009888
 -0.007620
  0.007530
 -0.007453
 -0.008762
 -0.007444
 -0.019808
 -0.006441
  0.043237
  0.019173
  0.012976
 -0.042545
  0.000507
 -0.018327
  0.008840
 -0.040186
 -0.033300
  0.005670
  0.007345
 -0.018633
  0.003846
  0.002896
  0.014823
  0.023961
  0.030488
 -0.009257
 -0.005727
 -0.031629
  0.012088
 -0.003620
  0.012443
  0.020581
 -0.007850
 -0.007344
  0.031161
 -0.042834
 -0.013307
 -0.014095
 -0.009606
  0.026668
 -0.022996
  0.027305
 -0.018982
 -0.013030
  0.046397
 -0.002383
 -0.012320
  0.017443
 -0.032771
  0.030402
  0.016577
  0.001785
  0.005242
  0.008483
 -0.020091
 -0.030649
 -0.017146
  0.021060
 -0.014016
 -0.016539
  0.005198
  0.027564
  0.020212
 -0.016583
 -0.022504
 -0.002515
  0.008809
  0.009984
  0.043791
 -0.019398
 -0.023172
  0.006409
  0.001509
  0.009591
 -0.014131
 -0.009541
 -0.009916
  0.031530
  0.012255
 -0.019027
 -0.022520
  0.027850
  0.016057
  0.016397
 -0.017220
 -0.029053
 -0.008193
 -0.011291
 -0.011089
  0.001917
  0.034184
  0.025481
 -0.019401
  0.004577
  0.011554
 -0.007995
 -0.030460
 -0.029126
 -0.013122
  0.003657
 -0.010446
 -0.024806
 -0.025367
  0.001364
  0.015393
 -0.006716
 -0.029486
 -0.030589
  0.010009
 -0.023680
  0.015348
 -0.029692
  0.005654
 -0.004826
  0.024083
  0.004318
 -0.025469
 -0.022125
  0.021541
  0.011004
 -0.020557
 -0.011233
  0.022822
  0.017326
 -0.020886
  0.040888
  0.029165
 -0.000445
 -0.023761
  0.019979
  0.029569
 -0.006982
  0.007847
 -0.008829
  0.028456
  0.000098
 -0.022253
 -0.021123
 -0.019224
  0.023534
 -0.022163
  0.043493
  0.009580
 -0.020170
 -0.009899
 -0.022587
  0.010919
  0.009712
  0.006822
 -0.025388
 -0.017708
  0.003426
 -0.000227
  0.043005
  0.006503
  0.030041
  0.015460
  0.001999
 -0.016809
 -0.038106
 -0.001259
  0.014282
 -0.023858
 -0.029195
 -0.015568
 -0.019368
  0.013359
  0.045617
 -0.005051
 -0.020833
 -0.006083
  0.011649
  0.001678
 -0.004802
 -0.034865
 -0.017777
  0.043952
 -0.012286
  0.004756
 -0.011478
 -0.018756
  0.011297
  0.007963
  0.000921
 -0.016105
  0.002899
  0.016011
 -0.003290
 -0.027165
  0.046494
 -0.001448
 -0.032404
 -0.013210
  0.016638
  0.053265
  0.002623
 -0.000534
  0.045119
 -0.002493
 -0.038812
  0.000673
  0.007606
 -0.015560
 -0.029233
  0.003337
  0.004483
  0.021794
 -0.038612
 -0.003740
 -0.018649
 -0.018624
  0.038078
 -0.020527
 -0.005599
 -0.000041
  0.023035
  0.030197
 -0.012027
  0.006049
  0.013496
  0.004244
  0.022285
 -0.003963
  0.020526
  0.028672
  0.000985
  0.037299
  0.005012
 -0.031942
  0.013676
 -0.000690
 -0.001576
 -0.004410
 -0.021580
  0.010873
  0.020454
  0.006363
  0.010535
  0.028215
 -0.005351
  0.039990
 -0.015649
 -0.015528
  0.010249
 -0.026584
  0.022616
 -0.027113
 -0.056969
  0.004010
 -0.010979
  0.000306
  0.004979
 -0.026424
  0.027863
 -0.003920
 -0.031980
  0.001134
  0.016838
  0.013018
 -0.057801
  0.020686
 -0.020399
 -0.041619
 -0.008722
  0.067004
 -0.025216
  0.004177
 -0.033239
 -0.028899
 -0.024779
  0.047873
 -0.031567
 -0.010708
 -0.046647
  0.040571
 -0.015134
 -0.030346
  0.004754
  0.022629
 -0.027324
 -0.008912
 -0.022099
 -0.003569
  0.007064
 -0.016344
 -0.018897
  0.002928
 -0.000387
  0.017339
 -0.002604
 -0.011254
 -0.008799
 -0.000305
 -0.007313
 -0.001158
  0.026795
 -0.004250
 -0.040219
 -0.019352
 -0.010547
  0.027025
 -0.011547
 -0.001544
 -0.015221
  0.038068
 -0.018496
  0.018933
  0.008447
 -0.012592
  0.002140
 -0.004897
  0.021686
  0.057002
  0.030701
  0.020263
  0.014353
  0.032416
  0.008095
 -0.015552
  0.013069
  0.024232
  0.025981
  0.014766
 -0.013357
  0.019349
 -0.020229
  0.011068
  0.020733
  0.026535
 -0.009148
  0.008106
  0.038072
 -0.036233
 -0.004932
 -0.025067
 -0.010296
 -0.028279
  0.039278
  0.024691
 -0.017595
  0.003142
 -0.013974
 -0.028602
  0.040081
 -0.019299
 -0.007554
  0.027020
 -0.011168
 -0.004537
 -0.013759
 -0.031208
 -0.011410
 -0.005426
 -0.051174
 -0.041626
 -0.005577
 -0.019533
 -0.004352
  0.001862
 -0.005510
 -0.001202
  0.016827
 -0.000928
 -0.023540
  0.022916
 -0.031956
 -0.037965
 -0.005777
  0.027819
  0.036733
  0.027815
 -0.002431
 -0.001463
 -0.003893
  0.010489
 -0.019936
 -0.007259
 -0.013244
  0.021676
 -0.020809
 -0.018357
  0.013436
  0.004191
  0.042503
 -0.022882
  0.011007
  0.021094
  0.034488
 -0.022108
 -0.003029
 -0.047833
  0.011917
 -0.001796
  0.031318
  0.013805
 -0.004429
  0.007693
  0.028648
  0.002864
  0.029625
  0.000178
  0.012615
  0.014603
  0.009258
  0.002016
 -0.000998
 -0.018486
  0.017538
  0.010402
  0.019655
  0.010904
  0.017044
  0.029150
  0.011394
 -0.017614
  0.012941
 -0.031798
  0.019324
  0.017431
  0.020415
  0.003466
  0.012581
  0.000549
 -0.019110
 -0.005343
 -0.026987
  0.015410
  0.006383
  0.000560
  0.007412
 -0.030070
 -0.004962
  0.030740
 -0.033477
 -0.004566
  0.015925
 -0.007062
  0.013331
 -0.012832
 -0.002127
  0.010167
 -0.024066
  0.008767
 -0.024329
  0.033449
 -0.012240
 -0.025167
 -0.028858
  0.023048
  0.012576
  0.028488
  0.019512
 -0.016039
  0.002739
  0.025335
  0.003155
 -0.002483
  0.014164
  0.016885
  0.017104
 -0.004108
 -0.002000
  0.046223
 -0.035345
 -0.030921
 -0.015303
 -0.000883
 -0.017487
  0.026887
  0.038726
  0.023667
 -0.031569
 -0.023233
  0.009990
 -0.023096
  0.022548
 -0.006476
 -0.014058
  0.013177
 -0.041242
  0.021133
 -0.011733
  0.025407
 -0.053762
  0.012590
 -0.028872
  0.006888
  0.021365
 -0.049730
 -0.023607
 -0.007987
 -0.004000
 -0.064211
 -0.021437
 -0.012168
  0.000173
 -0.038265
 -0.028604
 -0.010604
  0.013721
 -0.000926
  0.008535
  0.007677
  0.021041
  0.004369
  0.019417
  0.029948
  0.019421
 -0.003607
  0.012292
 -0.011960
 -0.003629
  0.003235
 -0.042139
 -0.002199
  0.021169
 -0.006658
  0.009219
 -0.028485
  0.012707
  0.006241
 -0.010627
 -0.000097
 -0.019318
 -0.003344
 -0.055053
 -0.027712
  0.040755
  0.017118
 -0.033770
 -0.000108
 -0.001489
 -0.007473
  0.012050
  0.000166
  0.015127
  0.009427
  0.022857
  0.002327
  0.002245
 -0.025085
  0.020812
  0.004973
  0.000873
  0.009479
 -0.033951
 -0.004823
  0.014414
 -0.058129
  0.012864
  0.004069
  0.003088
 -0.040056
  0.023663
 -0.033531
  0.001271
  0.039237
  0.024869
  0.003257
  0.023792
 -0.004335
  0.002504
 -0.035294
  0.034353
  0.000494
 -0.012525
 -0.021342
  0.012392
  0.018094
  0.004286
  0.012660
 -0.022326
 -0.003880
  0.009101
  0.041434
  0.036729
  0.024052
 -0.032702
  0.017157
 -0.017096
  0.021246
  0.047509
  0.019109
  0.036605
  0.001675
  0.041137
  0.022680
 -0.044261
 -0.059516
  0.032998
  0.024300
 -0.012065
  0.002952
 -0.016540
  0.051918
 -0.002419
  0.025918
 -0.020482
 -0.004626
  0.013660
 -0.007402
 -0.038189
  0.010245
 -0.003116
  0.005371
  0.004284
  0.039209
 -0.020441
 -0.002261
  0.024056
  0.031730
  0.006263
  0.010495
  0.015243
  0.012886
  0.021395
  0.001926
  0.027849
  0.026213
  0.003212
  0.022745
 -0.018350
  0.030151
  0.022647
 -0.001062
 -0.010240
 -0.038323
 -0.007830
  0.014733
 -0.011729
  0.047933
  0.023968
  0.013694
 -0.036499
  0.013273
  0.014117
  0.001216
 -0.043858
  0.005452
 -0.056824
  0.007069
 -0.004643
  0.037127
 -0.004269
 -0.017819
 -0.033570
  0.003978
  0.017337
  0.009048
 -0.008627
 -0.015460
 -0.048825
  0.007999
  0.057393
  0.011755
  0.012801
  0.023839
  0.007146
 -0.034200
 -0.038125
  0.002608
 -0.035062
  0.003160
 -0.011651
 -0.000908
  0.007103
 -0.025424
 -0.013888
  0.032354
  0.013017
  0.007769
 -0.016560
 -0.000341
 -0.001657
  0.043406
 -0.003881
 -0.024598
 -0.019381
 -0.000468
 -0.004893
  0.007574
  0.028825
  0.043395
 -0.003794
  0.009652
  0.010321
  0.003139
  0.038747
 -0.007904
  0.014790
 -0.002818
  0.010191
 -0.026505
 -0.000742
  0.008864
  0.049344
 -0.021346
  0.010351
 -0.010991
  0.020800
 -0.036076
  0.019352
  0.013183
  0.016934
  0.036394
  0.020731
  0.033489
 -0.035970
 -0.031798
 -0.014644
 -0.005604
 -0.013743
  0.003097
 -0.019086
 -0.033981
 -0.011966
 -0.007737
 -0.003969
 -0.002821
  0.028504
 -0.028807
  0.004381
 -0.039088
  0.001285
  0.021665
 -0.025568
  0.000642
  0.007057
  0.049367
 -0.001926
  0.005664
 -0.000319
  0.001045
 -0.029665
  0.027241
 -0.014564
  0.026876
 -0.003564
 -0.037998
 -0.025686
  0.052279
 -0.001822
 -0.068093
  0.021428
  0.002690
  0.008665
 -0.016943
  0.031895
 -0.007662
  0.010141
 -0.035858
 -0.051227
 -0.002119
 -0.024546
  0.006777
  0.013427
 -0.015370
 -0.028765
  0.041142
  0.032626
  0.016899
 -0.029524
  0.016932
  0.025185
 -0.008969
  0.016775
 -0.005662
  0.000218
  0.012904
 -0.007842
  0.010003
  0.008916
 -0.010993
 -0.003274
  0.015276
 -0.000490
 -0.007003
 -0.019077
  0.032807
  0.013549
 -0.019166
  0.029236
  0.020620
  0.024783
 -0.004698
 -0.042188
 -0.032359
 -0.011590
  0.026421
 -0.000915
  0.052616
  0.012752
 -0.026253
  0.011298
  0.046943
 -0.007427
  0.019637
  0.042745
  0.004350
 -0.024627
  0.025447
  0.010317
 -0.009869
 -0.042154
  0.016614
  0.029827
 -0.038342
 -0.033828
 -0.006538
  0.042215
 -0.018588
  0.027378
 -0.022095
 -0.043625
 -0.011214
 -0.036802
  0.025938
 -0.010509
 -0.022953
  0.018346
 -0.030605
  0.031270
 -0.025913
  0.012018
  0.003866
 -0.032412
 -0.028775
  0.003320
 -0.003564
 -0.009698
 -0.000798
 -0.006818
 -0.000056
 -0.012341
 -0.021349
 -0.012416
  0.034007
  0.008926
 -0.027822
  0.010587
  0.024751
  0.000567
 -0.016941
 -0.022506
 -0.017758
  0.039116
  0.011736
 -0.043216
 -0.013830
  0.026158
  0.042080
 -0.006793
 -0.047556
  0.022344
 -0.030262
 -0.013763
 -0.020909
 -0.015726
 -0.015111
  0.047375
 -0.039332
 -0.005893
 -0.014006
  0.035105
  0.007308
 -0.014165
 -0.012150
 -0.012851
  0.026721
 -0.027648
  0.013797
  0.042598
  0.020022
  0.034603
  0.000218
 -0.015435
 -0.034960
  0.048294
 -0.033122
 -0.046739
  0.037453
  0.000008
  0.018273
 -0.000951
 -0.001850
 -0.031229
  0.021739
 -0.007090
 -0.009379
  0.016297
  0.003231
 -0.031620
 -0.014759
  0.009886
  0.008805
  0.001270
 -0.005157
 -0.004612
  0.023417
  0.011001
 -0.016077
  0.050888
 -0.008697
  0.037797
 -0.045180
 -0.003785
  0.042719
  0.004384
 -0.020554
  0.000129
 -0.018806
  0.030450
 -0.018397
 -0.011683
 -0.008223
 -0.036974
  0.002218
 -0.001443
 -0.007009
  0.023596
 -0.008501
  0.016113
 -0.013283
 -0.029948
  0.038924
 -0.012520
 -0.007483
  0.025012
  0.011908
  0.018076
  0.015956
 -0.004796
  0.010049
  0.018659
  0.001757
 -0.001037
  0.024577
  0.008187
 -0.007961
  0.032197
  0.024864
 -0.028314
 -0.019367
 -0.042474
 -0.016202
  0.023347
  0.042042
 -0.013563
 -0.024222
  0.012437
 -0.020718
 -0.013126
  0.027622
  0.014393
 -0.004395
 -0.000402
  0.003522
  0.016146
 -0.006527
  0.013178
 -0.011059
  0.017319
  0.008739
  0.026752
  0.005561
 -0.028528
 -0.020360
 -0.015987
 -0.002877
  0.007169
  0.075149
 -0.020672
  0.024615
  0.026086
 -0.023468
  0.017997
 -0.012617
  0.023312
  0.042843
  0.022347
 -0.000171
  0.002528
 -0.013862
 -0.016393
  0.006621
 -0.005445
  0.007307
 -0.004358
 -0.017231
 -0.014129
 -0.004969
 -0.017549
 -0.061605
 -0.011694
 -0.007591
  0.003629
 -0.029858
  0.035610
  0.001797
  0.005057
 -0.016754
 -0.007396
 -0.008662
 -0.005646
  0.015349
 -0.019959
  0.012714
 -0.036393
 -0.013204
  0.008995
 -0.027360
 -0.005644
 -0.010975
 -0.028349
  0.007076
 -0.001338
 -0.004951
 -0.015938
 -0.005439
 -0.016198
 -0.007069
  0.049434
 -0.011177
  0.006199
 -0.009183
 -0.019114
 -0.026521
 -0.001194
 -0.007040
 -0.006575
  0.016607
 -0.023889
  0.022097
 -0.012344
  0.009258
 -0.016062
  0.014083
  0.032373
  0.028645
  0.024433
  0.007892
  0.001370
 -0.045622
 -0.009719
 -0.049852
 -0.004291
 -0.031349
 -0.000781
  0.027992
 -0.020564
  0.017399
  0.009941
  0.029012
 -0.014276
 -0.015745
 -0.070645
 -0.049236
 -0.041528
  0.009565
 -0.004364
  0.003224
 -0.005938
 -0.027682
  0.012232
 -0.000761
  0.019141
 -0.022712
  0.021579
 -0.019441
 -0.031840
 -0.003984
  0.005614
  0.014170
  0.019993
  0.022315
 -0.002756
  0.022424
  0.013216
  0.005070
 -0.010780
  0.018547
  0.007766
 -0.003359
 -0.039251
  0.004895
  0.000657
 -0.012670
 -0.039154
  0.058626
 -0.018558
 -0.032816
 -0.025794
  0.021007
  0.005205
 -0.013857
  0.037362
 -0.012275
 -0.016580
 -0.013785
 -0.018252
  0.006562
  0.011190
 -0.016741
 -0.002316
 -0.006294
 -0.020883
  0.002971
 -0.017569
 -0.004560
 -0.011108
  0.007056
  0.013903
 -0.005943
  0.009367
  0.020296
 -0.003270
  0.027608
 -0.017244
  0.019028
  0.019036
 -0.027446
  0.009006
  0.015110
 -0.016251
 -0.031947
  0.024199
 -0.014696
  0.036171
 -0.038957
  0.006623
 -0.026694
 -0.044600
 -0.011399
  0.007077
 -0.019259
 -0.014562
  0.004695
  0.029365
  0.001127
  0.022700
 -0.006944
  0.061689
 -0.002866
 -0.009325
  0.029243
 -0.019257
 -0.020858
  0.024010
  0.008847
 -0.000055
  0.005403
 -0.011789
  0.029336
  0.009009
  0.017311
  0.020615
  0.021094
  0.017416
 -0.018932
 -0.009404
  0.027926
  0.009460
  0.022975
 -0.037938
 -0.002366
 -0.021929
 -0.045101
 -0.007787
  0.006506
 -0.034048
 -0.003221
 -0.012773
  0.063198
 -0.027069
  0.002425
  0.013327
  0.018313
  0.027315
  0.042027
  0.007425
 -0.002318
 -0.044509
 -0.053255
  0.006133
 -0.016613
  0.005771
  0.010911
  0.007519
 -0.003411
  0.008287
  0.009276
  0.034397
  0.018591
 -0.021954
  0.007699
 -0.022657
  0.019193
 -0.009073
 -0.015516
 -0.011959
  0.011292
  0.013631
 -0.012482
 -0.006664
  0.039932
 -0.000853
 -0.026705
  0.013052
  0.010565
 -0.007205
 -0.012816
 -0.026765
 -0.038928
 -0.043902
  0.001985
 -0.024656
 -0.005663
  0.008947
 -0.001919
  0.003041
  0.016439
  0.004372
  0.006915
 -0.019301
 -0.016171
  0.020905
  0.007252
 -0.015376
 -0.003855
  0.007012
  0.035447
  0.020713
 -0.003494
  0.007226
  0.025800
 -0.019685
 -0.014342
  0.005068
  0.012110
 -0.019283
  0.011405
 -0.001409
 -0.018162
  0.040344
 -0.029630
  0.018848
 -0.019578
  0.015205
 -0.000291
 -0.017498
 -0.038709
  0.000168
 -0.001753
 -0.017317
 -0.030505
 -0.020314
  0.000085
 -0.013565
  0.004782
  0.023856
  0.051747
 -0.071852
 -0.023894
  0.030083
 -0.036265
  0.030442
 -0.028552
  0.019997
  0.010163
  0.007564
  0.038527
  0.013844
  0.008061
  0.006072
  0.042906
  0.011752
 -0.037887
 -0.014418
  0.040365
 -0.001023
 -0.000224
 -0.016830
 -0.016905
  0.036696
 -0.004674
  0.023428
 -0.021144
 -0.011831
  0.018358
 -0.021664
 -0.040142
 -0.010239
  0.014907
 -0.010001
  0.047103
 -0.017653
 -0.000491
  0.009249
  0.051615
 -0.036607
  0.036479
  0.026230
  0.026550
  0.058788
  0.077928
  0.013707
 -0.023468
  0.037543
  0.003330
  0.023546
 -0.001616
  0.017597
  0.001115
  0.043770
  0.088302
  0.039392
  0.010011
  0.005460
  0.008876
  0.035154
 -0.008138
  0.035992
  0.005319
  0.016972
  0.054745
  0.015679
  0.046184
  0.018579
  0.073368
  0.074810
  0.025291
  0.077332
  0.114560
  0.065618
  0.064715
  0.085026
  0.049291
  0.090273
  0.037537
  0.064837
  0.072326
  0.041318
  0.056365
  0.025715
  0.051439
  0.078189
  0.056425
  0.070904
  0.071032
  0.049151
  0.123186
  0.156252
  0.155000
  0.211246
  0.282417
  0.338208
  0.404891
  0.548017
  0.597287
  0.727443
  0.795526
  0.870489
  0.916098
  0.943632
  1.000000
  0.949661
  0.901976
  0.849428
  0.783401
  0.689665
  0.582764
  0.497832
  0.396684
  0.291564
  0.210428
  0.153522
  0.122091
  0.090521
  0.076691
  0.052924
 -0.013060
  0.042401
  0.007228
  0.049290
 -0.004620
 -0.004751
  0.000872
 -0.024841
  0.000422
  0.002043
 -0.020515
  0.046065
 -0.023648
 -0.019667
  0.000454
 -0.004823
 -0.008793
  0.039843
  0.015707
  0.012227
  0.003934
  0.000053
  0.019113
  0.013569
 -0.031210
  0.035529
  0.006355
  0.021388
 -0.009179
  0.007123
 -0.016908
 -0.022352
  0.002179
  0.002534
 -0.044305
 -0.000541
  0.024723
 -0.025940
  0.011570
 -0.003096
 -0.009536
 -0.035707
  0.033829
  0.003139
  0.043186
 -0.004785
 -0.012312
 -0.035305
 -0.010714
  0.025391
  0.015041
 -0.002426
  0.018985
 -0.004309
 -0.002427
  0.004701
 -0.019234
  0.035188
  0.028610
 -0.000699
  0.003387
  0.009262
  0.014460
  0.027599
 -0.021164
 -0.013659
 -0.007898
 -0.024404
 -0.000146
 -0.005105
  0.011271
 -0.021392
 -0.020099
 -0.002412
 -0.035842
 -0.011885
  0.047405
  0.014599
  0.011531
  0.006171
 -0.024837
  0.010368
  0.021828
 -0.031827
 -0.006930
 -0.027147
 -0.052825
  0.008957
  0.001124
  0.010241
 -0.005054
  0.026018
 -0.031518
  0.009111
 -0.039500
  0.024389
  0.028316
  0.017790
  0.027624
 -0.027165
 -0.032251
  0.006273
  0.034360
 -0.020806
 -0.011862
 -0.006180
 -0.012124
  0.026506
  0.009198
 -0.013097
 -0.005400
  0.026175
 -0.002394
 -0.002357
  0.028531
  0.014243
  0.016920
 -0.003392
  0.019345
  0.033631
 -0.008493
  0.013185
  0.056858
  0.024918
 -0.041957
  0.005155
 -0.018417
  0.057201
  0.005573
  0.021032
  0.009873
 -0.032270
 -0.014412
 -0.019901
 -0.017791
  0.004575
  0.041547
 -0.006283
  0.029191
  0.020183
 -0.005771
  0.027429
 -0.026601
 -0.022380
 -0.037498
  0.010124
  0.023408
 -0.052571
  0.003428
 -0.004583
  0.032195
  0.005619
 -0.022039
 -0.003873
 -0.012535
  0.007251
 -0.013742
  0.011289
 -0.000330
 -0.027912
  0.012327
  0.029939
 -0.017935
 -0.034067
  0.027328
  0.037962
 -0.034282
  0.000359
 -0.008117
 -0.012844
 -0.035128
 -0.006891
  0.011681
 -0.031819
 -0.011801
 -0.047983
 -0.003302
 -0.018620
  0.034026
 -0.013216
 -0.031552
  0.028844
 -0.033017
  0.028233
 -0.000224
 -0.045149
 -0.014292
  0.020907
  0.015060
  0.042256
  0.039501
  0.003637
  0.037695
  0.000104
 -0.007528
  0.014078
 -0.004027
  0.041010
  0.000892
 -0.000772
 -0.024868
 -0.000451
 -0.036720
  0.005655
  0.007665
 -0.010940
 -0.009382
  0.023201
  0.024825
 -0.002929
  0.012178
  0.006056
  0.022469
 -0.010071
  0.033070
  0.035257
 -0.047511
 -0.011374
 -0.015719
  0.008520
 -0.009544
 -0.007626
  0.005857
 -0.007938
 -0.005045
  0.022850
  0.017363
  0.024545
 -0.024413
  0.022423
  0.009377
  0.020173
  0.000564
  0.001499
  0.053394
  0.026364
  0.011054
  0.054050
 -0.049949
  0.007245
 -0.004545
  0.036657
  0.026572
 -0.018031
  0.032291
  0.021588
  0.001260
  0.015382
  0.026092
 -0.014433
 -0.030289
  0.070642
 -0.045727
 -0.006272
  0.026319
 -0.031397
  0.009311
  0.011785
 -0.012475
  0.010584
  0.026406
 -0.027193
  0.029232
  0.038148
  0.017469
 -0.028246
 -0.016699
 -0.013106
  0.002952
  0.003144
 -0.040955
 -0.017719
 -0.053922
 -0.027996
  0.026209
  0.027434
 -0.001795
  0.034241
 -0.012594
  0.017558
  0.011428
  0.033556
 -0.011536
 -0.030183
  0.029412
 -0.003079
 -0.008501
  0.016892
 -0.003830
 -0.014720
 -0.003550
 -0.026416
 -0.015246
 -0.012018
  0.015891
  0.013559
 -0.020707
 -0.012919
 -0.042913
  0.010945
 -0.035631
  0.062413
 -0.015842
  0.019703
  0.080911
 -0.014937
  0.022679
 -0.003064
 -0.020446
 -0.014836
  0.007245
  0.023480
 -0.002101
  0.041751
 -0.025880
 -0.034497
 -0.008404
  0.021879
 -0.001439
 -0.002902
 -0.033255
  0.005230
 -0.003275
 -0.000318
 -0.017593
  0.009110
  0.038028
 -0.011815
 -0.007652
 -0.036244
  0.048735
  0.025825
  0.026935
  0.007317
 -0.039607
  0.005396
 -0.008820
 -0.014383
  0.006565
  0.043381
 -0.005952
 -0.017963
 -0.021362
 -0.021689
  0.015901
 -0.015240
 -0.013055
 -0.000190
  0.004110
  0.016286
  0.000917
 -0.004788
  0.000882
  0.058904
  0.026078
  0.012664
 -0.054292
  0.020702
  0.044976
  0.009775
 -0.032521
  0.009984
 -0.007297
  0.002147
  0.011235
 -0.014660
 -0.017663
 -0.008750
  0.006386
 -0.031453
 -0.008603
  0.008450
 -0.046228
 -0.056644
 -0.016300
  0.016223
 -0.015947
  0.009728
  0.016219
  0.006850
 -0.002629
 -0.004485
  0.002196
 -0.020197
 -0.024975
 -0.010862
  0.007558
  0.047239
  0.022051
 -0.028239
  0.017152
  0.025165
  0.014977
  0.008755
 -0.021648
  0.010641
  0.027993
 -0.004142
  0.021245
  0.003648
  0.017118
 -0.009680
 -0.020681
  0.028232
 -0.025690
  0.000824
 -0.007875
 -0.046655
  0.051792
  0.052184
 -0.006029
  0.050738
 -0.010272
 -0.029180
  0.000721
 -0.010657
  0.028135
  0.034153
  0.008071
 -0.001459
  0.009541
 -0.015306
  0.020784
 -0.003152
 -0.022404
  0.005101
 -0.027424
 -0.032818
 -0.005627
  0.008956
 -0.020744
 -0.013477
  0.038913
  0.012640
 -0.014607
 -0.035795
 -0.017393
 -0.038346
 -0.016719
 -0.005734
  0.020857
 -0.021969
  0.014949
  0.000646
 -0.005501
  0.028530
 -0.013614
  0.007310
 -0.046102
  0.008230
 -0.020321
 -0.020152
  0.034326
  0.003215
 -0.048945
 -0.039765
  0.039933
 -0.005731
  0.007464
  0.025259
 -0.049421
  0.008175
 -0.005864
  0.001214
 -0.023281
 -0.012576
  0.016554
 -0.001878
 -0.022108
  0.026741
 -0.014128
  0.026798
  0.048607
  0.037890
 -0.004679
 -0.020551
 -0.041286
 -0.018254
  0.004949
 -0.008123
 -0.022252
 -0.035169
 -0.011207
 -0.006949
  0.001826
 -0.004075
 -0.013659
 -0.005165
  0.015762
  0.007386
  0.004668
  0.001462
  0.037878
 -0.001683
  0.015656
 -0.037275
 -0.005916
  0.022745
 -0.029188
  0.022044
  0.020093
 -0.029781
 -0.022634
  0.000021
  0.029209
 -0.042929
 -0.021155
  0.029588
 -0.011795
 -0.017119
 -0.002032
  0.019221
  0.001615
  0.000383
 -0.006885
 -0.028047
  0.002856
 -0.007977
  0.025767
 -0.009920
  0.052650
 -0.041844
  0.015625
 -0.025335
 -0.006454
 -0.042710
 -0.020803
 -0.036884
 -0.029607
 -0.015919
  0.057690
  0.000092
  0.007758
 -0.001939
 -0.020182
 -0.026484
  0.030819
  0.002100
  0.025029
 -0.018337
 -0.032569
  0.028164
 -0.001506
  0.020014
  0.019459
 -0.015011
 -0.007257
 -0.020453
 -0.026644
  0.013173
 -0.019427
  0.009438
 -0.052261
  0.001637
 -0.020142
  0.024405
  0.015645
 -0.027952
 -0.007311
  0.047009
  0.025219
  0.003281
 -0.015585
 -0.001318
 -0.011177
  0.018747
  0.003565
  0.011270
  0.005223
  0.002393
 -0.017481
  0.024568
 -0.007453
 -0.010764
 -0.003420
 -0.049393
  0.039755
 -0.006031
 -0.026139
  0.032584
  0.018657
 -0.011856
 -0.037219
  0.010833
 -0.008848
  0.012746
 -0.001514
  0.008297
 -0.013164
  0.019088
 -0.005102
  0.034876
  0.008527
 -0.027721
 -0.004352
  0.006403
 -0.067388
  0.008496
 -0.012707
 -0.017563
  0.010907
 -0.027336
 -0.007965
  0.042073
 -0.011083
 -0.028141
  0.006489
  0.006431
 -0.038179
 -0.000008
 -0.006315
  0.036446
  0.007022
 -0.027359
 -0.004031
  0.026408
 -0.020135
 -0.008779
 -0.018049
 -0.018883
 -0.015342
 -0.033649
 -0.030972
  0.019053
  0.004779
 -0.035253
  0.048406
  0.038916
 -0.016318
  0.027531
  0.000123
  0.014906
 -0.013794
  0.046705
 -0.032587
 -0.015009
  0.044243
 -0.006260
 -0.002969
  0.018642
  0.030847
  0.028782
  0.020412
  0.026829
  0.032177
  0.004189
  0.006383
 -0.007703
  0.032463
 -0.024669
  0.028177
  0.049565
 -0.002482
 -0.010392
 -0.004631
  0.024164
  0.006937
 -0.042197
  0.031167
  0.010427
  0.000138
 -0.014787
  0.034640
  0.014044
  0.057949
  0.005625
 -0.028818
 -0.028314
 -0.055082
  0.010874
 -0.007149
  0.013875
  0.010678
 -0.001233
  0.005279
 -0.001352
  0.000876
  0.017374
  0.015574
  0.013698
  0.030608
  0.022976
 -0.003483
 -0.033754
 -0.012187
 -0.019485
 -0.029863
 -0.012741
  0.009862
 -0.019223
  0.010184
 -0.045246
 -0.007248
  0.015155
 -0.028973
  0.019781
  0.016025
 -0.013612
 -0.004152
  0.024927
 -0.005682
  0.029148
  0.004100
 -0.004944
  0.003210
 -0.008199
  0.030039
  0.041827
 -0.010945
 -0.018299
  0.004446
 -0.028073
  0.033119
 -0.004364
  0.004633
  0.027897
 -0.017398
 -0.042496
  0.010899
 -0.028195
  0.009983
  0.048503
 -0.036800
  0.027171
 -0.043723
 -0.000895
 -0.008487
 -0.027094
 -0.011075
  0.024526
  0.007168
  0.011751
  0.031199
  0.007116
 -0.032527
 -0.015237
 -0.006453
  0.016610
  0.044820
 -0.010840
 -0.011648
  0.013844
 -0.027339
  0.038722
  0.012871
  0.027735
 -0.035823
  0.014724
  0.019677
  0.048141
 -0.014331
 -0.035446
  0.024858
 -0.006951
 -0.019377
  0.028286
  0.008468
  0.008216
  0.034903
 -0.006385
  0.016970
  0.001190
 -0.008139
 -0.035063
  0.029769
 -0.002714
  0.062420
  0.019914
 -0.003270
 -0.004222
 -0.036140
 -0.007801
 -0.003582
  0.009437
 -0.011202
 -0.002002
 -0.010533
 -0.004905
 -0.000497
 -0.027741
 -0.009716
 -0.009133
  0.009422
 -0.022608
 -0.006137
 -0.036206
 -0.040468
 -0.004807
  0.004394
  0.005789
 -0.015576
 -0.011253
 -0.002722
  0.023668
  0.002262
 -0.000247
  0.046976
 -0.027700
 -0.021052
  0.003438
 -0.030260
 -0.010408
  0.010831
 -0.018753
 -0.020792
  0.016485
  0.000770
  0.033559
 -0.009905
  0.005393
 -0.014422
 -0.004043
 -0.017265
 -0.021271
 -0.012481
  0.026313
 -0.010665
 -0.011368
 -0.015750
 -0.003536
  0.012349
  0.011037
  0.062326
 -0.011684
 -0.025765
  0.019832
 -0.030114
  0.016076
 -0.034332
  0.010825
  0.037815
  0.011877
 -0.029650
  0.023498
 -0.013205
 -0.008487
  0.009509
 -0.014750
 -0.045506
 -0.001554
  0.002454
 -0.028926
 -0.002911
 -0.014875
  0.016569
 -0.010584
 -0.032869
 -0.013508
  0.033006
 -0.025366
  0.005175
 -0.017429
  0.006411
  0.014590
 -0.001865
  0.010361
  0.012492
 -0.014160
  0.001492
 -0.005176
  0.016273
  0.010861
 -0.025255
  0.020140
  0.020520
 -0.045790
 -0.038606
 -0.002645
  0.006696
  0.015745
  0.007210
 -0.022424
  0.054641
 -0.052061
  0.014974
  0.002230
 -0.007230
  0.004825
  0.008333
 -0.008299
 -0.027786
  0.021670
 -0.002838
  0.014816
  0.001613
  0.031470
 -0.016705
  0.005852
 -0.015456
  0.051627
  0.010493
 -0.005705
  0.002681
  0.052569
 -0.004080
 -0.012657
 -0.025544
  0.026095
  0.008234
  0.017306
  0.002969
 -0.009599
  0.009576
 -0.013748
 -0.013566
  0.037793
  0.028271
  0.008942
 -0.028904
  0.009332
  0.011342
 -0.000603
  0.025627
  0.044393
  0.018273
 -0.004342
 -0.031701
 -0.005562
  0.004562
 -0.018679
  0.065376
 -0.001018
 -0.010070
 -0.005013
  0.014440
 -0.017631
  0.007610
  0.023130
 -0.011023
 -0.002393
  0.000998
 -0.014624
 -0.001002
 -0.015313
  0.023224
 -0.009834
 -0.019735
 -0.000059
 -0.038434
  0.006442
 -0.018430
 -0.020356
  0.027773
  0.006663
 -0.030878
 -0.015510
 -0.039348
 -0.010848
  0.047082
  0.025726
  0.028343
  0.033315
  0.000922
  0.014810
 -0.024517
 -0.039119
  0.040159
 -0.029712
  0.013823
  0.056115
 -0.030477
 -0.022519
  0.039740
 -0.000536
  0.002144
 -0.002179
  0.011200
 -0.018260
 -0.009622
 -0.011922
  0.019724
 -0.033747
  0.014120
 -0.015670
  0.014040
 -0.016935
 -0.049365
 -0.038395
 -0.010145
 -0.022610
 -0.002417
  0.014026
 -0.069368
 -0.021260
 -0.016412
 -0.004625
  0.025018
  0.022197
  0.001973
  0.004747
  0.050925
  0.022700
  0.021913
 -0.003374
 -0.007059
  0.014332
  0.008956
  0.038719
 -0.030032
  0.029858
  0.006481
  0.008797
 -0.042637
  0.021755
  0.052798
  0.032962
 -0.031877
  0.041417
  0.015160
 -0.022901
 -0.031403
  0.015972
  0.001464
 -0.000554
 -0.032409
  0.009245
 -0.021291
  0.008084
 -0.018320
  0.027441
  0.001859
  0.019350
 -0.038311
  0.003919
 -0.021574
  0.006461
  0.001403
 -0.003188
  0.029907
  0.013269
  0.007650
 -0.045378
 -0.002918
 -0.060275
  0.000497
  0.019320
  0.001567
  0.001524
 -0.035178
 -0.056694
 -0.016999
  0.005684
  0.014865
  0.029376
 -0.010913
  0.010151
 -0.021795
 -0.017536
 -0.004262
 -0.000446
 -0.058838
 -0.000772
  0.021250
 -0.000462
 -0.010795
 -0.010577
  0.001532
 -0.033663
  0.024181
 -0.021905
 -0.030226
  0.034785
 -0.043210
 -0.013956
  0.015401
  0.010945
  0.025722
 -0.029984
 -0.000983
  0.026969
  0.025425
  0.050263
  0.014082
  0.011761
 -0.006287
  0.022234
  0.010821
 -0.021899
 -0.018632
 -0.031431
  0.012590
  0.009469
 -0.000231
  0.029914
 -0.014134
 -0.011694
  0.000746
 -0.046109
  0.046260
  0.019978
  0.038551
 -0.002531
  0.017410
  0.028415
 -0.013825
  0.004446
 -0.002946
 -0.010683
  0.004609
  0.006310
  0.000099
 -0.010441
  0.007083
 -0.028932
  0.005648
 -0.041982
  0.021365
  0.048916
 -0.012178
 -0.001990
 -0.000790
 -0.036654
  0.007825
 -0.015845
  0.009221
  0.004716
  0.006541
  0.002853
  0.002553
  0.000951
  0.012026
 -0.013938
  0.020510
 -0.002499
  0.017248
  0.019994
  0.036341
  0.005827
 -0.017617
  0.059063
  0.024874
  0.039197
  0.020205
 -0.022972
  0.008142
  0.033674
 -0.044766
 -0.012590
  0.040308
 -0.000804
 -0.017938
  0.011371
 -0.023413
  0.017285
 -0.007717
  0.032122
  0.004559
 -0.009563
  0.011193
 -0.035641
 -0.022355
  0.018452
 -0.011618
  0.012651
 -0.023321
 -0.015875
  0.020735
  0.034120
 -0.009183
  0.037021
 -0.000934
  0.007944
  0.015572
  0.012169
  0.036121
 -0.012152
 -0.004393
 -0.019501
 -0.007349
  0.032768
  0.009489
 -0.013921
 -0.002417
  0.010197
 -0.019397
  0.039465
  0.014080
  0.020528
 -0.021682
 -0.039112
 -0.007500
 -0.033457
 -0.049643
 -0.001493
  0.021906
  0.003497
 -0.031354
 -0.046408
 -0.021990
  0.032712
 -0.002804
  0.020700
  0.041285
 -0.013432
 -0.027547
  0.008387
  0.021347
 -0.012501
  0.011507
  0.034349
 -0.001282
 -0.008493
  0.001598
  0.035749
 -0.010477
 -0.010138
  0.021999
  0.002572
  0.034909
  0.031574
  0.000391
  0.000746
 -0.016608
 -0.013619
 -0.053163
 -0.009333
 -0.003027
  0.008162
  0.019620
  0.014492
  0.011347
 -0.002300
 -0.000177
  0.040889
  0.016691
 -0.019174
 -0.020628
  0.021658
 -0.021190
  0.001044
 -0.008696
 -0.027539
  0.030121
 -0.013131
  0.034004
 -0.019801
 -0.021032
  0.012187
  0.010008
  0.026986
 -0.027578
  0.009790
 -0.025271
  0.014634
 -0.036896
 -0.001693
  0.010872
 -0.031749
  0.008524
  0.020116
 -0.028471
  0.000650
  0.006626
  0.016765
  0.002949
 -0.010771
 -0.016341
 -0.008686
 -0.029989
  0.005106
 -0.008968
 -0.025756
 -0.024922
  0.020654
  0.034948
  0.019500
 -0.000986
 -0.027851
 -0.013244
 -0.007914
  0.031145
  0.024141
 -0.002851
  0.041160
 -0.002005
  0.005079
 -0.025719
 -0.001878
  0.005560
 -0.013656
  0.006043
 -0.024151
 -0.037728
  0.035386
 -0.015909
 -0.035513
 -0.003361
 -0.038947
 -0.030288
  0.008961
  0.015708
  0.010768
 -0.022406
  0.013119
 -0.006212
  0.040450
 -0.009750
 -0.000456
  0.037490
 -0.000593
  0.007554
 -0.020315
 -0.004129
  0.013967
  0.012738
  0.003046
 -0.012688
 -0.006104
 -0.025487
  0.025525
 -0.053157
 -0.028221
  0.040771
 -0.045078
  0.001566
 -0.061134
  0.023691
  0.011831
 -0.034125
  0.011628
 -0.025663
 -0.008725
  0.026215
 -0.003758
 -0.032370
 -0.015544
  0.009145
  0.012465
 -0.025946
 -0.013258
 -0.002832
  0.047515
  0.015858
  0.017926
 -0.006880
  0.024840
 -0.010273
 -0.034245
 -0.006555
 -0.037265
  0.022533
  0.033099
  0.026245
  0.002042
 -0.020734
  0.004128
  0.038328
 -0.013248
 -0.019595
  0.024306
 -0.022741
  0.006946
 -0.005274
 -0.012287
 -0.019967
  0.013994
 -0.002876
 -0.007326
 -0.020922
 -0.039490
  0.041574
  0.009582
  0.001471
  0.007833
 -0.005072
  0.019800
  0.027451
 -0.040253
 -0.033296
  0.006155
 -0.034540
  0.002426
 -0.028536
  0.055324
 -0.031223
  0.015696
  0.014176
  0.046457
 -0.039998
 -0.040294
  0.008086
 -0.011119
  0.009347
 -0.034542
 -0.023294
  0.031240
 -0.010122
  0.008859
  0.026154
 -0.005225
 -0.022682
 -0.041250
 -0.011420
  0.018959
 -0.043559
 -0.038575
  0.021665
 -0.013914
  0.002538
 -0.038639
 -0.048272
  0.015129
  0.027952
 -0.005253
  0.021152
  0.034036
 -0.092260
  0.011691
  0.019073
  0.016625
  0.036336
 -0.008468
 -0.022634
 -0.022809
  0.032395
  0.005722
  0.003266
 -0.032581
 -0.020278
 -0.073408
 -0.013888
 -0.016521
  0.031420
  0.010474
  0.000990
 -0.001917
  0.005355
  0.027602
  0.016814
  0.041098
  0.003864
  0.001097
  0.002496
 -0.009303
 -0.013220
  0.017032
  0.020913
  0.015740
 -0.016067
  0.015656
  0.001697
 -0.009492
  0.036719
 -0.016471
 -0.031869
  0.024719
  0.043321
 -0.006530
 -0.041224
 -0.013908
 -0.013881
  0.000353
 -0.038758
 -0.003690
 -0.023186
  0.020983
  0.011724
  0.000614
 -0.017507
  0.024475
 -0.030865
  0.040981
 -0.013147
 -0.006688
 -0.018593
  0.000220
  0.000780
 -0.004668
 -0.007155
  0.009345
  0.005229
 -0.022512
 -0.007213
 -0.009809
 -0.008108
 -0.023012
  0.009561
 -0.031135
 -0.000354
  0.005995
  0.018759
  0.043000
  0.010300
  0.039273
  0.007492
  0.020301
  0.025511
 -0.012158
 -0.020098
 -0.011836
 -0.042854
  0.002645
  0.015164
  0.031003
  0.001334
  0.036385
  0.019672
 -0.018683
  0.050774
 -0.016622
  0.028317
  0.036630
  0.009205
  0.029419
  0.009639
  0.007897
  0.011239
  0.014025
 -0.012971
  0.000655
 -0.026578
 -0.003340
  0.001578
  0.043796
 -0.007949
 -0.048259
  0.034942
 -0.013014
  0.010065
  0.015336
  0.044941
 -0.034804
 -0.023903
 -0.043824
 -0.009715
  0.001212
 -0.009159
  0.032780
 -0.020154
  0.004186
  0.039763
  0.021234
  0.022691
 -0.018585
 -0.001684
 -0.031459
 -0.016468
 -0.031877
  0.016636
 -0.044312
  0.021825
  0.000040
 -0.002812
  0.019071
 -0.005428
 -0.040983
  0.061692
 -0.029085
 -0.004112
  0.022443
 -0.023439
 -0.025378
  0.009025
 -0.006731
  0.009947
  0.010686
 -0.017013
  0.022360
  0.021061
  0.027652
 -0.032411
 -0.000159
 -0.018411
 -0.044277
  0.012998
  0.013092
 -0.022273
  0.031225
 -0.005484
  0.012199
  0.034114
 -0.031543
 -0.019333
  0.016478
  0.000860
  0.023259
 -0.023165
  0.009893
 -0.014626
 -0.038668
 -0.032780
  0.006479
  0.010343
  0.013529
  0.014758
  0.006898
  0.018244
 -0.010337
  0.055345
 -0.010962
  0.046258
  0.016881
 -0.017848
 -0.034389
 -0.011183
  0.047939
 -0.044276
 -0.004186
 -0.014665
  0.012963
  0.009056
 -0.050250
  0.001847
 -0.019605
 -0.031055
  0.023732
  0.009248
  0.009213
  0.029457
  0.003449
  0.001441
  0.034987
 -0.031418
  0.009358
 -0.023420
  0.014182
 -0.022119
 -0.035271
  0.033820
  0.004554
 -0.002564
 -0.019230
  0.028183
 -0.015937
 -0.033113
  0.079123
  0.008379
  0.008190
  0.004676
 -0.020056
 -0.012126
 -0.011065
  0.026894
 -0.030194
  0.001615
 -0.015738
 -0.024313
  0.006746
  0.033951
  0.014333
  0.067431
 -0.013555
 -0.021966
 -0.036298
  0.078614
  0.054354
  0.003047
  0.010979
  0.006188
  0.012602
 -0.040415
 -0.008855
 -0.023653
  0.021578
  0.022660
  0.000862
 -0.016671
  0.011779
 -0.000909
  0.022313
 -0.020399
  0.015479
 -0.019055
 -0.029149
  0.039328
 -0.001473
  0.011865
  0.005411
  0.017428
 -0.011507
  0.008059
 -0.039423
 -0.015719
 -0.014413
  0.017174
 -0.003946
  0.039668
  0.008781
  0.019980
  0.024373
 -0.029215
 -0.003693
  0.000732
 -0.000717
  0.012082
  0.005713
 -0.051211
  0.034531
 -0.014079
 -0.011841
 -0.017132
  0.028869
  0.027928
 -0.033702
  0.034520
  0.040989
  0.011548
  0.004755
  0.017989
 -0.012715
 -0.012412
  0.036566
 -0.014767
 -0.000816
  0.039467
  0.000185
 -0.029665
  0.018123
  0.008183
 -0.008973
  0.003635
  0.017451
 -0.000551
 -0.009752
  0.053837
  0.013462
 -0.016657
 -0.006955
 -0.008346
 -0.023331
 -0.020184
  0.030018
 -0.006411
 -0.027609
  0.013700
 -0.015215
  0.018880
 -0.025157
 -0.034064
  0.041552
 -0.000749
  0.019431
  0.003091
  0.008739
 -0.017819
 -0.012421
  0.029265
 -0.026775
  0.000989
  0.032891
  0.000546
  0.009084
  0.008153
 -0.024552
  0.008880
 -0.047037
  0.000373
  0.006176
 -0.022648
 -0.002443
 -0.025964
  0.013066
  0.007853
  0.004221
  0.001727
  0.028815
 -0.042802
  0.022853
  0.006398
 -0.038073
  0.000564
  0.008012
 -0.006121
 -0.002049
  0.042410
 -0.008070
 -0.029214
 -0.020086
  0.029699
 -0.048823
  0.008155
 -0.018540
 -0.050724
  0.013593
 -0.037519
 -0.007983
  0.004034
  0.002938
  0.012435
  0.006377
 -0.053392
  0.010036
  0.008744
 -0.004299
 -0.017900
  0.006348
 -0.018418
  0.061000
 -0.012246
  0.007124
  0.046590
 -0.016086
 -0.020617
  0.014963
 -0.008329
  0.004940
 -0.038774
 -0.037498
  0.045903
 -0.014631
  0.024856
 -0.010988
 -0.013378
  0.011498
  0.010584
 -0.012027
  0.029953
  0.006950
 -0.021953
  0.010673
  0.010225
  0.013231
  0.027018
 -0.039906
 -0.000738
 -0.022665
 -0.053529
  0.009070
 -0.002354
  0.027563
 -0.013836
  0.000418
 -0.016186
 -0.009071
  0.018200
  0.043539
  0.006903
 -0.031995
  0.018450
 -0.016793
 -0.022188
  0.020715
 -0.012510
  0.002297
 -0.013402
  0.008649
 -0.013609
 -0.003078
 -0.026764
  0.001965
 -0.031206
 -0.020136
  0.020605
  0.010876
  0.045931
 -0.054300
  0.004207
  0.017917
  0.007919
  0.020899
 -0.010546
  0.007613
 -0.070031
 -0.015978
  0.014445
  0.026188
  0.028273
 -0.012164
  0.010036
  0.014844
 -0.014049
 -0.017751
  0.033049
  0.017274
  0.019469
 -0.057187
  0.049492
  0.009824
 -0.017037
  0.009687
 -0.002484
 -0.000328
  0.005214
 -0.010838
  0.023939
 -0.012691
  0.033608
  0.019824
  0.034890
  0.011182
 -0.002360
 -0.037237
  0.002461
  0.017397
 -0.041844
 -0.051169
  0.019348
  0.003659
 -0.009626
  0.004808
 -0.017600
  0.011882
 -0.023265
  0.006180
 -0.000955
  0.011738
  0.005295
 -0.019823
  0.025548
  0.038240
  0.005363
  0.000770
  0.003230
 -0.027590
  0.005016
 -0.034249
 -0.002682
  0.021121
 -0.019121
 -0.026560
 -0.015743
 -0.017624
 -0.011999
 -0.000959
 -0.016939
  0.009709
 -0.007415
  0.009512
 -0.028823
  0.059165
  0.022865
 -0.023711
  0.030508
  0.011816
 -0.012064
 -0.000403
  0.046291
 -0.015598
 -0.002692
 -0.002659
 -0.045130
  0.011724
 -0.003255
  0.014818
  0.025615
  0.017095
 -0.015547
  0.009013
  0.009344
  0.012183
 -0.013271
  0.003444
 -0.004402
 -0.012875
 -0.011804
 -0.010545
  0.036218
  0.020559
 -0.029454
 -0.014638
 -0.036872
 -0.036487
 -0.009445
  0.009725
  0.035169
  0.004190
  0.006917
  0.005664
 -0.025374
 -0.013932
 -0.025696
 -0.007961
 -0.021666
 -0.007271
  0.007222
 -0.004810
 -0.023691
 -0.028153
 -0.011684
  0.061120
  0.014026
  0.012032
  0.041103
 -0.006185
 -0.022249
 -0.030573
 -0.032890
  0.008757
 -0.014461
 -0.027135
 -0.051290
 -0.017700
  0.002914
 -0.060254
 -0.040958
  0.001742
  0.001185
 -0.014557
  0.009395
  0.008117
 -0.042107
 -0.003134
 -0.004663
 -0.020055
 -0.012537
 -0.016661
 -0.014971
  0.019120
 -0.019951
  0.022811
 -0.002367
 -0.010307
 -0.002483
 -0.026040
  0.009111
 -0.025324
 -0.025413
 -0.011266
  0.008302
 -0.007110
  0.003553
 -0.031785
  0.006185
 -0.021478
 -0.054727
 -0.005219
  0.016004
 -0.021110
  0.013765
 -0.052680
 -0.020521
 -0.033634
  0.023119
 -0.021080
 -0.041800
 -0.022523
 -0.005149
  0.007468
 -0.008174
 -0.017239
  0.020281
 -0.002158
  0.014656
  0.017052
 -0.002626
 -0.026275
 -0.073814
  0.000818
 -0.014603
 -0.006734
  0.003109
 -0.020703
  0.013014
 -0.058197
 -0.017386
  0.017154
 -0.030878
 -0.066803
 -0.026734
 -0.000854
  0.012850
  0.002373
 -0.024711
 -0.006266
  0.010914
 -0.012894
 -0.012613
 -0.014305
 -0.061678
 -0.001366
 -0.011019
 -0.025710
 -0.047939
  0.001492
 -0.043325
 -0.008790
 -0.022718
 -0.004426
  0.006900
 -0.031078
  0.029522
 -0.018737
 -0.011481
 -0.024638
 -0.056109
 -0.048768
  0.025806
 -0.006104
 -0.027436
 -0.016191
  0.001275
 -0.066642
 -0.007466
  0.017840
 -0.044587
 -0.007259
 -0.009570
 -0.023582
 -0.042547
 -0.018159
 -0.019959
 -0.054495
 -0.010753
  0.000305
 -0.024205
 -0.021430
 -0.047782
  0.024965
 -0.016125
 -0.054762
  0.005641
 -0.032668
 -0.027785
 -0.027351
 -0.012343
 -0.016019
 -0.035324
 -0.020811
 -0.031354
 -0.023444
 -0.013108
 -0.040228
 -0.035820
 -0.041801
 -0.018859
 -0.056078
 -0.064615
 -0.035225
  0.022795
 -0.016557
  0.014389
 -0.018788
  0.009187
 -0.035046
 -0.031190
  0.009848
 -0.041333
  0.004745
 -0.015018
 -0.008389
 -0.029345
 -0.001230
  0.001953
 -0.001763
  0.025117
 -0.055749
 -0.025584
 -0.031459
  0.014161
 -0.084283
 -0.013757
 -0.022011
 -0.018094
 -0.004824
 -0.069689
  0.020030
 -0.000987
 -0.018835
  0.047980
 -0.039809
 -0.040794
 -0.019930
 -0.005007
 -0.051456
 -0.014400
 -0.042262
 -0.038639
 -0.047553
 -0.036400
 -0.014608
  0.018656
 -0.021727
 -0.023066
 -0.028909
  0.036565
 -0.018931
 -0.018000
 -0.015972
 -0.020455
 -0.033277
 -0.037397
  0.016810
  0.006514
  0.003387
 -0.055312
 -0.025534
 -0.023327
 -0.043940
 -0.026426
 -0.020437
  0.010677
 -0.026892
 -0.020670
 -0.043344
 -0.087390
  0.010372
 -0.019113
 -0.043018
 -0.020572
 -0.029193
 -0.043925
 -0.012959
 -0.027910
 -0.007548
 -0.013289
 -0.020802
 -0.015102
 -0.016152
 -0.053591
 -0.002372
 -0.023258
 -0.060821
 -0.071638
 -0.016398
  0.007332
 -0.027543
 -0.048028
 -0.053841
 -0.038683
 -0.031353
 -0.066692
 -0.042548
 -0.082726
 -0.032662
 -0.042145
 -0.055171
 -0.023818
 -0.016107
 -0.056147
 -0.007948
  0.012996
 -0.035375
 -0.013838
 -0.006926
 -0.010383
 -0.026909
 -0.051436
 -0.012226
  0.002479
 -0.004769
 -0.071250
 -0.023083
 -0.017509
 -0.065527
 -0.014132
 -0.022185
 -0.046439
 -0.025874
 -0.061065
 -0.050456
****
