PROJECT: W75X_2015Jan24
NCH:     4096
BW:   2.50000e+07
VELOCITY:       0.00000
PV:      0.480000
FREQ:    2.2235080e+09
DATE:     2015       1      24
TIME:       17       2      23
POSITION:       309.654      42.6272
INTEGRATION TIMES:       30.0000      30.0000
MAX VALUE:       0.10464537
 -0.325628
 -0.430217
 -0.276427
 -0.147679
 -0.039738
 -0.038875
 -0.029235
 -0.095918
 -0.081438
 -0.080513
 -0.044355
 -0.005619
 -0.029468
 -0.046572
 -0.010319
 -0.000941
  0.003728
 -0.026019
 -0.011489
 -0.040502
 -0.097760
 -0.002559
 -0.042890
 -0.002290
 -0.038179
 -0.038724
 -0.068154
 -0.013823
 -0.044898
 -0.031094
 -0.029778
 -0.033684
 -0.011053
 -0.054693
  0.023735
 -0.023621
 -0.023024
  0.012955
 -0.011606
  0.032307
 -0.011055
 -0.033726
  0.045132
 -0.011840
 -0.049084
 -0.054647
 -0.008629
 -0.017193
 -0.034522
 -0.021166
 -0.002318
 -0.037717
 -0.033733
 -0.033613
  0.037983
 -0.066757
 -0.010026
 -0.028067
  0.011739
 -0.026316
 -0.036795
 -0.022314
 -0.019318
 -0.018971
  0.021651
  0.015558
  0.044312
 -0.025040
 -0.013843
  0.019562
  0.027400
  0.012937
  0.000629
 -0.035866
  0.011777
 -0.006061
  0.007993
  0.025941
  0.016818
 -0.030336
 -0.031323
  0.016793
 -0.031116
 -0.008933
  0.012052
  0.016785
 -0.035618
  0.004564
 -0.004965
 -0.056311
 -0.007549
  0.012577
  0.014297
  0.054889
 -0.026662
 -0.016703
 -0.000280
 -0.015692
 -0.041337
  0.005045
 -0.043762
 -0.066822
 -0.008732
 -0.008417
 -0.027435
  0.074824
  0.037703
 -0.021573
 -0.064850
 -0.012275
 -0.000450
  0.017034
  0.014183
  0.030793
 -0.002686
  0.013985
 -0.025864
 -0.019750
 -0.019471
  0.025754
 -0.063588
 -0.004008
 -0.029782
 -0.011288
  0.007024
 -0.005747
  0.042216
  0.012120
 -0.021866
  0.029058
 -0.011932
 -0.044879
 -0.034659
 -0.035141
 -0.010286
 -0.010126
  0.063217
  0.014281
 -0.015546
  0.001720
  0.005346
  0.015695
 -0.005182
 -0.000306
 -0.041246
 -0.005715
  0.017565
 -0.034723
 -0.001107
  0.051439
  0.002509
 -0.007191
 -0.009342
 -0.017251
 -0.012464
 -0.029105
 -0.000102
 -0.007932
 -0.012562
  0.011347
  0.069718
 -0.007467
 -0.009489
 -0.006988
 -0.037098
  0.009931
 -0.028309
  0.026893
  0.020974
  0.011372
  0.027577
 -0.017248
  0.036863
  0.019437
 -0.009388
  0.032438
  0.032851
  0.018332
 -0.026189
 -0.020791
 -0.026757
  0.001262
  0.013705
 -0.042301
 -0.009156
 -0.015137
 -0.006787
  0.017711
  0.007848
 -0.026923
  0.028266
 -0.009168
 -0.034846
 -0.016500
  0.005623
 -0.038761
  0.027380
  0.016936
  0.011911
  0.016979
 -0.009632
  0.017738
  0.009908
  0.023045
  0.005208
  0.009080
  0.031781
 -0.025707
  0.056020
 -0.021911
  0.011942
 -0.004548
 -0.014580
 -0.029005
 -0.008169
 -0.012318
 -0.003348
 -0.004393
  0.029955
 -0.012590
  0.014769
  0.002687
  0.005828
  0.005169
  0.026802
 -0.044733
  0.019108
 -0.043559
 -0.029232
  0.006662
  0.014485
 -0.010273
 -0.012337
  0.033681
  0.008036
 -0.009123
  0.058106
  0.009181
  0.008339
 -0.009064
 -0.033443
 -0.000060
 -0.022522
 -0.005316
  0.018585
  0.013832
 -0.050115
  0.007281
  0.049939
 -0.027772
  0.038661
  0.015089
  0.028167
  0.034536
 -0.016122
  0.001654
  0.021562
 -0.028011
  0.034118
 -0.001039
 -0.026601
 -0.014166
  0.022945
 -0.001763
  0.048703
 -0.004526
  0.060653
  0.005283
 -0.002132
  0.002821
  0.022964
 -0.025854
  0.013617
 -0.044526
 -0.040866
  0.006924
  0.013293
  0.012777
  0.008095
  0.031351
 -0.013971
  0.014299
 -0.000831
  0.007686
  0.051304
  0.037825
 -0.010271
  0.059162
 -0.028938
  0.041295
  0.004348
 -0.024896
 -0.007529
  0.013143
  0.004677
 -0.022208
 -0.021048
 -0.002344
 -0.017100
  0.009394
 -0.023241
 -0.003594
  0.007870
  0.018883
  0.048139
  0.012937
 -0.021508
 -0.033906
  0.003814
 -0.032482
  0.012585
  0.040118
 -0.040055
  0.014432
 -0.020425
  0.003029
  0.004278
  0.025871
 -0.013990
  0.013868
 -0.003362
 -0.004027
 -0.047654
  0.061813
  0.002796
 -0.021246
 -0.014068
  0.029521
 -0.026370
  0.010907
 -0.007261
 -0.047903
  0.009170
 -0.078621
  0.035423
  0.000457
  0.002032
  0.016577
  0.004924
  0.016810
  0.018208
 -0.017514
  0.025435
 -0.020648
  0.003727
 -0.040757
  0.014697
  0.020673
 -0.015900
  0.006434
 -0.014493
 -0.017546
 -0.003212
 -0.033206
 -0.011286
  0.020376
  0.027725
  0.061158
  0.015476
  0.030593
 -0.007555
 -0.036993
 -0.015260
 -0.010039
 -0.026304
  0.079613
  0.011943
 -0.035864
 -0.027182
  0.070504
 -0.019921
  0.009336
  0.027579
 -0.015819
 -0.002386
  0.032425
 -0.000180
  0.033376
  0.013630
  0.015072
  0.050277
 -0.011090
 -0.014394
 -0.023990
  0.019430
 -0.019368
 -0.045025
 -0.044655
  0.014917
  0.000083
  0.019230
  0.017761
 -0.013316
  0.006597
  0.048809
 -0.011097
  0.019548
 -0.057254
  0.015943
 -0.016588
 -0.029443
 -0.033214
  0.002225
  0.032948
  0.015688
  0.028103
 -0.021051
  0.005070
 -0.003161
 -0.015270
  0.037701
  0.043590
  0.027359
 -0.005320
  0.038761
  0.038173
 -0.049849
  0.012980
  0.005305
  0.006448
 -0.002880
  0.000758
 -0.016936
 -0.000211
 -0.026875
  0.021431
  0.024544
 -0.014505
 -0.023221
  0.000238
 -0.006388
  0.001722
 -0.024282
 -0.009507
 -0.017439
  0.064476
  0.037490
  0.035922
  0.017888
 -0.047005
  0.015418
  0.040032
  0.009896
 -0.002355
 -0.015954
 -0.022027
 -0.012563
 -0.003904
 -0.025751
 -0.003699
 -0.034855
 -0.015081
 -0.025951
  0.018994
  0.007393
 -0.028242
  0.050170
 -0.011240
 -0.007579
  0.009845
 -0.002705
  0.034558
  0.032679
  0.015852
 -0.005723
  0.055488
  0.006990
  0.007736
 -0.001371
  0.015553
 -0.016712
  0.001659
 -0.026895
 -0.028687
  0.005363
  0.027682
 -0.017057
 -0.002086
  0.013414
 -0.014141
 -0.044408
  0.032482
  0.007289
  0.011671
  0.002361
 -0.016681
  0.054309
  0.006329
  0.018368
  0.026889
  0.014206
  0.031287
 -0.038392
  0.002229
 -0.021476
  0.012129
 -0.038156
 -0.014551
 -0.012753
 -0.011389
  0.004026
  0.006735
 -0.015578
  0.001152
  0.012364
 -0.047632
 -0.020261
  0.004695
  0.027008
  0.051061
 -0.053196
  0.025827
  0.011543
  0.006685
 -0.010657
  0.024207
  0.005927
 -0.029383
 -0.002636
 -0.012581
 -0.009837
  0.018200
 -0.014242
  0.001221
 -0.012400
  0.048697
 -0.027350
  0.050624
 -0.006331
 -0.023311
  0.020672
  0.025427
 -0.007323
 -0.023234
 -0.023509
 -0.013829
  0.004698
 -0.048389
  0.002588
 -0.002668
 -0.005451
  0.022238
 -0.050227
  0.010160
 -0.017844
  0.012814
 -0.019479
  0.005856
 -0.019331
 -0.009884
  0.021741
  0.014340
 -0.012123
  0.040244
  0.008805
 -0.007604
  0.063430
 -0.001572
  0.020353
  0.046654
 -0.006188
 -0.046464
 -0.052454
  0.014161
 -0.002453
  0.016824
  0.017369
  0.013641
 -0.009961
 -0.019319
 -0.000518
  0.015711
 -0.006845
 -0.028882
  0.006167
 -0.006129
 -0.013211
 -0.022642
  0.010453
 -0.021409
 -0.002485
 -0.000438
  0.023137
 -0.023669
  0.025934
 -0.002560
  0.038605
  0.016733
  0.034449
  0.004885
 -0.002671
 -0.020288
 -0.004806
  0.014274
 -0.061424
  0.001647
 -0.007245
 -0.006229
  0.047559
 -0.023274
 -0.026182
 -0.001319
  0.002741
  0.005810
 -0.003831
  0.029781
 -0.047253
  0.001435
 -0.026575
  0.025891
 -0.020741
  0.003774
 -0.022050
 -0.039231
 -0.004558
  0.018342
  0.005067
 -0.009321
 -0.011382
  0.028101
  0.045081
 -0.006273
  0.005998
 -0.030016
  0.018789
 -0.017096
 -0.000999
  0.025597
 -0.007023
 -0.006918
  0.006535
 -0.015241
  0.006599
 -0.015853
 -0.014572
 -0.043894
  0.029808
 -0.009579
 -0.042135
  0.045029
  0.022865
  0.007283
  0.014207
 -0.039209
  0.007975
 -0.002738
 -0.035961
 -0.020163
 -0.017499
  0.029846
 -0.042141
  0.039502
 -0.009027
 -0.021782
 -0.034266
 -0.025610
  0.019251
  0.003548
 -0.033471
 -0.002844
 -0.009765
 -0.050828
 -0.015058
 -0.043868
 -0.016351
 -0.033929
 -0.015471
 -0.089150
 -0.010269
 -0.003517
 -0.022534
  0.022054
 -0.037021
 -0.017436
  0.040659
 -0.008095
  0.023654
 -0.011288
  0.010373
 -0.022477
  0.028807
 -0.000718
 -0.027430
  0.013495
 -0.025832
  0.062874
  0.018097
 -0.016591
 -0.065842
 -0.031540
  0.008926
  0.017184
 -0.015980
 -0.002318
  0.047305
 -0.019898
 -0.009875
 -0.016393
 -0.010501
  0.016399
  0.000617
  0.015580
 -0.004355
 -0.005614
 -0.053815
 -0.016829
  0.020640
 -0.026297
 -0.022642
 -0.008904
  0.005916
 -0.007056
 -0.008903
 -0.001222
  0.033511
 -0.002792
  0.016765
 -0.003194
 -0.051062
  0.043758
  0.026159
 -0.036764
  0.032834
 -0.015776
  0.019697
 -0.003204
 -0.034069
 -0.018971
  0.017125
  0.034117
 -0.034699
 -0.016232
 -0.003419
  0.009233
  0.025169
 -0.013117
  0.002041
  0.048096
  0.029617
 -0.005045
  0.023973
 -0.015978
 -0.023608
 -0.031604
  0.002472
  0.030600
 -0.004804
  0.034160
 -0.038287
  0.015757
  0.007551
  0.043873
 -0.005140
 -0.012347
  0.002092
  0.019217
  0.066914
 -0.025270
  0.014359
 -0.024656
 -0.004713
 -0.030830
 -0.014791
 -0.049153
  0.006665
  0.040847
 -0.012276
 -0.018510
 -0.058125
  0.025935
 -0.004581
 -0.006990
 -0.036635
 -0.009710
  0.024695
  0.017701
 -0.039723
  0.013463
  0.001536
 -0.009259
  0.031117
 -0.006543
 -0.000144
  0.012410
  0.028747
  0.007547
  0.014622
 -0.009072
 -0.020616
  0.001094
 -0.003281
 -0.051591
  0.035890
  0.000585
 -0.008170
 -0.022717
 -0.006820
  0.000967
 -0.005236
  0.022588
  0.037701
  0.036135
  0.032485
 -0.037426
 -0.002264
 -0.020902
  0.013645
 -0.033346
 -0.016938
  0.008991
 -0.055903
  0.001469
 -0.059075
 -0.038656
 -0.025858
 -0.018720
  0.023681
 -0.022913
  0.031765
  0.010318
 -0.000555
 -0.024989
 -0.029648
 -0.009620
 -0.038233
  0.039984
 -0.031678
  0.022872
  0.003876
 -0.019849
  0.027063
  0.058287
  0.038503
  0.003628
  0.006115
  0.010756
  0.065442
 -0.018902
 -0.023461
 -0.040484
 -0.021594
  0.012264
 -0.013836
 -0.048613
  0.006854
 -0.002210
 -0.014552
  0.045416
 -0.003228
  0.014811
  0.004609
 -0.014957
  0.020438
 -0.009232
 -0.023654
  0.000223
  0.015175
  0.031240
 -0.054862
 -0.037777
  0.014751
  0.000404
  0.023041
 -0.015148
  0.004865
  0.022469
 -0.026138
  0.026843
  0.051534
  0.026060
  0.007598
  0.014169
 -0.034961
 -0.006679
  0.018033
  0.051714
 -0.054459
 -0.009202
  0.021014
  0.014022
 -0.010185
  0.050698
  0.004423
 -0.001633
 -0.015099
  0.006334
 -0.029800
  0.033108
  0.061619
  0.002189
  0.017378
  0.010943
 -0.008149
 -0.011322
 -0.011971
  0.041553
  0.012124
  0.004642
 -0.012875
 -0.027273
  0.040017
 -0.029770
  0.004401
  0.040814
  0.029670
 -0.021398
 -0.035449
  0.012122
 -0.003629
  0.021525
 -0.005701
 -0.021550
  0.011556
 -0.024104
  0.020388
 -0.013323
  0.034334
  0.012709
 -0.010118
  0.043920
  0.065401
  0.037759
  0.007798
  0.041784
  0.007385
  0.020878
  0.021147
 -0.019466
  0.012416
 -0.011658
  0.011715
  0.021103
 -0.031215
 -0.017461
  0.007860
  0.006850
 -0.044233
 -0.006605
 -0.007632
  0.040997
  0.022066
 -0.044027
  0.018419
  0.004554
 -0.004051
 -0.026471
  0.005563
 -0.001672
  0.016336
  0.004607
 -0.026836
  0.000784
 -0.064178
  0.047906
 -0.020184
 -0.030595
  0.008577
 -0.023443
 -0.001184
  0.071921
 -0.035857
  0.016045
 -0.019649
  0.036365
  0.040546
 -0.014345
 -0.009361
 -0.037532
  0.016360
  0.028113
 -0.014377
 -0.024302
 -0.015784
 -0.018534
 -0.004565
  0.038118
 -0.001354
 -0.027789
  0.011453
  0.011049
 -0.007561
 -0.013199
  0.017245
  0.020011
  0.041286
 -0.024285
 -0.019615
 -0.021290
 -0.001709
  0.041570
  0.005062
 -0.009834
 -0.047312
 -0.009265
  0.045352
  0.018309
  0.010625
 -0.004632
 -0.027941
  0.007226
 -0.015673
  0.071765
  0.038976
 -0.005221
  0.007226
  0.028215
  0.014016
  0.055987
 -0.048813
 -0.040433
 -0.065283
  0.025678
 -0.035847
 -0.023343
  0.042114
 -0.025730
  0.026071
  0.000675
 -0.003443
  0.010304
  0.013002
 -0.013710
  0.011033
  0.010335
 -0.017124
 -0.024789
 -0.001788
  0.027600
 -0.005687
  0.037570
 -0.008720
 -0.012210
 -0.019499
 -0.017915
  0.004017
  0.001541
 -0.025416
  0.000945
  0.000199
 -0.037661
  0.034018
 -0.021769
  0.031735
 -0.029251
  0.024317
 -0.021198
 -0.002597
 -0.016122
 -0.017753
 -0.053583
 -0.023467
 -0.036882
  0.026716
  0.004060
  0.026943
 -0.036624
  0.048099
 -0.022527
 -0.029734
  0.002403
 -0.013205
  0.012790
 -0.034856
  0.017720
 -0.016794
 -0.013494
  0.017444
  0.021600
  0.048631
  0.027938
 -0.037610
  0.005135
  0.007507
 -0.003429
  0.030276
 -0.026023
 -0.006052
 -0.030411
  0.028941
  0.007012
  0.005563
 -0.006275
 -0.001834
 -0.057327
  0.006366
 -0.006374
 -0.005137
  0.044058
  0.012722
  0.004956
  0.012213
 -0.037218
 -0.059916
  0.007220
  0.039970
  0.002095
 -0.025230
 -0.006985
  0.013590
 -0.010895
  0.039641
 -0.037308
 -0.043067
 -0.027590
  0.010764
  0.010005
  0.003748
  0.063612
  0.020304
  0.009843
 -0.009295
 -0.020361
  0.009297
 -0.002401
  0.009097
 -0.044979
 -0.033440
  0.016558
 -0.006022
 -0.019102
 -0.000200
 -0.039908
  0.007488
  0.072487
 -0.011586
 -0.001127
 -0.013902
 -0.037847
 -0.011594
  0.048659
 -0.015080
  0.009465
  0.036832
  0.004951
  0.045021
 -0.018823
 -0.029871
  0.004478
 -0.028647
 -0.038387
  0.001318
 -0.026968
  0.028925
  0.007488
 -0.007059
  0.014239
 -0.010371
  0.016199
  0.016689
 -0.003778
  0.019330
 -0.016529
  0.014807
 -0.035181
  0.002004
 -0.035033
  0.013300
 -0.071947
  0.060106
 -0.015585
 -0.001373
 -0.024234
  0.029914
 -0.035701
  0.011557
  0.011435
 -0.029059
 -0.007632
 -0.009691
 -0.018728
  0.014221
 -0.023895
  0.020580
  0.013809
 -0.012953
  0.036446
 -0.024697
  0.030512
 -0.006380
  0.006489
  0.014593
  0.010004
 -0.005299
 -0.026482
 -0.024840
  0.020988
 -0.010203
 -0.023701
  0.027876
  0.025609
 -0.003015
  0.031487
 -0.011230
  0.022360
 -0.017402
  0.025073
  0.000663
  0.000234
 -0.000808
 -0.010823
  0.004426
 -0.005053
 -0.012915
  0.005614
 -0.015351
  0.018847
  0.002511
 -0.007543
  0.029485
  0.018747
  0.003988
  0.007371
 -0.024772
 -0.032996
 -0.015359
  0.017185
  0.005260
 -0.023258
 -0.007444
  0.010949
 -0.053355
 -0.005397
  0.010160
 -0.008657
 -0.016362
  0.023427
 -0.019595
 -0.006396
  0.017014
 -0.010923
  0.002296
  0.010420
 -0.019237
  0.017920
 -0.006606
 -0.022258
 -0.016709
  0.023827
 -0.025893
  0.021284
 -0.030510
 -0.007887
  0.029222
  0.013153
 -0.033537
 -0.068366
  0.004018
  0.025764
  0.011034
 -0.029086
  0.024850
  0.039870
  0.003762
 -0.000017
  0.004534
  0.014749
 -0.022266
 -0.002251
 -0.012634
  0.029647
 -0.003192
  0.019683
 -0.040968
  0.034135
 -0.030670
 -0.033070
  0.013410
 -0.043124
 -0.001863
  0.009932
 -0.003943
 -0.003436
  0.014721
  0.003507
 -0.004168
  0.002320
 -0.049348
  0.014139
  0.014023
  0.018162
  0.001978
 -0.046705
  0.021679
  0.041929
 -0.007263
 -0.006105
 -0.039086
  0.034762
  0.023007
  0.013393
  0.028229
 -0.013586
  0.024041
 -0.005816
 -0.018236
 -0.013774
  0.039643
  0.020998
 -0.002155
 -0.031090
 -0.016419
  0.060157
 -0.023052
 -0.021728
  0.017178
  0.027639
  0.008205
 -0.000059
  0.020169
  0.013664
 -0.005984
 -0.018984
 -0.011907
  0.026379
  0.003367
 -0.010789
  0.024765
 -0.006247
  0.013727
 -0.047954
  0.022928
 -0.028367
  0.028451
 -0.035956
 -0.037134
  0.007647
 -0.026952
 -0.031323
  0.044003
 -0.031795
  0.038737
 -0.020726
 -0.002516
 -0.017800
  0.004620
 -0.042197
  0.041642
 -0.019504
  0.020443
  0.026896
  0.011723
  0.028596
  0.005703
  0.001113
 -0.018417
 -0.020760
 -0.039964
 -0.044399
  0.014242
 -0.017091
  0.012538
 -0.015623
  0.002195
 -0.007288
 -0.023159
  0.025928
 -0.004484
  0.003305
  0.000310
  0.017912
  0.023924
  0.028365
  0.018375
  0.020449
  0.021955
 -0.002893
  0.020531
  0.034922
  0.018321
 -0.007524
 -0.004593
  0.002209
 -0.041798
  0.024027
  0.014002
  0.017491
 -0.013940
  0.023997
  0.008453
  0.020170
  0.031963
 -0.007596
  0.086736
  0.010610
 -0.028868
  0.009134
 -0.005401
  0.011210
  0.033664
  0.000054
 -0.026951
 -0.021856
 -0.038190
  0.014488
 -0.038297
  0.019486
  0.040318
 -0.021682
  0.016873
  0.023859
 -0.016932
 -0.009479
 -0.000089
  0.026633
 -0.018399
  0.024681
  0.031072
  0.039380
  0.019129
  0.000596
  0.015351
 -0.054136
  0.036253
  0.026757
 -0.006257
  0.022930
  0.032885
  0.021394
 -0.002121
 -0.021274
 -0.012898
 -0.029336
  0.022464
 -0.000607
  0.004862
 -0.017258
 -0.007360
  0.000092
 -0.009879
  0.017397
  0.020679
  0.034751
 -0.001182
  0.008498
 -0.000406
  0.049689
  0.030331
 -0.047313
  0.005996
 -0.001785
  0.013789
 -0.013280
 -0.034346
 -0.012138
  0.032515
  0.016463
  0.000858
  0.007145
  0.023971
 -0.006615
  0.026747
  0.000888
  0.016276
 -0.000374
  0.020110
 -0.003000
  0.042326
 -0.000091
 -0.020218
  0.012115
 -0.030153
 -0.045227
  0.021085
 -0.043051
 -0.028780
  0.020014
 -0.037144
  0.007708
  0.004087
  0.037043
  0.016108
 -0.035605
  0.025561
  0.013280
  0.001441
 -0.020787
  0.014499
 -0.037302
 -0.034816
  0.037900
 -0.015725
 -0.022376
  0.049867
  0.017420
  0.019469
  0.000857
  0.033132
 -0.024455
  0.011235
 -0.009442
 -0.046902
 -0.028273
  0.015018
  0.017757
  0.018098
 -0.021974
  0.010245
 -0.003130
  0.010571
  0.079719
  0.022195
 -0.003752
 -0.025438
  0.001930
 -0.006012
  0.007554
  0.008123
 -0.022133
  0.009211
 -0.021052
 -0.002521
  0.004340
 -0.030087
 -0.009892
 -0.037490
  0.045351
 -0.047025
  0.008180
  0.015434
 -0.016034
  0.018040
  0.001806
  0.029143
  0.001521
  0.011133
 -0.018666
  0.023252
  0.010774
 -0.041792
  0.008794
  0.031054
 -0.019442
  0.021968
  0.012261
 -0.022044
 -0.012622
 -0.019403
 -0.039180
 -0.019442
  0.027742
  0.023097
 -0.038708
  0.000726
 -0.004952
  0.012181
 -0.023974
 -0.020155
 -0.006571
 -0.001438
 -0.007771
 -0.024887
  0.035277
  0.040505
  0.012118
 -0.010298
  0.048515
 -0.017980
  0.006193
  0.006632
  0.054910
 -0.022839
 -0.024263
  0.002821
 -0.026291
 -0.023173
  0.012212
  0.015983
 -0.055733
  0.040355
  0.029987
  0.053503
 -0.025024
 -0.024482
  0.039275
  0.032338
 -0.029959
 -0.002869
 -0.035462
 -0.003852
 -0.040054
 -0.000014
  0.022977
 -0.051397
  0.005589
  0.022688
 -0.020064
  0.031196
  0.013867
  0.021778
 -0.039510
  0.015413
  0.018424
  0.034376
  0.028705
  0.017208
  0.033500
 -0.039009
  0.042827
  0.041391
  0.034115
  0.000082
 -0.004414
 -0.042672
 -0.055258
  0.009955
 -0.018463
  0.032241
 -0.006710
  0.032890
  0.056688
  0.036307
 -0.009993
 -0.041566
 -0.012509
  0.021384
 -0.019185
 -0.003865
  0.012923
  0.023921
 -0.052903
  0.016706
 -0.034475
 -0.016093
 -0.004927
  0.006909
  0.027117
 -0.044246
  0.001622
 -0.033397
  0.035465
  0.017838
  0.006916
  0.022201
 -0.018097
  0.011082
  0.007818
 -0.021564
  0.008481
  0.008017
  0.025315
  0.048210
 -0.001642
 -0.025540
 -0.021166
  0.025124
 -0.024292
  0.010784
 -0.000344
 -0.007773
 -0.007558
 -0.007704
  0.012935
  0.021741
  0.018436
 -0.008122
  0.001535
 -0.053812
 -0.068104
  0.033921
 -0.007570
  0.001692
 -0.021914
  0.044176
 -0.011140
  0.017171
  0.016374
  0.022484
 -0.017787
 -0.005057
 -0.011177
 -0.059420
 -0.007130
 -0.032698
  0.003765
 -0.004315
  0.018589
  0.023640
 -0.036528
 -0.023756
 -0.004779
  0.001417
 -0.020520
  0.003669
 -0.007280
 -0.021992
 -0.017152
  0.037417
  0.031104
 -0.014841
  0.034222
 -0.034426
  0.000340
  0.000766
 -0.031533
 -0.053372
  0.025137
 -0.030324
 -0.033682
 -0.043954
 -0.035595
  0.007454
 -0.027535
 -0.033004
 -0.001585
 -0.043467
  0.012047
 -0.041782
 -0.003663
 -0.025894
 -0.024540
  0.026569
  0.025075
 -0.027285
 -0.003522
  0.043030
  0.004864
  0.027561
  0.018755
  0.000700
  0.032595
 -0.018395
  0.017517
 -0.040258
 -0.008953
 -0.019805
  0.024147
 -0.012398
  0.018008
  0.018778
 -0.025742
 -0.007306
  0.015171
  0.006927
  0.013065
  0.019307
  0.043838
  0.011702
 -0.010250
 -0.057231
  0.022685
  0.021903
  0.040282
  0.002559
 -0.050175
  0.012985
 -0.012184
  0.015148
 -0.053901
  0.027096
  0.016890
 -0.011562
  0.003679
 -0.010817
  0.030002
 -0.036399
 -0.034617
  0.002637
 -0.041893
 -0.009175
  0.017080
 -0.045649
 -0.005134
  0.015715
  0.050751
  0.012367
  0.057511
 -0.012731
  0.002082
 -0.004580
  0.017577
  0.004651
  0.004375
  0.000845
 -0.028083
 -0.006443
  0.035796
  0.085784
 -0.024185
  0.024880
  0.001722
 -0.005535
  0.040274
  0.022868
  0.017684
 -0.014569
  0.038303
  0.043102
 -0.014353
  0.031984
  0.031357
  0.036428
 -0.006000
  0.010939
  0.008275
 -0.035754
 -0.021185
 -0.002753
  0.045082
  0.021592
  0.015616
 -0.006961
  0.015599
  0.015196
 -0.005841
  0.004223
 -0.015706
  0.014731
  0.033112
  0.054414
  0.031538
  0.078610
  0.088624
  0.088494
  0.088568
  0.034458
  0.040645
  0.016937
  0.048231
  0.012100
  0.025552
 -0.001477
  0.021786
  0.030130
  0.043701
  0.027045
  0.065030
  0.058913
  0.139392
  0.193960
  0.213855
  0.202175
  0.285884
  0.347574
  0.443554
  0.494726
  0.574009
  0.644927
  0.738835
  0.743742
  0.798947
  0.854265
  0.813218
  0.739648
  0.742528
  0.621199
  0.538017
  0.505934
  0.411506
  0.318693
  0.248129
  0.183574
  0.177976
  0.134105
  0.062828
  0.006978
  0.027345
  0.015783
  0.021404
  0.014185
 -0.066121
  0.053046
  0.024222
  0.006153
  0.016374
  0.058004
  0.015820
  0.012741
  0.026585
 -0.016383
 -0.005372
 -0.017444
  0.015312
 -0.041491
 -0.000825
  0.003926
  0.000795
  0.017599
 -0.017787
 -0.038682
 -0.012519
  0.012125
  0.007294
  0.034981
  0.016251
 -0.020015
 -0.004265
 -0.026857
 -0.027562
  0.053747
 -0.016211
  0.026016
  0.016270
  0.006956
  0.015084
  0.041033
 -0.015372
  0.008230
  0.029344
 -0.019015
  0.005468
  0.026717
  0.018013
  0.011220
  0.038644
  0.014911
 -0.002869
 -0.009083
 -0.011086
  0.012970
 -0.006725
 -0.001277
 -0.015811
 -0.001194
 -0.007922
  0.019547
  0.003353
 -0.012620
  0.039694
 -0.048960
  0.008707
 -0.028518
  0.010251
  0.015504
  0.055471
  0.011845
 -0.007861
 -0.052138
  0.046208
 -0.007111
  0.034468
  0.021084
  0.018693
 -0.033839
  0.015726
 -0.019148
  0.029517
 -0.034988
 -0.056101
 -0.004174
  0.002710
  0.004917
 -0.026304
  0.010521
  0.037364
  0.007617
 -0.012481
  0.013260
 -0.002716
  0.014106
 -0.008982
 -0.016936
 -0.051701
 -0.016724
  0.027307
  0.004486
  0.003943
  0.042252
 -0.026172
  0.040098
  0.004176
 -0.036578
  0.006572
  0.031629
 -0.000423
  0.019939
  0.018669
 -0.023576
  0.032881
 -0.034213
  0.014924
 -0.016070
  0.037009
 -0.005975
  0.013898
 -0.016690
 -0.018542
  0.025242
  0.000856
 -0.039813
 -0.031453
 -0.024404
 -0.003993
 -0.043456
  0.008056
 -0.023654
 -0.015870
  0.000558
  0.011404
  0.022706
  0.000530
 -0.019938
 -0.037879
  0.011353
  0.007929
  0.010169
  0.024750
  0.002494
 -0.010650
  0.033240
  0.006186
  0.023718
 -0.011637
  0.019117
  0.013303
  0.012730
 -0.005550
 -0.028994
 -0.015175
  0.030329
  0.012999
 -0.007654
  0.020349
  0.002767
  0.002320
 -0.017260
 -0.012949
 -0.022778
  0.017628
  0.053955
  0.013425
  0.045330
 -0.015609
  0.009126
 -0.037497
  0.014938
  0.006309
 -0.009054
 -0.016312
 -0.017082
 -0.020323
 -0.012665
 -0.014805
  0.007460
 -0.006378
  0.017467
 -0.020868
 -0.007949
 -0.027441
 -0.008766
  0.019901
  0.026179
  0.025885
 -0.004227
  0.020219
  0.033441
  0.008736
 -0.012260
  0.005593
 -0.033558
  0.033111
  0.005836
 -0.027915
 -0.026405
  0.035263
  0.002938
  0.032312
  0.058713
 -0.008526
 -0.005354
 -0.037437
  0.006373
 -0.000795
 -0.023198
  0.006096
  0.016750
  0.056458
 -0.026533
  0.017453
  0.013453
 -0.044510
  0.010152
  0.014040
  0.031125
  0.026460
 -0.022387
 -0.035971
 -0.052881
 -0.011342
  0.068718
  0.001968
 -0.006171
 -0.005280
 -0.026112
 -0.018883
  0.056172
 -0.048635
 -0.007581
 -0.000032
 -0.059091
 -0.033792
  0.044913
 -0.001327
  0.011732
  0.041347
 -0.005877
  0.018928
 -0.022990
  0.008915
  0.064285
  0.017286
 -0.029618
 -0.030200
 -0.083265
 -0.030690
 -0.013721
  0.002961
 -0.027286
  0.011138
  0.000131
 -0.037158
 -0.028808
  0.019068
 -0.007930
  0.017951
  0.004279
 -0.019531
 -0.006506
 -0.001604
  0.030215
 -0.003849
  0.050242
  0.051793
  0.021067
  0.024072
  0.019024
  0.020301
  0.030057
  0.000436
 -0.005184
 -0.057262
 -0.035484
  0.032578
  0.011880
 -0.036741
  0.022452
 -0.021272
 -0.029769
 -0.050785
 -0.005009
 -0.001837
  0.007284
  0.032620
  0.001440
  0.023846
 -0.011804
 -0.002698
  0.016383
  0.052843
 -0.004472
  0.028801
  0.044386
  0.004376
 -0.008296
  0.001109
 -0.030881
  0.017394
 -0.020076
 -0.004625
  0.007612
 -0.045435
 -0.052046
  0.004339
  0.002589
  0.015299
  0.014879
 -0.002759
 -0.001547
  0.031332
  0.005987
  0.026085
 -0.007811
  0.060354
  0.029242
 -0.042245
 -0.035772
  0.016051
  0.000927
 -0.050814
  0.014718
  0.009571
  0.000350
 -0.028094
 -0.021210
  0.007058
 -0.013415
 -0.017664
  0.001692
  0.021660
 -0.017605
  0.047369
  0.025736
 -0.062447
 -0.025074
  0.032307
 -0.011522
  0.020393
 -0.020752
  0.033020
 -0.023726
 -0.010281
 -0.008072
  0.040958
 -0.022021
  0.034231
 -0.028158
 -0.020343
  0.001266
 -0.006534
 -0.032753
  0.012735
 -0.004729
 -0.030491
  0.046093
  0.007575
  0.005301
 -0.015330
 -0.002228
 -0.026066
 -0.035004
  0.018490
 -0.034573
  0.016776
  0.002376
  0.012975
  0.029511
 -0.052400
  0.004350
  0.037917
 -0.004758
 -0.020567
  0.026899
  0.062469
  0.017416
  0.016057
  0.001149
 -0.016073
  0.024360
  0.011107
  0.018402
  0.002893
 -0.020027
 -0.010299
 -0.009635
 -0.037577
 -0.042914
 -0.006612
  0.021148
  0.021398
  0.002804
 -0.060607
  0.038881
 -0.017477
 -0.024627
 -0.020661
  0.001209
  0.001573
 -0.027547
 -0.036014
  0.000943
  0.024120
 -0.058399
  0.006916
 -0.039432
  0.007802
 -0.028518
  0.012921
  0.026133
  0.007832
  0.011281
 -0.002865
 -0.017515
  0.032715
 -0.016561
 -0.003439
 -0.003765
 -0.032392
  0.002830
  0.011437
 -0.053576
 -0.003620
  0.027106
 -0.006536
 -0.027537
 -0.025904
  0.051632
 -0.039138
 -0.008348
  0.021276
 -0.014089
 -0.012997
  0.014383
 -0.015361
 -0.022375
  0.028187
 -0.000616
  0.024370
 -0.022990
 -0.015970
  0.008930
 -0.008673
 -0.017373
 -0.038447
 -0.001700
 -0.039850
 -0.011701
  0.000504
 -0.029159
  0.037779
  0.005357
  0.025817
 -0.025483
  0.010330
  0.010273
  0.005925
 -0.030838
 -0.009258
  0.008770
 -0.053120
  0.019768
 -0.002630
  0.020187
  0.004309
  0.002924
  0.029341
  0.042170
 -0.028237
 -0.008754
 -0.030570
 -0.009313
  0.008972
 -0.015176
 -0.013111
 -0.000331
 -0.003910
 -0.063331
 -0.011132
  0.001056
 -0.017438
  0.019626
 -0.000263
  0.041561
 -0.029469
  0.026810
  0.027477
 -0.029964
  0.021182
  0.012763
  0.029669
  0.016468
  0.025458
  0.042713
  0.025338
 -0.023490
  0.002134
 -0.025840
 -0.014906
 -0.025966
  0.023148
  0.019841
 -0.004692
 -0.055206
  0.013465
 -0.032942
 -0.034241
  0.023745
 -0.027384
  0.003028
  0.016126
  0.033060
  0.026098
  0.014156
  0.005987
 -0.005061
 -0.036581
 -0.019052
 -0.017881
  0.001588
  0.025510
 -0.027064
 -0.003043
  0.007375
  0.018327
 -0.019819
  0.018740
 -0.029211
 -0.010222
 -0.005335
 -0.030031
  0.000715
  0.007536
  0.001070
  0.001792
  0.027571
 -0.013469
 -0.013441
 -0.015449
 -0.010280
  0.044106
 -0.068162
  0.017354
  0.013586
  0.018424
  0.030679
  0.007613
 -0.065951
  0.006167
 -0.029834
 -0.025140
 -0.019148
 -0.010903
 -0.010994
  0.007500
 -0.009562
 -0.012683
  0.034934
 -0.036913
 -0.029817
  0.022704
  0.004251
  0.005517
  0.014931
  0.008798
 -0.016751
  0.034020
 -0.003627
 -0.016874
 -0.014114
 -0.023740
  0.017703
 -0.002865
  0.021523
  0.003525
  0.007998
 -0.034037
 -0.016762
  0.005077
 -0.031312
 -0.006676
 -0.047741
  0.052724
  0.002072
  0.032226
 -0.010791
 -0.002013
 -0.029881
  0.006073
  0.021263
 -0.000795
  0.002130
  0.019896
  0.015441
  0.018048
 -0.011382
  0.018166
 -0.036726
 -0.040448
  0.056800
  0.041316
 -0.004754
 -0.007851
 -0.000988
  0.021041
  0.042354
  0.028131
 -0.011234
  0.006328
 -0.003221
  0.003572
  0.004961
 -0.016711
  0.018432
 -0.014536
  0.016148
  0.023659
 -0.001666
 -0.015827
 -0.048322
 -0.041449
 -0.025313
  0.010832
 -0.028448
  0.006369
  0.002962
  0.039170
 -0.033706
 -0.031111
  0.016185
 -0.047624
  0.032230
 -0.010443
 -0.053763
  0.003142
 -0.029010
 -0.020993
  0.009197
 -0.020027
 -0.012530
  0.017580
 -0.003996
 -0.051380
 -0.009068
 -0.026960
 -0.041010
  0.015790
  0.003663
 -0.024217
  0.030214
  0.004574
  0.019036
 -0.003539
 -0.023187
  0.012674
 -0.006213
  0.035750
  0.032993
  0.032906
  0.003954
  0.026800
 -0.016462
  0.045098
  0.011459
  0.017895
  0.005573
  0.028920
  0.046775
 -0.022322
 -0.019857
  0.012788
 -0.017586
 -0.001201
 -0.023845
  0.020732
  0.028355
 -0.012313
  0.026455
 -0.012291
 -0.002976
 -0.005419
 -0.060260
  0.001266
  0.007671
 -0.023225
 -0.010318
 -0.041425
 -0.016578
 -0.018783
  0.009385
  0.001167
  0.021535
  0.025667
  0.002896
  0.000917
  0.047769
 -0.008120
 -0.014771
 -0.007713
 -0.044085
 -0.021349
 -0.009347
  0.032566
  0.004270
  0.008526
  0.003124
 -0.040921
 -0.040663
  0.021499
 -0.005024
 -0.010811
  0.008854
 -0.037224
  0.012968
  0.012184
 -0.002158
  0.016809
  0.019391
 -0.002292
 -0.002551
  0.029009
  0.024831
  0.036291
  0.042143
  0.009860
  0.009457
  0.003869
 -0.013253
 -0.008858
 -0.043542
  0.020235
 -0.032370
 -0.005161
  0.021934
  0.009317
  0.014836
 -0.009408
  0.024897
 -0.011831
  0.001037
  0.012678
 -0.028100
  0.026940
  0.028679
  0.000109
  0.045689
  0.007127
 -0.037464
 -0.005109
  0.001267
  0.017029
 -0.023074
 -0.013204
  0.015673
  0.041865
  0.025442
  0.037955
  0.002542
 -0.021069
  0.052563
  0.023595
  0.062358
  0.051114
  0.036962
 -0.015688
 -0.038632
 -0.034158
  0.051290
  0.018458
 -0.012175
 -0.009316
 -0.029941
 -0.034795
 -0.003702
  0.032909
  0.006986
 -0.052645
  0.005935
 -0.009990
 -0.027033
  0.010415
 -0.054002
 -0.001255
 -0.014009
 -0.013363
  0.015449
  0.037112
  0.041161
  0.000082
 -0.012669
  0.038121
 -0.032049
 -0.013228
 -0.020118
  0.040793
  0.050937
  0.018457
  0.011945
 -0.006398
  0.009383
  0.025139
  0.025981
  0.026982
  0.034110
  0.023081
 -0.008887
 -0.011437
  0.009355
  0.015501
 -0.029229
 -0.012307
  0.037165
  0.017467
 -0.044175
 -0.006004
 -0.019340
 -0.040961
 -0.028472
 -0.004551
  0.036815
 -0.003908
 -0.025419
 -0.024494
  0.011191
 -0.046268
  0.006929
  0.004692
 -0.003638
  0.017023
  0.010982
 -0.035382
  0.005240
  0.042214
  0.008610
 -0.004661
 -0.037125
 -0.016008
  0.003259
 -0.019850
  0.001406
  0.034098
  0.019002
 -0.000152
 -0.058553
 -0.008087
 -0.017636
  0.017317
 -0.032871
 -0.015402
 -0.034653
 -0.005395
 -0.026084
 -0.018320
  0.024595
  0.002176
  0.030182
 -0.009584
 -0.008918
 -0.046719
 -0.021771
 -0.042794
  0.028843
  0.002666
 -0.009728
  0.021558
 -0.002162
 -0.005611
 -0.034074
  0.032573
  0.020377
  0.030000
  0.017283
 -0.020755
 -0.003516
 -0.009516
 -0.001273
 -0.054057
 -0.033085
  0.014081
  0.030988
  0.016476
 -0.002176
  0.012307
 -0.035564
  0.017256
  0.052060
 -0.031423
 -0.011656
  0.043732
  0.035744
  0.015775
 -0.020830
 -0.038926
 -0.036433
  0.006843
 -0.014917
  0.002650
  0.002990
 -0.008919
 -0.018434
  0.031730
 -0.019260
 -0.022426
  0.020795
  0.032862
  0.014207
 -0.005622
 -0.000456
  0.011253
  0.026144
 -0.011001
  0.015992
  0.029989
  0.018169
 -0.009128
  0.029060
 -0.008207
  0.004196
  0.029440
 -0.016776
  0.053824
 -0.019542
 -0.001790
  0.044352
  0.022372
  0.033851
 -0.005880
  0.004666
 -0.038329
 -0.013541
  0.005756
 -0.000506
 -0.013042
  0.002342
  0.030384
  0.051423
 -0.011179
 -0.028554
 -0.003164
 -0.020002
 -0.022509
 -0.001004
  0.007343
 -0.006300
 -0.003803
  0.016429
  0.011187
 -0.003943
 -0.021427
  0.011422
  0.012619
  0.010383
  0.013506
 -0.023069
  0.017550
 -0.006555
 -0.007381
 -0.008034
 -0.009899
 -0.001780
 -0.043220
  0.018677
  0.017973
  0.028129
  0.006790
  0.005844
  0.018005
 -0.026187
  0.023724
 -0.023883
 -0.020844
 -0.021201
  0.008725
 -0.001405
 -0.005202
  0.021088
 -0.041537
  0.034135
  0.021859
  0.013431
 -0.020606
 -0.074993
 -0.026902
 -0.022518
  0.033089
 -0.023480
 -0.005873
  0.036648
 -0.059821
  0.005166
  0.018524
  0.065964
 -0.038086
  0.005899
  0.073426
  0.024787
  0.009585
 -0.011881
  0.012064
  0.024077
  0.048525
 -0.012354
  0.051863
 -0.005185
  0.011701
 -0.001681
 -0.024294
 -0.009687
  0.055297
 -0.000114
 -0.007949
 -0.008115
 -0.004132
 -0.011383
 -0.010169
  0.001771
 -0.030043
  0.009475
  0.051190
  0.044187
 -0.000790
  0.008803
 -0.030714
  0.019946
 -0.031006
 -0.020900
 -0.016854
  0.033472
 -0.010395
  0.030947
  0.051723
 -0.047343
  0.038731
 -0.025618
 -0.012459
  0.032775
 -0.019391
 -0.025032
  0.005923
 -0.000785
  0.006523
  0.004252
  0.018263
 -0.005840
 -0.047752
  0.033627
  0.004319
  0.040435
 -0.037651
  0.024844
 -0.014977
  0.003636
 -0.004998
  0.014470
 -0.014919
  0.023738
  0.034777
  0.006294
  0.004427
  0.016035
  0.014505
 -0.001172
 -0.014865
 -0.022589
  0.012450
  0.024763
 -0.013224
  0.013827
  0.037533
  0.022785
  0.027273
 -0.069714
  0.029255
 -0.001679
  0.013158
  0.005819
  0.027528
 -0.023903
 -0.003582
  0.033605
  0.000605
  0.019101
 -0.002327
 -0.003038
  0.035121
  0.040159
 -0.011597
 -0.020007
 -0.053883
  0.024045
 -0.024078
 -0.027534
 -0.043356
 -0.036913
  0.045512
 -0.002539
 -0.040999
 -0.012509
  0.015923
 -0.015934
 -0.018208
 -0.027745
 -0.027823
  0.003223
 -0.007155
  0.002715
 -0.011346
 -0.040686
 -0.020185
 -0.001202
  0.028314
  0.002199
 -0.064040
 -0.009766
  0.019973
  0.036147
 -0.032044
  0.026249
 -0.012188
  0.009055
  0.012500
 -0.019322
  0.008511
 -0.024187
  0.007148
 -0.055537
 -0.011162
 -0.014611
 -0.011756
 -0.013524
 -0.011727
 -0.019025
 -0.006161
  0.000838
  0.014292
  0.017652
 -0.012793
  0.033400
  0.024358
 -0.028074
 -0.000097
  0.025453
 -0.024966
  0.016698
 -0.015071
  0.007455
  0.031102
 -0.027530
 -0.037479
  0.055984
  0.030840
 -0.005101
  0.020569
 -0.020947
  0.007766
 -0.014786
  0.021313
  0.038011
  0.019017
 -0.010639
 -0.017093
  0.004927
  0.000568
 -0.010219
 -0.018922
  0.010663
  0.014873
 -0.003386
  0.014489
 -0.027640
  0.046021
 -0.005943
 -0.000630
 -0.005136
  0.014513
  0.011730
 -0.006187
  0.011909
  0.032654
 -0.023209
  0.007855
  0.008872
  0.011064
 -0.004695
  0.034406
  0.015463
  0.017174
  0.003059
  0.024584
 -0.016270
  0.013169
 -0.037473
  0.022424
 -0.000406
 -0.046593
  0.005314
  0.011142
 -0.019144
 -0.027129
 -0.018335
  0.012680
  0.006895
 -0.007383
  0.021591
 -0.017988
  0.010702
  0.014455
 -0.008016
  0.006579
 -0.036206
 -0.014495
 -0.001913
 -0.004418
  0.015142
 -0.013089
 -0.029030
  0.018001
 -0.005753
  0.023828
  0.023139
 -0.013006
 -0.004503
  0.002502
 -0.006091
 -0.022255
 -0.004732
 -0.000171
  0.024607
  0.021018
  0.002830
  0.009803
 -0.027025
  0.026519
  0.040374
 -0.001749
 -0.020645
  0.000426
 -0.032338
 -0.018259
  0.018972
  0.053736
 -0.004898
 -0.010718
  0.000203
 -0.009831
 -0.030166
 -0.029107
  0.006622
 -0.004843
 -0.013134
  0.040292
  0.031193
 -0.004051
  0.033749
  0.002244
  0.022844
  0.007597
 -0.000113
 -0.038258
 -0.041400
  0.009107
  0.011804
 -0.027318
 -0.023157
  0.015987
 -0.033438
 -0.007494
 -0.037806
 -0.022874
  0.013909
 -0.005241
 -0.000337
  0.041441
  0.006255
 -0.006770
  0.002348
  0.032077
  0.003504
  0.016713
  0.016476
  0.012627
 -0.004651
  0.014560
  0.040060
  0.013086
  0.008729
 -0.000801
  0.005808
 -0.021332
 -0.022229
 -0.001861
  0.016053
 -0.001552
  0.007046
 -0.023335
 -0.003452
  0.007935
  0.008353
 -0.009509
 -0.017190
  0.037560
  0.031043
  0.050074
  0.073527
  0.021610
  0.025222
 -0.051010
  0.003356
 -0.034846
 -0.013345
  0.046527
  0.015577
 -0.034528
 -0.004327
  0.014824
 -0.044153
  0.028852
 -0.026159
 -0.027521
  0.013835
 -0.021784
  0.037938
  0.017267
 -0.018239
  0.016507
 -0.014786
 -0.028789
  0.015156
 -0.037919
 -0.009510
  0.024867
  0.019227
 -0.024447
 -0.006148
  0.006938
  0.020181
  0.007822
 -0.013704
 -0.002968
 -0.017593
  0.033974
 -0.006141
  0.012244
 -0.022751
  0.013016
  0.040159
  0.015099
 -0.009571
 -0.029417
  0.015965
 -0.030504
 -0.032323
  0.054164
  0.044873
  0.041520
 -0.008376
  0.009441
 -0.011383
 -0.000183
 -0.004093
  0.016750
 -0.021867
  0.008802
  0.024124
 -0.004153
 -0.001009
  0.045775
  0.009654
 -0.007984
 -0.022504
  0.028017
 -0.026811
 -0.032733
 -0.048719
 -0.034125
 -0.028145
  0.009595
  0.024143
  0.010711
 -0.009048
  0.020279
 -0.015798
  0.006770
 -0.020285
 -0.038538
  0.027933
 -0.015419
 -0.057948
  0.025120
  0.035341
 -0.034392
  0.020900
  0.046901
 -0.006115
  0.022250
  0.000402
  0.013616
  0.002008
  0.031475
  0.002389
  0.017489
  0.005342
  0.030905
 -0.011608
 -0.004558
 -0.009116
 -0.014938
 -0.030285
 -0.008311
  0.001526
 -0.005124
 -0.027688
 -0.034056
  0.002887
 -0.023604
  0.005003
 -0.002827
 -0.024748
 -0.019026
  0.014587
  0.000571
 -0.011357
 -0.012612
 -0.011640
 -0.015343
 -0.008889
 -0.018672
  0.041479
 -0.020410
 -0.019358
  0.002824
 -0.021412
 -0.021007
  0.014095
 -0.011059
 -0.011402
 -0.004988
  0.004557
 -0.039740
 -0.013935
 -0.024389
 -0.015932
  0.004423
 -0.024684
  0.022718
  0.018613
  0.028411
 -0.005399
  0.025095
 -0.018227
 -0.005184
 -0.001359
  0.010067
 -0.015425
 -0.013816
  0.004883
 -0.052780
  0.003399
 -0.014819
  0.022138
 -0.000950
 -0.018942
 -0.006350
 -0.016373
  0.017760
  0.033897
  0.018178
 -0.017794
  0.022122
  0.022113
 -0.022836
 -0.016612
 -0.045623
 -0.009365
  0.002023
 -0.023465
  0.014659
 -0.026518
 -0.041274
 -0.016834
  0.026805
  0.048331
  0.000634
 -0.023283
  0.025468
  0.019315
 -0.009594
  0.002770
 -0.030871
 -0.036417
  0.031459
 -0.022059
  0.019640
 -0.053441
  0.023002
  0.021979
  0.021014
 -0.032982
 -0.008135
  0.019815
 -0.029899
 -0.015338
 -0.015297
  0.033143
  0.010016
  0.030930
 -0.002339
 -0.002687
  0.018180
 -0.006099
  0.023886
 -0.011613
  0.016903
 -0.004843
  0.013537
 -0.000765
 -0.003313
  0.026582
  0.037433
 -0.006019
 -0.004394
 -0.003080
 -0.034313
  0.038735
 -0.021094
 -0.001377
  0.011774
 -0.003031
 -0.009005
 -0.057925
  0.026824
 -0.010504
 -0.063770
  0.022991
 -0.024515
 -0.036389
  0.031543
  0.028944
 -0.009721
  0.003695
 -0.044266
  0.009385
 -0.021253
  0.007240
 -0.034083
 -0.021656
 -0.020128
 -0.013502
  0.008777
 -0.006785
 -0.033965
 -0.008092
  0.000517
  0.023777
 -0.009796
 -0.025012
  0.005387
 -0.005275
  0.025983
 -0.017917
  0.044913
  0.038011
 -0.020973
  0.051693
  0.025176
 -0.032708
 -0.019687
  0.041814
 -0.017116
  0.014354
  0.002106
  0.010514
  0.043970
  0.012905
  0.014371
 -0.023394
  0.018264
  0.026054
 -0.000224
  0.015936
 -0.039050
 -0.021841
 -0.003599
  0.037998
  0.022289
 -0.016468
 -0.025620
  0.018350
  0.024661
  0.009063
  0.047030
  0.011228
  0.019442
 -0.017856
  0.014327
 -0.008955
  0.017378
 -0.026996
 -0.011127
 -0.009862
  0.007744
 -0.006530
 -0.001830
  0.013880
  0.019512
  0.031989
  0.009905
  0.020904
  0.024119
 -0.003072
  0.009644
 -0.022647
 -0.011838
  0.023091
 -0.004360
 -0.008211
  0.008891
  0.023589
  0.022091
 -0.004943
 -0.026443
 -0.003897
 -0.038203
 -0.024953
 -0.012841
 -0.011295
  0.002486
  0.007566
  0.008684
 -0.031167
  0.000810
  0.040819
  0.019284
 -0.001005
  0.012613
  0.026054
 -0.006163
 -0.003588
 -0.019922
  0.017044
 -0.019809
  0.006830
 -0.012419
 -0.014013
 -0.027006
 -0.013635
  0.004664
  0.007510
 -0.027496
 -0.033686
  0.042486
  0.002159
 -0.053631
 -0.002916
 -0.044217
 -0.036359
 -0.036993
 -0.014590
 -0.006761
  0.001966
 -0.004959
 -0.042388
 -0.019640
 -0.026107
  0.035359
 -0.014539
 -0.018147
  0.000165
  0.008501
  0.003973
  0.029286
 -0.025300
 -0.017129
 -0.034738
  0.013323
 -0.035634
  0.010674
  0.034377
  0.001079
  0.016166
  0.022124
 -0.035934
 -0.011460
 -0.017281
 -0.038387
  0.026225
 -0.002019
  0.027367
  0.012796
 -0.022455
  0.021187
 -0.042083
 -0.018295
  0.017253
 -0.015739
  0.021863
  0.010039
  0.029453
  0.018590
  0.002942
 -0.029208
 -0.002215
  0.020581
 -0.008342
  0.002172
 -0.015648
  0.023322
  0.022596
  0.017985
  0.019124
 -0.024349
 -0.030745
 -0.028118
 -0.019213
 -0.030433
 -0.017592
 -0.020526
 -0.019714
 -0.011760
  0.025179
 -0.034653
  0.013860
 -0.012197
 -0.045038
 -0.033794
 -0.008183
  0.007818
  0.015953
  0.004860
  0.028703
 -0.026360
  0.012253
  0.020315
  0.013255
 -0.029305
 -0.041863
  0.036762
  0.001391
  0.020115
  0.015749
  0.002185
  0.064627
 -0.002591
  0.040109
 -0.016946
  0.019457
  0.019974
  0.016313
  0.019715
  0.020831
  0.041829
  0.009013
 -0.005753
 -0.027431
 -0.035378
  0.050107
  0.008782
  0.035329
  0.041659
  0.016789
 -0.011938
  0.002530
  0.025932
 -0.031233
 -0.024384
 -0.036712
 -0.004483
 -0.036997
  0.037099
  0.008444
 -0.016484
 -0.005137
  0.004229
  0.014737
 -0.040145
  0.011838
 -0.000839
 -0.021007
 -0.002443
 -0.030139
 -0.017288
  0.007185
  0.018259
  0.032375
  0.008554
  0.027166
 -0.002359
 -0.002035
  0.019452
 -0.006377
  0.017720
 -0.023779
 -0.008309
  0.031208
 -0.007512
 -0.012985
 -0.015471
 -0.023773
  0.042380
  0.003091
  0.000619
 -0.010801
  0.020541
  0.000967
 -0.005487
 -0.008534
  0.001193
 -0.012664
 -0.031138
 -0.031403
 -0.014050
 -0.021224
  0.024226
  0.031249
  0.004077
  0.002570
  0.046625
 -0.007738
 -0.012417
 -0.005032
 -0.004020
 -0.008152
  0.021228
 -0.025499
  0.056743
  0.014527
  0.003797
  0.023880
 -0.005861
  0.008281
  0.030446
  0.044462
 -0.000343
 -0.030730
 -0.053939
  0.037741
 -0.041382
 -0.039234
  0.038965
  0.063568
 -0.018354
 -0.062705
  0.009947
  0.034189
  0.008665
 -0.003982
  0.009904
 -0.017598
  0.034297
  0.021857
 -0.020721
 -0.047003
  0.027986
 -0.017073
  0.029726
 -0.039949
 -0.001055
 -0.031733
  0.021602
  0.029330
  0.029787
  0.006409
  0.004332
  0.015859
 -0.002100
  0.022652
  0.027605
 -0.030593
  0.015732
  0.050831
  0.032167
  0.020746
 -0.007729
 -0.004255
  0.035254
 -0.000322
  0.043717
 -0.030876
  0.011961
  0.052166
 -0.004885
  0.000284
  0.042727
 -0.011836
 -0.014847
 -0.009424
  0.005442
 -0.001078
  0.029362
 -0.008006
 -0.019655
 -0.017776
 -0.018422
 -0.024216
  0.003844
  0.006038
 -0.028815
 -0.017167
  0.007118
  0.002870
 -0.037620
 -0.026861
  0.003041
 -0.010595
  0.015736
  0.005410
  0.008043
 -0.016758
  0.000825
 -0.021795
  0.007888
 -0.010989
  0.013160
  0.023399
  0.017163
  0.005661
 -0.068178
 -0.010053
 -0.039660
  0.027846
 -0.011177
  0.028119
  0.032013
 -0.011664
 -0.007084
  0.019184
  0.006117
  0.019150
 -0.008603
 -0.015967
 -0.022144
 -0.029354
 -0.022309
  0.018694
 -0.016246
 -0.005943
  0.033091
 -0.022869
 -0.003661
  0.031821
 -0.029807
 -0.008783
 -0.010527
 -0.019120
  0.000041
  0.020131
 -0.014347
 -0.015491
  0.002399
  0.050284
 -0.050120
 -0.035963
 -0.003610
 -0.005541
 -0.005454
  0.007625
 -0.002211
  0.000063
 -0.000422
  0.008374
 -0.007667
  0.029906
 -0.018599
 -0.057610
 -0.016329
 -0.029401
  0.000231
 -0.016704
 -0.020991
 -0.012603
  0.016088
 -0.005560
 -0.035929
  0.012304
 -0.030857
 -0.070681
 -0.013575
  0.011086
  0.053296
  0.023180
 -0.005695
 -0.029074
  0.032279
  0.000442
 -0.018082
  0.024267
 -0.005149
 -0.020605
  0.007495
  0.013841
 -0.006872
 -0.017687
  0.014987
  0.052956
 -0.011499
 -0.040962
 -0.033685
  0.014325
  0.037498
 -0.026185
  0.041016
 -0.039695
 -0.053208
  0.019526
  0.014412
 -0.025644
 -0.015798
 -0.005486
 -0.025326
  0.008347
  0.027024
  0.028407
  0.015595
  0.024380
 -0.031581
  0.013206
  0.008556
  0.033297
  0.053964
 -0.000236
  0.018869
 -0.061100
 -0.008637
  0.034561
  0.043712
  0.027601
 -0.026366
  0.014196
  0.026670
  0.028523
  0.023896
 -0.005441
  0.003479
  0.000951
 -0.024361
 -0.024517
 -0.013951
 -0.013918
  0.024224
  0.009791
 -0.028400
  0.002247
  0.010979
 -0.005258
  0.027097
 -0.004248
  0.004080
 -0.014044
 -0.047292
 -0.037824
 -0.012621
  0.003518
  0.030081
  0.003044
 -0.022551
  0.036797
  0.002266
  0.032157
  0.010429
  0.013382
 -0.030793
  0.006659
  0.057198
  0.042762
  0.035040
 -0.040977
 -0.009051
 -0.029599
  0.010031
  0.024594
  0.041397
  0.016514
 -0.038323
  0.038596
  0.006298
 -0.035718
 -0.000302
  0.032173
 -0.000513
  0.018542
  0.002142
  0.014657
 -0.021035
 -0.016375
 -0.031291
  0.039938
  0.002510
 -0.018794
 -0.005102
  0.012667
 -0.004850
 -0.017620
 -0.001349
  0.062933
  0.011495
  0.029111
  0.000377
 -0.012253
  0.010247
 -0.003905
  0.014768
  0.022067
 -0.004170
  0.025750
  0.016119
 -0.002617
  0.037980
 -0.000959
  0.057140
 -0.002844
 -0.011868
  0.040892
 -0.022054
  0.022872
 -0.007113
  0.011060
 -0.004289
  0.012293
  0.007007
  0.020292
  0.015155
  0.021051
  0.024869
 -0.002431
  0.038550
  0.003581
  0.012916
  0.027082
  0.019412
 -0.019214
  0.016778
  0.012090
  0.007939
  0.014680
  0.001612
  0.026870
  0.009718
  0.011781
 -0.003079
  0.022442
  0.017931
 -0.020478
  0.034107
  0.011552
  0.031625
 -0.003442
 -0.037646
  0.061177
  0.045971
  0.001622
 -0.025525
  0.015304
  0.023625
  0.013628
  0.035380
 -0.036999
  0.031652
 -0.018101
 -0.034913
  0.003028
 -0.007357
  0.000430
 -0.014276
  0.004963
  0.014731
  0.015145
  0.037539
  0.023172
  0.023016
  0.035163
 -0.017399
  0.027391
 -0.017810
 -0.026020
 -0.001685
  0.007735
  0.019729
 -0.013606
  0.062487
 -0.001038
 -0.008200
  0.068170
  0.050524
  0.014511
  0.031922
  0.024482
  0.021294
  0.035095
  0.039222
  0.041366
  0.018384
  0.014298
  0.031198
  0.006982
  0.020837
  0.002672
  0.016340
 -0.021734
  0.027434
  0.022410
  0.037229
 -0.009404
 -0.002691
 -0.011536
  0.032850
  0.001915
  0.037761
  0.015219
  0.030209
  0.000540
  0.044123
  0.005344
  0.017867
  0.015414
  0.025140
 -0.047974
 -0.007241
  0.041792
  0.039415
  0.069706
  0.028853
  0.013534
  0.012584
  0.014417
  0.058827
  0.011308
  0.011248
  0.042978
  0.080299
  0.015115
  0.030980
  0.036135
  0.052567
  0.013108
 -0.016654
  0.004936
  0.042859
  0.021439
  0.050234
  0.000167
  0.007770
  0.029219
  0.021187
 -0.009423
  0.010772
  0.037133
 -0.032694
  0.029856
  0.006491
  0.012330
 -0.044399
 -0.023386
 -0.003092
  0.008983
  0.008175
 -0.034819
 -0.026455
  0.031571
 -0.025004
  0.031208
  0.000393
  0.011706
 -0.021872
 -0.041914
 -0.011608
  0.039217
  0.048808
 -0.025101
 -0.003478
  0.006747
  0.029722
 -0.024140
 -0.010414
 -0.040086
  0.017880
 -0.032461
 -0.036118
  0.015087
  0.003991
  0.035575
 -0.013374
 -0.027277
  0.018928
  0.032311
 -0.052553
 -0.029905
  0.043557
  0.050235
 -0.007278
 -0.010343
 -0.001124
  0.026374
 -0.011206
  0.015460
 -0.015057
 -0.005321
 -0.009758
  0.003543
 -0.001082
  0.021441
 -0.006465
  0.006402
  0.033863
  0.010265
 -0.040024
  0.035690
 -0.004174
  0.017454
  0.010793
  0.003780
 -0.005582
 -0.015441
 -0.026468
  0.006582
  0.009728
 -0.010874
 -0.024859
 -0.015310
  0.047568
 -0.023312
 -0.016575
  0.002892
 -0.011094
 -0.035663
 -0.021513
 -0.027160
  0.003958
 -0.002180
  0.026332
 -0.016195
 -0.011956
  0.003777
 -0.017513
  0.003677
  0.007613
  0.030574
  0.055459
 -0.025523
  0.006885
  0.056950
 -0.047349
  0.006440
 -0.010502
  0.030916
 -0.038103
  0.059861
  0.000640
  0.007127
 -0.011300
  0.011037
 -0.029687
 -0.026422
  0.010618
  0.034992
  0.036550
  0.023966
  0.037518
 -0.001670
 -0.026623
 -0.017110
 -0.021703
 -0.003135
  0.001932
  0.009829
  0.003902
  0.038440
  0.008235
  0.015775
 -0.010550
  0.005973
  0.012080
  0.013771
 -0.035711
 -0.015939
  0.031792
  0.011917
  0.006448
 -0.051448
 -0.036780
 -0.006648
  0.027790
 -0.069454
 -0.072359
  0.008997
 -0.010108
  0.024784
  0.016764
  0.003222
  0.010163
  0.023829
 -0.000077
 -0.023326
 -0.006691
 -0.036166
  0.015500
 -0.013339
 -0.029141
 -0.036499
  0.010888
 -0.042248
  0.033833
 -0.028915
 -0.017698
 -0.003825
 -0.025021
 -0.016248
 -0.008231
  0.017929
  0.004703
  0.011761
 -0.031710
  0.021223
  0.033149
  0.030924
  0.033491
 -0.028851
 -0.007924
  0.027663
  0.005228
 -0.030979
 -0.025034
 -0.018591
 -0.009374
  0.035787
  0.043115
 -0.002274
  0.016188
  0.003955
 -0.006678
  0.038787
  0.015851
  0.005533
  0.019441
  0.000848
  0.007704
 -0.006439
  0.003142
 -0.012717
  0.024005
  0.024744
  0.050523
 -0.014956
  0.006885
 -0.007590
  0.034529
  0.002274
 -0.017975
 -0.034322
 -0.002043
 -0.006094
  0.010288
  0.019953
 -0.014015
  0.020940
  0.011311
 -0.016140
  0.024048
 -0.002839
  0.048997
 -0.004230
 -0.013372
  0.000865
  0.052259
  0.029578
  0.030126
 -0.018250
 -0.021820
  0.000144
 -0.017712
  0.021167
 -0.005915
  0.001565
  0.012039
  0.015357
 -0.006897
  0.043895
 -0.041284
 -0.002969
  0.038535
 -0.000876
 -0.007878
  0.022397
  0.033370
  0.012514
  0.043170
  0.010137
  0.002497
 -0.056296
 -0.006461
 -0.001541
 -0.029892
 -0.010387
  0.019886
  0.006271
  0.004415
  0.038345
  0.028068
 -0.008777
 -0.000890
 -0.004489
 -0.040173
 -0.020682
  0.010998
 -0.067592
 -0.011862
 -0.022319
 -0.010620
 -0.006254
 -0.028002
 -0.006648
  0.007357
  0.016163
 -0.020793
  0.021670
  0.001192
  0.008630
 -0.035846
  0.011796
 -0.054255
  0.022905
 -0.047242
 -0.046512
  0.012538
 -0.019739
 -0.058456
  0.066346
  0.021838
  0.025076
  0.028159
  0.014338
  0.018309
  0.001722
 -0.000330
 -0.012519
 -0.028734
 -0.025754
 -0.008332
 -0.011508
  0.058882
 -0.036010
 -0.007640
 -0.020025
  0.029139
  0.059624
 -0.049037
 -0.020231
  0.041483
  0.002166
  0.010829
  0.012086
 -0.009006
 -0.054224
 -0.011940
  0.025646
 -0.001847
 -0.030329
 -0.002746
 -0.040246
 -0.013325
 -0.000621
 -0.027495
 -0.047923
  0.044650
  0.003108
  0.003218
 -0.015205
  0.008315
 -0.020799
 -0.000625
 -0.021479
 -0.019193
 -0.015279
 -0.021093
  0.020511
 -0.001032
  0.012945
 -0.026433
 -0.017455
  0.025333
  0.026534
  0.024879
  0.015466
  0.011402
 -0.060886
 -0.017276
 -0.015796
 -0.027027
 -0.024938
  0.007948
  0.031747
 -0.028887
  0.020792
  0.002718
 -0.004806
 -0.045981
 -0.004184
 -0.024300
  0.002452
  0.002330
  0.003390
 -0.031783
  0.019097
 -0.031924
  0.020909
  0.007582
  0.007345
  0.019065
  0.008625
 -0.018154
  0.022141
  0.007563
 -0.008116
  0.034323
 -0.018016
  0.049199
 -0.009579
 -0.014904
 -0.016729
 -0.009451
  0.013378
 -0.015671
  0.003772
 -0.011470
  0.002470
 -0.012261
 -0.027204
  0.027544
  0.020615
  0.035723
  0.000619
 -0.027389
  0.052074
 -0.032487
  0.001843
  0.026769
  0.009851
  0.022453
 -0.022768
 -0.018094
  0.007113
  0.006457
 -0.013584
  0.008454
  0.019739
 -0.028332
 -0.017549
  0.027545
 -0.065023
 -0.041882
  0.019700
  0.027193
 -0.018708
  0.030659
 -0.005787
  0.015997
 -0.028098
  0.003419
 -0.039930
 -0.046679
  0.048061
 -0.002948
 -0.001612
 -0.052863
  0.013576
 -0.004426
  0.017929
  0.041315
 -0.030754
  0.008508
 -0.022951
 -0.009241
  0.013674
 -0.048047
 -0.011225
  0.029850
 -0.020411
  0.018107
 -0.039175
  0.001484
  0.013307
 -0.005316
  0.007152
  0.004020
 -0.028993
  0.017289
  0.006671
 -0.047396
 -0.022215
  0.044416
 -0.020081
  0.009831
  0.006460
 -0.039412
  0.021639
  0.017191
  0.012549
  0.014149
 -0.003779
 -0.053856
  0.021827
 -0.045596
 -0.032699
  0.005230
 -0.014899
 -0.037728
  0.016713
  0.002755
  0.029292
  0.005948
  0.010593
  0.012079
 -0.004639
  0.020842
  0.010448
 -0.007670
  0.047814
  0.000505
 -0.008982
 -0.002760
  0.010449
  0.001699
 -0.033144
  0.021066
 -0.003807
  0.023693
  0.019383
  0.020662
 -0.018354
  0.017998
 -0.006762
  0.006524
 -0.007430
 -0.001443
  0.023705
  0.039991
  0.008150
  0.030703
  0.036262
 -0.028603
  0.003303
  0.004798
 -0.006296
  0.016932
  0.003300
  0.030095
  0.027137
  0.018313
  0.004024
 -0.013202
  0.009027
 -0.032704
 -0.003532
  0.014653
  0.003363
 -0.040265
  0.015397
  0.003426
  0.014491
  0.026156
  0.003062
  0.002232
 -0.024480
  0.016365
 -0.034625
  0.039018
  0.031711
  0.004549
 -0.038611
 -0.030315
  0.011368
 -0.015480
  0.005571
 -0.014820
  0.002259
 -0.012412
  0.016596
 -0.013370
 -0.019663
 -0.041217
 -0.056816
 -0.040354
 -0.008701
  0.031544
 -0.030945
 -0.013407
  0.017275
  0.004117
  0.029647
  0.029820
  0.006524
 -0.000139
  0.013544
 -0.022078
 -0.038354
  0.012892
  0.005174
 -0.008129
 -0.018824
  0.050038
  0.031634
  0.007038
 -0.029145
 -0.034286
  0.007840
 -0.003717
 -0.007275
  0.020612
  0.016585
  0.026321
  0.034635
  0.004895
 -0.026294
  0.011564
  0.027156
 -0.015886
  0.038868
  0.007250
 -0.039660
 -0.000783
  0.013770
 -0.034879
  0.006792
  0.005031
 -0.022853
 -0.031554
 -0.023501
  0.001268
 -0.042049
  0.000259
 -0.073529
  0.012298
 -0.011572
  0.037413
  0.001306
  0.033399
 -0.011339
  0.005764
  0.003030
  0.040473
 -0.000068
  0.038223
  0.010486
 -0.023959
 -0.026204
 -0.002254
  0.013499
 -0.001290
 -0.016246
  0.010612
  0.031542
 -0.030062
 -0.026828
  0.051242
 -0.004943
 -0.041495
  0.050563
  0.027143
 -0.006418
  0.026576
 -0.072250
 -0.014863
  0.017874
  0.058265
  0.022582
  0.019378
 -0.028389
 -0.007364
  0.016674
  0.003837
  0.000145
  0.024022
 -0.049245
 -0.001685
 -0.003981
  0.064196
 -0.013281
 -0.003557
 -0.013412
 -0.028304
  0.001150
  0.010913
  0.004434
 -0.009007
 -0.018932
  0.006061
 -0.027026
 -0.040479
 -0.033032
  0.015340
 -0.025965
  0.010858
  0.006488
 -0.033170
 -0.013346
  0.031151
  0.041279
  0.044578
  0.021688
 -0.018639
 -0.039913
 -0.015457
 -0.035691
  0.003801
 -0.032028
 -0.014648
  0.022992
 -0.003620
  0.026206
 -0.045350
  0.024112
 -0.001054
  0.025257
 -0.019275
  0.013320
 -0.029271
 -0.006033
  0.010628
  0.010113
  0.008443
  0.015456
 -0.026918
  0.026744
 -0.022675
  0.007661
  0.017607
  0.034870
 -0.021373
  0.012233
  0.010882
  0.023538
 -0.006929
  0.033028
 -0.002532
  0.049682
  0.052000
  0.031979
  0.040806
  0.007735
  0.009286
 -0.064117
  0.049024
  0.013214
  0.034648
 -0.009691
 -0.005435
 -0.031888
  0.046379
  0.002801
 -0.047463
  0.017617
 -0.022225
 -0.011769
  0.000543
  0.034071
 -0.022383
  0.000168
 -0.042735
  0.020965
  0.021896
 -0.023680
 -0.021449
  0.001294
 -0.003477
  0.013070
 -0.041181
  0.015391
 -0.048258
  0.034326
 -0.004315
  0.017140
 -0.015368
 -0.002049
  0.012035
 -0.015619
 -0.021993
  0.071889
  0.011943
 -0.005035
  0.035147
 -0.017641
  0.002672
  0.028905
 -0.055700
 -0.007762
  0.048770
 -0.006640
 -0.022030
  0.006058
 -0.000217
 -0.041080
  0.003452
  0.014546
 -0.005009
  0.001777
  0.035915
  0.004921
 -0.001499
 -0.030828
  0.020900
 -0.003785
  0.008598
 -0.007513
 -0.009079
  0.046220
  0.026245
 -0.018905
  0.000517
 -0.037313
  0.001022
 -0.015961
 -0.031072
 -0.004542
 -0.004953
 -0.017205
  0.020084
  0.024548
 -0.012343
 -0.005493
 -0.034000
 -0.031145
 -0.019563
  0.050345
  0.043189
  0.033008
  0.012976
  0.009885
  0.025326
  0.015712
  0.028150
  0.011324
  0.047896
  0.013090
  0.000483
 -0.028067
 -0.043248
 -0.013550
  0.009311
  0.059761
  0.046823
 -0.042714
 -0.037173
  0.037736
  0.026562
  0.013944
  0.015941
 -0.011430
 -0.025822
  0.007252
  0.004956
 -0.024971
  0.045833
 -0.052119
 -0.033036
 -0.014952
  0.038616
 -0.004828
 -0.000115
  0.057085
  0.057554
  0.002165
  0.015185
 -0.050353
 -0.021327
 -0.046304
 -0.009454
  0.000102
  0.000206
  0.006356
 -0.016400
 -0.006587
 -0.017660
  0.017454
  0.030148
  0.033841
 -0.003543
  0.009579
 -0.024041
 -0.016902
 -0.000961
  0.028653
 -0.006085
 -0.029941
 -0.008745
 -0.030542
  0.010697
  0.013605
 -0.035169
  0.007186
 -0.021491
 -0.034750
 -0.017682
  0.044880
  0.010457
 -0.024074
 -0.002897
  0.022015
  0.010162
 -0.019554
 -0.037812
  0.016779
 -0.011000
 -0.010132
 -0.011569
 -0.016303
 -0.007467
  0.026964
  0.003791
  0.050571
  0.061377
  0.023771
  0.031747
  0.010499
 -0.000936
  0.024285
 -0.017512
 -0.012038
 -0.013077
  0.011356
  0.041125
  0.009336
  0.040725
 -0.017157
 -0.041441
  0.007184
 -0.013569
 -0.005146
 -0.016563
  0.024743
 -0.017246
  0.022880
 -0.021003
  0.005523
 -0.004210
 -0.019586
 -0.019663
 -0.015563
 -0.054308
 -0.015244
  0.015865
 -0.047653
  0.022669
 -0.043360
  0.009956
  0.034755
 -0.024971
 -0.038345
 -0.023786
  0.042141
  0.005859
  0.025067
 -0.009434
  0.020284
  0.036894
  0.033112
  0.002927
  0.027311
 -0.002353
 -0.026884
 -0.022458
 -0.014003
  0.008195
  0.025711
  0.023626
  0.023675
 -0.004940
  0.023908
 -0.031246
  0.028776
  0.032434
 -0.012365
  0.024842
 -0.002389
 -0.036225
  0.043191
  0.018875
 -0.004318
 -0.033228
  0.000615
 -0.032794
 -0.027486
  0.011382
  0.039895
  0.020738
 -0.008392
 -0.041322
  0.044713
  0.044670
  0.016230
  0.024463
  0.017934
 -0.002692
  0.001185
 -0.042599
  0.014803
  0.015827
  0.003964
 -0.023352
 -0.003853
  0.027231
 -0.022450
 -0.014690
  0.011439
 -0.032304
  0.004618
  0.033115
 -0.006826
 -0.024011
 -0.005215
  0.018121
  0.050069
  0.022501
  0.017817
 -0.033794
  0.022873
 -0.038178
  0.016782
 -0.015393
  0.004949
 -0.024552
  0.013581
 -0.009082
 -0.005056
  0.028504
  0.021209
 -0.007421
 -0.012063
 -0.023498
  0.030078
 -0.018443
  0.006865
  0.009679
 -0.031286
 -0.024701
  0.013099
 -0.027689
  0.006436
  0.004224
  0.052690
  0.050418
  0.018796
 -0.006735
  0.000065
  0.011121
 -0.005410
 -0.016054
  0.025425
 -0.016552
 -0.025526
 -0.009548
  0.007127
 -0.028251
  0.001162
  0.014831
  0.027419
  0.016654
 -0.007738
  0.001753
  0.035233
 -0.008140
 -0.014277
  0.013451
  0.009576
  0.037578
 -0.041443
 -0.003239
  0.044881
 -0.017344
 -0.000240
  0.061233
  0.033884
 -0.034132
  0.010636
  0.011397
 -0.002141
 -0.018008
  0.015346
  0.002151
 -0.012295
  0.008256
  0.023008
 -0.005732
 -0.048992
 -0.008157
  0.029410
 -0.011084
 -0.045513
  0.025267
 -0.034184
  0.002281
 -0.037901
  0.021766
  0.007327
 -0.007251
  0.008970
  0.036342
 -0.003046
 -0.038003
  0.026109
  0.031916
  0.010872
  0.037216
 -0.009349
  0.031260
  0.003943
 -0.020406
 -0.009899
 -0.007189
 -0.019400
 -0.017936
 -0.007952
 -0.013351
 -0.007003
  0.016972
 -0.033063
  0.009549
 -0.027692
 -0.030429
  0.027070
 -0.063223
 -0.004333
  0.003397
 -0.012621
 -0.013777
  0.011829
 -0.006062
 -0.014819
 -0.036020
  0.023359
 -0.019078
  0.053702
  0.010997
  0.015278
 -0.006951
  0.000524
  0.017674
  0.005724
 -0.013947
  0.012745
 -0.017027
  0.013225
 -0.010727
  0.009903
 -0.000420
 -0.028200
 -0.014508
 -0.027889
 -0.037360
 -0.009022
 -0.008597
 -0.049251
 -0.068972
  0.003184
  0.000274
  0.049278
 -0.017699
 -0.024621
  0.064951
  0.049287
  0.016254
  0.002801
  0.004819
  0.013974
 -0.046941
 -0.008677
 -0.036525
  0.013656
  0.050843
 -0.041344
 -0.035581
 -0.059463
  0.024331
 -0.028816
  0.027267
  0.013497
  0.005959
 -0.001322
  0.014875
  0.032141
 -0.017360
  0.000769
  0.008304
 -0.004797
  0.015654
 -0.060456
 -0.005974
  0.035900
 -0.018138
 -0.031591
 -0.018135
  0.002018
  0.005057
 -0.020919
  0.017625
 -0.006746
 -0.002418
  0.029509
 -0.009239
  0.035237
 -0.003515
  0.007049
 -0.003306
  0.007041
 -0.001181
 -0.028624
 -0.010048
  0.036542
 -0.014210
 -0.014255
  0.035791
 -0.032248
  0.008743
 -0.023657
  0.034872
 -0.012316
 -0.034209
  0.004033
  0.027529
 -0.029295
  0.004581
 -0.039938
  0.014181
 -0.009109
  0.003741
 -0.016716
  0.024091
 -0.007974
 -0.045271
 -0.032396
 -0.024861
  0.018172
  0.037812
 -0.044587
  0.044095
 -0.007110
 -0.020455
 -0.064112
 -0.055131
 -0.021750
  0.004041
 -0.035755
  0.031394
 -0.006615
 -0.020677
 -0.002102
  0.024956
  0.030289
 -0.014414
  0.011936
  0.009344
  0.004741
 -0.022654
  0.021286
 -0.033763
 -0.016096
  0.021160
  0.001128
 -0.077001
  0.012685
 -0.007924
 -0.008459
 -0.013347
 -0.003682
  0.036200
 -0.030597
 -0.050875
  0.005008
 -0.011313
  0.008387
  0.031916
 -0.000181
  0.029422
  0.032719
  0.016443
 -0.015418
  0.013300
  0.024435
 -0.029454
 -0.004801
  0.011048
  0.035604
  0.011682
 -0.004607
  0.008510
  0.015820
 -0.065198
 -0.008307
  0.019390
 -0.024821
 -0.039704
  0.020660
 -0.006303
 -0.041022
  0.037066
 -0.033721
  0.044776
  0.027421
 -0.033211
  0.037357
 -0.008263
  0.008489
 -0.002560
 -0.032086
  0.003883
  0.000335
 -0.022049
  0.015247
 -0.008880
 -0.013237
 -0.024086
 -0.036345
  0.001157
  0.005365
  0.007502
 -0.003959
 -0.024250
 -0.012474
 -0.014797
  0.025551
  0.052966
  0.021922
  0.064661
 -0.011570
  0.027507
  0.003871
  0.016439
 -0.019953
 -0.016486
 -0.022329
  0.030065
  0.050532
  0.008319
 -0.006721
 -0.009307
  0.029721
  0.013466
  0.041686
 -0.020778
 -0.020411
 -0.014671
 -0.046615
  0.017515
 -0.007433
  0.006191
 -0.037197
 -0.002701
  0.009396
  0.020217
  0.012533
  0.044178
  0.010468
  0.001621
  0.021667
  0.050074
  0.017183
  0.006766
 -0.012754
 -0.028830
 -0.008815
 -0.010876
 -0.031943
 -0.032327
 -0.040988
  0.026852
 -0.001011
  0.005514
 -0.037662
  0.004366
 -0.020612
 -0.016746
 -0.041598
  0.025459
  0.000526
  0.000436
  0.015742
  0.010387
 -0.000882
  0.011062
 -0.031137
  0.008551
 -0.040049
 -0.004933
 -0.002852
 -0.025603
  0.019226
  0.013782
 -0.015593
  0.000982
  0.012111
 -0.015657
 -0.024202
 -0.016243
  0.048407
  0.011802
 -0.009278
 -0.022391
  0.041846
 -0.005616
 -0.011290
  0.007222
  0.017944
  0.023131
  0.015402
 -0.023179
 -0.012239
  0.017280
 -0.031575
 -0.017465
 -0.007674
 -0.003007
 -0.004876
 -0.010553
  0.033880
 -0.041215
  0.008649
  0.015584
 -0.031878
 -0.009401
  0.007489
  0.035678
 -0.000610
  0.020209
 -0.059167
 -0.008076
 -0.022723
  0.006756
  0.054112
  0.027516
 -0.005350
  0.004355
 -0.023829
 -0.033006
  0.003498
  0.009501
 -0.034622
  0.006438
 -0.007091
 -0.004409
  0.030338
  0.011469
  0.001028
 -0.011069
  0.034070
 -0.025108
 -0.053363
  0.025662
  0.037073
 -0.018952
 -0.019769
  0.026445
  0.021056
  0.059295
 -0.048275
  0.056278
  0.017869
  0.004639
  0.011113
  0.024438
 -0.023753
 -0.008321
 -0.008502
  0.024704
 -0.000420
 -0.013357
  0.014981
 -0.030679
 -0.014488
  0.013064
  0.031297
  0.041587
 -0.023252
  0.059448
 -0.002954
  0.009236
  0.010959
  0.008492
 -0.023134
  0.011538
  0.001847
 -0.037480
 -0.015091
 -0.049845
  0.012564
  0.011452
 -0.061373
 -0.023479
 -0.015502
  0.002032
 -0.054854
 -0.001234
 -0.024354
  0.037051
  0.042937
  0.000941
 -0.018643
 -0.016598
  0.029121
  0.039877
 -0.017414
  0.011469
 -0.031777
  0.027122
  0.013316
 -0.003030
 -0.002251
  0.014874
  0.040874
  0.024600
  0.013141
  0.010501
 -0.015555
 -0.024907
  0.007349
 -0.011576
  0.020272
  0.002958
 -0.003572
  0.052653
 -0.016122
  0.002031
  0.013042
 -0.006382
  0.031819
  0.019511
 -0.045069
 -0.057119
 -0.008763
 -0.002882
  0.012801
  0.008803
 -0.026158
 -0.006612
 -0.024904
 -0.011108
  0.015326
 -0.020254
  0.059464
 -0.050363
 -0.014529
  0.020944
 -0.023690
 -0.036626
  0.035476
  0.016102
  0.001280
  0.001647
  0.007096
  0.021272
 -0.008815
 -0.045595
  0.004668
 -0.025472
 -0.036859
 -0.028765
  0.005196
  0.005138
  0.025850
  0.033383
 -0.011218
 -0.016996
  0.015206
 -0.042653
  0.012381
 -0.026627
 -0.070687
 -0.030879
  0.021752
  0.041043
  0.004663
 -0.039215
  0.014851
 -0.024014
 -0.018755
 -0.018959
 -0.041857
 -0.028578
 -0.011620
 -0.034407
 -0.021963
  0.011343
  0.009820
  0.029979
 -0.008283
 -0.009476
  0.019010
 -0.015196
 -0.017969
  0.009749
  0.003987
 -0.044897
 -0.030202
  0.031700
 -0.018280
 -0.009880
  0.012707
 -0.035543
 -0.004362
  0.015113
  0.024063
  0.017598
  0.013229
  0.026220
  0.006669
  0.012563
 -0.012071
 -0.023649
 -0.003005
  0.043736
  0.000400
  0.017110
  0.004754
  0.039473
  0.039819
  0.050300
 -0.045942
 -0.037372
 -0.012576
  0.055226
  0.027811
 -0.087281
 -0.013409
 -0.024790
  0.019166
 -0.017637
 -0.021123
  0.020709
  0.026980
  0.013566
 -0.007025
 -0.020888
  0.027216
  0.012219
  0.003651
 -0.003906
  0.002398
  0.032120
 -0.011918
 -0.025683
  0.021941
  0.007064
  0.012669
  0.020748
 -0.009178
  0.024964
 -0.002578
  0.034206
  0.022853
 -0.001261
  0.041415
  0.027593
 -0.013439
 -0.003984
 -0.020422
  0.010805
 -0.037684
  0.004308
  0.014406
 -0.032527
 -0.031986
 -0.044688
 -0.016881
 -0.018904
  0.029529
 -0.008418
  0.005434
  0.024929
 -0.018489
 -0.033970
 -0.004115
  0.019913
  0.001751
  0.009841
 -0.001501
  0.041014
  0.017008
 -0.015694
 -0.013630
  0.038318
 -0.012086
 -0.005999
  0.038029
 -0.004821
  0.011580
  0.004944
  0.010253
 -0.000519
 -0.013286
 -0.043243
  0.031620
 -0.012948
  0.007828
  0.008746
 -0.016758
  0.023047
  0.006583
  0.015346
 -0.021015
 -0.016944
 -0.048474
  0.033215
  0.003019
 -0.029804
  0.002802
 -0.046089
  0.006219
  0.006662
 -0.033680
  0.013973
  0.013513
 -0.013731
  0.003074
  0.057723
  0.046346
 -0.002634
 -0.005689
 -0.027415
 -0.010161
  0.007946
 -0.014779
  0.024003
 -0.000228
  0.009192
  0.009441
  0.073584
 -0.017039
 -0.028122
  0.011968
  0.006626
  0.064783
  0.031113
 -0.017263
  0.006341
  0.009420
  0.021603
 -0.003364
 -0.028470
 -0.032623
  0.022125
 -0.000590
 -0.031031
 -0.020156
 -0.027557
 -0.001714
  0.008271
  0.028672
  0.003818
  0.019816
  0.028511
  0.010490
  0.003194
  0.018659
  0.019710
  0.016984
 -0.022174
 -0.016466
 -0.009559
  0.011333
 -0.018038
 -0.011736
 -0.001142
  0.028250
  0.004329
 -0.039742
  0.009141
 -0.054221
  0.029847
  0.015717
  0.019647
 -0.022857
 -0.025263
 -0.012381
 -0.029566
  0.032866
  0.006014
  0.000722
  0.019308
  0.029803
 -0.028891
  0.006860
 -0.025780
 -0.060051
 -0.023443
 -0.007458
  0.028375
 -0.029985
 -0.005995
 -0.004393
 -0.014728
 -0.039703
 -0.015275
  0.002445
  0.001959
 -0.030891
  0.014200
  0.009265
 -0.026785
 -0.015732
 -0.010187
  0.016932
 -0.035172
  0.004412
 -0.016653
  0.007016
 -0.032755
  0.035990
  0.014364
 -0.016412
  0.044000
  0.014236
  0.006965
 -0.005775
  0.019920
  0.012532
 -0.018210
  0.038237
 -0.002743
  0.058401
  0.056526
  0.051143
  0.041337
  0.029114
  0.047025
 -0.001087
  0.034811
  0.042262
 -0.018495
  0.006926
  0.028682
  0.048117
 -0.010304
  0.019123
 -0.016914
  0.036621
  0.035544
 -0.009619
 -0.026463
  0.034586
  0.080130
  0.030657
  0.012214
  0.000547
  0.054325
  0.033653
  0.000252
  0.058462
  0.053342
  0.122783
  0.083973
  0.091829
  0.044795
  0.077162
  0.093666
  0.039785
  0.070275
  0.062131
  0.052430
  0.061259
  0.052959
  0.051254
  0.054534
  0.041171
  0.050132
  0.053188
  0.063672
  0.097016
  0.065734
  0.093280
  0.136320
  0.178889
  0.246899
  0.311016
  0.380709
  0.433054
  0.554800
  0.667673
  0.742047
  0.836959
  0.926771
  0.983660
  0.982616
  0.996702
  1.000000
  0.953691
  0.870234
  0.807379
  0.689734
  0.618543
  0.485111
  0.363105
  0.272657
  0.211821
  0.129604
  0.084851
  0.061436
  0.050323
 -0.022777
  0.043347
  0.019227
  0.035425
  0.011410
  0.013952
  0.003026
  0.054141
  0.031392
  0.009275
  0.018907
  0.010819
 -0.011564
  0.025879
 -0.017539
  0.000828
  0.024691
  0.002515
  0.010001
  0.036377
 -0.042239
  0.004430
 -0.008171
 -0.018845
  0.001639
 -0.003199
 -0.021809
  0.006827
 -0.020813
 -0.006239
  0.028982
  0.009782
 -0.036806
  0.008612
 -0.033065
  0.030917
 -0.001881
 -0.003364
  0.061760
  0.011804
 -0.011435
 -0.010815
 -0.026629
 -0.014973
 -0.010436
  0.012844
 -0.040439
  0.005922
  0.025081
  0.016734
 -0.028662
  0.023656
 -0.014493
 -0.034237
 -0.018542
 -0.006663
  0.017701
  0.001242
 -0.000668
 -0.012085
 -0.028339
 -0.028489
 -0.041276
  0.017254
  0.018009
 -0.010084
  0.011369
 -0.008640
 -0.038538
 -0.007184
  0.013093
 -0.003625
  0.006711
 -0.020688
 -0.009801
 -0.007257
  0.033904
  0.005181
 -0.011077
 -0.006484
 -0.015580
  0.020647
  0.001038
 -0.020846
  0.006219
  0.071513
 -0.009543
 -0.004586
  0.000960
  0.043509
 -0.013993
 -0.011612
  0.020873
 -0.013201
 -0.013054
 -0.052112
  0.015434
  0.025493
  0.015024
  0.007916
 -0.024216
  0.009445
 -0.002554
  0.008090
  0.008411
  0.005053
  0.082531
 -0.007084
  0.015207
  0.041110
 -0.012911
  0.026672
 -0.006330
  0.007387
 -0.009259
 -0.030921
  0.023761
  0.021620
  0.003993
 -0.039687
 -0.002464
  0.031268
 -0.031077
 -0.005136
  0.006331
  0.005104
  0.010601
 -0.013574
 -0.005701
 -0.018637
  0.037180
 -0.041528
  0.010120
 -0.020382
 -0.023174
 -0.007533
  0.036740
  0.020969
  0.031550
 -0.024658
 -0.028786
 -0.025623
 -0.051626
  0.064241
  0.007205
  0.000238
 -0.017290
  0.046102
  0.018010
 -0.038734
  0.024834
  0.005288
  0.005232
  0.014555
  0.036050
  0.007742
  0.021605
 -0.023299
 -0.010401
 -0.007624
  0.005693
 -0.016833
  0.009029
 -0.006601
 -0.001214
  0.031636
  0.044407
  0.008566
  0.019774
  0.008267
  0.000849
 -0.008331
 -0.002085
  0.003799
  0.008558
 -0.004233
 -0.018394
 -0.009775
 -0.008398
  0.043121
  0.007318
 -0.008446
  0.017476
  0.054176
  0.018620
 -0.011894
  0.012743
  0.044600
 -0.028732
 -0.019997
  0.009473
  0.044646
 -0.024595
  0.000842
  0.002568
  0.036254
 -0.025157
 -0.017471
 -0.012398
  0.013877
  0.000553
  0.007150
  0.051020
 -0.017229
 -0.008559
  0.016283
  0.009570
 -0.007393
 -0.018337
  0.025520
 -0.014844
 -0.005857
  0.013860
  0.034854
  0.026704
 -0.005164
  0.021419
  0.001730
 -0.028539
  0.047681
 -0.022805
  0.002851
  0.029238
 -0.019978
 -0.012543
  0.007923
  0.023238
  0.040554
  0.022266
 -0.071314
  0.076427
 -0.008036
 -0.025773
  0.005777
 -0.009463
  0.043827
  0.022752
  0.000820
 -0.015244
  0.010395
 -0.025057
  0.022761
  0.006468
  0.038300
  0.001069
  0.000616
 -0.005896
  0.005698
 -0.012765
 -0.031776
 -0.038578
  0.027831
 -0.025386
  0.020354
 -0.000077
 -0.011057
  0.027269
  0.007387
 -0.011404
  0.034856
 -0.015095
  0.002654
  0.045591
  0.015007
 -0.016687
  0.008774
 -0.016889
 -0.007434
 -0.005520
 -0.025957
  0.020825
  0.006554
  0.010385
 -0.001684
  0.005076
 -0.013814
 -0.053492
 -0.003180
 -0.028260
 -0.004886
 -0.014315
  0.011280
  0.024236
  0.023207
 -0.037203
 -0.007865
 -0.000335
  0.005622
 -0.009551
 -0.023940
 -0.020682
 -0.020132
 -0.045630
 -0.015428
  0.014451
 -0.007461
  0.018430
 -0.010563
  0.046910
  0.037171
  0.015675
  0.016223
 -0.006959
  0.000524
  0.067499
  0.027821
 -0.003449
 -0.022969
  0.005886
 -0.002663
 -0.017839
 -0.021632
  0.043720
 -0.007457
 -0.005184
  0.001121
 -0.033932
  0.019649
 -0.014880
 -0.018931
  0.021174
  0.000774
  0.040024
  0.006859
  0.058044
  0.026294
 -0.021331
 -0.020043
 -0.005444
  0.022606
  0.017794
  0.004652
  0.003947
  0.010022
 -0.030878
 -0.011226
  0.074111
 -0.025227
  0.020187
 -0.016300
  0.020996
  0.024166
 -0.006068
 -0.029351
 -0.064549
 -0.027387
  0.064418
 -0.010596
  0.020016
  0.022886
  0.007323
 -0.003471
 -0.003855
  0.015422
 -0.030419
 -0.022948
  0.021277
  0.019772
  0.027804
 -0.000431
 -0.024614
  0.002390
  0.022325
  0.006042
 -0.004990
 -0.068620
  0.003394
 -0.021573
  0.049371
 -0.005765
  0.018489
  0.018596
 -0.007811
  0.003310
 -0.017444
 -0.037165
 -0.014370
  0.026612
  0.013231
 -0.006713
  0.013247
 -0.008517
  0.000009
  0.067400
 -0.010906
  0.023493
 -0.008713
  0.007291
  0.018443
  0.029527
 -0.011267
 -0.020505
  0.026058
  0.025216
  0.019736
 -0.012656
  0.005496
  0.015246
 -0.012566
  0.021219
  0.024921
 -0.027353
 -0.024764
 -0.008175
 -0.036363
 -0.042088
 -0.055277
  0.024470
  0.005434
  0.004529
 -0.013282
 -0.008467
 -0.030711
 -0.048133
 -0.024726
  0.031471
  0.030677
  0.011989
  0.019015
  0.005440
 -0.025630
 -0.026879
  0.019096
 -0.007850
 -0.004011
 -0.008551
 -0.044015
 -0.001960
 -0.063307
 -0.003839
 -0.003284
 -0.009846
 -0.031627
 -0.016106
  0.013212
  0.016921
 -0.021527
 -0.035440
 -0.021285
 -0.002430
  0.018621
  0.008668
  0.017964
 -0.003390
  0.016438
  0.041465
  0.022171
 -0.015487
  0.043204
 -0.002020
 -0.016684
  0.009000
  0.011484
 -0.007480
  0.006167
 -0.012594
 -0.021882
 -0.005514
  0.000939
 -0.013667
  0.005208
  0.009300
 -0.018477
 -0.012863
  0.026871
  0.014015
  0.002297
  0.024321
  0.018110
  0.013293
 -0.048034
  0.000618
 -0.008787
  0.037718
 -0.014876
  0.003262
 -0.031833
  0.020653
 -0.009635
 -0.033526
  0.012047
 -0.011996
 -0.051965
  0.035094
 -0.002950
 -0.050891
  0.034362
 -0.017967
 -0.006475
 -0.015797
 -0.014047
  0.016183
 -0.029937
 -0.011236
 -0.006771
  0.016913
 -0.000170
  0.015483
 -0.046972
  0.018362
 -0.030896
 -0.022850
  0.001830
  0.015905
 -0.011230
  0.002831
  0.002512
 -0.020573
  0.010642
 -0.018042
  0.012122
 -0.021065
 -0.028060
 -0.017249
 -0.026933
 -0.014926
  0.018525
 -0.018798
  0.019903
 -0.035353
  0.015827
  0.016724
 -0.008857
  0.003683
  0.016913
 -0.053057
 -0.011875
  0.002864
 -0.037255
 -0.029428
 -0.022958
  0.035513
 -0.022215
 -0.008566
  0.013973
 -0.031267
 -0.031876
  0.003556
  0.014204
  0.033005
 -0.008499
 -0.017775
  0.011332
  0.059222
 -0.016590
 -0.005726
  0.036929
 -0.013827
  0.029621
  0.012093
 -0.005335
  0.003995
 -0.016182
  0.014702
 -0.023078
  0.008859
 -0.020653
  0.008514
 -0.017439
 -0.006044
 -0.004626
  0.006514
  0.006682
  0.011179
 -0.023715
 -0.014085
 -0.033759
 -0.000906
  0.014918
 -0.003141
 -0.019152
  0.033253
 -0.024335
 -0.020492
 -0.033343
  0.041811
 -0.067960
  0.011766
 -0.002153
  0.013895
 -0.027031
  0.007345
 -0.014434
 -0.004412
  0.034153
 -0.012853
  0.015854
 -0.011164
  0.012450
 -0.041688
  0.053796
 -0.036641
 -0.034312
  0.026626
 -0.019778
  0.021300
 -0.001479
 -0.003024
 -0.034246
 -0.002281
 -0.008713
  0.022469
  0.018696
  0.001249
  0.008717
 -0.011134
 -0.013082
 -0.002031
  0.002677
  0.004575
 -0.009339
  0.069511
 -0.006496
 -0.014050
  0.041327
 -0.027981
 -0.008747
  0.012593
  0.007443
  0.007246
 -0.036828
 -0.005604
  0.011264
 -0.011312
 -0.021921
 -0.028841
 -0.041424
  0.019168
  0.001688
  0.009712
  0.012044
 -0.036553
  0.002828
 -0.024975
 -0.023601
 -0.009319
 -0.010758
 -0.035515
  0.003197
 -0.015491
  0.033486
 -0.032390
  0.061593
  0.002164
  0.019634
  0.018682
 -0.003372
  0.017486
  0.006007
 -0.016066
 -0.022101
  0.031079
  0.026856
 -0.034001
  0.001764
  0.017434
 -0.031477
 -0.002719
 -0.005309
  0.007794
 -0.003903
 -0.003687
  0.032414
  0.000244
 -0.037505
  0.011462
  0.001866
 -0.026273
  0.004278
 -0.027771
 -0.002974
  0.010437
  0.009465
  0.008897
  0.019837
  0.035277
 -0.026715
  0.029455
  0.028175
  0.014580
 -0.000860
 -0.046988
  0.031357
  0.004008
  0.022074
  0.009864
 -0.020551
 -0.014872
 -0.011933
  0.007377
  0.004757
  0.011198
  0.001152
  0.013413
  0.029005
  0.024135
 -0.036315
  0.004954
  0.024406
  0.006160
 -0.033730
  0.033899
 -0.004241
 -0.007806
 -0.005152
  0.016065
 -0.012088
  0.020533
  0.004614
  0.027385
  0.006081
 -0.056855
  0.031380
 -0.005326
 -0.016855
  0.047571
 -0.033128
  0.025676
 -0.031925
 -0.010312
  0.011105
 -0.038025
 -0.027477
 -0.026506
 -0.026611
  0.016072
  0.012671
 -0.006031
  0.011570
 -0.016371
  0.009013
  0.020481
  0.007288
  0.006154
  0.018023
 -0.005617
 -0.033950
  0.010670
 -0.045446
  0.015098
 -0.023381
 -0.018869
  0.018144
 -0.009741
 -0.007612
 -0.018089
 -0.002612
  0.011023
  0.070598
  0.009659
 -0.015308
  0.006755
 -0.019760
 -0.010564
  0.018655
  0.017256
 -0.026310
 -0.028713
  0.008028
 -0.000823
  0.016265
 -0.001226
  0.018817
  0.013568
  0.040376
  0.014857
 -0.007449
 -0.022484
  0.026167
 -0.028029
  0.010363
 -0.036150
 -0.005160
 -0.010907
 -0.007193
  0.002017
 -0.040198
  0.022073
  0.001673
  0.040558
 -0.023600
 -0.018105
 -0.039996
 -0.035810
 -0.021268
  0.011066
 -0.029734
 -0.001850
  0.004267
 -0.008491
  0.018015
  0.001628
 -0.007761
  0.018580
  0.005604
  0.011772
  0.019421
  0.014832
 -0.002798
 -0.031358
  0.019436
  0.008694
  0.028990
  0.007115
 -0.077854
 -0.016342
 -0.011877
 -0.017787
  0.029624
  0.037377
  0.017065
 -0.038850
 -0.022538
 -0.013114
 -0.042560
  0.046631
 -0.004421
  0.012576
  0.008628
  0.022043
  0.032167
 -0.010598
  0.014301
 -0.018359
  0.044984
  0.031385
 -0.017722
  0.009260
 -0.027621
 -0.008789
 -0.020800
  0.012237
  0.052343
 -0.000095
  0.067121
  0.031066
 -0.009862
  0.067671
 -0.027044
 -0.022167
  0.013165
 -0.025449
  0.012552
 -0.014083
 -0.011022
 -0.004655
  0.027163
  0.027799
 -0.020514
 -0.021461
  0.005692
  0.024383
 -0.021006
 -0.003779
  0.011285
 -0.011034
  0.026835
  0.034922
  0.007844
 -0.002139
 -0.000481
 -0.037647
 -0.039777
  0.020750
 -0.000777
  0.020703
 -0.022315
  0.003293
  0.000717
  0.000549
  0.047448
  0.000462
  0.026898
  0.032451
 -0.001420
  0.019843
 -0.003276
 -0.006749
  0.016034
  0.036317
  0.025516
 -0.029285
 -0.055763
 -0.014017
  0.047385
 -0.021769
 -0.044606
 -0.022651
 -0.013237
  0.037211
 -0.022470
  0.000451
  0.027752
  0.030765
  0.005517
 -0.008215
 -0.010835
 -0.000786
 -0.044354
  0.003365
 -0.031217
  0.005345
  0.024031
 -0.004446
  0.021523
  0.005054
  0.006532
 -0.025839
 -0.027478
 -0.007480
 -0.003035
 -0.044437
 -0.014558
  0.001513
  0.007272
  0.038833
 -0.031043
  0.005192
  0.010488
 -0.046631
 -0.024083
 -0.010551
 -0.014539
  0.010814
  0.016232
 -0.029430
 -0.023344
  0.016977
 -0.001633
  0.026029
  0.025084
  0.017747
 -0.024702
 -0.015975
  0.038834
 -0.078741
  0.042522
  0.042719
 -0.006799
 -0.016163
 -0.014485
 -0.037776
  0.019408
 -0.033352
  0.004912
 -0.015099
  0.042631
  0.036699
  0.006396
 -0.026733
 -0.041018
  0.044054
 -0.009903
 -0.057717
 -0.016768
  0.026740
  0.014506
  0.021758
  0.017263
 -0.006783
 -0.009246
  0.000938
 -0.003208
 -0.018367
  0.021593
  0.041164
  0.042642
 -0.014729
 -0.004966
 -0.016859
 -0.008449
  0.017471
 -0.004139
  0.018933
  0.062010
 -0.013876
  0.003763
  0.000477
 -0.047076
 -0.026096
  0.030891
 -0.010042
  0.010050
 -0.012314
  0.022433
  0.025141
  0.054873
  0.022062
  0.023002
 -0.005276
 -0.021574
  0.030221
 -0.000938
 -0.005074
 -0.021764
 -0.043365
 -0.041318
 -0.031849
 -0.008250
  0.015830
 -0.020107
 -0.014831
  0.003887
  0.009728
  0.013018
  0.002057
 -0.005117
 -0.014677
 -0.026051
  0.026526
 -0.049612
 -0.032252
  0.034244
  0.013751
  0.032476
 -0.005575
  0.013795
  0.013091
  0.023774
  0.003127
 -0.022480
 -0.006442
 -0.009266
  0.012974
 -0.003787
 -0.005926
 -0.043212
  0.005010
 -0.004403
  0.006186
 -0.005723
  0.021418
 -0.002499
 -0.011799
  0.032059
  0.038760
  0.027907
 -0.020203
 -0.037698
  0.036850
 -0.003620
  0.045541
 -0.009264
  0.017061
  0.061081
 -0.016574
  0.022286
  0.010764
  0.013314
  0.047897
  0.003694
  0.013792
 -0.000531
 -0.007244
 -0.037377
  0.014085
 -0.009904
 -0.002411
  0.022868
 -0.035794
 -0.038291
 -0.015773
 -0.011275
  0.041143
 -0.026333
  0.027649
  0.004713
 -0.019441
 -0.025025
 -0.002432
 -0.043907
 -0.003776
 -0.043509
  0.019886
 -0.022265
  0.031326
  0.030699
  0.025973
 -0.019477
 -0.010835
 -0.071809
 -0.018717
 -0.003250
  0.072617
  0.026941
  0.006562
  0.045717
 -0.032613
 -0.025385
 -0.041821
  0.010202
  0.027721
 -0.025724
  0.014937
 -0.009565
 -0.003905
  0.017009
 -0.011421
 -0.001124
 -0.031256
  0.016735
 -0.025033
 -0.025536
 -0.073093
  0.033025
  0.081153
  0.021747
  0.020406
  0.008923
 -0.030938
  0.001961
  0.022261
 -0.033200
  0.030942
  0.033347
  0.036324
 -0.014981
 -0.025359
  0.006947
 -0.012798
 -0.028766
  0.001687
  0.006607
 -0.037540
  0.000070
 -0.014537
  0.004154
 -0.078251
  0.003262
 -0.025831
  0.020318
  0.052075
 -0.010163
  0.028773
 -0.040346
 -0.020251
  0.033554
  0.038623
 -0.012511
  0.029908
 -0.045532
 -0.012384
 -0.035820
  0.006793
 -0.028102
  0.009154
  0.002869
 -0.002946
 -0.016165
 -0.025816
  0.054314
 -0.042085
  0.002526
  0.031274
  0.005906
  0.039641
 -0.033997
 -0.021178
 -0.025024
 -0.000649
  0.038546
  0.045492
 -0.001616
  0.001305
 -0.035350
 -0.025659
 -0.034394
  0.034925
  0.022081
  0.050565
  0.017611
  0.033741
 -0.011905
  0.020154
  0.002858
  0.018199
  0.038140
 -0.027550
  0.019820
 -0.004632
 -0.007904
  0.018677
  0.008035
 -0.032379
  0.034580
 -0.013408
  0.009138
 -0.011923
  0.012385
  0.029731
 -0.037993
 -0.028596
 -0.015744
 -0.007743
 -0.008576
  0.007767
 -0.039091
 -0.032280
  0.001465
 -0.015348
  0.016742
  0.003847
 -0.013336
 -0.014783
 -0.000581
  0.072065
 -0.004154
  0.012284
 -0.016909
  0.027442
  0.014318
  0.015235
  0.004639
  0.016570
 -0.007575
 -0.011326
  0.029666
  0.050326
  0.001802
  0.007649
  0.047027
  0.064206
  0.043183
 -0.002250
 -0.001243
  0.014304
  0.018416
 -0.042561
 -0.033308
 -0.009667
  0.037516
  0.026693
 -0.003984
  0.021622
 -0.020859
 -0.011047
 -0.034275
 -0.011110
  0.025298
  0.060681
  0.003684
  0.036306
 -0.037718
  0.019630
 -0.031641
 -0.056713
  0.027967
  0.043350
 -0.034847
  0.034084
  0.018595
 -0.055352
 -0.018758
 -0.012195
  0.019566
 -0.046025
  0.048543
 -0.008155
 -0.042000
  0.008293
 -0.019566
 -0.029144
  0.012066
  0.039283
 -0.004579
 -0.016855
 -0.031585
 -0.026847
 -0.006690
 -0.000275
 -0.001150
 -0.001659
  0.019239
 -0.013713
 -0.003655
  0.016867
  0.011803
  0.050750
  0.026900
 -0.027138
 -0.030357
  0.045263
 -0.002681
 -0.011576
  0.052624
 -0.038442
 -0.006107
 -0.007885
  0.004078
  0.003476
 -0.011815
 -0.010163
  0.013515
 -0.039306
 -0.013966
 -0.088356
  0.024889
 -0.018941
  0.034902
  0.037936
 -0.038408
  0.027557
 -0.036076
 -0.039370
  0.030918
  0.064616
 -0.039160
 -0.041612
 -0.016433
  0.052542
 -0.001900
 -0.000942
 -0.010250
 -0.008226
 -0.013591
 -0.019909
  0.008027
  0.010967
  0.010669
  0.014920
  0.002108
 -0.004139
  0.018898
 -0.016540
 -0.010930
  0.016014
  0.022930
  0.032237
 -0.011970
 -0.024319
  0.042556
 -0.080935
  0.027522
  0.024826
 -0.010678
 -0.028949
 -0.021793
 -0.051631
  0.022794
  0.006543
  0.008271
  0.013832
  0.004052
 -0.040986
  0.029550
 -0.024864
 -0.045740
 -0.027904
  0.032815
  0.005600
  0.024078
 -0.006447
  0.027093
 -0.000145
 -0.013318
 -0.037685
  0.020037
 -0.004074
  0.005767
  0.015916
 -0.018183
 -0.029407
 -0.035828
  0.018855
  0.008971
 -0.000207
  0.007649
 -0.000985
  0.047516
 -0.013537
 -0.064951
  0.014602
 -0.012548
  0.016561
 -0.003534
 -0.017595
  0.060227
  0.027754
  0.053657
 -0.005871
 -0.007353
  0.006686
  0.004269
  0.001045
 -0.011133
 -0.004434
 -0.003598
  0.070460
  0.024127
 -0.016463
 -0.041850
 -0.012659
 -0.004395
  0.023860
 -0.035542
 -0.032490
  0.012221
  0.005840
  0.006506
  0.078131
 -0.052010
  0.008225
  0.008266
 -0.043142
 -0.009918
  0.042073
  0.022588
  0.006594
 -0.047128
 -0.028734
 -0.008104
 -0.000458
 -0.014816
 -0.013101
  0.002903
 -0.064464
 -0.022352
 -0.005733
  0.001498
  0.034581
 -0.008294
  0.030435
 -0.001575
  0.023008
 -0.056435
 -0.050153
 -0.091757
 -0.020106
  0.023687
 -0.007452
  0.026709
 -0.032955
 -0.010347
 -0.040479
 -0.038583
 -0.011394
 -0.002027
  0.006282
 -0.032079
  0.011685
  0.001905
  0.020199
  0.049913
  0.001183
 -0.028385
 -0.038107
  0.009613
 -0.008770
 -0.030379
  0.010110
  0.034898
  0.035583
  0.030858
  0.032035
  0.028642
 -0.008225
  0.037298
 -0.003196
 -0.009514
 -0.017091
 -0.011295
  0.017401
 -0.029131
  0.041191
  0.038970
  0.020427
 -0.000423
 -0.014735
 -0.017443
 -0.011972
 -0.003244
 -0.032373
 -0.070928
  0.030022
 -0.012919
  0.030199
  0.004741
  0.004987
  0.013372
  0.007202
 -0.000639
  0.017859
  0.015281
  0.033189
  0.018102
 -0.014721
  0.027544
 -0.037655
  0.027107
  0.005047
  0.029781
 -0.007469
 -0.045437
  0.017742
 -0.015958
  0.032584
 -0.036537
  0.025693
 -0.029668
 -0.009928
  0.031847
  0.016663
  0.016829
 -0.036329
 -0.023304
  0.009487
 -0.035717
  0.048099
  0.024159
 -0.021057
 -0.024623
  0.000327
 -0.007600
 -0.008755
 -0.032393
  0.019307
 -0.003255
  0.014592
 -0.000834
 -0.000353
  0.039765
 -0.006268
  0.005770
 -0.031422
 -0.035428
  0.010354
 -0.001930
  0.017671
 -0.024664
  0.027511
  0.023417
 -0.016763
  0.002252
 -0.005823
  0.005204
 -0.011500
 -0.012655
  0.024325
  0.008441
 -0.014532
  0.019024
 -0.022640
 -0.020643
 -0.019200
 -0.029331
  0.010112
  0.023490
 -0.036224
  0.045936
  0.006862
  0.012518
  0.001119
  0.035007
  0.006765
 -0.013948
  0.012672
  0.018942
  0.008859
 -0.053233
  0.002800
  0.031826
  0.019996
 -0.047801
  0.013854
  0.019162
  0.039888
  0.023767
 -0.020885
 -0.007479
 -0.027936
  0.015945
  0.016607
 -0.056394
 -0.028893
  0.019298
 -0.024871
  0.011986
  0.059126
 -0.004964
 -0.018657
  0.020422
  0.027237
 -0.003070
 -0.036719
 -0.018654
  0.006577
 -0.003262
  0.022570
  0.012930
 -0.014835
 -0.018957
  0.012081
  0.011672
 -0.027757
  0.003015
 -0.015590
 -0.003355
  0.003032
 -0.019665
 -0.021307
 -0.009968
  0.025214
  0.008107
  0.010837
 -0.008838
 -0.002680
  0.012434
  0.012104
 -0.010517
  0.001249
  0.004282
  0.000566
  0.010449
  0.038015
 -0.019288
  0.010218
 -0.011406
  0.001688
  0.018422
  0.072093
 -0.045590
  0.034675
 -0.002739
  0.004251
 -0.040846
 -0.036995
  0.033052
  0.026667
 -0.016679
  0.006685
  0.026219
  0.005440
  0.019267
  0.013894
  0.053647
  0.013738
  0.039491
 -0.021510
 -0.009702
 -0.002697
 -0.032656
  0.010838
  0.007253
 -0.003302
 -0.041986
  0.033827
  0.014021
 -0.075871
  0.014550
  0.039515
 -0.002427
 -0.024000
 -0.037232
  0.008531
 -0.012627
  0.010656
 -0.012175
 -0.014862
  0.050585
 -0.038123
 -0.000575
  0.047217
  0.047806
  0.037853
  0.015390
  0.020024
  0.042985
 -0.033388
  0.002366
  0.005253
 -0.054712
  0.013684
  0.017162
  0.012451
 -0.035364
 -0.010925
  0.037510
  0.026458
 -0.022748
  0.037011
  0.006623
  0.011765
  0.004471
  0.017863
 -0.019290
  0.008544
 -0.016698
 -0.009867
  0.003208
  0.032553
  0.013566
  0.013314
  0.033458
 -0.008768
 -0.010907
 -0.018707
  0.028043
 -0.014175
  0.009875
 -0.005228
 -0.017788
 -0.025052
  0.000408
  0.029302
  0.042499
 -0.033390
 -0.000227
 -0.016343
 -0.013972
  0.002479
 -0.033582
  0.019084
 -0.004544
  0.017971
 -0.031184
 -0.033056
 -0.012468
  0.042896
 -0.004451
  0.027638
  0.013854
 -0.025904
 -0.044021
 -0.008845
  0.004014
  0.003692
  0.009436
 -0.017230
 -0.022976
 -0.012826
 -0.004425
 -0.007714
  0.046812
  0.024970
  0.001957
 -0.002634
 -0.023246
  0.030232
 -0.051983
  0.043787
 -0.028676
  0.036368
 -0.029269
 -0.002074
  0.002942
  0.018302
 -0.030248
  0.021409
 -0.001684
  0.006213
 -0.001431
 -0.020994
  0.008780
  0.029982
  0.011329
  0.011718
  0.010106
  0.005092
 -0.017635
  0.031292
 -0.013308
 -0.002087
 -0.032217
 -0.018386
  0.013227
 -0.042808
  0.007487
 -0.018580
  0.000156
  0.003241
  0.013834
  0.042290
  0.028466
  0.001151
 -0.017012
 -0.000044
 -0.043265
  0.026775
  0.015815
  0.006373
 -0.019709
  0.012828
  0.008233
 -0.038414
  0.026879
 -0.063188
 -0.020932
 -0.004560
  0.016732
 -0.002992
  0.030582
  0.007772
 -0.006343
  0.023786
  0.025690
  0.027616
 -0.037077
 -0.014374
  0.038165
 -0.066296
 -0.011048
 -0.031097
  0.008114
 -0.051247
 -0.026868
 -0.029257
  0.033565
 -0.046599
  0.007934
 -0.026074
  0.009999
 -0.040430
 -0.016967
  0.029682
  0.001250
 -0.017493
 -0.013553
  0.043260
 -0.025787
 -0.029645
 -0.017432
 -0.003510
 -0.025186
 -0.016335
 -0.007619
 -0.012036
  0.018509
  0.005302
 -0.033320
  0.012263
  0.034376
  0.011513
 -0.002846
 -0.009358
 -0.027612
  0.005369
  0.000239
 -0.017131
  0.008181
  0.040276
  0.021907
 -0.026900
  0.024809
 -0.017929
  0.025698
  0.001039
  0.003476
 -0.021205
 -0.019513
  0.027918
 -0.014217
 -0.018589
 -0.008465
  0.005961
 -0.009907
 -0.015774
  0.002141
  0.012696
 -0.010723
 -0.042211
 -0.052657
  0.024314
 -0.042898
  0.030260
  0.023444
  0.006770
  0.015782
 -0.014907
 -0.024777
  0.014552
 -0.025246
 -0.000743
 -0.037049
  0.058902
  0.040870
 -0.014617
 -0.001089
 -0.016371
 -0.038996
  0.060176
  0.029189
 -0.001449
  0.029035
  0.011014
 -0.007535
  0.021706
 -0.020931
 -0.039394
 -0.049069
 -0.005886
 -0.048344
 -0.030333
 -0.026168
  0.025452
  0.002706
 -0.003503
  0.009250
  0.048890
  0.000057
  0.039637
  0.032168
 -0.011369
 -0.005132
 -0.016245
 -0.031650
  0.003012
 -0.020164
 -0.016121
  0.015803
  0.011192
  0.055017
  0.022766
  0.008391
 -0.054620
  0.002747
  0.009735
  0.013119
  0.011616
  0.016310
  0.018511
  0.023018
  0.022626
  0.038223
  0.016168
 -0.017969
 -0.024695
  0.000162
  0.001509
  0.009475
  0.026636
  0.002250
  0.013409
  0.008659
  0.000607
  0.015668
 -0.026381
 -0.003242
  0.028832
 -0.023771
  0.046724
 -0.018281
 -0.047708
 -0.004057
  0.018199
  0.021540
 -0.022776
 -0.043595
  0.026620
  0.000955
  0.001279
  0.008001
  0.016670
 -0.020931
  0.016666
  0.022496
  0.018799
 -0.026225
 -0.017960
  0.004053
  0.016604
 -0.007141
  0.026429
 -0.001544
  0.029735
  0.015352
 -0.003538
 -0.045344
 -0.020573
 -0.073195
 -0.022906
 -0.006703
 -0.003919
 -0.024040
 -0.012539
 -0.007406
 -0.051664
  0.021614
  0.003788
 -0.013463
  0.037505
  0.014556
  0.044490
  0.054357
 -0.045430
 -0.033775
  0.009916
 -0.016063
  0.017771
  0.006093
  0.043088
  0.008545
 -0.016145
 -0.005462
  0.002031
 -0.009360
  0.002970
  0.037796
 -0.018957
 -0.024842
  0.051603
  0.002715
 -0.014049
  0.001505
  0.009801
  0.020394
  0.029994
  0.005042
  0.023431
 -0.037204
  0.001531
  0.023794
  0.085100
 -0.006087
 -0.021913
  0.013666
  0.043339
  0.042993
 -0.006180
  0.012522
  0.010054
  0.004062
  0.074779
  0.005652
  0.007717
 -0.015269
 -0.033174
 -0.026534
  0.048895
  0.033977
  0.015553
  0.009400
 -0.007040
 -0.024961
  0.038346
  0.018824
  0.036567
 -0.003293
 -0.004812
 -0.027692
  0.039420
  0.025709
  0.027164
 -0.045309
  0.031784
 -0.058416
 -0.011005
  0.024124
  0.007976
  0.010663
 -0.029751
 -0.013713
 -0.007350
  0.009441
  0.017713
  0.011419
  0.058165
 -0.014310
 -0.000435
  0.043621
 -0.031543
 -0.007907
  0.026386
  0.044714
  0.016096
 -0.000662
 -0.009797
  0.012973
  0.013070
  0.044747
 -0.020877
  0.008980
  0.031396
 -0.065493
 -0.003350
  0.019542
  0.005025
  0.040066
 -0.026459
  0.029674
  0.012959
  0.056098
 -0.007823
  0.047265
 -0.027241
 -0.002634
  0.000733
 -0.014760
  0.009549
 -0.030405
 -0.028337
  0.012364
 -0.021038
  0.021862
  0.002370
  0.020943
 -0.018968
  0.078850
  0.021416
 -0.021204
 -0.006434
  0.004797
  0.013853
  0.033264
  0.050217
  0.026018
 -0.048366
  0.001479
  0.022598
  0.001076
 -0.034077
 -0.029565
 -0.002675
  0.015961
  0.053619
 -0.006949
 -0.004196
 -0.002637
 -0.029483
  0.000974
  0.033834
 -0.017350
 -0.009405
  0.079839
  0.022312
  0.014341
  0.001724
  0.026104
 -0.016511
  0.016343
 -0.005036
  0.006011
  0.029276
  0.045738
  0.015888
 -0.000007
  0.047853
  0.006831
  0.030428
  0.013654
  0.024532
  0.020124
 -0.012826
 -0.013019
  0.012324
 -0.048566
  0.033821
 -0.015047
  0.009675
 -0.006446
  0.027695
  0.016531
  0.032524
  0.013658
  0.004305
 -0.005118
 -0.010019
  0.027731
 -0.004351
  0.008408
  0.001467
 -0.017137
  0.019259
  0.031215
 -0.028336
 -0.014060
  0.022693
  0.003100
  0.022942
  0.007637
 -0.016409
 -0.000137
 -0.001747
  0.033347
  0.003758
  0.017365
  0.023800
  0.010015
 -0.006759
  0.039506
  0.012830
 -0.001719
  0.019466
  0.027788
 -0.025221
 -0.004096
 -0.018731
 -0.004436
  0.019983
  0.037785
  0.033350
  0.012668
 -0.010283
 -0.000965
 -0.007824
 -0.012356
  0.015168
  0.035548
 -0.017805
  0.035787
 -0.001801
 -0.002020
  0.040932
 -0.025296
 -0.005953
  0.027656
  0.054450
  0.012059
  0.025832
 -0.061669
  0.011333
  0.050559
  0.034917
  0.004334
 -0.008343
 -0.012548
  0.026953
 -0.011229
 -0.016577
 -0.008051
  0.022970
  0.024784
  0.005997
  0.024720
 -0.008865
  0.025810
  0.029345
  0.047327
 -0.016870
  0.023008
  0.001769
  0.002151
  0.028037
  0.004326
  0.065664
 -0.029134
  0.031775
 -0.004400
 -0.003851
  0.044028
  0.011203
 -0.011540
****
